[
  {
    "label": "0",
    "attribute": "0x00000000FF000000",
    "locale": {
      "EUde": "{{reaction type=\"Sighing\"}}Ich sehe keinen Ausweg{{pause frames=\"5\"}}.{{pause frames=\"5\"}}.{{pause frames=\"5\"}}.{{pause frames=\"15\"}}\nIch muss dich wohl belohnen.\n\nDu weißt schon, für {{gender m=\"den\" f=\"die\" n=\"das\"}} \n{{ignoreArticle}}{{itemName index=\"2\"}}.\n\nIch tue es ungern, aber\nbitte. Ich gebe dir {{gender m=\"meinen\" f=\"meine\" n=\"mein\"}}\n{{ignoreArticle}}{{itemName index=\"1\"}}.",
      "EUen": "{{reaction type=\"Sighing\"}}I can't see any other\nchoice{{pause frames=\"5\"}}.{{pause frames=\"5\"}}.{{pause frames=\"5\"}}.{{pause frames=\"15\"}}\nI have to reward you.\nYou know, for the\n{{ignoreArticle}}{{itemName index=\"2\"}}.\n\nI hate to do this,\nbut here. I'm giving you my\n{{ignoreArticle}}{{itemName index=\"1\"}}.",
      "EUes": "{{reaction type=\"Sighing\"}}No veo otra salida{{pause frames=\"5\"}}.{{pause frames=\"5\"}}.{{pause frames=\"5\"}}.{{pause frames=\"15\"}} Tengo\nque recompensarte por tu\n{{ignoreArticle}}{{itemName index=\"2\"}}.\nNo me gusta nada tener que\nhacerlo, pero te doy mi\n{{ignoreArticle}}{{itemName index=\"1\"}}.",
      "EUfr": "{{reaction type=\"Sighing\"}}Je ne vois pas d'autre\nsolution{{pause frames=\"5\"}}.{{pause frames=\"5\"}}.{{pause frames=\"5\"}}.{{pause frames=\"15\"}}\nJe dois te récompenser.\nTu sais, pour\n{{fun_0B}}{{itemName index=\"2\"}}.\n\nJe déteste devoir faire ça,\nmais tiens. Je te donne\n{{itemName index=\"1\"}}.",
      "EUit": "{{reaction type=\"Sighing\"}}Non ho scelta.\nEhm{{pause frames=\"5\"}}.{{pause frames=\"5\"}}.{{pause frames=\"5\"}}.{{pause frames=\"15\"}}\nDevo proprio ricompensarti.\nDico per {{gender m=\"quel bel\" f=\"quella bella\" n=\"\"}}\n{{ignoreArticle}}{{itemName index=\"2\"}}.\n\nNon vorrei farlo...\nma ecco a te. Ti do {{gender m=\"il mio\" f=\"la mia\" n=\"\"}}\n{{ignoreArticle}}{{itemName index=\"1\"}}.",
      "JPja": "{{reaction type=\"Sighing\"}}ふぅ{{pause frames=\"5\"}}・{{pause frames=\"5\"}}・{{pause frames=\"5\"}}・{{pause frames=\"15\"}}\n{{kanjiReplace charNum=\"2\" value=\"しかた\"}}仕方ありません{{pause frames=\"5\"}}・{{pause frames=\"5\"}}・{{pause frames=\"5\"}}・{{pause frames=\"5\"}}{{string value=\"Catchphrase\"}}\n\n{{itemName index=\"2\"}}を\nいただいた　お{{kanjiReplace charNum=\"1\" value=\"れい\"}}礼と{{pause frames=\"15\"}}\n{{kanjiReplace charNum=\"1\" value=\"ま\"}}負けた{{kanjiReplace charNum=\"2\" value=\"じぶん\"}}自分を　こらしめるため\nこの　{{itemName index=\"1\"}}を\nさしあげます、{{pause frames=\"5\"}}{{string value=\"Catchphrase\"}}",
      "KRko": "{{reaction type=\"Sighing\"}}휴우{{pause frames=\"5\"}}・{{pause frames=\"5\"}}・{{pause frames=\"5\"}}・{{pause frames=\"15\"}}\n할 수 없죠{{pause frames=\"5\"}}・{{pause frames=\"5\"}}・{{pause frames=\"5\"}}・{{pause frames=\"5\"}} {{string value=\"Catchphrase\"}}\n\n{{itemName index=\"2\"}}{{fun_0B arg=\"0x0200\"}}\n받은 감사의 마음과{{pause frames=\"15\"}}\n패배한 저를 채찍질하기 위해\n{{itemName index=\"1\"}}{{fun_0B arg=\"0x0200\"}}\n드릴게요， {{pause frames=\"5\"}}{{string value=\"Catchphrase\"}}",
      "USen": "{{reaction type=\"Sighing\"}}I can't see any other\nchoice{{pause frames=\"5\"}}.{{pause frames=\"5\"}}.{{pause frames=\"5\"}}.{{pause frames=\"15\"}}\nI have to reward you.\nYou know, for the\n{{ignoreArticle}}{{itemName index=\"2\"}}.\n\nI hate to do this,\nbut here. I'm giving you my\n{{ignoreArticle}}{{itemName index=\"1\"}}."
    }
  },
  {
    "label": "1",
    "attribute": "0x00000000FF000000",
    "locale": {
      "EUde": "{{resetReaction}}Ich habe heute etwas\ngelernt. Als Beweis meiner\nDankbarkeit{{pause frames=\"5\"}}.{{pause frames=\"5\"}}.{{pause frames=\"5\"}}.{{pause frames=\"5\"}}\n...bekommst du von mir\n{{gender m=\"diesen\" f=\"diese\" n=\"dieses\"}}\n{{ignoreArticle}}{{itemName index=\"1\"}}.",
      "EUen": "{{resetReaction}}I guess I've learned\nsomething here today. As a\ntoken of my thanks{{pause frames=\"5\"}}.{{pause frames=\"5\"}}.{{pause frames=\"5\"}}.{{pause frames=\"5\"}}\nI want you to have this\n{{ignoreArticle}}{{itemName index=\"1\"}}.",
      "EUes": "{{resetReaction}}Hoy he aprendido algo. Y en\nagradecimiento, te doy est{{gender m=\"e\" f=\"a\" n=\"\"}}\n{{ignoreArticle}}{{itemName index=\"1\"}}.",
      "EUfr": "{{resetReaction}}Je crois que j'ai appris\nquelque chose aujourd'hui.\n\nPour te remercier{{pause frames=\"5\"}}.{{pause frames=\"5\"}}.{{pause frames=\"5\"}}.{{pause frames=\"5\"}}\nje veux que tu aies\n{{itemName index=\"1\"}}.",
      "EUit": "{{resetReaction}}Oggi ho imparato una bella\nlezione da te. Per\nringraziarti{{pause frames=\"5\"}}.{{pause frames=\"5\"}}.{{pause frames=\"5\"}}.{{pause frames=\"5\"}}\nti prego di accettare\n{{gender m=\"il mio\" f=\"la mia\" n=\"\"}}\n{{ignoreArticle}}{{itemName index=\"1\"}}.",
      "JPja": "{{resetReaction}}{{pause frames=\"5\"}}・{{pause frames=\"5\"}}・{{pause frames=\"5\"}}・{{pause frames=\"5\"}}おけいこを　つけて\nいただいた　お{{kanjiReplace charNum=\"1\" value=\"れい\"}}礼に、\n\nどうか　この\n{{itemName index=\"1\"}}を\n{{kanjiReplace charNum=\"1\" value=\"う\"}}受け{{kanjiReplace charNum=\"1\" value=\"と\"}}取ってください、{{pause frames=\"5\"}}{{string value=\"Catchphrase\"}}",
      "KRko": "{{resetReaction}}{{pause frames=\"5\"}}・{{pause frames=\"5\"}}・{{pause frames=\"5\"}}・{{pause frames=\"5\"}}제 훈련 상대가\n되어 주셔서 감사합니다\n\n부디 이\n{{itemName index=\"1\"}}{{fun_0B arg=\"0x0200\"}}\n받아 주세요， {{pause frames=\"5\"}}{{string value=\"Catchphrase\"}}",
      "USen": "{{resetReaction}}I guess I've learned\nsomething here today. As a\ntoken of my thanks{{pause frames=\"5\"}}.{{pause frames=\"5\"}}.{{pause frames=\"5\"}}.{{pause frames=\"5\"}}\nI want you to have this\n{{ignoreArticle}}{{itemName index=\"1\"}}."
    }
  }
]