[
  {
    "label": "0",
    "attribute": "0x00000000FE000000",
    "locale": {
      "EUde": "{{reaction type=\"Intense\"}}Oh Mann, ich muss unter\ndie Dusche, {{pause frames=\"5\"}}{{string value=\"Catchphrase\"}}!\n\n{{reaction type=\"Amazed\"}}Wow!{{pause frames=\"15\"}} {{reaction type=\"Worry\"}}Ich bin ja gar nicht\nzu Hause{{pause frames=\"5\"}}.{{pause frames=\"5\"}}.{{pause frames=\"5\"}}.{{pause frames=\"5\"}}\nSorry, {{pause frames=\"5\"}}{{string value=\"Catchphrase\"}}!",
      "EUen": "{{reaction type=\"Intense\"}}Oh, man, I gotta hop in the\nshower, {{pause frames=\"5\"}}{{string value=\"Catchphrase\"}}!\n\n{{reaction type=\"Amazed\"}}Whoa!{{pause frames=\"15\"}} {{reaction type=\"Worry\"}}This isn't my place{{pause frames=\"5\"}}.{{pause frames=\"5\"}}.{{pause frames=\"5\"}}.{{pause frames=\"5\"}}\nSorry, {{pause frames=\"5\"}}{{string value=\"Catchphrase\"}}!",
      "EUes": "{{reaction type=\"Intense\"}}¡Necesito una ducha\nurgentemente, {{pause frames=\"5\"}}{{string value=\"Catchphrase\"}}!\n\n{{reaction type=\"Amazed\"}}¡Qué fallo!{{pause frames=\"15\"}} {{reaction type=\"Worry\"}}Esta no es mi\ncasa{{pause frames=\"5\"}}.{{pause frames=\"5\"}}.{{pause frames=\"5\"}}.{{pause frames=\"5\"}} ¡Perdón, {{pause frames=\"5\"}}{{string value=\"Catchphrase\"}}!",
      "EUfr": "{{reaction type=\"Intense\"}}Bon, faut que j'aille me\ndoucher, {{pause frames=\"5\"}}{{string value=\"Catchphrase\"}}!\n\n{{reaction type=\"Amazed\"}}Waouh!{{pause frames=\"15\"}} {{reaction type=\"Worry\"}}C'est pas chez moi{{pause frames=\"5\"}}.{{pause frames=\"5\"}}.{{pause frames=\"5\"}}.{{pause frames=\"5\"}}\nPardon, {{pause frames=\"5\"}}{{string value=\"Catchphrase\"}}!",
      "EUit": "{{reaction type=\"Intense\"}}Oh, mi fiondo subito nella\ndoccia, {{pause frames=\"5\"}}{{string value=\"Catchphrase\"}}!\n\n{{reaction type=\"Amazed\"}}UH!{{pause frames=\"15\"}} {{reaction type=\"Worry\"}}Ma non è casa mia{{pause frames=\"5\"}}.{{pause frames=\"5\"}}.{{pause frames=\"5\"}}.{{pause frames=\"5\"}}\nScusa, {{pause frames=\"5\"}}{{string value=\"Catchphrase\"}}!",
      "JPja": "{{reaction type=\"Intense\"}}まずは　フロだー！\n{{pause frames=\"5\"}}{{string value=\"Catchphrase\"}}！\n\n{{reaction type=\"Amazed\"}}あっ！{{pause frames=\"15\"}}　{{reaction type=\"Worry\"}}いつものクセが{{pause frames=\"5\"}}・{{pause frames=\"5\"}}・{{pause frames=\"5\"}}・{{pause frames=\"5\"}}\nスマンスマン、{{pause frames=\"5\"}}{{string value=\"Catchphrase\"}}",
      "KRko": "{{reaction type=\"Intense\"}}목욕부터 할래ー！\n{{pause frames=\"5\"}}{{string value=\"Catchphrase\"}}！\n\n{{reaction type=\"Amazed\"}}앗！{{pause frames=\"15\"}} {{reaction type=\"Worry\"}}버릇 나왔다{{pause frames=\"5\"}}・{{pause frames=\"5\"}}・{{pause frames=\"5\"}}・{{pause frames=\"5\"}}\n미안 미안， {{pause frames=\"5\"}}{{string value=\"Catchphrase\"}}",
      "USen": "{{reaction type=\"Intense\"}}Oh, man, I gotta hop in the\nshower, {{pause frames=\"5\"}}{{string value=\"Catchphrase\"}}!\n\n{{reaction type=\"Amazed\"}}Whoa!{{pause frames=\"15\"}} {{reaction type=\"Worry\"}}This isn't my place{{pause frames=\"5\"}}.{{pause frames=\"5\"}}.{{pause frames=\"5\"}}.{{pause frames=\"5\"}}\nSorry, {{pause frames=\"5\"}}{{string value=\"Catchphrase\"}}!"
    }
  },
  {
    "label": "1",
    "attribute": "0x00000000FE000000",
    "locale": {
      "EUde": "{{reaction type=\"Happiness\"}}Ich bin ZU HAUSE,\n{{pause frames=\"5\"}}{{string value=\"Catchphrase\"}}!\n\n{{reaction type=\"Amazed\"}}Wow! {{pause frames=\"5\"}}Das ist NICHT mein\nHaus!{{pause frames=\"15\"}} {{reaction type=\"Distress\"}}Tut mir leid.\nVerwechselt, {{pause frames=\"5\"}}{{string value=\"Catchphrase\"}}!",
      "EUen": "{{reaction type=\"Happiness\"}}I'm HOME, {{pause frames=\"5\"}}{{string value=\"Catchphrase\"}}!\n\n\n{{reaction type=\"Amazed\"}}Whoa! {{pause frames=\"5\"}}This is NOT my house!{{pause frames=\"15\"}}\n{{reaction type=\"Distress\"}}Sorry, that was a little\nweird, {{pause frames=\"5\"}}{{string value=\"Catchphrase\"}}!",
      "EUes": "{{reaction type=\"Happiness\"}}¡Hogar, dulce hogar!\n{{pause frames=\"5\"}}¡{{capitalizeLetter}}{{string value=\"Catchphrase\"}}!\n\n{{reaction type=\"Amazed\"}}¡Un momento! {{pause frames=\"5\"}}¡Si esta no es\nmi casa!{{pause frames=\"15\"}} {{reaction type=\"Distress\"}}Si es que estoy\nempanado, {{pause frames=\"5\"}}¡{{string value=\"Catchphrase\"}}!",
      "EUfr": "{{reaction type=\"Happiness\"}}Je suis à la maison,\n{{pause frames=\"5\"}}{{string value=\"Catchphrase\"}}!\n\n{{reaction type=\"Amazed\"}}Waouh! {{pause frames=\"5\"}}Mais c'est pas chez\nmoi!{{pause frames=\"15\"}} {{reaction type=\"Distress\"}}Pardon, t'as dû trouver\nça bizarre, {{pause frames=\"5\"}}{{string value=\"Catchphrase\"}}!",
      "EUit": "{{reaction type=\"Happiness\"}}Finalmente a CASA,\n{{pause frames=\"5\"}}{{string value=\"Catchphrase\"}}!\n\n{{reaction type=\"Amazed\"}}Ehi! {{pause frames=\"5\"}}Ma non è casa MIA!{{pause frames=\"15\"}}\n{{reaction type=\"Distress\"}}Scusa, mi sono sbagliato,\n{{pause frames=\"5\"}}{{string value=\"Catchphrase\"}}!",
      "JPja": "{{reaction type=\"Happiness\"}}ただいまー{{pause frames=\"5\"}}ー{{pause frames=\"5\"}}ー！\n{{pause frames=\"5\"}}{{string value=\"Catchphrase\"}}！\n\n{{reaction type=\"Amazed\"}}あっ！{{pause frames=\"15\"}}　{{reaction type=\"Distress\"}}コーフンして\nまちがえちゃった！　{{pause frames=\"5\"}}{{string value=\"Catchphrase\"}}！",
      "KRko": "{{reaction type=\"Happiness\"}}다녀왔습니다ー{{pause frames=\"5\"}}ー{{pause frames=\"5\"}}ー！\n{{pause frames=\"5\"}}{{string value=\"Catchphrase\"}}！\n\n{{reaction type=\"Amazed\"}}앗！{{pause frames=\"15\"}} {{reaction type=\"Distress\"}}미안\n이게 아니었어！ {{pause frames=\"5\"}}{{string value=\"Catchphrase\"}}！",
      "USen": "{{reaction type=\"Happiness\"}}I'm HOME, {{pause frames=\"5\"}}{{string value=\"Catchphrase\"}}!\n\n\n{{reaction type=\"Amazed\"}}Whoa! {{pause frames=\"5\"}}This is NOT my house!{{pause frames=\"15\"}}\n{{reaction type=\"Distress\"}}Sorry, that was a little\nweird, {{pause frames=\"5\"}}{{string value=\"Catchphrase\"}}!"
    }
  },
  {
    "label": "2",
    "attribute": "0x00000000FE000000",
    "locale": {
      "EUde": "{{reaction type=\"Happiness\"}}Ich komme, {{pause frames=\"5\"}}{{string value=\"PlayerNickname\"}}!{{pause frames=\"5\"}}\nATTACKE, {{pause frames=\"5\"}}{{string value=\"Catchphrase\"}}!",
      "EUen": "{{reaction type=\"Happiness\"}}I'm coming in, {{pause frames=\"5\"}}{{string value=\"PlayerNickname\"}}!{{pause frames=\"5\"}}\nCHARGE, {{pause frames=\"5\"}}{{string value=\"Catchphrase\"}}!",
      "EUes": "{{reaction type=\"Happiness\"}}¡Voy, {{pause frames=\"5\"}}{{string value=\"PlayerNickname\"}}!{{pause frames=\"5\"}} ¡A la\ncarga, {{pause frames=\"5\"}}{{string value=\"Catchphrase\"}}!",
      "EUfr": "{{reaction type=\"Happiness\"}}Attention j'arrive,\n{{pause frames=\"5\"}}{{string value=\"PlayerNickname\"}}!{{pause frames=\"5\"}}\nCHARGEZ, {{pause frames=\"5\"}}{{string value=\"Catchphrase\"}}!",
      "EUit": "{{reaction type=\"Happiness\"}}Mi accomodo, {{pause frames=\"5\"}}{{string value=\"PlayerNickname\"}}!{{pause frames=\"5\"}}\nCARICAAA, {{pause frames=\"5\"}}{{string value=\"Catchphrase\"}}!",
      "JPja": "{{reaction type=\"Happiness\"}}あがるぞ、{{color id=\"5\"}}{{pause frames=\"5\"}}{{string value=\"PlayerNickname\"}}ー{{color id=\"0\"}}！！\n{{pause frames=\"5\"}}{{string value=\"Catchphrase\"}}！",
      "KRko": "{{reaction type=\"Happiness\"}}들어간다， {{pause frames=\"5\"}}{{color id=\"5\"}}{{string value=\"PlayerNickname\"}}ー{{color id=\"0\"}}！！\n{{pause frames=\"5\"}}{{string value=\"Catchphrase\"}}！",
      "USen": "{{reaction type=\"Happiness\"}}I'm coming in, {{pause frames=\"5\"}}{{string value=\"PlayerNickname\"}}!{{pause frames=\"5\"}}\nCHARGE, {{pause frames=\"5\"}}{{string value=\"Catchphrase\"}}!"
    }
  }
]