[
  {
    "label": "00",
    "attribute": "0x00000000FE000000",
    "locale": {
      "EUde": "{{reaction type=\"Fearful\"}}N-Nur noch d-diese eine\nNacht{{pause frames=\"5\"}}.{{pause frames=\"5\"}}.{{pause frames=\"5\"}}.{{pause frames=\"5\"}} Wenn ich d-die\nüberstanden habe{{pause frames=\"5\"}}.{{pause frames=\"5\"}}.{{pause frames=\"5\"}}.",
      "EUen": "{{reaction type=\"Fearful\"}}T-tonight is crucial{{pause frames=\"5\"}}.{{pause frames=\"5\"}}.{{pause frames=\"5\"}}.{{pause frames=\"5\"}}\nJust g-gotta make it one\nm-more night{{pause frames=\"5\"}}.{{pause frames=\"5\"}}.{{pause frames=\"5\"}}.",
      "EUes": "{{reaction type=\"Fearful\"}}Esta noche es crucial{{pause frames=\"5\"}}.{{pause frames=\"5\"}}.{{pause frames=\"5\"}}.{{pause frames=\"5\"}}\nSolo tengo que sobrevivir\nuna noche más{{pause frames=\"5\"}}.{{pause frames=\"5\"}}.{{pause frames=\"5\"}}.",
      "EUfr": "{{reaction type=\"Fearful\"}}Cette nuit sera cruciale{{pause frames=\"5\"}}.{{pause frames=\"5\"}}.{{pause frames=\"5\"}}.{{pause frames=\"5\"}}\nIl faut que tu tiennes\nencore une nuit{{pause frames=\"5\"}}.{{pause frames=\"5\"}}.{{pause frames=\"5\"}}.",
      "EUit": "{{reaction type=\"Fearful\"}}Devo superare questa\nnotte{{pause frames=\"5\"}}.{{pause frames=\"5\"}}.{{pause frames=\"5\"}}.{{pause frames=\"5\"}}\nDevo resistere{{pause frames=\"5\"}}.{{pause frames=\"5\"}}.{{pause frames=\"5\"}}.",
      "JPja": "{{reaction type=\"Fearful\"}}{{kanjiReplace charNum=\"2\" value=\"こんや\"}}今夜が　とうげかも{{pause frames=\"5\"}}・{{pause frames=\"5\"}}・{{pause frames=\"5\"}}・",
      "KRko": "{{reaction type=\"Fearful\"}}오늘밤이 고비야{{pause frames=\"5\"}}・{{pause frames=\"5\"}}・{{pause frames=\"5\"}}・",
      "USen": "{{reaction type=\"Fearful\"}}T-tonight is crucial{{pause frames=\"5\"}}.{{pause frames=\"5\"}}.{{pause frames=\"5\"}}.{{pause frames=\"5\"}}\nJust g-gotta make it one\nm-more night{{pause frames=\"5\"}}.{{pause frames=\"5\"}}.{{pause frames=\"5\"}}."
    }
  },
  {
    "label": "01",
    "attribute": "0x00000000FE000000",
    "locale": {
      "EUde": "{{reaction type=\"Fearful\"}}{{pause frames=\"5\"}}.{{pause frames=\"5\"}}.{{pause frames=\"5\"}}.{{pause frames=\"5\"}}Mir ist total schwummrig\nzumute{{pause frames=\"5\"}}.{{pause frames=\"5\"}}.{{pause frames=\"5\"}}.{{pause frames=\"5\"}} {{resetReaction}}{{reaction type=\"Shocked\"}}RÜLPS!!!{{pause frames=\"15\"}} {{resetReaction}}{{reaction type=\"Worry\"}}Ist mir\nschlecht... {{pause frames=\"5\"}}{{capitalizeLetter}}{{string value=\"Catchphrase\"}}.",
      "EUen": "{{reaction type=\"Fearful\"}}{{pause frames=\"5\"}}.{{pause frames=\"5\"}}.{{pause frames=\"5\"}}.{{pause frames=\"5\"}}I'm feeling all groggy{{pause frames=\"5\"}}.{{pause frames=\"5\"}}.{{pause frames=\"5\"}}.{{pause frames=\"5\"}}\n{{resetReaction}}{{reaction type=\"Shocked\"}}Urp!!{{pause frames=\"15\"}} {{resetReaction}}{{reaction type=\"Worry\"}}Oh, this isn't g-gonna\nend well, {{pause frames=\"5\"}}{{string value=\"Catchphrase\"}}.",
      "EUes": "{{reaction type=\"Fearful\"}}Mm{{pause frames=\"5\"}}.{{pause frames=\"5\"}}.{{pause frames=\"5\"}}.{{pause frames=\"5\"}} Me siento fatal{{pause frames=\"5\"}}.{{pause frames=\"5\"}}.{{pause frames=\"5\"}}.{{pause frames=\"5\"}}\n{{resetReaction}}{{reaction type=\"Shocked\"}}¡¡Huy!!{{pause frames=\"15\"}} {{resetReaction}}{{reaction type=\"Worry\"}}¡Ay, qué malita estoy\ny qué poco me quejo!",
      "EUfr": "{{reaction type=\"Fearful\"}}{{pause frames=\"5\"}}.{{pause frames=\"5\"}}.{{pause frames=\"5\"}}.{{pause frames=\"5\"}} Je me sens groggy{{pause frames=\"5\"}}.{{pause frames=\"5\"}}.{{pause frames=\"5\"}}.{{pause frames=\"5\"}}\n{{resetReaction}}{{reaction type=\"Shocked\"}}Ouh!!{{pause frames=\"15\"}} {{resetReaction}}{{reaction type=\"Worry\"}}Oh, ça risque de mal\nse finir, {{pause frames=\"5\"}}{{string value=\"Catchphrase\"}}.",
      "EUit": "{{reaction type=\"Fearful\"}}{{pause frames=\"5\"}}.{{pause frames=\"5\"}}.{{pause frames=\"5\"}}.{{pause frames=\"5\"}} Mi sento intontita{{pause frames=\"5\"}}.{{pause frames=\"5\"}}.{{pause frames=\"5\"}}.{{pause frames=\"5\"}}\n{{resetReaction}}{{reaction type=\"Shocked\"}}Urp!!!{{pause frames=\"15\"}} {{resetReaction}}{{reaction type=\"Worry\"}}Oh, ho paura di non\nfarcela, {{pause frames=\"5\"}}{{string value=\"Catchphrase\"}}.",
      "JPja": "{{reaction type=\"Fearful\"}}いしき　もうろう{{pause frames=\"5\"}}・{{pause frames=\"5\"}}・{{pause frames=\"5\"}}・{{pause frames=\"5\"}}",
      "KRko": "{{reaction type=\"Fearful\"}}의식이 몽롱해{{pause frames=\"5\"}}・{{pause frames=\"5\"}}・{{pause frames=\"5\"}}・{{pause frames=\"5\"}}",
      "USen": "{{reaction type=\"Fearful\"}}{{pause frames=\"5\"}}.{{pause frames=\"5\"}}.{{pause frames=\"5\"}}.{{pause frames=\"5\"}}I'm feeling all groggy{{pause frames=\"5\"}}.{{pause frames=\"5\"}}.{{pause frames=\"5\"}}.{{pause frames=\"5\"}}\n{{resetReaction}}{{reaction type=\"Shocked\"}}Urp!!{{pause frames=\"15\"}} {{resetReaction}}{{reaction type=\"Worry\"}}Oh, this isn't g-gonna\nend well, {{pause frames=\"5\"}}{{string value=\"Catchphrase\"}}."
    }
  },
  {
    "label": "02",
    "attribute": "0x00000000FE000000",
    "locale": {
      "EUde": "{{reaction type=\"Fearful\"}}{{capitalizeLetter}}{{color id=\"6\"}}{{string value=\"VillagerName\"}}{{color id=\"0\"}}!{{pause frames=\"5\"}} Sei jetzt\nnicht so träge!{{pause frames=\"10\"}} Los!{{pause frames=\"15\"}}{{reaction type=\"Distress\"}}\nIch bin am TIEFPUNKT!",
      "EUen": "{{reaction type=\"Fearful\"}}OK, {{color id=\"6\"}}{{string value=\"VillagerName\"}}{{color id=\"0\"}},{{pause frames=\"5\"}} stop being\ntotally lame right now!{{pause frames=\"10\"}}\nPerk up! {{pause frames=\"15\"}}{{reaction type=\"Distress\"}}This is the WORST!",
      "EUes": "{{reaction type=\"Fearful\"}}¡Bueno, {{color id=\"6\"}}{{string value=\"VillagerName\"}}{{color id=\"0\"}},{{pause frames=\"5\"}} déjate\nde tonterías ya mismo!{{pause frames=\"10\"}}\n¡Cúrate! {{pause frames=\"15\"}}{{reaction type=\"Distress\"}}¡Ay, qué FATAL!",
      "EUfr": "{{reaction type=\"Fearful\"}}Ok, {{color id=\"6\"}}{{string value=\"VillagerName\"}}{{color id=\"0\"}},{{pause frames=\"5\"}} arrête de\nte comporter comme ça!{{pause frames=\"10\"}}\nReprends-toi! {{pause frames=\"15\"}}{{reaction type=\"Distress\"}}Ça va mal!",
      "EUit": "{{reaction type=\"Fearful\"}}OK, {{color id=\"6\"}}{{string value=\"VillagerName\"}}{{color id=\"0\"}},{{pause frames=\"5\"}} smettila di\nlagnarti!{{pause frames=\"10\"}} Tirati su!\n{{pause frames=\"15\"}}{{reaction type=\"Distress\"}}Questa è la fase PEGGIORE!",
      "JPja": "{{reaction type=\"Fearful\"}}{{string value=\"VillagerName\"}}、{{pause frames=\"5\"}}\n{{kanjiReplace charNum=\"2\" value=\"じんせい\"}}人生{{kanjiReplace charNum=\"2\" value=\"さいだい\"}}最大の\nピンチ{{pause frames=\"5\"}}・{{pause frames=\"5\"}}・{{pause frames=\"5\"}}・",
      "KRko": "{{reaction type=\"Fearful\"}}{{string value=\"VillagerName\"}}{{fun_0B arg=\"0x0400\"}}， {{pause frames=\"5\"}}\n인생 최대의\n위기 상황이야{{pause frames=\"5\"}}・{{pause frames=\"5\"}}・{{pause frames=\"5\"}}・",
      "USen": "{{reaction type=\"Fearful\"}}OK, {{color id=\"6\"}}{{string value=\"VillagerName\"}}{{color id=\"0\"}},{{pause frames=\"5\"}} stop being\ntotally lame right now!{{pause frames=\"10\"}}\nPerk up! {{pause frames=\"15\"}}{{reaction type=\"Distress\"}}This is the WORST!"
    }
  },
  {
    "label": "03",
    "attribute": "0x00000000FE000000",
    "locale": {
      "EUde": "{{reaction type=\"Fearful\"}}Uuuuh{{pause frames=\"5\"}}.{{pause frames=\"5\"}}.{{pause frames=\"5\"}}.{{pause frames=\"5\"}} Mein Kopf tut so\nweh{{pause frames=\"5\"}}.{{pause frames=\"5\"}}.{{pause frames=\"5\"}}.{{pause frames=\"5\"}} Als würden Gnome\nNägel reinschlagen{{pause frames=\"5\"}}.{{pause frames=\"5\"}}.{{pause frames=\"5\"}}.",
      "EUen": "{{reaction type=\"Fearful\"}}Mmmrrrpphh{{pause frames=\"5\"}}.{{pause frames=\"5\"}}.{{pause frames=\"5\"}}.{{pause frames=\"5\"}} Oh, my head\nhurts{{pause frames=\"5\"}}.{{pause frames=\"5\"}}.{{pause frames=\"5\"}}.{{pause frames=\"5\"}} I think gnomes are\nstickin' nails in there{{pause frames=\"5\"}}.{{pause frames=\"5\"}}.{{pause frames=\"5\"}}.",
      "EUes": "{{reaction type=\"Fearful\"}}Aaaay{{pause frames=\"5\"}}.{{pause frames=\"5\"}}.{{pause frames=\"5\"}}.{{pause frames=\"5\"}} Me duele mucho la\ncabeza{{pause frames=\"5\"}}.{{pause frames=\"5\"}}.{{pause frames=\"5\"}}.{{pause frames=\"5\"}} Creo que dentro\nhay gnomos con martillos{{pause frames=\"5\"}}.{{pause frames=\"5\"}}.{{pause frames=\"5\"}}.",
      "EUfr": "{{reaction type=\"Fearful\"}}Pffff{{pause frames=\"5\"}}.{{pause frames=\"5\"}}.{{pause frames=\"5\"}}.{{pause frames=\"5\"}} ma tête me fait\nmal{{pause frames=\"5\"}}.{{pause frames=\"5\"}}.{{pause frames=\"5\"}}.{{pause frames=\"5\"}} Comme si des gnomes\nme trituraient le cerveau{{pause frames=\"5\"}}.{{pause frames=\"5\"}}.{{pause frames=\"5\"}}.",
      "EUit": "{{reaction type=\"Fearful\"}}Mmmrrrpphh{{pause frames=\"5\"}}.{{pause frames=\"5\"}}.{{pause frames=\"5\"}}.{{pause frames=\"5\"}} Oh, la mia\ntesta{{pause frames=\"5\"}}.{{pause frames=\"5\"}}.{{pause frames=\"5\"}}.{{pause frames=\"5\"}} è come se degli\ngnomi la punzecchiassero{{pause frames=\"5\"}}.{{pause frames=\"5\"}}.{{pause frames=\"5\"}}.",
      "JPja": "{{reaction type=\"Fearful\"}}うーん　うーん{{pause frames=\"5\"}}・{{pause frames=\"5\"}}・{{pause frames=\"5\"}}・{{pause frames=\"5\"}}\n{{kanjiReplace charNum=\"1\" value=\"あたま\"}}頭イターい{{pause frames=\"5\"}}・{{pause frames=\"5\"}}・{{pause frames=\"5\"}}・",
      "KRko": "{{reaction type=\"Fearful\"}}으응{{pause frames=\"5\"}}・{{pause frames=\"5\"}}・{{pause frames=\"5\"}}・{{pause frames=\"5\"}}\n머리 아파{{pause frames=\"5\"}}・{{pause frames=\"5\"}}・{{pause frames=\"5\"}}・",
      "USen": "{{reaction type=\"Fearful\"}}Mmmrrrpphh{{pause frames=\"5\"}}.{{pause frames=\"5\"}}.{{pause frames=\"5\"}}.{{pause frames=\"5\"}} Oh, my head\nhurts{{pause frames=\"5\"}}.{{pause frames=\"5\"}}.{{pause frames=\"5\"}}.{{pause frames=\"5\"}} I think gnomes are\nstickin' nails in there{{pause frames=\"5\"}}.{{pause frames=\"5\"}}.{{pause frames=\"5\"}}."
    }
  },
  {
    "label": "04",
    "attribute": "0x00000000FE000000",
    "locale": {
      "EUde": "{{reaction type=\"Shocked\"}}IIIAAAAAH!!!{{pause frames=\"15\"}} {{resetReaction}}{{reaction type=\"Annoyed\"}}WAS?!?{{pause frames=\"15\"}} {{reaction type=\"Worry\"}}Was\nwillst du{{pause frames=\"5\"}}.{{pause frames=\"5\"}}.{{pause frames=\"5\"}}.{{pause frames=\"5\"}}?",
      "EUen": "{{reaction type=\"Shocked\"}}YYYAAAAAA!!{{pause frames=\"15\"}} {{resetReaction}}{{reaction type=\"Annoyed\"}}WHAT?!{{pause frames=\"15\"}} {{reaction type=\"Worry\"}}What do\nyou want{{pause frames=\"5\"}}.{{pause frames=\"5\"}}.{{pause frames=\"5\"}}.{{pause frames=\"5\"}}?",
      "EUes": "{{reaction type=\"Shocked\"}}¡¡AAAAARRGH!!{{pause frames=\"15\"}} {{resetReaction}}{{reaction type=\"Annoyed\"}}¡¿QUÉ?!{{pause frames=\"15\"}} {{reaction type=\"Worry\"}}¿Qué\nrayos quieres{{pause frames=\"5\"}}.{{pause frames=\"5\"}}.{{pause frames=\"5\"}}.{{pause frames=\"5\"}}?",
      "EUfr": "{{reaction type=\"Shocked\"}}AAAAAAH!!{{pause frames=\"15\"}} {{resetReaction}}{{reaction type=\"Annoyed\"}}QUOI?!{{pause frames=\"15\"}} {{reaction type=\"Worry\"}}Qu'est-ce\nque tu veux{{pause frames=\"5\"}}.{{pause frames=\"5\"}}.{{pause frames=\"5\"}}.{{pause frames=\"5\"}}?",
      "EUit": "{{reaction type=\"Shocked\"}}SÌÌÌ!{{pause frames=\"15\"}} {{resetReaction}}{{reaction type=\"Annoyed\"}}COSA?!{{pause frames=\"15\"}} {{reaction type=\"Worry\"}}Cosa vuoi{{pause frames=\"5\"}}.{{pause frames=\"5\"}}.{{pause frames=\"5\"}}.{{pause frames=\"5\"}}?",
      "JPja": "{{reaction type=\"Worry\"}}{{kanjiReplace charNum=\"1\" value=\"なに\"}}何しに{{kanjiReplace charNum=\"1\" value=\"き\"}}来たの{{pause frames=\"5\"}}・{{pause frames=\"5\"}}・{{pause frames=\"5\"}}・{{pause frames=\"5\"}}？",
      "KRko": "{{reaction type=\"Worry\"}}뭐 하러 왔어{{pause frames=\"5\"}}・{{pause frames=\"5\"}}・{{pause frames=\"5\"}}・{{pause frames=\"5\"}}？",
      "USen": "{{reaction type=\"Shocked\"}}YYYAAAAAA!!{{pause frames=\"15\"}} {{resetReaction}}{{reaction type=\"Annoyed\"}}WHAT?!{{pause frames=\"15\"}} {{reaction type=\"Worry\"}}What do\nyou want{{pause frames=\"5\"}}.{{pause frames=\"5\"}}.{{pause frames=\"5\"}}.{{pause frames=\"5\"}}?"
    }
  },
  {
    "label": "05",
    "attribute": "0x00000000FE000000",
    "locale": {
      "EUde": "{{reaction type=\"Worry\"}}Ooooh{{pause frames=\"3\"}}.{{pause frames=\"3\"}}.{{pause frames=\"3\"}}. Uuuuh{{pause frames=\"3\"}}.{{pause frames=\"3\"}}.{{pause frames=\"3\"}}. Gehirn{{pause frames=\"3\"}}.{{pause frames=\"3\"}}.{{pause frames=\"3\"}}.\nblubbert{{pause frames=\"3\"}}.{{pause frames=\"3\"}}.{{pause frames=\"3\"}}. in fiebrigem{{pause frames=\"3\"}}.{{pause frames=\"3\"}}.{{pause frames=\"3\"}}.\nKopf{{pause frames=\"3\"}}.{{pause frames=\"3\"}}.{{pause frames=\"3\"}}.",
      "EUen": "{{reaction type=\"Worry\"}}Oooogh{{pause frames=\"3\"}}.{{pause frames=\"3\"}}.{{pause frames=\"3\"}}. Guuuhhh{{pause frames=\"3\"}}.{{pause frames=\"3\"}}.{{pause frames=\"3\"}}. Brain{{pause frames=\"3\"}}.{{pause frames=\"3\"}}.{{pause frames=\"3\"}}.\nbubbling{{pause frames=\"3\"}}.{{pause frames=\"3\"}}.{{pause frames=\"3\"}}.in feverish{{pause frames=\"3\"}}.{{pause frames=\"3\"}}.{{pause frames=\"3\"}}.\nhead{{pause frames=\"3\"}}.{{pause frames=\"3\"}}.{{pause frames=\"3\"}}.",
      "EUes": "{{reaction type=\"Worry\"}}Ooooh{{pause frames=\"3\"}}.{{pause frames=\"3\"}}.{{pause frames=\"3\"}}. Aaay{{pause frames=\"3\"}}.{{pause frames=\"3\"}}.{{pause frames=\"3\"}}. Me hierve{{pause frames=\"3\"}}.{{pause frames=\"3\"}}.{{pause frames=\"3\"}}.\nel cerebro{{pause frames=\"3\"}}.{{pause frames=\"3\"}}.{{pause frames=\"3\"}}. en el cráneo{{pause frames=\"3\"}}.{{pause frames=\"3\"}}.{{pause frames=\"3\"}}.\no algo{{pause frames=\"3\"}}.{{pause frames=\"3\"}}.{{pause frames=\"3\"}}.",
      "EUfr": "{{reaction type=\"Worry\"}}Ooooh{{pause frames=\"3\"}}.{{pause frames=\"3\"}}.{{pause frames=\"3\"}}. meuuuhhh{{pause frames=\"3\"}}.{{pause frames=\"3\"}}.{{pause frames=\"3\"}}. tête{{pause frames=\"3\"}}.{{pause frames=\"3\"}}.{{pause frames=\"3\"}}.\nen fusion{{pause frames=\"3\"}}.{{pause frames=\"3\"}}.{{pause frames=\"3\"}}. fièvre{{pause frames=\"3\"}}.{{pause frames=\"3\"}}.{{pause frames=\"3\"}}.\ncerveau{{pause frames=\"3\"}}.{{pause frames=\"3\"}}.{{pause frames=\"3\"}}.",
      "EUit": "{{reaction type=\"Worry\"}}Ooogh{{pause frames=\"3\"}}.{{pause frames=\"3\"}}.{{pause frames=\"3\"}}. Guuuhhh{{pause frames=\"3\"}}.{{pause frames=\"3\"}}.{{pause frames=\"3\"}}. Il\ncervello{{pause frames=\"3\"}}.{{pause frames=\"3\"}}.{{pause frames=\"3\"}}. ribolle{{pause frames=\"3\"}}.{{pause frames=\"3\"}}.{{pause frames=\"3\"}}. nel\ncranio{{pause frames=\"3\"}}.{{pause frames=\"3\"}}.{{pause frames=\"3\"}}. febbricitante{{pause frames=\"3\"}}.{{pause frames=\"3\"}}.{{pause frames=\"3\"}}.",
      "JPja": "{{reaction type=\"Worry\"}}ううぅ{{pause frames=\"3\"}}・{{pause frames=\"3\"}}・{{pause frames=\"3\"}}・",
      "KRko": "{{reaction type=\"Worry\"}}으으{{pause frames=\"3\"}}・{{pause frames=\"3\"}}・{{pause frames=\"3\"}}・",
      "USen": "{{reaction type=\"Worry\"}}Oooogh{{pause frames=\"3\"}}.{{pause frames=\"3\"}}.{{pause frames=\"3\"}}. Guuuhhh{{pause frames=\"3\"}}.{{pause frames=\"3\"}}.{{pause frames=\"3\"}}. Brain{{pause frames=\"3\"}}.{{pause frames=\"3\"}}.{{pause frames=\"3\"}}.\nbubbling{{pause frames=\"3\"}}.{{pause frames=\"3\"}}.{{pause frames=\"3\"}}.in feverish{{pause frames=\"3\"}}.{{pause frames=\"3\"}}.{{pause frames=\"3\"}}.\nhead{{pause frames=\"3\"}}.{{pause frames=\"3\"}}.{{pause frames=\"3\"}}."
    }
  },
  {
    "label": "06",
    "attribute": "0x00000000FE000000",
    "locale": {
      "EUde": "{{reaction type=\"Sighing\"}}Ach so{{pause frames=\"5\"}}.{{pause frames=\"5\"}}.{{pause frames=\"5\"}}.",
      "EUen": "{{reaction type=\"Sighing\"}}Oh, I see{{pause frames=\"5\"}}.{{pause frames=\"5\"}}.{{pause frames=\"5\"}}.",
      "EUes": "{{reaction type=\"Sighing\"}}Ah, ya{{pause frames=\"5\"}}.{{pause frames=\"5\"}}.{{pause frames=\"5\"}}.",
      "EUfr": "{{reaction type=\"Sighing\"}}Oh, je vois{{pause frames=\"5\"}}.{{pause frames=\"5\"}}.{{pause frames=\"5\"}}.",
      "EUit": "{{reaction type=\"Sighing\"}}Oh, capisco{{pause frames=\"5\"}}.{{pause frames=\"5\"}}.{{pause frames=\"5\"}}.",
      "JPja": "{{reaction type=\"Sighing\"}}そう{{pause frames=\"5\"}}・{{pause frames=\"5\"}}・{{pause frames=\"5\"}}・",
      "KRko": "{{reaction type=\"Sighing\"}}그래{{pause frames=\"5\"}}・{{pause frames=\"5\"}}・{{pause frames=\"5\"}}・",
      "USen": "{{reaction type=\"Sighing\"}}Oh, I see{{pause frames=\"5\"}}.{{pause frames=\"5\"}}.{{pause frames=\"5\"}}."
    }
  },
  {
    "label": "07",
    "attribute": "0x00000000FF000000",
    "locale": {
      "EUde": "{{reaction type=\"Amazed\"}}{{color id=\"7\"}}M-Medizin{{color id=\"0\"}}{{pause frames=\"5\"}}.{{pause frames=\"5\"}}.{{pause frames=\"5\"}}.{{pause frames=\"5\"}}???",
      "EUen": "{{reaction type=\"Amazed\"}}{{color id=\"7\"}}M-medicine{{color id=\"0\"}}{{pause frames=\"5\"}}.{{pause frames=\"5\"}}.{{pause frames=\"5\"}}.{{pause frames=\"5\"}}??",
      "EUes": "{{reaction type=\"Amazed\"}}¿¿{{color id=\"7\"}}M-medicina{{color id=\"0\"}}{{pause frames=\"5\"}}.{{pause frames=\"5\"}}.{{pause frames=\"5\"}}.{{pause frames=\"5\"}}??",
      "EUfr": "{{reaction type=\"Amazed\"}}{{color id=\"7\"}}M-médicament{{color id=\"0\"}}{{pause frames=\"5\"}}.{{pause frames=\"5\"}}.{{pause frames=\"5\"}}.{{pause frames=\"5\"}}??",
      "EUit": "{{reaction type=\"Amazed\"}}{{color id=\"7\"}}M-medicina{{color id=\"0\"}}{{pause frames=\"5\"}}.{{pause frames=\"5\"}}.{{pause frames=\"5\"}}.{{pause frames=\"5\"}}?",
      "JPja": "{{reaction type=\"Amazed\"}}あっ、{{pause frames=\"5\"}}\n{{color id=\"7\"}}おくすり{{pause frames=\"3\"}}{{color id=\"0\"}}・{{pause frames=\"3\"}}・{{pause frames=\"3\"}}・",
      "KRko": "{{reaction type=\"Amazed\"}}앗， {{pause frames=\"5\"}}\n{{color id=\"7\"}}약{{color id=\"0\"}}{{pause frames=\"5\"}}・{{pause frames=\"5\"}}・{{pause frames=\"5\"}}",
      "USen": "{{reaction type=\"Amazed\"}}{{color id=\"7\"}}M-medicine{{color id=\"0\"}}{{pause frames=\"5\"}}.{{pause frames=\"5\"}}.{{pause frames=\"5\"}}.{{pause frames=\"5\"}}??"
    }
  },
  {
    "label": "08",
    "attribute": "0x00000000FF000000",
    "locale": {
      "EUde": "{{reaction type=\"Worry\"}}Ist das {{color id=\"7\"}}Medizin{{color id=\"0\"}}?{{pause frames=\"10\"}} Oder\nhalluziniere ich? {{pause frames=\"20\"}}MACH, DASS\nDIE WEGGEHEN!!! {{pause frames=\"10\"}}Oh, boah...",
      "EUen": "{{reaction type=\"Worry\"}}Is that {{color id=\"7\"}}medicine{{color id=\"0\"}}?{{pause frames=\"10\"}} Or am I\nhallucinating? {{pause frames=\"20\"}}GET 'EM OFF\nME!!! {{pause frames=\"10\"}}Oh, like, whoa...",
      "EUes": "{{reaction type=\"Worry\"}}¿Me traes {{color id=\"7\"}}medicina{{color id=\"0\"}}?{{pause frames=\"10\"}} ¿O son\nalucinaciones?{{pause frames=\"20\"}} ¡¡ATRÁS, MAL\nBICHO!!{{pause frames=\"10\"}} Huy... alucino, sí...",
      "EUfr": "{{reaction type=\"Worry\"}}C'est un {{color id=\"7\"}}médicament{{color id=\"0\"}}?{{pause frames=\"10\"}} Ou\nj'hallucine? {{pause frames=\"20\"}}FILE-LE-MOI!!!\n{{pause frames=\"10\"}}C'est vrai quoi...",
      "EUit": "{{reaction type=\"Worry\"}}È la {{color id=\"7\"}}medicina{{color id=\"0\"}} quella{{pause frames=\"10\"}} o ho\nle allucinazioni? {{pause frames=\"20\"}}TOGLIETEMELI\nDI DOSSO!!! {{pause frames=\"10\"}}Oh, beh, whoa...",
      "JPja": "{{reaction type=\"Worry\"}}それは　{{color id=\"7\"}}おくすり{{color id=\"0\"}}？{{pause frames=\"10\"}}\nまぼろしじゃ　ないよね？",
      "KRko": "{{reaction type=\"Worry\"}}그거 {{color id=\"7\"}}약{{color id=\"0\"}} 맞지？{{pause frames=\"10\"}}\n헛 것이 보이는 거 아니지？",
      "USen": "{{reaction type=\"Worry\"}}Is that {{color id=\"7\"}}medicine{{color id=\"0\"}}?{{pause frames=\"10\"}} Or am I\nhallucinating? {{pause frames=\"20\"}}GET 'EM OFF\nME!!! {{pause frames=\"10\"}}Oh, like, whoa..."
    }
  },
  {
    "label": "09",
    "attribute": "0x00000000FF000000",
    "locale": {
      "EUde": "{{reaction type=\"Amazed\"}}Hast du mir {{color id=\"7\"}}Medizin{{color id=\"0\"}}\nmitgebracht?{{pause frames=\"20\"}} {{reaction type=\"Worry\"}}D-Danke{{pause frames=\"5\"}}.{{pause frames=\"5\"}}.{{pause frames=\"5\"}}.",
      "EUen": "{{reaction type=\"Amazed\"}}Did you bring me {{color id=\"7\"}}medicine{{color id=\"0\"}}?{{pause frames=\"20\"}}\n{{reaction type=\"Worry\"}}Th-thank you{{pause frames=\"5\"}}.{{pause frames=\"5\"}}.{{pause frames=\"5\"}}.",
      "EUes": "{{reaction type=\"Amazed\"}}¿Me has traído {{color id=\"7\"}}medicina{{color id=\"0\"}}?{{pause frames=\"20\"}}\n{{reaction type=\"Worry\"}}G-gracias{{pause frames=\"5\"}}.{{pause frames=\"5\"}}.{{pause frames=\"5\"}}.",
      "EUfr": "{{reaction type=\"Amazed\"}}Tu m'as apporté un\n{{color id=\"7\"}}médicament{{color id=\"0\"}}?{{pause frames=\"20\"}} {{reaction type=\"Worry\"}}Merci{{pause frames=\"5\"}}.{{pause frames=\"5\"}}.{{pause frames=\"5\"}}.",
      "EUit": "{{reaction type=\"Amazed\"}}Mi hai portato la {{color id=\"7\"}}medicina{{color id=\"0\"}}?{{pause frames=\"20\"}}\n{{reaction type=\"Worry\"}}G-grazie{{pause frames=\"5\"}}.{{pause frames=\"5\"}}.{{pause frames=\"5\"}}.",
      "JPja": "{{reaction type=\"Amazed\"}}{{color id=\"7\"}}おくすり{{color id=\"0\"}}　{{kanjiReplace charNum=\"1\" value=\"も\"}}持ってきてくれたの？{{pause frames=\"20\"}}\n{{reaction type=\"Worry\"}}{{kanjiReplace charNum=\"1\" value=\"たす\"}}助かったー{{pause frames=\"5\"}}・{{pause frames=\"5\"}}・{{pause frames=\"5\"}}・",
      "KRko": "{{reaction type=\"Amazed\"}}{{color id=\"7\"}}약 {{color id=\"0\"}}가져 와 준 거야？ {{pause frames=\"20\"}}\n{{reaction type=\"Worry\"}}고마워{{pause frames=\"5\"}}・{{pause frames=\"5\"}}・{{pause frames=\"5\"}}・",
      "USen": "{{reaction type=\"Amazed\"}}Did you bring me {{color id=\"7\"}}medicine{{color id=\"0\"}}?{{pause frames=\"20\"}}\n{{reaction type=\"Worry\"}}Th-thank you{{pause frames=\"5\"}}.{{pause frames=\"5\"}}.{{pause frames=\"5\"}}."
    }
  },
  {
    "label": "10",
    "attribute": "0x00120000FE000000",
    "locale": {
      "EUde": "{{reaction type=\"Sighing\"}}M-Mir gehts gut{{pause frames=\"5\"}}.{{pause frames=\"5\"}}.{{pause frames=\"5\"}}.{{pause frames=\"5\"}} Lass dich\nnicht anstecken!",
      "EUen": "{{reaction type=\"Sighing\"}}I'm f-fine{{pause frames=\"5\"}}.{{pause frames=\"5\"}}.{{pause frames=\"5\"}}.{{pause frames=\"5\"}} You should be\nworried about yourself.",
      "EUes": "{{reaction type=\"Sighing\"}}Estoy b-bien{{pause frames=\"5\"}}.{{pause frames=\"5\"}}.{{pause frames=\"5\"}}.{{pause frames=\"5\"}} Mejor\npreocúpate por ti. Puedo\nser contagiosa...",
      "EUfr": "{{reaction type=\"Sighing\"}}Ça va{{pause frames=\"5\"}}.{{pause frames=\"5\"}}.{{pause frames=\"5\"}}.{{pause frames=\"5\"}} Tu devrais plutôt\nt'inquiéter pour toi.",
      "EUit": "{{reaction type=\"Sighing\"}}Sto b-bene{{pause frames=\"5\"}}.{{pause frames=\"5\"}}.{{pause frames=\"5\"}}.{{pause frames=\"5\"}} Dovresti\npreoccuparti della tua\nsalute piuttosto.",
      "JPja": "{{reaction type=\"Sighing\"}}アンタこそ\nしっかりしなさいよ{{pause frames=\"5\"}}・{{pause frames=\"5\"}}・{{pause frames=\"5\"}}・",
      "KRko": "{{reaction type=\"Sighing\"}}너야말로\n정신 차려{{pause frames=\"5\"}}・{{pause frames=\"5\"}}・{{pause frames=\"5\"}}・",
      "USen": "{{reaction type=\"Sighing\"}}I'm f-fine{{pause frames=\"5\"}}.{{pause frames=\"5\"}}.{{pause frames=\"5\"}}.{{pause frames=\"5\"}} You should be\nworried about yourself."
    }
  },
  {
    "label": "11",
    "attribute": "0x00120000FE000000",
    "locale": {
      "EUde": "{{reaction type=\"Sighing\"}}Du hast gar keine {{color id=\"7\"}}Medizin{{color id=\"0\"}},{{pause frames=\"5\"}}\noder{{pause frames=\"5\"}}.{{pause frames=\"5\"}}.{{pause frames=\"5\"}}.{{pause frames=\"5\"}}?",
      "EUen": "{{reaction type=\"Sighing\"}}You don't have the {{color id=\"7\"}}medicine{{color id=\"0\"}},{{pause frames=\"5\"}}\ndo you{{pause frames=\"5\"}}.{{pause frames=\"5\"}}.{{pause frames=\"5\"}}.{{pause frames=\"5\"}}?",
      "EUes": "{{reaction type=\"Sighing\"}}No me traes la {{color id=\"7\"}}medicina{{color id=\"0\"}},{{pause frames=\"5\"}}\n¿a que no{{pause frames=\"5\"}}.{{pause frames=\"5\"}}.{{pause frames=\"5\"}}.{{pause frames=\"5\"}}?",
      "EUfr": "{{reaction type=\"Sighing\"}}Tu n'as pas le {{color id=\"7\"}}médicament{{color id=\"0\"}}.{{pause frames=\"5\"}}\nJe me trompe{{pause frames=\"5\"}}.{{pause frames=\"5\"}}.{{pause frames=\"5\"}}.{{pause frames=\"5\"}}?",
      "EUit": "{{reaction type=\"Sighing\"}}Non hai portato la {{color id=\"7\"}}medicina{{color id=\"0\"}},{{pause frames=\"5\"}}\nvero{{pause frames=\"5\"}}.{{pause frames=\"5\"}}.{{pause frames=\"5\"}}.{{pause frames=\"5\"}}?",
      "JPja": "{{reaction type=\"Sighing\"}}アンタ　{{color id=\"7\"}}おくすり{{color id=\"0\"}}、{{pause frames=\"5\"}}\n{{kanjiReplace charNum=\"1\" value=\"も\"}}持ってないコトない{{pause frames=\"5\"}}・{{pause frames=\"5\"}}・{{pause frames=\"5\"}}・{{pause frames=\"5\"}}？",
      "KRko": "{{reaction type=\"Sighing\"}}너 {{color id=\"7\"}}약{{color id=\"0\"}}{{pause frames=\"5\"}}\n안 갖고 있니{{pause frames=\"5\"}}・{{pause frames=\"5\"}}・{{pause frames=\"5\"}}・{{pause frames=\"5\"}}？",
      "USen": "{{reaction type=\"Sighing\"}}You don't have the {{color id=\"7\"}}medicine{{color id=\"0\"}},{{pause frames=\"5\"}}\ndo you{{pause frames=\"5\"}}.{{pause frames=\"5\"}}.{{pause frames=\"5\"}}.{{pause frames=\"5\"}}?"
    }
  },
  {
    "label": "12",
    "attribute": "0x00120000FE000000",
    "locale": {
      "EUde": "{{reaction type=\"Fearful\"}}{{color id=\"7\"}}Medizin {{color id=\"0\"}}kannst du in {{color id=\"6\"}}Tom\nNooks{{color id=\"0\"}} Laden kaufen. Glaube\nich{{pause frames=\"5\"}}.{{pause frames=\"5\"}}.{{pause frames=\"5\"}}. {{color id=\"4\"}}Hoffe ich{{pause frames=\"5\"}}.{{pause frames=\"5\"}}.{{pause frames=\"5\"}}.",
      "EUen": "{{reaction type=\"Fearful\"}}You can buy the {{color id=\"7\"}}medicine{{color id=\"0\"}}\nat {{color id=\"6\"}}Tom Nook{{color id=\"0\"}}'s store, I\nthink{{pause frames=\"5\"}}.{{pause frames=\"5\"}}.{{pause frames=\"5\"}}. {{color id=\"4\"}}I hope{{pause frames=\"5\"}}.{{pause frames=\"5\"}}.{{pause frames=\"5\"}}.",
      "EUes": "{{reaction type=\"Fearful\"}}La {{color id=\"7\"}}medicina {{color id=\"0\"}}se puede\ncomprar donde {{color id=\"6\"}}Tom Nook{{color id=\"0\"}},\ncreo{{pause frames=\"5\"}}.{{pause frames=\"5\"}}.{{pause frames=\"5\"}}. {{color id=\"4\"}}(Eso espero{{pause frames=\"5\"}}.{{pause frames=\"5\"}}.{{pause frames=\"5\"}}.)",
      "EUfr": "{{reaction type=\"Fearful\"}}Tu peux acheter un\n{{color id=\"7\"}}médicament {{color id=\"0\"}}au magasin de\n{{color id=\"6\"}}Tom Nook{{color id=\"0\"}}{{pause frames=\"5\"}}.{{pause frames=\"5\"}}.{{pause frames=\"5\"}}. {{color id=\"4\"}}J'espère{{pause frames=\"5\"}}.{{pause frames=\"5\"}}.{{pause frames=\"5\"}}.",
      "EUit": "{{reaction type=\"Fearful\"}}Puoi comprare la {{color id=\"7\"}}medicina{{color id=\"0\"}}\nal negozio di {{color id=\"6\"}}Tom Nook{{color id=\"0\"}},\ncredo{{pause frames=\"5\"}}.{{pause frames=\"5\"}}.{{pause frames=\"5\"}}. {{color id=\"4\"}}SPERO{{pause frames=\"5\"}}.{{pause frames=\"5\"}}.{{pause frames=\"5\"}}.",
      "JPja": "{{reaction type=\"Fearful\"}}{{color id=\"7\"}}おくすり{{color id=\"0\"}}は\n{{color id=\"6\"}}たぬきち{{color id=\"0\"}}ちゃんトコに\n{{kanjiReplace charNum=\"1\" value=\"う\"}}売ってたよーな{{pause frames=\"5\"}}・{{pause frames=\"5\"}}・{{pause frames=\"5\"}}・",
      "KRko": "{{reaction type=\"Fearful\"}}{{color id=\"7\"}}약{{color id=\"0\"}}은\n{{color id=\"6\"}}너굴 {{color id=\"0\"}}아저씨네에서\n팔고 있었던 거 같은데{{pause frames=\"5\"}}・{{pause frames=\"5\"}}・{{pause frames=\"5\"}}・",
      "USen": "{{reaction type=\"Fearful\"}}You can buy the {{color id=\"7\"}}medicine{{color id=\"0\"}}\nat {{color id=\"6\"}}Tom Nook{{color id=\"0\"}}'s store, I\nthink{{pause frames=\"5\"}}.{{pause frames=\"5\"}}.{{pause frames=\"5\"}}. {{color id=\"4\"}}I hope{{pause frames=\"5\"}}.{{pause frames=\"5\"}}.{{pause frames=\"5\"}}."
    }
  },
  {
    "label": "13",
    "attribute": "0x001A0000FE000000",
    "locale": {
      "EUde": "{{reaction type=\"Sighing\"}}H-{{pause frames=\"5\"}}Hey!\n{{pause frames=\"5\"}}.{{pause frames=\"5\"}}.{{pause frames=\"5\"}}.{{pause frames=\"5\"}}Was ist das denn{{pause frames=\"5\"}}.{{pause frames=\"5\"}}.{{pause frames=\"5\"}}.{{pause frames=\"5\"}}?",
      "EUen": "{{reaction type=\"Sighing\"}}H-{{pause frames=\"5\"}}hey{{pause frames=\"5\"}}.{{pause frames=\"5\"}}.{{pause frames=\"5\"}}.{{pause frames=\"5\"}} What was that{{pause frames=\"5\"}}.{{pause frames=\"5\"}}.{{pause frames=\"5\"}}.{{pause frames=\"5\"}}?",
      "EUes": "{{reaction type=\"Sighing\"}}¿Q-qué{{pause frames=\"5\"}} es{{pause frames=\"5\"}}.{{pause frames=\"5\"}}.{{pause frames=\"5\"}}.{{pause frames=\"5\"}} qué es eso{{pause frames=\"5\"}}.{{pause frames=\"5\"}}.{{pause frames=\"5\"}}.{{pause frames=\"5\"}}?",
      "EUfr": "{{reaction type=\"Sighing\"}}H-{{pause frames=\"5\"}}hé{{pause frames=\"5\"}}.{{pause frames=\"5\"}}.{{pause frames=\"5\"}}.{{pause frames=\"5\"}} C'est quoi ça{{pause frames=\"5\"}}.{{pause frames=\"5\"}}.{{pause frames=\"5\"}}.{{pause frames=\"5\"}}?",
      "EUit": "{{reaction type=\"Sighing\"}}E-{{pause frames=\"5\"}}ehi{{pause frames=\"5\"}}.{{pause frames=\"5\"}}.{{pause frames=\"5\"}}.{{pause frames=\"5\"}} Cos'era{{pause frames=\"5\"}}.{{pause frames=\"5\"}}.{{pause frames=\"5\"}}.{{pause frames=\"5\"}}?",
      "JPja": "{{reaction type=\"Sighing\"}}ちょ、{{pause frames=\"5\"}}ちょっと{{pause frames=\"5\"}}・{{pause frames=\"5\"}}・{{pause frames=\"5\"}}・{{pause frames=\"5\"}}\n{{kanjiReplace charNum=\"1\" value=\"なに\"}}何ソレ{{pause frames=\"5\"}}・{{pause frames=\"5\"}}・{{pause frames=\"5\"}}・{{pause frames=\"5\"}}？",
      "KRko": "{{reaction type=\"Sighing\"}}잠， {{pause frames=\"5\"}}잠깐만{{pause frames=\"5\"}}・{{pause frames=\"5\"}}・{{pause frames=\"5\"}}・{{pause frames=\"5\"}}\n뭐야 그게{{pause frames=\"5\"}}・{{pause frames=\"5\"}}・{{pause frames=\"5\"}}・{{pause frames=\"5\"}}？",
      "USen": "{{reaction type=\"Sighing\"}}H-{{pause frames=\"5\"}}hey{{pause frames=\"5\"}}.{{pause frames=\"5\"}}.{{pause frames=\"5\"}}.{{pause frames=\"5\"}} What was that{{pause frames=\"5\"}}.{{pause frames=\"5\"}}.{{pause frames=\"5\"}}.{{pause frames=\"5\"}}?"
    }
  },
  {
    "label": "14",
    "attribute": "0x001A0000FE000000",
    "locale": {
      "EUde": "{{reaction type=\"Worry\"}}Ist das {{color id=\"7\"}}Medizin{{color id=\"0\"}}?{{pause frames=\"5\"}} W-Was hast\ndu damit vor?{{pause frames=\"5\"}}\n.{{pause frames=\"5\"}}.{{pause frames=\"5\"}}.{{pause frames=\"5\"}}GIB SIE MIR!!!",
      "EUen": "{{reaction type=\"Worry\"}}Is that {{color id=\"7\"}}medicine{{color id=\"0\"}}?{{pause frames=\"5\"}} W-what\nare you gonna do with it?{{pause frames=\"5\"}}\n.{{pause frames=\"5\"}}.{{pause frames=\"5\"}}.{{pause frames=\"5\"}}GIVE IT TO ME!!",
      "EUes": "{{reaction type=\"Worry\"}}¿Eso es {{color id=\"7\"}}medicina{{color id=\"0\"}}?{{pause frames=\"5\"}} ¿Q-qué\nvas a hacer con ella?{{pause frames=\"5\"}} Oye,\noye.{{pause frames=\"5\"}}.{{pause frames=\"5\"}}.{{pause frames=\"5\"}} ¡¡DÁMELA YA!!",
      "EUfr": "{{reaction type=\"Worry\"}}C'est un {{color id=\"7\"}}médicament{{color id=\"0\"}}?{{pause frames=\"5\"}}\nQu'est-ce que tu veux en\nfaire?{{pause frames=\"5\"}}.{{pause frames=\"5\"}}.{{pause frames=\"5\"}}.{{pause frames=\"5\"}} DONNE-LE-MOI!!",
      "EUit": "{{reaction type=\"Worry\"}}È la {{color id=\"7\"}}medicina {{color id=\"0\"}}quella?{{pause frames=\"5\"}} D-dove\nla metti?{{pause frames=\"5\"}}\n.{{pause frames=\"5\"}}.{{pause frames=\"5\"}}.{{pause frames=\"5\"}} DAMMELAAA!",
      "JPja": "{{reaction type=\"Worry\"}}アンタ　その　{{color id=\"7\"}}おくすり{{color id=\"0\"}}、{{pause frames=\"5\"}}\nどーするつもり{{pause frames=\"5\"}}・{{pause frames=\"5\"}}・{{pause frames=\"5\"}}・{{pause frames=\"5\"}}？",
      "KRko": "{{reaction type=\"Worry\"}}너 그 {{color id=\"7\"}}약{{color id=\"0\"}}， {{pause frames=\"5\"}}\n어떻게 할 거야{{pause frames=\"5\"}}・{{pause frames=\"5\"}}・{{pause frames=\"5\"}}・{{pause frames=\"5\"}}？",
      "USen": "{{reaction type=\"Worry\"}}Is that {{color id=\"7\"}}medicine{{color id=\"0\"}}?{{pause frames=\"5\"}} W-what\nare you gonna do with it?{{pause frames=\"5\"}}\n.{{pause frames=\"5\"}}.{{pause frames=\"5\"}}.{{pause frames=\"5\"}}GIVE IT TO ME!!"
    }
  },
  {
    "label": "15",
    "attribute": "0x001A0000FE000000",
    "locale": {
      "EUde": "{{reaction type=\"Intense\"}}{{vibrateStrong}}SPAR DIR DEINE SCHERZE!!!{{pause frames=\"20\"}}\nIch bin KRANK und GEREIZT!!!",
      "EUen": "{{reaction type=\"Intense\"}}{{vibrateStrong}}DON'T TOY WITH MY EMOTIONS!!!{{pause frames=\"20\"}}\nI'm like, SICK and ANGRY!!!",
      "EUes": "{{reaction type=\"Intense\"}}{{vibrateStrong}}¡NO ME TOMES EL PELO!{{pause frames=\"20\"}} ¡Estoy\nmalita! ¡Y {{pause frames=\"5\"}}DE {{pause frames=\"5\"}}MUY {{pause frames=\"5\"}}MAL {{pause frames=\"5\"}}HUMOR!",
      "EUfr": "{{reaction type=\"Intense\"}}{{vibrateStrong}}NE JOUE PAS AVEC MES\nEMOTIONS!!!{{pause frames=\"20\"}} Je suis\nMALADE et ENERVEE!!!",
      "EUit": "{{reaction type=\"Intense\"}}{{vibrateStrong}}NON GIOCARE CON I MIEI\nSENTIMENTI!!!{{pause frames=\"20\"}} Sono molto\nMALATA e ARRABBIATA!!!",
      "JPja": "{{reaction type=\"Intense\"}}オトメの　うらみは\nコワいよ{{pause frames=\"5\"}}・{{pause frames=\"5\"}}・{{pause frames=\"5\"}}・{{pause frames=\"5\"}}",
      "KRko": "{{reaction type=\"Intense\"}}여자가 한을 품으면\n무서워{{pause frames=\"5\"}}・{{pause frames=\"5\"}}・{{pause frames=\"5\"}}・{{pause frames=\"5\"}}",
      "USen": "{{reaction type=\"Intense\"}}{{vibrateStrong}}DON'T TOY WITH MY EMOTIONS!!!{{pause frames=\"20\"}}\nI'm like, SICK and ANGRY!!!"
    }
  },
  {
    "label": "16",
    "attribute": "0x000A0000FE000000",
    "locale": {
      "EUde": "{{resetReaction}}Gluckgluckgluckgluckgluck{{pause frames=\"5\"}}.{{pause frames=\"5\"}}.{{pause frames=\"5\"}}.{{pause frames=\"5\"}}\n\n\n{{reaction type=\"Sighing\"}}Bäh, das schmeckt ja\nEKELHAFT{{pause frames=\"5\"}}.{{pause frames=\"5\"}}.{{pause frames=\"5\"}}.{{pause frames=\"5\"}}\nAber es wird helfen{{pause frames=\"5\"}}.{{pause frames=\"5\"}}.{{pause frames=\"5\"}}.",
      "EUen": "{{resetReaction}}Chulugatalugatalugata.{{pause frames=\"5\"}}.{{pause frames=\"5\"}}.{{pause frames=\"5\"}}.{{pause frames=\"5\"}}\n\n\n{{reaction type=\"Sighing\"}}Ew, that tastes totally\nfoul and GROSS{{pause frames=\"5\"}}.{{pause frames=\"5\"}}.{{pause frames=\"5\"}}.{{pause frames=\"5\"}}\nBut it's gonna help{{pause frames=\"5\"}}.{{pause frames=\"5\"}}.{{pause frames=\"5\"}}.",
      "EUes": "{{resetReaction}}Glugluglugluglu{{pause frames=\"5\"}}.{{pause frames=\"5\"}}.{{pause frames=\"5\"}}.{{pause frames=\"5\"}}\n\n\n{{reaction type=\"Sighing\"}}Puaj, sabe a aliento de\nbabuino o algo{{pause frames=\"5\"}}.{{pause frames=\"5\"}}.{{pause frames=\"5\"}}.{{pause frames=\"5\"}}\nPero me curará{{pause frames=\"5\"}}.{{pause frames=\"5\"}}.{{pause frames=\"5\"}}.",
      "EUfr": "{{resetReaction}}Glouglouglouglou, ouerk{{pause frames=\"5\"}}.{{pause frames=\"5\"}}.{{pause frames=\"5\"}}.{{pause frames=\"5\"}}\n\n\n{{reaction type=\"Sighing\"}}Beurk, ça a un goût\naffreux, BEURK{{pause frames=\"5\"}}.{{pause frames=\"5\"}}.{{pause frames=\"5\"}}.{{pause frames=\"5\"}}\nMais ça aidera{{pause frames=\"5\"}}.{{pause frames=\"5\"}}.{{pause frames=\"5\"}}.",
      "EUit": "{{resetReaction}}Gluglugluglugluglugluglu.{{pause frames=\"5\"}}.{{pause frames=\"5\"}}.{{pause frames=\"5\"}}.{{pause frames=\"5\"}}\n\n\n{{reaction type=\"Sighing\"}}Ehm, è veramente pessima e\nSCHIFOSA{{pause frames=\"5\"}}.{{pause frames=\"5\"}}.{{pause frames=\"5\"}}.{{pause frames=\"5\"}}\nMa mi farà bene{{pause frames=\"5\"}}.{{pause frames=\"5\"}}.{{pause frames=\"5\"}}.",
      "JPja": "{{resetReaction}}・{{pause frames=\"5\"}}・{{pause frames=\"5\"}}・{{pause frames=\"5\"}}・{{pause frames=\"5\"}}・{{pause frames=\"5\"}}・{{pause frames=\"5\"}}\n\n\n{{reaction type=\"Sighing\"}}ふぅ、{{pause frames=\"5\"}}{{kanjiReplace charNum=\"1\" value=\"たす\"}}助かった{{pause frames=\"5\"}}・{{pause frames=\"5\"}}・{{pause frames=\"5\"}}・",
      "KRko": "{{resetReaction}}・{{pause frames=\"5\"}}・{{pause frames=\"5\"}}・{{pause frames=\"5\"}}・{{pause frames=\"5\"}}・{{pause frames=\"5\"}}・{{pause frames=\"5\"}}\n\n\n{{reaction type=\"Sighing\"}}후， {{pause frames=\"5\"}}살았다{{pause frames=\"5\"}}・{{pause frames=\"5\"}}・{{pause frames=\"5\"}}・\n",
      "USen": "{{resetReaction}}Chulugatalugatalugata.{{pause frames=\"5\"}}.{{pause frames=\"5\"}}.{{pause frames=\"5\"}}.{{pause frames=\"5\"}}\n\n\n{{reaction type=\"Sighing\"}}Ew, that tastes totally\nfoul and GROSS{{pause frames=\"5\"}}.{{pause frames=\"5\"}}.{{pause frames=\"5\"}}.{{pause frames=\"5\"}}\nBut it's gonna help{{pause frames=\"5\"}}.{{pause frames=\"5\"}}.{{pause frames=\"5\"}}."
    }
  },
  {
    "label": "17",
    "attribute": "0x000A0000FE000000",
    "locale": {
      "EUde": "{{resetReaction}}Gluckgluckgluck{{pause frames=\"5\"}}.{{pause frames=\"5\"}}.{{pause frames=\"5\"}}.{{pressButton}} {{reaction type=\"Sighing\"}}Ooooh, {{pause frames=\"5\"}}\nich bin noch nicht ganz\ngesund. {{pause frames=\"5\"}}{{capitalizeLetter}}{{string value=\"Catchphrase\"}}.",
      "EUen": "{{resetReaction}}Glugalugalugalug{{pause frames=\"5\"}}.{{pause frames=\"5\"}}.{{pause frames=\"5\"}}.{{pressButton}} {{reaction type=\"Sighing\"}}Ooooh, {{pause frames=\"5\"}}I\ndon't think I'm fully\nrecovered yet, {{pause frames=\"5\"}}{{string value=\"Catchphrase\"}}.",
      "EUes": "{{resetReaction}}Glugluglu{{pause frames=\"5\"}}.{{pause frames=\"5\"}}.{{pause frames=\"5\"}}.{{pressButton}} {{reaction type=\"Sighing\"}}Aay, {{pause frames=\"5\"}}me parece\nque aún no estoy curada\ndel todo, {{pause frames=\"5\"}}{{string value=\"Catchphrase\"}}.",
      "EUfr": "{{resetReaction}}Glouglouglouglou{{pause frames=\"5\"}}.{{pause frames=\"5\"}}.{{pause frames=\"5\"}}.{{pressButton}} {{reaction type=\"Sighing\"}}Ooooh, {{pause frames=\"5\"}}\nne crois pas que tout\nva bien, {{pause frames=\"5\"}}{{string value=\"Catchphrase\"}}.",
      "EUit": "{{resetReaction}}Gluglugluglu{{pause frames=\"5\"}}.{{pause frames=\"5\"}}.{{pause frames=\"5\"}}.{{pressButton}} {{reaction type=\"Sighing\"}}Oooh, {{pause frames=\"5\"}}mi sa\nche non sono ancora guarita\ndel tutto, {{pause frames=\"5\"}}{{string value=\"Catchphrase\"}}.",
      "JPja": "{{resetReaction}}・{{pause frames=\"5\"}}・{{pause frames=\"5\"}}・{{pause frames=\"5\"}}・{{pause frames=\"5\"}}・{{pause frames=\"5\"}}・{{pause frames=\"5\"}}\n\n\n{{reaction type=\"Sighing\"}}うーん、{{pause frames=\"5\"}}\nまだまだ　{{kanjiReplace charNum=\"1\" value=\"ほん\"}}本{{kanjiReplace charNum=\"2\" value=\"ちょうし\"}}調子じゃ\nないかな、{{pause frames=\"5\"}}{{string value=\"Catchphrase\"}}",
      "KRko": "{{resetReaction}}・{{pause frames=\"5\"}}・{{pause frames=\"5\"}}・{{pause frames=\"5\"}}・{{pause frames=\"5\"}}・{{pause frames=\"5\"}}・{{pause frames=\"5\"}}\n\n\n{{reaction type=\"Sighing\"}}응，{{pause frames=\"5\"}}\n아직 원래 상태로 돌아오진\n않았어， {{pause frames=\"5\"}}{{string value=\"Catchphrase\"}}",
      "USen": "{{resetReaction}}Glugalugalugalug{{pause frames=\"5\"}}.{{pause frames=\"5\"}}.{{pause frames=\"5\"}}.{{pressButton}} {{reaction type=\"Sighing\"}}Ooooh, {{pause frames=\"5\"}}I\ndon't think I'm fully\nrecovered yet, {{pause frames=\"5\"}}{{string value=\"Catchphrase\"}}."
    }
  },
  {
    "label": "18",
    "attribute": "0x000A0000FE000000",
    "locale": {
      "EUde": "{{resetReaction}}Gluckgluckgluck{{pause frames=\"5\"}}.{{pause frames=\"5\"}}.{{pause frames=\"5\"}}.{{pause frames=\"5\"}} {{pressButton}}{{reaction type=\"Happiness\"}}Jetzt\ngehts mir ein wenig besser!{{pause frames=\"10\"}}\nPuh! Danke, {{pause frames=\"5\"}}{{string value=\"PlayerNickname\"}}!",
      "EUen": "{{resetReaction}}Lugalugaluga{{pause frames=\"5\"}}.{{pause frames=\"5\"}}.{{pause frames=\"5\"}}.{{pause frames=\"5\"}} {{pressButton}}{{reaction type=\"Happiness\"}}I feel a\nlittle better!{{pause frames=\"10\"}} Whew! Thanks,\n{{pause frames=\"5\"}}{{string value=\"PlayerNickname\"}}!",
      "EUes": "{{resetReaction}}Gluglugluglu{{pause frames=\"5\"}}.{{pause frames=\"5\"}}.{{pause frames=\"5\"}}.{{pause frames=\"5\"}} {{pressButton}}{{reaction type=\"Happiness\"}}¡Me siento un\npoquito mejor!{{pause frames=\"10\"}} ¡Uf! ¡Gracias,\n{{pause frames=\"5\"}}{{string value=\"PlayerNickname\"}}!",
      "EUfr": "{{resetReaction}}Glouglouglou{{pause frames=\"5\"}}.{{pause frames=\"5\"}}.{{pause frames=\"5\"}}.{{pause frames=\"5\"}} {{pressButton}}{{reaction type=\"Happiness\"}}Je me sens\nun peu mieux!{{pause frames=\"10\"}} Ouah! Merci,\n{{pause frames=\"5\"}}{{string value=\"PlayerNickname\"}}!",
      "EUit": "{{resetReaction}}Gluglugluglu{{pause frames=\"5\"}}.{{pause frames=\"5\"}}.{{pause frames=\"5\"}}.{{pause frames=\"5\"}} {{pressButton}}{{reaction type=\"Happiness\"}}Ora sto un\npo' meglio!{{pause frames=\"10\"}} Wow! Grazie,\n{{pause frames=\"5\"}}{{string value=\"PlayerNickname\"}}!",
      "JPja": "{{resetReaction}}・{{pause frames=\"5\"}}・{{pause frames=\"5\"}}・{{pause frames=\"5\"}}・{{pause frames=\"5\"}}・{{pause frames=\"5\"}}・{{pause frames=\"5\"}}\n\n\n{{reaction type=\"Happiness\"}}ちょっとだけ\n{{kanjiReplace charNum=\"1\" value=\"らく\"}}楽になった　{{kanjiReplace charNum=\"1\" value=\"き\"}}気がする！\n\nとりあえず　お{{kanjiReplace charNum=\"1\" value=\"れい\"}}礼{{kanjiReplace charNum=\"1\" value=\"い\"}}言っとくね！{{pause frames=\"10\"}}\nありがと、{{pause frames=\"5\"}}{{string value=\"PlayerNickname\"}}ちゃん、{{pause frames=\"5\"}}\n{{pause frames=\"5\"}}{{string value=\"Catchphrase\"}}！",
      "KRko": "{{resetReaction}}・{{pause frames=\"5\"}}・{{pause frames=\"5\"}}・{{pause frames=\"5\"}}・{{pause frames=\"5\"}}・{{pause frames=\"5\"}}・{{pause frames=\"5\"}}\n\n\n{{reaction type=\"Happiness\"}}아주 조금\n괜찮아진 거 같아！\n\n그래도 인사는 해야지！{{pause frames=\"10\"}}\n고마워， {{pause frames=\"5\"}}{{string value=\"PlayerNickname\"}}{{fun_0B arg=\"0x0400\"}}， {{pause frames=\"5\"}}\n{{pause frames=\"5\"}}{{string value=\"Catchphrase\"}}！",
      "USen": "{{resetReaction}}Lugalugaluga{{pause frames=\"5\"}}.{{pause frames=\"5\"}}.{{pause frames=\"5\"}}.{{pause frames=\"5\"}} {{pressButton}}{{reaction type=\"Happiness\"}}I feel a\nlittle better!{{pause frames=\"10\"}} Whew! Thanks,\n{{pause frames=\"5\"}}{{string value=\"PlayerNickname\"}}!"
    }
  },
  {
    "label": "19",
    "attribute": "0x00000000FE000000",
    "locale": {
      "EUde": "{{reaction type=\"Happiness\"}}Danke, dass du hier bist!{{pause frames=\"10\"}}\nIch bin so froh, dass wir\nFreunde sind! {{pause frames=\"5\"}}{{capitalizeLetter}}{{string value=\"Catchphrase\"}}!",
      "EUen": "{{reaction type=\"Happiness\"}}Thanks for coming!{{pause frames=\"10\"}} I'm so\nsuper glad that you're my\nfriend, {{pause frames=\"5\"}}{{string value=\"Catchphrase\"}}!",
      "EUes": "{{reaction type=\"Happiness\"}}¡Gracias por venir!{{pause frames=\"10\"}} ¡Es\nfantástico tener amigos y\ntal, {{pause frames=\"5\"}}{{string value=\"Catchphrase\"}}!",
      "EUfr": "{{reaction type=\"Happiness\"}}Merci beaucoup!{{pause frames=\"10\"}} Je suis\ncontente que tu sois mon\nami{{gender m=\"\" f=\"e\"}}, {{pause frames=\"5\"}}{{string value=\"Catchphrase\"}}!",
      "EUit": "{{reaction type=\"Happiness\"}}Grazie per la visita!{{pause frames=\"10\"}} Sono\nsuperfelice che tu sia\n{{gender m=\"mio amico\" f=\"mia amica\"}}, {{pause frames=\"5\"}}{{string value=\"Catchphrase\"}}!",
      "JPja": "{{reaction type=\"Happiness\"}}おみまい　ありがと！{{pause frames=\"10\"}}\n{{kanjiReplace charNum=\"1\" value=\"も\"}}持つべきモノは\n{{kanjiReplace charNum=\"2\" value=\"ともだち\"}}友達よねー、{{pause frames=\"5\"}}{{string value=\"Catchphrase\"}}！",
      "KRko": "{{reaction type=\"Happiness\"}}병문안 와 줘서 고마워！ {{pause frames=\"10\"}}\n이래서 친구가\n있어야 돼， {{pause frames=\"5\"}}{{string value=\"Catchphrase\"}}！",
      "USen": "{{reaction type=\"Happiness\"}}Thanks for coming!{{pause frames=\"10\"}} I'm so\nsuper glad that you're my\nfriend, {{pause frames=\"5\"}}{{string value=\"Catchphrase\"}}!"
    }
  },
  {
    "label": "20",
    "attribute": "0x00000000FE000000",
    "locale": {
      "EUde": "{{reaction type=\"Sighing\"}}Es geht mir besser{{pause frames=\"5\"}}.{{pause frames=\"5\"}}.{{pause frames=\"5\"}}.{{pause frames=\"5\"}} {{reaction type=\"Happiness\"}}Aber\nich ruh mich noch ein\nbisschen aus. {{pause frames=\"5\"}}{{capitalizeLetter}}{{string value=\"Catchphrase\"}}.",
      "EUen": "{{reaction type=\"Sighing\"}}Yeah, I feel OK{{pause frames=\"5\"}}.{{pause frames=\"5\"}}.{{pause frames=\"5\"}}.{{pause frames=\"5\"}} {{reaction type=\"Happiness\"}}But I'm\ngonna rest a little more,\n{{pause frames=\"5\"}}{{string value=\"Catchphrase\"}}.",
      "EUes": "{{reaction type=\"Sighing\"}}Sí, ya estoy mejor{{pause frames=\"5\"}}.{{pause frames=\"5\"}}.{{pause frames=\"5\"}}.{{pause frames=\"5\"}} {{reaction type=\"Happiness\"}}Pero\nvoy a descansar un poquito\nmás, {{pause frames=\"5\"}}{{string value=\"Catchphrase\"}}.",
      "EUfr": "{{reaction type=\"Sighing\"}}Ouah, je me sens bien{{pause frames=\"5\"}}.{{pause frames=\"5\"}}.{{pause frames=\"5\"}}.{{pause frames=\"5\"}}\n{{reaction type=\"Happiness\"}}mais je vais me reposer\nencore un peu, {{pause frames=\"5\"}}{{string value=\"Catchphrase\"}}.",
      "EUit": "{{reaction type=\"Sighing\"}}Sì, sto un po' meglio{{pause frames=\"5\"}}.{{pause frames=\"5\"}}.{{pause frames=\"5\"}}.{{pause frames=\"5\"}} {{reaction type=\"Happiness\"}}Ma\nvoglio riposare ancora un\npochino, {{pause frames=\"5\"}}{{string value=\"Catchphrase\"}}.",
      "JPja": "{{reaction type=\"Sighing\"}}{{kanjiReplace charNum=\"2\" value=\"ちょうし\"}}調子は　ボチボチかな{{pause frames=\"5\"}}・{{pause frames=\"5\"}}・{{pause frames=\"5\"}}・{{pause frames=\"5\"}}\n\n\n{{reaction type=\"Happiness\"}}もうちょっと\nがんばってみるよ！　{{pause frames=\"5\"}}{{string value=\"Catchphrase\"}}！",
      "KRko": "{{reaction type=\"Sighing\"}}상태는 그냥 그래{{pause frames=\"5\"}}・{{pause frames=\"5\"}}・{{pause frames=\"5\"}}・{{pause frames=\"5\"}}\n\n\n{{reaction type=\"Happiness\"}}좀만 더\n힘내 볼게！ {{pause frames=\"5\"}}{{string value=\"Catchphrase\"}}！",
      "USen": "{{reaction type=\"Sighing\"}}Yeah, I feel OK{{pause frames=\"5\"}}.{{pause frames=\"5\"}}.{{pause frames=\"5\"}}.{{pause frames=\"5\"}} {{reaction type=\"Happiness\"}}But I'm\ngonna rest a little more,\n{{pause frames=\"5\"}}{{string value=\"Catchphrase\"}}."
    }
  },
  {
    "label": "21",
    "attribute": "0x00000000FE000000",
    "locale": {
      "EUde": "{{reaction type=\"Distress\"}}{{capitalizeLetter}}{{string value=\"PlayerNickname\"}}!{{pause frames=\"5\"}} Niemand außer\ndir redet noch mit mir.{{pause frames=\"10\"}}\nWeil ich so verschnupft bin.",
      "EUen": "{{reaction type=\"Distress\"}}{{capitalizeLetter}}{{string value=\"PlayerNickname\"}},{{pause frames=\"5\"}} you're the only\none who will talk to me.{{pause frames=\"10\"}}\nIt's 'cause I'm all snotty.",
      "EUes": "{{reaction type=\"Distress\"}}{{capitalizeLetter}}{{string value=\"PlayerNickname\"}},{{pause frames=\"5\"}} nadie más\nquiere hablar conmigo.{{pause frames=\"10\"}} Creo\nque es por los mocos...",
      "EUfr": "{{reaction type=\"Distress\"}}{{capitalizeLetter}}{{string value=\"PlayerNickname\"}},{{pause frames=\"5\"}} tu es l{{gender m=\"e\" f=\"a\"}} seul{{gender m=\"\" f=\"e\"}}\nqui me parle.{{pause frames=\"10\"}} C'est parce\nque j'ai la goutte au nez.",
      "EUit": "{{reaction type=\"Distress\"}}{{capitalizeLetter}}{{string value=\"PlayerNickname\"}},{{pause frames=\"5\"}} tu sei la sola\npersona che vuole parlarmi.{{pause frames=\"10\"}}\nSarà perché mi cola il naso.",
      "JPja": "{{reaction type=\"Distress\"}}こーやって\n{{kanjiReplace charNum=\"1\" value=\"こえ\"}}声かけてくれるの、{{pause frames=\"5\"}}\n{{string value=\"PlayerNickname\"}}ちゃんだけだよ",
      "KRko": "{{reaction type=\"Distress\"}}이렇게\n찾아와준 거{{pause frames=\"5\"}}\n{{string value=\"PlayerNickname\"}}밖에 없어",
      "USen": "{{reaction type=\"Distress\"}}{{capitalizeLetter}}{{string value=\"PlayerNickname\"}},{{pause frames=\"5\"}} you're the only\none who will talk to me.{{pause frames=\"10\"}}\nIt's 'cause I'm all snotty."
    }
  }
]