[
  {
    "label": "00",
    "attribute": "0x00000000FE000000",
    "locale": {
      "EUde": "{{reaction type=\"Happiness\"}}Das {{color id=\"3\"}}Feuerwerk{{color id=\"0\"}} hat endlich\nbegonnen,\n{{pause frames=\"10\"}}{{string value=\"Catchphrase\"}}!\n{{resetReaction}}Das Feuerwerk sieht aus wie\nBlumen, die am Nachthimmel\nblühen{{pause frames=\"3\"}}.{{pause frames=\"3\"}}.{{pause frames=\"3\"}}.{{pause frames=\"20\"}} {{reaction type=\"Love\"}}Genau wie ich!",
      "EUen": "{{reaction type=\"Happiness\"}}The {{color id=\"3\"}}Fireworks Show{{color id=\"0\"}} has\nfinally started,\n{{pause frames=\"10\"}}{{string value=\"Catchphrase\"}}!\n{{resetReaction}}Fireworks are like flowers\nthat bloom in the night\nsky{{pause frames=\"3\"}}.{{pause frames=\"3\"}}.{{pause frames=\"3\"}}.{{pause frames=\"20\"}} {{reaction type=\"Love\"}}They're just like me!",
      "EUes": "{{reaction type=\"Happiness\"}}¡Por fin han empezado los\n{{color id=\"3\"}}fuegos artificiales{{color id=\"0\"}},\n{{pause frames=\"10\"}}{{string value=\"Catchphrase\"}}!\n{{resetReaction}}Son como flores que se\nabren en el cielo de la\nnoche{{pause frames=\"3\"}}.{{pause frames=\"3\"}}.{{pause frames=\"3\"}}.{{pause frames=\"20\"}} {{reaction type=\"Love\"}}¡Son como yo!",
      "EUfr": "{{reaction type=\"Happiness\"}}Le {{color id=\"3\"}}feu d'artifice{{color id=\"0\"}} a\ncommencé. Il était temps,\n{{pause frames=\"10\"}}{{string value=\"Catchphrase\"}}!\n{{resetReaction}}Les feux d'artifice sont\ncomme des fleurs dans le\nciel nocturne{{pause frames=\"3\"}}.{{pause frames=\"3\"}}.{{pause frames=\"3\"}}.{{pause frames=\"20\"}} {{reaction type=\"Love\"}}comme moi!",
      "EUit": "{{reaction type=\"Happiness\"}}I {{color id=\"3\"}}Fuochi d'artificio{{color id=\"0\"}} sono\ncominciati, {{pause frames=\"10\"}}{{string value=\"Catchphrase\"}}!\n\n{{resetReaction}}I fuochi d'artificio sono\nfiori che sbocciano nel\ncielo notturno{{pause frames=\"3\"}}.{{pause frames=\"3\"}}.{{pause frames=\"3\"}}.{{pause frames=\"20\"}}\n{{reaction type=\"Love\"}}E sono belli come me!",
      "JPja": "{{reaction type=\"Happiness\"}}フフン{{pause frames=\"10\"}}\nいよいよ　{{kanjiReplace charNum=\"1\" value=\"はじ\"}}始まったわね\n{{color id=\"3\"}}はなびたいかい{{color id=\"0\"}}！\n{{resetReaction}}{{kanjiReplace charNum=\"2\" value=\"よぞら\"}}夜空に　さきほこる\nたいりんの{{kanjiReplace charNum=\"1\" value=\"はな\"}}花{{pause frames=\"3\"}}・{{pause frames=\"3\"}}・{{pause frames=\"3\"}}・{{pause frames=\"20\"}}\n{{reaction type=\"Love\"}}まるで　あたしだわ、{{pause frames=\"10\"}}{{string value=\"Catchphrase\"}}",
      "KRko": "{{reaction type=\"Happiness\"}}후훗{{pause frames=\"10\"}}\n드디어 시작됐네\n{{color id=\"3\"}}불꽃축제{{color id=\"0\"}}！\n{{resetReaction}}밤하늘에 피는\n커다란 꽃송이{{pause frames=\"3\"}}.{{pause frames=\"3\"}}.{{pause frames=\"3\"}}.{{pause frames=\"20\"}}\n{{reaction type=\"Love\"}}마치 나 같아， {{pause frames=\"10\"}}{{string value=\"Catchphrase\"}}",
      "USen": "{{reaction type=\"Happiness\"}}The {{color id=\"3\"}}Fireworks Show{{color id=\"0\"}} has\nfinally started,\n{{pause frames=\"10\"}}{{string value=\"Catchphrase\"}}!\n{{resetReaction}}Fireworks are like flowers\nthat bloom in the night\nsky{{pause frames=\"3\"}}.{{pause frames=\"3\"}}.{{pause frames=\"3\"}}.{{pause frames=\"20\"}} {{reaction type=\"Love\"}}They're just like me!"
    }
  },
  {
    "label": "01",
    "attribute": "0x00000000FE000000",
    "locale": {
      "EUde": "{{reaction type=\"Happiness\"}}Das {{color id=\"3\"}}Feuerwerk {{color id=\"0\"}}hat endlich\nbegonnen! Ich bin ja SO\nglücklich!\n{{reaction type=\"Glee\"}}Heute Abend werde ich\nrichtig viel Spaß haben. Und\ndu hoffentlich auch!{{resetReaction}}",
      "EUen": "{{reaction type=\"Happiness\"}}The {{color id=\"3\"}}Fireworks Show {{color id=\"0\"}}has\nfinally started! I'm so\nso SO happy!\n{{reaction type=\"Glee\"}}I'm going to have as much \nfun as I possibly can\ntonight! You should, too!{{resetReaction}}",
      "EUes": "{{reaction type=\"Happiness\"}}¡Ya han empezado los\n{{color id=\"3\"}}fuegos artificiales{{color id=\"0\"}}!\n¡Qué contenta estoy!\n{{reaction type=\"Glee\"}}Esta noche voy a divertirme\ntodo lo que pueda. ¡Y tú\ntambién deberías hacerlo!{{resetReaction}}",
      "EUfr": "{{reaction type=\"Happiness\"}}Enfin! Le {{color id=\"3\"}}feu d'artifice {{color id=\"0\"}}a\ndébuté! Je suis si, si, SI\nCONTENTE!\n{{reaction type=\"Glee\"}}Je vais m'amuser autant\nque possible, ce soir!\nFais-en autant!{{resetReaction}}",
      "EUit": "{{reaction type=\"Happiness\"}}I {{color id=\"3\"}}Fuochi d'artificio {{color id=\"0\"}}sono\ncominciati! Come sono\nFELICE!\n{{reaction type=\"Glee\"}}Mi divertirò a più\nnon posso stasera!\nAnche tu dovresti!{{resetReaction}}",
      "JPja": "{{reaction type=\"Happiness\"}}フフン、{{pause frames=\"10\"}}\n{{kanjiReplace charNum=\"1\" value=\"はじ\"}}始まったわね、\n{{color id=\"3\"}}はなびたいかい{{color id=\"0\"}}！\n{{resetReaction}}{{kanjiReplace charNum=\"2\" value=\"こんや\"}}今夜は　{{kanjiReplace charNum=\"1\" value=\"おも\"}}思う{{kanjiReplace charNum=\"2\" value=\"ぞんぶん\"}}存分\n{{kanjiReplace charNum=\"1\" value=\"たの\"}}楽しむわ、{{pause frames=\"5\"}}{{string value=\"Catchphrase\"}}！",
      "KRko": "{{reaction type=\"Happiness\"}}후훗，{{pause frames=\"10\"}}\n시작됐네，\n{{color id=\"3\"}}불꽃축제{{color id=\"0\"}}！\n{{resetReaction}}오늘 밤은 마음껏\n즐기겠어， {{pause frames=\"5\"}}{{string value=\"Catchphrase\"}}！",
      "USen": "{{reaction type=\"Happiness\"}}The {{color id=\"3\"}}Fireworks Show {{color id=\"0\"}}has\nfinally started! I'm so\nso SO happy!\n{{reaction type=\"Glee\"}}I'm going to have as much \nfun as I possibly can\ntonight! You should, too!{{resetReaction}}"
    }
  },
  {
    "label": "02",
    "attribute": "0x00000000FE000000",
    "locale": {
      "EUde": "Du hast noch nicht {{reaction type=\"Resignation\"}}das\nBeste heute Abend gesehen,\n{{pause frames=\"5\"}}{{string value=\"Catchphrase\"}}!\n{{reaction type=\"Glee\"}}Hey, {{pause frames=\"5\"}}{{string value=\"PlayerNickname\"}}, wir werden\nviel Spaß haben. Ich kann\nes fühlen!",
      "EUen": "You still haven't seen {{reaction type=\"Resignation\"}}the\nbest of the best yet\ntonight, {{pause frames=\"5\"}}{{string value=\"Catchphrase\"}}!\n{{reaction type=\"Glee\"}}Hey, {{pause frames=\"5\"}}{{string value=\"PlayerNickname\"}}, we're\ngoing to have a great time!\nI can just feel it!",
      "EUes": "¡Aún no has visto{{reaction type=\"Resignation\"}} lo mejor\nde la noche, {{pause frames=\"5\"}}{{string value=\"Catchphrase\"}}!\n\n{{reaction type=\"Glee\"}}Verás, {{pause frames=\"5\"}}{{string value=\"PlayerNickname\"}}, nos lo\nvamos a pasar genial.\n¡Lo presiento!",
      "EUfr": "Le meilleur reste encore à\nvenir,{{reaction type=\"Resignation\"}} ce soir,\n{{pause frames=\"5\"}}{{string value=\"Catchphrase\"}}!\n{{reaction type=\"Glee\"}}Hé, {{pause frames=\"5\"}}{{string value=\"PlayerNickname\"}}, on va\npasser un bon moment!\nJe le sens!",
      "EUit": "Devi ancora vedere {{reaction type=\"Resignation\"}}il meglio\nstasera, {{pause frames=\"5\"}}{{string value=\"Catchphrase\"}}!\n\n{{reaction type=\"Glee\"}}Ehi, {{pause frames=\"5\"}}{{string value=\"PlayerNickname\"}}, ci\ndivertiremo alla grande!\nMe lo sento!",
      "JPja": "{{kanjiReplace charNum=\"2\" value=\"こんや\"}}今夜の　{{kanjiReplace charNum=\"2\" value=\"はなび\"}}花火は\n{{reaction type=\"Resignation\"}}まだ　{{kanjiReplace charNum=\"2\" value=\"ほんき\"}}本気を{{kanjiReplace charNum=\"1\" value=\"み\"}}見せてないわよ\n\n{{reaction type=\"Glee\"}}さぁ、{{pause frames=\"5\"}}{{string value=\"PlayerNickname\"}}ちゃん\nいっしょに　もり{{kanjiReplace charNum=\"1\" value=\"あ\"}}上げましょう！\n{{pause frames=\"5\"}}{{string value=\"Catchphrase\"}}！",
      "KRko": "오늘밤 불꽃놀이는\n{{reaction type=\"Resignation\"}}아직 하이라이트가 안 나왔어\n\n{{reaction type=\"Glee\"}}자， {{pause frames=\"5\"}}{{string value=\"PlayerNickname\"}}\n같이 신나게 즐겨 보자구！\n{{pause frames=\"5\"}}{{string value=\"Catchphrase\"}}！",
      "USen": "You still haven't seen {{reaction type=\"Resignation\"}}the\nbest of the best yet\ntonight, {{pause frames=\"5\"}}{{string value=\"Catchphrase\"}}!\n{{reaction type=\"Glee\"}}Hey, {{pause frames=\"5\"}}{{string value=\"PlayerNickname\"}}, we're\ngoing to have a great time!\nI can just feel it!"
    }
  },
  {
    "label": "03",
    "attribute": "0x00000000FE000000",
    "locale": {
      "EUde": "{{reaction type=\"Thought\"}}Die Eröffnung ist weniger\nprotzig, und das Ende ist\nruhig und behutsam{{pause frames=\"3\"}}.{{pause frames=\"3\"}}.{{pause frames=\"3\"}}.\n{{reaction type=\"Happiness\"}}Das diesjährige Feuerwerk\nist reifer geworden, genau\nwie ich, {{pause frames=\"5\"}}{{string value=\"Catchphrase\"}}.",
      "EUen": "{{reaction type=\"Thought\"}}The opening isn't too showy,\nand the end is calm and\nunderstated{{pause frames=\"3\"}}.{{pause frames=\"3\"}}.{{pause frames=\"3\"}}.\n{{reaction type=\"Happiness\"}}The fireworks this year\nhave grown more mature,\njust like me, {{pause frames=\"5\"}}{{string value=\"Catchphrase\"}}.",
      "EUes": "{{reaction type=\"Thought\"}}La presentación no es muy\nestrambótica y el final es\ntranquilo{{pause frames=\"3\"}}.{{pause frames=\"3\"}}.{{pause frames=\"3\"}}.\n{{reaction type=\"Happiness\"}}Los fuegos han madurado\neste año, igual que yo,\n{{pause frames=\"5\"}}{{string value=\"Catchphrase\"}}.",
      "EUfr": "{{reaction type=\"Thought\"}}Le début n'est pas trop\nprétentieux et la fin reste\ndiscrète{{pause frames=\"3\"}}.{{pause frames=\"3\"}}.{{pause frames=\"3\"}}.\n{{reaction type=\"Happiness\"}}Le feu d'artifice de cette\nannée est plus mûr. Un peu\ncomme moi, {{pause frames=\"5\"}}{{string value=\"Catchphrase\"}}.",
      "EUit": "{{reaction type=\"Thought\"}}L'apertura non è troppo\nscenografica e il finale\nè semplice e pacato{{pause frames=\"3\"}}.{{pause frames=\"3\"}}.{{pause frames=\"3\"}}.\n{{reaction type=\"Happiness\"}}I fuochi d'artificio sono\npiù raffinati quest'anno.\nCome me, {{pause frames=\"5\"}}{{string value=\"Catchphrase\"}}.",
      "JPja": "{{reaction type=\"Thought\"}}{{kanjiReplace charNum=\"1\" value=\"はじ\"}}始まりの　いきおいもなく\nフィナーレの\nはなやかさもなく{{pause frames=\"3\"}}・{{pause frames=\"3\"}}・{{pause frames=\"3\"}}・\n{{reaction type=\"Happiness\"}}この{{kanjiReplace charNum=\"2\" value=\"じかん\"}}時間の　{{kanjiReplace charNum=\"2\" value=\"はなび\"}}花火って\nけだるい　カンジで\nあたし{{kanjiReplace charNum=\"1\" value=\"ごの\"}}好みだわ、{{pause frames=\"5\"}}{{string value=\"Catchphrase\"}}",
      "KRko": "{{reaction type=\"Thought\"}}시작할 때의 박력도 없어지고\n마지막을 장식하는 피날레의\n화려함도 없고{{pause frames=\"3\"}}.{{pause frames=\"3\"}}.{{pause frames=\"3\"}}.\n{{reaction type=\"Happiness\"}}이 시간의 불꽃놀이는\n지루한 게\n딱 내 취향이야， {{pause frames=\"5\"}}{{string value=\"Catchphrase\"}}",
      "USen": "{{reaction type=\"Thought\"}}The opening isn't too showy,\nand the end is calm and\nunderstated{{pause frames=\"3\"}}.{{pause frames=\"3\"}}.{{pause frames=\"3\"}}.\n{{reaction type=\"Happiness\"}}The fireworks this year\nhave grown more mature,\njust like me, {{pause frames=\"5\"}}{{string value=\"Catchphrase\"}}."
    }
  },
  {
    "label": "04",
    "attribute": "0x00000000FE000000",
    "locale": {
      "EUde": "{{reaction type=\"Worry\"}}Ich denke, das Feuerwerk\nwird bald zu Ende sein.\n\n{{reaction type=\"Agreement\"}}Ich hoffe, am Ende gibt es\nnochmal einen richtigen\nKnall, {{pause frames=\"10\"}}{{string value=\"Catchphrase\"}}!{{reaction type=\"Happiness\"}}",
      "EUen": "{{reaction type=\"Worry\"}}I think the fireworks might\nbe ending pretty soon.\n\n{{reaction type=\"Agreement\"}}I hope the ending is super\nexplosive, {{pause frames=\"10\"}}{{string value=\"Catchphrase\"}}!{{reaction type=\"Happiness\"}}",
      "EUes": "{{reaction type=\"Worry\"}}Creo que los fuegos se van\na acabar dentro de nada.\n\n{{reaction type=\"Agreement\"}}¡Espero que el final sea\nsuperexplosivo, {{pause frames=\"10\"}}{{string value=\"Catchphrase\"}}!{{reaction type=\"Happiness\"}}",
      "EUfr": "{{reaction type=\"Worry\"}}Je crois que le feu\nd'artifice est\nbientôt terminé.\n{{reaction type=\"Agreement\"}}J'espère qu'il finit dans une\nsuper explosion de couleurs,\n{{pause frames=\"10\"}}{{string value=\"Catchphrase\"}}!{{reaction type=\"Happiness\"}}",
      "EUit": "{{reaction type=\"Worry\"}}Penso che i fuochi\nd'artificio finiranno presto.\n\n{{reaction type=\"Agreement\"}}Spero che il finale\nsia spettacolare,\n{{pause frames=\"10\"}}{{string value=\"Catchphrase\"}}!{{reaction type=\"Happiness\"}}",
      "JPja": "{{reaction type=\"Worry\"}}{{kanjiReplace charNum=\"2\" value=\"はなび\"}}花火も　そろそろ\nフィナーレかしら？\n\n{{reaction type=\"Agreement\"}}むねが　スカッとするような\nエンディングを{{kanjiReplace charNum=\"2\" value=\"きたい\"}}期待してるわ！\n{{pause frames=\"10\"}}{{string value=\"Catchphrase\"}}！{{reaction type=\"Happiness\"}}",
      "KRko": "{{reaction type=\"Worry\"}}불꽃놀이도 이제 슬슬\n피날레인가？\n\n{{reaction type=\"Agreement\"}}가슴이 뻥 뚫릴 만한\n엔딩을 기대하고 있겠어！\n{{pause frames=\"10\"}}{{string value=\"Catchphrase\"}}！{{reaction type=\"Happiness\"}}",
      "USen": "{{reaction type=\"Worry\"}}I think the fireworks might\nbe ending pretty soon.\n\n{{reaction type=\"Agreement\"}}I hope the ending is super\nexplosive, {{pause frames=\"10\"}}{{string value=\"Catchphrase\"}}!{{reaction type=\"Happiness\"}}"
    }
  },
  {
    "label": "05",
    "attribute": "0x00000000FE000000",
    "locale": {
      "EUde": "Ich denke, das {{color id=\"3\"}}Feuerwerk\n{{color id=\"0\"}}wird demnächst vorbei sein.\n\n{{reaction type=\"Intense\"}}Ich muss einfach{{pause frames=\"3\"}}.{{pause frames=\"3\"}}.{{pause frames=\"3\"}}.{{pressButton}}{{reaction type=\"Annoyed\"}} TANZEN!\n{{pressButton}}{{reaction type=\"Glee\"}}Mehr,{{pause frames=\"3\"}} mehr,{{pause frames=\"3\"}} mehr!\nGebt mir mehr!{{musicNoteSymbol}}\n.{{pause frames=\"3\"}}.{{pause frames=\"3\"}}.{{pause frames=\"3\"}}Hey!{{pause frames=\"20\"}} {{capitalizeLetter}}{{string value=\"PlayerNickname\"}}! Tanz!{{pause frames=\"5\"}}\nTanz mit mir!",
      "EUen": "I think tonight's {{color id=\"3\"}}Fireworks\nShow{{color id=\"0\"}} will be coming to\nan end soon.\n{{reaction type=\"Intense\"}}This is when I{{pause frames=\"3\"}}.{{pause frames=\"3\"}}.{{pause frames=\"3\"}}.{{pressButton}}{{reaction type=\"Annoyed\"}}can't help\nbut dance! {{pressButton}}{{reaction type=\"Glee\"}}More{{pause frames=\"3\"}} more{{pause frames=\"3\"}} more!\nGive us more!{{musicNoteSymbol}}\n.{{pause frames=\"3\"}}.{{pause frames=\"3\"}}.{{pause frames=\"3\"}}Hey!{{pause frames=\"20\"}} {{capitalizeLetter}}{{string value=\"PlayerNickname\"}}! Dance!{{pause frames=\"5\"}}\nDance with me!",
      "EUes": "Creo que los {{color id=\"3\"}}fuegos\nartificiales{{color id=\"0\"}} se están\nacabando por esta noche.\n{{reaction type=\"Intense\"}}Y ahora es cuando yo{{pause frames=\"3\"}}.{{pause frames=\"3\"}}.{{pause frames=\"3\"}}.{{pressButton}}{{reaction type=\"Annoyed\"}} me\npongo a bailar y a gritar:{{pressButton}}{{reaction type=\"Glee\"}}\n¡queremos{{pause frames=\"3\"}} más!{{pause frames=\"3\"}} {{musicNoteSymbol}}\n¡Oye,{{pause frames=\"20\"}} {{string value=\"PlayerNickname\"}}! ¡Baila!{{pause frames=\"5\"}}\n¡Baila y grita conmigo!",
      "EUfr": "Je pense que le {{color id=\"3\"}}feu\nd'artifice{{color id=\"0\"}} de ce soir\nest bientôt fini.\n{{reaction type=\"Intense\"}}C'est pour ça que je{{pause frames=\"3\"}}.{{pause frames=\"3\"}}.{{pause frames=\"3\"}}.{{pressButton}} {{reaction type=\"Annoyed\"}}ne\npeux m'empêcher de danser!{{pressButton}}\n{{reaction type=\"Glee\"}}J'en veux{{pause frames=\"3\"}} encore{{pause frames=\"3\"}} PLUS!{{musicNoteSymbol}}\n.{{pause frames=\"3\"}}.{{pause frames=\"3\"}}.{{pause frames=\"3\"}} Hé!{{pause frames=\"20\"}} {{capitalizeLetter}}{{string value=\"PlayerNickname\"}}! Danse!\n{{pause frames=\"5\"}} Danse avec moi!",
      "EUit": "Penso che i {{color id=\"3\"}}Fuochi\nd'artificio {{color id=\"0\"}}di stasera\nfiniranno presto.\n{{reaction type=\"Intense\"}}A questo punto io{{pause frames=\"3\"}}.{{pause frames=\"3\"}}.{{pause frames=\"3\"}}.{{pressButton}}{{reaction type=\"Annoyed\"}} non\nposso fare a meno di\nballare! {{pressButton}}{{reaction type=\"Glee\"}}Sì,{{pause frames=\"3\"}} ancora,{{pause frames=\"3\"}} via!\nAncora!{{musicNoteSymbol}}\n.{{pause frames=\"3\"}}.{{pause frames=\"3\"}}.{{pause frames=\"3\"}} Ehi!{{pause frames=\"20\"}} {{capitalizeLetter}}{{string value=\"PlayerNickname\"}}! Balla!{{pause frames=\"5\"}}\nBalla con me!",
      "JPja": "{{kanjiReplace charNum=\"2\" value=\"こんや\"}}今夜の　{{color id=\"3\"}}はなびたいかい{{color id=\"0\"}}も\nそろそろ　フィナーレの\n{{kanjiReplace charNum=\"2\" value=\"じかん\"}}時間ね、{{pause frames=\"5\"}}{{string value=\"Catchphrase\"}}\n{{reaction type=\"Intense\"}}こうなったら　あたし{{pause frames=\"3\"}}・{{pause frames=\"3\"}}・{{pause frames=\"3\"}}・{{pressButton}}\n{{reaction type=\"Annoyed\"}}おどるわ！\n\n{{reaction type=\"Glee\"}}モーレ、{{pause frames=\"3\"}}アモーレ{{musicNoteSymbol}}\n\n\n・{{pause frames=\"3\"}}・{{pause frames=\"3\"}}・{{pause frames=\"3\"}}ホラ！{{pause frames=\"20\"}}\n{{string value=\"PlayerNickname\"}}ちゃんも\nおどって、{{pause frames=\"5\"}}おどって！",
      "KRko": "오늘밤 {{color id=\"3\"}}불꽃축제{{color id=\"0\"}}도\n이제 곧 끝날 시간이네，\n{{pause frames=\"5\"}}{{string value=\"Catchphrase\"}}\n{{reaction type=\"Intense\"}}그럼 이제 난{{pause frames=\"3\"}}.{{pause frames=\"3\"}}.{{pause frames=\"3\"}}.{{pressButton}}\n{{reaction type=\"Annoyed\"}}춤추겠어！\n\n{{reaction type=\"Glee\"}}오ー레， {{pause frames=\"3\"}}오레ー오{{musicNoteSymbol}}\n\n\n.{{pause frames=\"3\"}}.{{pause frames=\"3\"}}.{{pause frames=\"3\"}}뭐해！{{pause frames=\"20\"}}\n{{string value=\"PlayerNickname\"}}도\n춤춰， {{pause frames=\"5\"}}춤추라구！",
      "USen": "I think tonight's {{color id=\"3\"}}Fireworks\nShow{{color id=\"0\"}} will be coming to\nan end soon.\n{{reaction type=\"Intense\"}}This is when I{{pause frames=\"3\"}}.{{pause frames=\"3\"}}.{{pause frames=\"3\"}}.{{pressButton}}{{reaction type=\"Annoyed\"}}can't help\nbut dance! {{pressButton}}{{reaction type=\"Glee\"}}More{{pause frames=\"3\"}} more{{pause frames=\"3\"}} more!\nGive us more!{{musicNoteSymbol}}\n.{{pause frames=\"3\"}}.{{pause frames=\"3\"}}.{{pause frames=\"3\"}}Hey!{{pause frames=\"20\"}} {{capitalizeLetter}}{{string value=\"PlayerNickname\"}}! Dance!{{pause frames=\"5\"}}\nDance with me!"
    }
  },
  {
    "label": "06",
    "attribute": "0x00000000FE000000",
    "locale": {
      "EUde": "Weißt du,{{pause frames=\"15\"}} {{reaction type=\"Happiness\"}}es ist so schön,\ndass ich traurig werde.\n\n{{reaction type=\"Sighing\"}}{{pause frames=\"5\"}}Dieser Sommer ist schon\nwieder ein Jahr her{{pause frames=\"3\"}}.{{pause frames=\"3\"}}.{{pause frames=\"3\"}}.{{pressButton}} {{resetReaction}}Ein\nganzes Jahr, {{pause frames=\"10\"}}{{string value=\"Catchphrase\"}}.",
      "EUen": "You know,{{pause frames=\"15\"}} {{reaction type=\"Happiness\"}}they're so\nbeautiful that they kind of\nmake me sad.\n{{reaction type=\"Sighing\"}}{{pause frames=\"5\"}}It's already been a year\nsince that summer{{pause frames=\"3\"}}.{{pause frames=\"3\"}}.{{pause frames=\"3\"}}.{{pressButton}} {{resetReaction}}A\nwhole year, {{pause frames=\"10\"}}{{string value=\"Catchphrase\"}}.",
      "EUes": "Son tan{{pause frames=\"15\"}} {{reaction type=\"Happiness\"}}bonitos que\nme ponen triste.\n\n{{reaction type=\"Sighing\"}}{{pause frames=\"5\"}}Ya ha pasado un año desde\naquel verano{{pause frames=\"3\"}}.{{pause frames=\"3\"}}.{{pause frames=\"3\"}}.{{pressButton}} {{resetReaction}}Un año\nentero, {{pause frames=\"10\"}}{{string value=\"Catchphrase\"}}.",
      "EUfr": "Tu sais,{{pause frames=\"15\"}} {{reaction type=\"Happiness\"}}c'est si beau que\nj'en suis presque triste.\n\n{{reaction type=\"Sighing\"}}{{pause frames=\"5\"}}Cela faisait un an que\nj'attendais{{pause frames=\"3\"}}.{{pause frames=\"3\"}}.{{pause frames=\"3\"}}.{{pressButton}} {{resetReaction}}une année\nentière, {{pause frames=\"10\"}}{{string value=\"Catchphrase\"}}.",
      "EUit": "Sono così{{pause frames=\"15\"}} {{reaction type=\"Happiness\"}}belli che mi\nmettono tristezza.\n\n{{reaction type=\"Sighing\"}}{{pause frames=\"5\"}}È già passato un anno da\nquell'estate{{pause frames=\"3\"}}.{{pause frames=\"3\"}}.{{pause frames=\"3\"}}.{{pressButton}} {{resetReaction}}Un anno\nintero,{{pause frames=\"10\"}} {{string value=\"Catchphrase\"}}.",
      "JPja": "フフン、{{pause frames=\"15\"}}\n{{reaction type=\"Happiness\"}}{{kanjiReplace charNum=\"1\" value=\"せつ\"}}切ないくらい　キレイだわ\n\n{{reaction type=\"Sighing\"}}{{pause frames=\"5\"}}あの{{kanjiReplace charNum=\"1\" value=\"なつ\"}}夏から\nもう１{{kanjiReplace charNum=\"1\" value=\"ねん\"}}年{{pause frames=\"3\"}}・{{pause frames=\"3\"}}・{{pause frames=\"3\"}}・{{pressButton}}\n{{resetReaction}}１{{kanjiReplace charNum=\"1\" value=\"ねん\"}}年も　たったのね、{{pause frames=\"10\"}}{{string value=\"Catchphrase\"}}",
      "KRko": "흐흥， {{pause frames=\"15\"}}\n{{reaction type=\"Happiness\"}}슬프도록 아름다워\n\n{{reaction type=\"Sighing\"}}{{pause frames=\"5\"}}그 여름 이후로\n벌써１년{{pause frames=\"3\"}}.{{pause frames=\"3\"}}.{{pause frames=\"3\"}}.{{pressButton}}\n{{resetReaction}}１년이나 지났네， {{pause frames=\"10\"}}{{string value=\"Catchphrase\"}}",
      "USen": "You know,{{pause frames=\"15\"}} {{reaction type=\"Happiness\"}}they're so\nbeautiful that they kind of\nmake me sad.\n{{reaction type=\"Sighing\"}}{{pause frames=\"5\"}}It's already been a year\nsince that summer{{pause frames=\"3\"}}.{{pause frames=\"3\"}}.{{pause frames=\"3\"}}.{{pressButton}} {{resetReaction}}A\nwhole year, {{pause frames=\"10\"}}{{string value=\"Catchphrase\"}}."
    }
  },
  {
    "label": "07",
    "attribute": "0x00000000FE000000",
    "locale": {
      "EUde": "{{reaction type=\"Happiness\"}}Wow!{{pause frames=\"15\"}} Das Feuerwerk war\ndieses Jahr so kraftvoll!\n\n{{reaction type=\"Joy\"}}Ich will auch so sein:\nStark UND wunderschön,\n{{pause frames=\"10\"}}{{string value=\"Catchphrase\"}}!",
      "EUen": "{{reaction type=\"Happiness\"}}Wow!{{pause frames=\"15\"}} The fireworks this\nyear were so powerful!\n\n{{reaction type=\"Joy\"}}I'm gonna strive to be just\nlike them: strong AND\nbeautiful, {{pause frames=\"10\"}}{{string value=\"Catchphrase\"}}!",
      "EUes": "{{reaction type=\"Happiness\"}}¡Madre mía!{{pause frames=\"15\"}} ¡Qué potentes\nhan sido los fuegos de\neste año!\n{{reaction type=\"Joy\"}}¡He decidido que quiero ser\ncomo ellos: fuerte y\npreciosa, {{pause frames=\"10\"}}{{string value=\"Catchphrase\"}}!",
      "EUfr": "{{reaction type=\"Happiness\"}}Waouh!{{pause frames=\"15\"}} Les explosions de\ncette année sont si fortes!\n\n{{reaction type=\"Joy\"}}Je vais m'efforcer d'être\ncomme elles: forte ET belle,\n{{pause frames=\"10\"}}{{string value=\"Catchphrase\"}}!",
      "EUit": "{{reaction type=\"Happiness\"}}Wow!{{pause frames=\"15\"}} I fuochi d'artificio\nsono così spettacolari!\n\n{{reaction type=\"Joy\"}}Farò di tutto per essere\ncome loro: forte E\nmagnifica, {{pause frames=\"10\"}}{{string value=\"Catchphrase\"}}!",
      "JPja": "{{reaction type=\"Happiness\"}}フフン！{{pause frames=\"15\"}}\n{{kanjiReplace charNum=\"2\" value=\"こんや\"}}今夜の　{{kanjiReplace charNum=\"2\" value=\"はなび\"}}花火も\nいきおいあるじゃない\n{{reaction type=\"Joy\"}}{{kanjiReplace charNum=\"2\" value=\"ことし\"}}今年も　{{kanjiReplace charNum=\"2\" value=\"はなび\"}}花火みたいに\nパァッと　ハジけなくっちゃ！\n{{pause frames=\"10\"}}{{string value=\"Catchphrase\"}}！",
      "KRko": "{{reaction type=\"Happiness\"}}흐흥！{{pause frames=\"15\"}}\n오늘밤 불꽃놀이도\n박력 있었어\n{{reaction type=\"Joy\"}}올해도 불꽃놀이처럼\n파파팟 타올라야 할 텐데！\n{{pause frames=\"10\"}}{{string value=\"Catchphrase\"}}！",
      "USen": "{{reaction type=\"Happiness\"}}Wow!{{pause frames=\"15\"}} The fireworks this\nyear were so powerful!\n\n{{reaction type=\"Joy\"}}I'm gonna strive to be just\nlike them: strong AND\nbeautiful, {{pause frames=\"10\"}}{{string value=\"Catchphrase\"}}!"
    }
  },
  {
    "label": "08",
    "attribute": "0x00000000FE000000",
    "locale": {
      "EUde": "{{reaction type=\"Sleepy\"}}Wenn man dem Feuerwerk\nzuhört, verraucht auch der\nganze Stress!",
      "EUen": "{{reaction type=\"Sleepy\"}}Just listening to the\nfireworks jolts away a\nweek's worth of stress.",
      "EUes": "{{reaction type=\"Sleepy\"}}Escuchar el ruido que hacen\nlos fuegos te hace olvidar\nel estrés de la semana.",
      "EUfr": "{{reaction type=\"Sleepy\"}}Regarder un feu d'artifice\névacue l'équivalent d'une\nsemaine de stress.",
      "EUit": "{{reaction type=\"Sleepy\"}}Al suono dei fuochi d'arti-\nficio mi butto alle spalle\ngli affanni della settimana.",
      "JPja": "{{reaction type=\"Sleepy\"}}{{kanjiReplace charNum=\"2\" value=\"はなび\"}}花火の{{kanjiReplace charNum=\"1\" value=\"おと\"}}音を　{{kanjiReplace charNum=\"1\" value=\"き\"}}聞いてると\n１{{kanjiReplace charNum=\"2\" value=\"しゅうかん\"}}週間{{kanjiReplace charNum=\"1\" value=\"ぶん\"}}分の　つかれが\n{{kanjiReplace charNum=\"1\" value=\"ぬ\"}}抜けていくわ、{{pause frames=\"10\"}}{{string value=\"Catchphrase\"}}",
      "KRko": "{{reaction type=\"Sleepy\"}}불꽃놀이 소리를 듣고 있으면\n１주일의 피로가 싹\n풀리는 느낌이야， {{pause frames=\"10\"}}{{string value=\"Catchphrase\"}}",
      "USen": "{{reaction type=\"Sleepy\"}}Just listening to the\nfireworks jolts away a\nweek's worth of stress."
    }
  },
  {
    "label": "09",
    "attribute": "0x00000000FE000000",
    "locale": {
      "EUde": "{{reaction type=\"Agreement\"}}Diese Stadt ist die einzige,\ndie ein so tolles {{color id=\"3\"}}Feuerwerk\n{{color id=\"0\"}}macht.\n{{reaction type=\"Joy\"}}Und ich{{pause frames=\"5\"}} bin stolz darauf,\nEinwohner von {{string value=\"TownName\"}}\nzu sein, {{pause frames=\"5\"}}{{string value=\"Catchphrase\"}}.",
      "EUen": "{{reaction type=\"Agreement\"}}This town has got to be the\nonly one doing a {{color id=\"3\"}}Fireworks\nShow{{color id=\"0\"}} this awesome.\n{{reaction type=\"Joy\"}}I, for one,{{pause frames=\"5\"}} am proud to be\na resident of {{string value=\"TownName\"}},\n{{pause frames=\"5\"}}{{string value=\"Catchphrase\"}}.",
      "EUes": "{{reaction type=\"Agreement\"}}Este pueblo debe de ser\nel único con unos {{color id=\"3\"}}fuegos\nartificiales{{color id=\"0\"}} tan increíbles.\n{{reaction type=\"Joy\"}}A mí me hacen sentir{{pause frames=\"5\"}} muy\norgullosa de vivir aquí, en\n{{string value=\"TownName\"}}, {{pause frames=\"5\"}}{{string value=\"Catchphrase\"}}.",
      "EUfr": "{{reaction type=\"Agreement\"}}Cette ville doit être la\nseule à avoir un aussi beau\n{{color id=\"3\"}}feu d'artifice{{color id=\"0\"}}.\n{{reaction type=\"Joy\"}}Pour une fois, je{{pause frames=\"5\"}} suis fière\nd'habiter {{string value=\"TownName\"}},\n{{pause frames=\"5\"}}{{string value=\"Catchphrase\"}}.",
      "EUit": "{{reaction type=\"Agreement\"}}Questa città è l'unica a\norganizzare dei {{color id=\"3\"}}Fuochi\nd'artificio{{color id=\"0\"}} così splendidi.\n{{reaction type=\"Joy\"}}Io sono{{pause frames=\"5\"}} orgogliosa di essere\nuna cittadina di\n{{string value=\"TownName\"}}, {{pause frames=\"5\"}}{{string value=\"Catchphrase\"}}.",
      "JPja": "{{reaction type=\"Agreement\"}}{{kanjiReplace charNum=\"2\" value=\"まいしゅう\"}}毎週　{{color id=\"3\"}}はなびたいかい{{color id=\"0\"}}\nやってるなんて\nきっと　この{{kanjiReplace charNum=\"1\" value=\"むら\"}}村ぐらいよね\n{{reaction type=\"Joy\"}}あたし、{{pause frames=\"5\"}}\n{{string value=\"TownName\"}}{{kanjiReplace charNum=\"1\" value=\"むら\"}}村に　{{kanjiReplace charNum=\"1\" value=\"す\"}}住んでて\n{{kanjiReplace charNum=\"1\" value=\"よ\"}}良かったわ、{{pause frames=\"5\"}}{{string value=\"Catchphrase\"}}",
      "KRko": "{{reaction type=\"Agreement\"}}매주 {{color id=\"3\"}}불꽃축제{{color id=\"0\"}}를\n하는 건\n분명 이 마을뿐일거야\n{{reaction type=\"Joy\"}}나，{{pause frames=\"5\"}}\n{{string value=\"TownName\"}} 마을에 살길\n잘했어， {{pause frames=\"5\"}}{{string value=\"Catchphrase\"}}",
      "USen": "{{reaction type=\"Agreement\"}}This town has got to be the\nonly one doing a {{color id=\"3\"}}Fireworks\nShow{{color id=\"0\"}} this awesome.\n{{reaction type=\"Joy\"}}I, for one,{{pause frames=\"5\"}} am proud to be\na resident of {{string value=\"TownName\"}},\n{{pause frames=\"5\"}}{{string value=\"Catchphrase\"}}."
    }
  },
  {
    "label": "10",
    "attribute": "0x00000000FE000000",
    "locale": {
      "EUde": "{{reaction type=\"Love\"}}Einmal nur{{pause frames=\"5\"}} möchte ich ein\nFeuerwerk von oben erleben!\n\n{{resetReaction}}Aber{{pause frames=\"5\"}} vorher muss ich noch\nmehr wachsen\n{{reaction type=\"Sighing\"}}{{pause frames=\"5\"}}als ein Supermodel.",
      "EUen": "{{reaction type=\"Love\"}}Just once,{{pause frames=\"5\"}} I'd like to be \nable to look down on the\nfireworks exploding!\n{{resetReaction}}But{{pause frames=\"5\"}} before I can do that,\nI have to grow even taller\n{{reaction type=\"Sighing\"}}{{pause frames=\"5\"}}than a supermodel.",
      "EUes": "{{reaction type=\"Love\"}}¡Cómo me gustaría{{pause frames=\"5\"}} ver\ncómo estallan los fuegos,\npero desde arriba!\n{{resetReaction}}Claro que,{{pause frames=\"5\"}} para verlos\nasí, tendría que ser más\nalta que {{reaction type=\"Sighing\"}}{{pause frames=\"5\"}}una supermodelo.",
      "EUfr": "{{reaction type=\"Love\"}}Juste une fois,{{pause frames=\"5\"}} j'aimerais\nvoir les explosions d'en\nhaut!\n{{resetReaction}}Mais{{pause frames=\"5\"}} pour pouvoir faire ça,\nje dois devenir plus grande\n{{reaction type=\"Sighing\"}}{{pause frames=\"5\"}}qu'un top model.",
      "EUit": "{{reaction type=\"Love\"}}Mi piacerebbe{{pause frames=\"5\"}} vedere i\nfuochi d'artificio dall'alto\nin basso!\n{{resetReaction}}Ma{{pause frames=\"5\"}} per farlo dovrei essere\npiù alta di una {{reaction type=\"Sighing\"}}{{pause frames=\"5\"}}top model.",
      "JPja": "{{reaction type=\"Love\"}}あたし、{{pause frames=\"5\"}}{{kanjiReplace charNum=\"2\" value=\"いちど\"}}一度でいいから\n{{kanjiReplace charNum=\"1\" value=\"う\"}}打ち{{kanjiReplace charNum=\"1\" value=\"あ\"}}上げ{{kanjiReplace charNum=\"2\" value=\"はなび\"}}花火を\n{{kanjiReplace charNum=\"2\" value=\"みお\"}}見下ろしてみたいの！\n{{resetReaction}}でも、{{pause frames=\"5\"}}それには　まず\nスーパーモデルよりも\n{{reaction type=\"Sighing\"}}{{kanjiReplace charNum=\"2\" value=\"しんちょう\"}}身長、{{pause frames=\"5\"}}{{kanjiReplace charNum=\"1\" value=\"たか\"}}高くならないとね",
      "KRko": "{{reaction type=\"Love\"}}{{pause frames=\"5\"}}한 번이라도 좋으니까\n불꽃놀이를\n내려다 보고 싶어！\n{{resetReaction}}근데 {{pause frames=\"5\"}}그럴려면 일단은\n슈퍼모델보다도 더\n{{reaction type=\"Sighing\"}}키가 {{pause frames=\"5\"}}커야 할 것 같아",
      "USen": "{{reaction type=\"Love\"}}Just once,{{pause frames=\"5\"}} I'd like to be \nable to look down on the\nfireworks exploding!\n{{resetReaction}}But{{pause frames=\"5\"}} before I can do that,\nI have to grow even taller\n{{reaction type=\"Sighing\"}}{{pause frames=\"5\"}}than a supermodel."
    }
  },
  {
    "label": "11",
    "attribute": "0x00000000FE000000",
    "locale": {
      "EUde": "{{reaction type=\"Sighing\"}}{{pause frames=\"5\"}}Nächste Woche ist das \n{{color id=\"3\"}}Feuerwerk {{color id=\"0\"}}schon zu Ende{{pause frames=\"3\"}}.{{pause frames=\"3\"}}.{{pause frames=\"3\"}}.\nWie langweilig!\n{{reaction type=\"Worry\"}}Das heißt wohl, dass der\nSommer auch zu Ende geht,\n{{pause frames=\"10\"}}{{string value=\"Catchphrase\"}}.",
      "EUen": "{{reaction type=\"Sighing\"}}{{pause frames=\"5\"}}Next week is the end of\nthe{{color id=\"3\"}} Fireworks Show{{color id=\"0\"}}{{pause frames=\"3\"}}.{{pause frames=\"3\"}}.{{pause frames=\"3\"}}.\nWhat a bummer.\n{{reaction type=\"Worry\"}}I guess that means that \nsummer's almost over\ntoo, {{pause frames=\"10\"}}{{string value=\"Catchphrase\"}}.",
      "EUes": "{{reaction type=\"Sighing\"}}{{pause frames=\"5\"}}La semana que viene acaban\nlos{{color id=\"3\"}} fuegos artificiales{{color id=\"0\"}}{{pause frames=\"3\"}}.{{pause frames=\"3\"}}.{{pause frames=\"3\"}}.\nQué rollo.\n{{reaction type=\"Worry\"}}Supongo que eso quiere\ndecir que también se acaba\nel verano, {{pause frames=\"10\"}}{{string value=\"Catchphrase\"}}.",
      "EUfr": "{{reaction type=\"Sighing\"}}{{pause frames=\"5\"}}La semaine prochaine, c'est\nla fin du{{color id=\"3\"}} feu d'artifice{{color id=\"0\"}}{{pause frames=\"3\"}}.{{pause frames=\"3\"}}.{{pause frames=\"3\"}}.\ndommage.\n{{reaction type=\"Worry\"}}Ça veut aussi dire\nque l'été est presque fini,\n{{pause frames=\"10\"}}{{string value=\"Catchphrase\"}}.",
      "EUit": "{{reaction type=\"Sighing\"}}{{pause frames=\"5\"}}La prossima settimana\ni {{color id=\"3\"}}Fuochi d'artificio\n{{color id=\"0\"}}termineranno{{pause frames=\"3\"}}.{{pause frames=\"3\"}}.{{pause frames=\"3\"}}. Che peccato!\n{{reaction type=\"Worry\"}}Significa che anche\nl'estate è ormai alla fine,\n{{pause frames=\"10\"}}{{string value=\"Catchphrase\"}}.",
      "JPja": "{{reaction type=\"Sighing\"}}{{pause frames=\"5\"}}{{kanjiReplace charNum=\"2\" value=\"らいしゅう\"}}来週で\n{{color id=\"3\"}}はなびたいかい{{color id=\"0\"}}も\n{{kanjiReplace charNum=\"1\" value=\"み\"}}見おさめかぁ{{pause frames=\"3\"}}・{{pause frames=\"3\"}}・{{pause frames=\"3\"}}・\n{{reaction type=\"Worry\"}}そろそろ　{{kanjiReplace charNum=\"1\" value=\"なつ\"}}夏も\n{{kanjiReplace charNum=\"1\" value=\"お\"}}終わりの{{kanjiReplace charNum=\"2\" value=\"よかん\"}}予感、{{pause frames=\"10\"}}{{string value=\"Catchphrase\"}}",
      "KRko": "{{reaction type=\"Sighing\"}}{{pause frames=\"5\"}}다음 주면\n{{color id=\"3\"}}불꽃축제{{color id=\"0\"}}도\n끝나는구나{{pause frames=\"3\"}}.{{pause frames=\"3\"}}.{{pause frames=\"3\"}}.\n{{reaction type=\"Worry\"}}이제 여름도\n끝이네， {{pause frames=\"10\"}}{{string value=\"Catchphrase\"}}",
      "USen": "{{reaction type=\"Sighing\"}}{{pause frames=\"5\"}}Next week is the end of\nthe{{color id=\"3\"}} Fireworks Show{{color id=\"0\"}}{{pause frames=\"3\"}}.{{pause frames=\"3\"}}.{{pause frames=\"3\"}}.\nWhat a bummer.\n{{reaction type=\"Worry\"}}I guess that means that \nsummer's almost over\ntoo, {{pause frames=\"10\"}}{{string value=\"Catchphrase\"}}."
    }
  },
  {
    "label": "12",
    "attribute": "0x00000000FE000000",
    "locale": {
      "EUde": "{{resetReaction}}Meine Erinnerung an diesen\nSommer ist{{pause frames=\"3\"}}.{{pause frames=\"3\"}}.{{pause frames=\"3\"}}. {{reaction type=\"Distress\"}}Würg,{{pause frames=\"5\"}} nein,{{pause frames=\"5\"}}\nich kann nicht...\n{{reaction type=\"ColdChill\"}}Ich muss darüber\nhinwegkommen und ihn\nvergessen{{pause frames=\"3\"}}.{{pause frames=\"3\"}}.{{pause frames=\"3\"}}.",
      "EUen": "{{resetReaction}}My memory of summer this\nyear was{{pause frames=\"3\"}}.{{pause frames=\"3\"}}.{{pause frames=\"3\"}}. {{reaction type=\"Distress\"}}Ugh,{{pause frames=\"5\"}} no,{{pause frames=\"5\"}} I can't\nget into it.\n{{reaction type=\"ColdChill\"}}I just need to hurry up\nand forget about him{{pause frames=\"3\"}}.{{pause frames=\"3\"}}.{{pause frames=\"3\"}}.",
      "EUes": "{{resetReaction}}Mis recuerdos de este\nverano{{pause frames=\"3\"}}.{{pause frames=\"3\"}}.{{pause frames=\"3\"}}. {{reaction type=\"Distress\"}}Huy,{{pause frames=\"5\"}} no,{{pause frames=\"5\"}} mejor\nno pensarlo.\n{{reaction type=\"ColdChill\"}}Tengo que olvidarme de él\ncuanto antes{{pause frames=\"3\"}}.{{pause frames=\"3\"}}.{{pause frames=\"3\"}}.",
      "EUfr": "{{resetReaction}}Cette année, mon meilleur\nsouvenir de l'été, c'était{{pause frames=\"3\"}}.{{pause frames=\"3\"}}.{{pause frames=\"3\"}}.\n\n{{reaction type=\"Distress\"}}Aaah,{{pause frames=\"5\"}} non,{{pause frames=\"5\"}} je ne peux pas\nen parler.{{pressButton}} {{reaction type=\"ColdChill\"}}Je dois me\ndépêcher d'oublier{{pause frames=\"3\"}}.{{pause frames=\"3\"}}.{{pause frames=\"3\"}}.",
      "EUit": "{{resetReaction}}Il mio ricordo di questa\nestate è{{pause frames=\"3\"}}.{{pause frames=\"3\"}}.{{pause frames=\"3\"}}. {{reaction type=\"Distress\"}}Oh,{{pause frames=\"5\"}} no,{{pause frames=\"5\"}} non\nscendo nei particolari.{{pressButton}}\n{{reaction type=\"ColdChill\"}}Devo dimenticarmi di lui\na tutti i costi{{pause frames=\"3\"}}.{{pause frames=\"3\"}}.{{pause frames=\"3\"}}.",
      "JPja": "{{resetReaction}}{{kanjiReplace charNum=\"2\" value=\"ことし\"}}今年の　{{kanjiReplace charNum=\"1\" value=\"なつ\"}}夏の\n{{kanjiReplace charNum=\"1\" value=\"おも\"}}思い{{kanjiReplace charNum=\"1\" value=\"で\"}}出は{{pause frames=\"3\"}}・{{pause frames=\"3\"}}・{{pause frames=\"3\"}}・\n\n{{reaction type=\"Distress\"}}あぁー、{{pause frames=\"5\"}}ダメよ、{{pause frames=\"5\"}}ダメ！{{pressButton}}\n{{reaction type=\"ColdChill\"}}アイツのコトは\n{{kanjiReplace charNum=\"1\" value=\"はや\"}}早く　{{kanjiReplace charNum=\"1\" value=\"わす\"}}忘れなきゃ{{pause frames=\"3\"}}・{{pause frames=\"3\"}}・{{pause frames=\"3\"}}・",
      "KRko": "{{resetReaction}}올 여름의\n추억은{{pause frames=\"3\"}}.{{pause frames=\"3\"}}.{{pause frames=\"3\"}}.\n\n{{reaction type=\"Distress\"}}아아ー，{{pause frames=\"5\"}} 안 돼， {{pause frames=\"5\"}}안 된다구！{{pressButton}}\n{{reaction type=\"ColdChill\"}}그 녀석에 관한 건\n빨리 잊어야 돼{{pause frames=\"3\"}}.{{pause frames=\"3\"}}.{{pause frames=\"3\"}}.",
      "USen": "{{resetReaction}}My memory of summer this\nyear was{{pause frames=\"3\"}}.{{pause frames=\"3\"}}.{{pause frames=\"3\"}}. {{reaction type=\"Distress\"}}Ugh,{{pause frames=\"5\"}} no,{{pause frames=\"5\"}} I can't\nget into it.\n{{reaction type=\"ColdChill\"}}I just need to hurry up\nand forget about him{{pause frames=\"3\"}}.{{pause frames=\"3\"}}.{{pause frames=\"3\"}}."
    }
  },
  {
    "label": "13",
    "attribute": "0x00000000FE000000",
    "locale": {
      "EUde": "{{reaction type=\"Worry\"}}Es ist schon traurig, dass\nich lange kein Feuerwerk\nmehr sehen werde.",
      "EUen": "{{reaction type=\"Worry\"}}It's kinda sad to think that\nI won't be able to watch \nfireworks for a while.",
      "EUes": "{{reaction type=\"Worry\"}}Me da pena pensar que\ntardaré un tiempo en volver\na ver fuegos artificiales...",
      "EUfr": "{{reaction type=\"Worry\"}}Dire que je ne verrai plus\nde feu d'artifice avant\nl'an prochain.",
      "EUit": "{{reaction type=\"Worry\"}}È triste sapere che non\nsi vedranno fuochi\nd'artificio per un po'.",
      "JPja": "{{reaction type=\"Worry\"}}{{kanjiReplace charNum=\"2\" value=\"はなび\"}}花火も　これで\n{{kanjiReplace charNum=\"1\" value=\"み\"}}見おさめかと　{{kanjiReplace charNum=\"1\" value=\"おも\"}}思うと\nちょっぴり　さみしいわね",
      "KRko": "{{reaction type=\"Worry\"}}불꽃놀이도 이제\n끝이라고 생각하니\n좀 서운하네",
      "USen": "{{reaction type=\"Worry\"}}It's kinda sad to think that\nI won't be able to watch \nfireworks for a while."
    }
  }
]