[
  {
    "label": "00",
    "attribute": "0x00000000FE000000",
    "locale": {
      "EUde": "{{reaction type=\"Happiness\"}}Hey, {{pause frames=\"5\"}}{{string value=\"PlayerNickname\"}}!{{pause frames=\"10\"}} {{resetReaction}}Du weißt,\ndass morgen das {{color id=\"3\"}}Blumenfest\n{{color id=\"0\"}}beginnt, nicht wahr?!?\n{{reaction type=\"Intense\"}}Am Sonntag wird nur eine\nlachen{{pause frames=\"5\"}}.{{pause frames=\"5\"}}.{{pause frames=\"5\"}}.\n\n{{reaction type=\"Happiness\"}}Geben wir unser Bestes.\nMöge die beste Gärtnerin\ngewinnen, {{pause frames=\"10\"}}{{string value=\"Catchphrase\"}}! {{pressButton}}{{reaction type=\"Mischief\"}}{{color id=\"4\"}}(ICH!)",
      "EUen": "{{reaction type=\"Happiness\"}}Hey, {{pause frames=\"5\"}}{{string value=\"PlayerNickname\"}}!{{pause frames=\"10\"}} {{resetReaction}}You know\nthe {{color id=\"3\"}}Flower Fest {{color id=\"0\"}}starts\ntoday, right?!\n{{reaction type=\"Intense\"}}Only one will be laughing \nnext Sunday{{pause frames=\"5\"}}.{{pause frames=\"5\"}}.{{pause frames=\"5\"}}.\n\n{{reaction type=\"Happiness\"}}Let's both do our best, and\nmay the best gardener win,\n{{pause frames=\"10\"}}{{string value=\"Catchphrase\"}}! {{pressButton}}{{reaction type=\"Mischief\"}}{{color id=\"4\"}}(ME!)",
      "EUes": "{{reaction type=\"Happiness\"}}¡Oye, {{pause frames=\"5\"}}{{string value=\"PlayerNickname\"}}!{{pause frames=\"10\"}} {{resetReaction}}¿Ya te\nhan dicho que hoy empieza\nel {{color id=\"3\"}}Festival de las Flores{{color id=\"0\"}}?\n{{reaction type=\"Intense\"}}Solo un{{gender m=\"o\" f=\"a\"}} de nosotr{{gender m=\"o\" f=\"a\"}}s se\nreirá el próximo domingo{{pause frames=\"5\"}}.{{pause frames=\"5\"}}.{{pause frames=\"5\"}}.\n\n{{reaction type=\"Happiness\"}}Pero hagamos {{gender m=\"los dos\" f=\"las dos\"}} lo que\npodamos. ¡Y que gane {{gender m=\"el\" f=\"la\"}}\nmejor, {{pause frames=\"10\"}}{{string value=\"Catchphrase\"}}! {{pressButton}}{{reaction type=\"Mischief\"}}{{color id=\"4\"}}(¡YO!)",
      "EUfr": "{{reaction type=\"Happiness\"}}Dis, {{pause frames=\"5\"}}{{string value=\"PlayerNickname\"}}!{{pause frames=\"10\"}} {{resetReaction}}Tu sais\nque le {{color id=\"3\"}}festival floral\n{{color id=\"0\"}}débute aujourd'hui, non?!\n{{reaction type=\"Intense\"}}Dimanche prochain, il n'y\naura qu'une personne\nheureuse{{pause frames=\"5\"}}.{{pause frames=\"5\"}}.{{pause frames=\"5\"}}.\n{{reaction type=\"Happiness\"}}Faisons de notre mieux et\nque l{{gender m=\"e\" f=\"a\"}} meilleur{{gender m=\"\" f=\"e\"}} gagne,\n{{pause frames=\"10\"}}{{string value=\"Catchphrase\"}}! {{pressButton}}{{reaction type=\"Mischief\"}}{{color id=\"4\"}}(MOI!)",
      "EUit": "{{reaction type=\"Happiness\"}}Ehi, {{pause frames=\"5\"}}{{string value=\"PlayerNickname\"}}!{{pause frames=\"10\"}} {{resetReaction}}Lo sai\nche il {{color id=\"3\"}}Festival dei fiori {{color id=\"0\"}}\ncomincia oggi, no?!\n{{reaction type=\"Intense\"}}Domenica prossima solo\nun{{gender m=\"o\" f=\"a\"}} di noi avrà di che\nessere felice{{pause frames=\"5\"}}.{{pause frames=\"5\"}}.{{pause frames=\"5\"}}.\n{{reaction type=\"Happiness\"}}Diamoci da fare! E vinca il\ngiardino migliore!\n{{pause frames=\"10\"}}{{capitalizeLetter}}{{string value=\"Catchphrase\"}}! {{pressButton}}{{reaction type=\"Mischief\"}}{{color id=\"4\"}}(Il MIO!)",
      "JPja": "{{reaction type=\"Happiness\"}}あら　{{string value=\"PlayerNickname\"}}ちゃん、{{pause frames=\"10\"}}\n{{resetReaction}}{{kanjiReplace charNum=\"2\" value=\"きょう\"}}今日から\n{{color id=\"3\"}}ガーデニングたいかい{{color id=\"0\"}}よ\n{{reaction type=\"Intense\"}}{{kanjiReplace charNum=\"2\" value=\"らいしゅう\"}}来週の　{{kanjiReplace charNum=\"2\" value=\"にちよう\"}}日曜に\n{{kanjiReplace charNum=\"1\" value=\"わら\"}}笑うコトが　できるのは\nたった　{{kanjiReplace charNum=\"2\" value=\"ひとり\"}}一人{{pause frames=\"5\"}}・{{pause frames=\"5\"}}・{{pause frames=\"5\"}}・\n{{reaction type=\"Laughter\"}}もちろん\n{{kanjiReplace charNum=\"2\" value=\"さいご\"}}最後に　{{kanjiReplace charNum=\"1\" value=\"わら\"}}笑うのは\nこのあたしよ！　{{pause frames=\"5\"}}{{string value=\"Catchphrase\"}}！",
      "KRko": "{{reaction type=\"Happiness\"}}어머， {{pause frames=\"5\"}}{{string value=\"PlayerNickname\"}}{{pause frames=\"10\"}}\n{{resetReaction}}오늘부터\n{{color id=\"3\"}}정원가꾸기대회{{color id=\"0\"}}야\n{{reaction type=\"Intense\"}}이번 주 일요일에\n웃을 수 있는 건 딱 한 사람{{pause frames=\"5\"}}.{{pause frames=\"5\"}}.{{pause frames=\"5\"}}.\n\n{{reaction type=\"Happiness\"}}서로\n우승을 향해\n노력하자구！ {{pause frames=\"10\"}}{{string value=\"Catchphrase\"}}！",
      "USen": "{{reaction type=\"Happiness\"}}Hey, {{pause frames=\"5\"}}{{string value=\"PlayerNickname\"}}!{{pause frames=\"10\"}} {{resetReaction}}You know\nthe {{color id=\"3\"}}Flower Fest {{color id=\"0\"}}starts\ntoday, right?!\n{{reaction type=\"Intense\"}}Only one will be laughing \nnext Sunday{{pause frames=\"5\"}}.{{pause frames=\"5\"}}.{{pause frames=\"5\"}}.\n\n{{reaction type=\"Happiness\"}}Let's both do our best, and\nmay the best gardener win,\n{{pause frames=\"10\"}}{{string value=\"Catchphrase\"}}! {{pressButton}}{{reaction type=\"Mischief\"}}{{color id=\"4\"}}(ME!)"
    }
  },
  {
    "label": "01",
    "attribute": "0x00000000FE000000",
    "locale": {
      "EUde": "Das {{color id=\"3\"}}Blumenfest{{color id=\"0\"}}, auf das wir\nalle gewartet haben, hat\nbegonnen, {{pause frames=\"5\"}}{{string value=\"Catchphrase\"}}!\nSchmücken wir die Stadt mit\nblühenden Blumen!{{pressButton}} {{reaction type=\"Happiness\"}}Sie soll\nso schön werden wie ich!",
      "EUen": "The {{color id=\"3\"}}Flower Fest{{color id=\"0\"}} that we've\nall been waiting for has\nstarted, {{pause frames=\"5\"}}{{string value=\"Catchphrase\"}}!{{color id=\"6\"}}\n{{color id=\"0\"}}Let's paint this town with\nblooming flowers!{{pressButton}} {{reaction type=\"Happiness\"}}Let's\nmake it as pretty as I am!",
      "EUes": "¡Ha empezado el {{color id=\"3\"}}Festival de\nlas Flores{{color id=\"0\"}}! ¡Por fin,\n{{pause frames=\"5\"}}{{string value=\"Catchphrase\"}}!{{color id=\"6\"}}\n{{color id=\"0\"}}¡Vamos a decorar el pueblo\ncon flores de todo tipo!{{pressButton}}\n{{reaction type=\"Happiness\"}}¡Estará tan guapo como yo!",
      "EUfr": "Le {{color id=\"3\"}}festival floral{{color id=\"0\"}} que tout\nle monde attendait a\ncommencé, {{pause frames=\"5\"}}{{string value=\"Catchphrase\"}}!{{color id=\"6\"}}\n{{color id=\"0\"}}Tapissons cette ville de\nbelles fleurs!{{pressButton}} {{reaction type=\"Happiness\"}}Rendons-la\naussi jolie que moi!",
      "EUit": "Il tanto atteso {{color id=\"3\"}}Festival dei\nfiori{{color id=\"0\"}} è cominciato,\n{{pause frames=\"5\"}}{{string value=\"Catchphrase\"}}!{{color id=\"6\"}}\n{{color id=\"0\"}}Diamo colore a questa città\ncon tanti fiori!{{pressButton}} {{reaction type=\"Happiness\"}}Rendiamola\ncarina come me!",
      "JPja": "{{kanjiReplace charNum=\"1\" value=\"ま\"}}待ちに　{{kanjiReplace charNum=\"1\" value=\"ま\"}}待った\n{{color id=\"3\"}}ガーデニングたいかい{{color id=\"0\"}}が\n{{kanjiReplace charNum=\"1\" value=\"はじ\"}}始まったわね、{{pause frames=\"5\"}}{{string value=\"Catchphrase\"}}{{color id=\"6\"}}\n{{color id=\"0\"}}{{kanjiReplace charNum=\"2\" value=\"むらじゅう\"}}村中をお{{kanjiReplace charNum=\"1\" value=\"はな\"}}花で\nいっぱいに　しましょ！{{pressButton}}\n{{reaction type=\"Happiness\"}}あたしのために、{{pause frames=\"5\"}}{{string value=\"Catchphrase\"}}",
      "KRko": "기다리고 기다리던\n{{color id=\"3\"}}정원가꾸기대회{{color id=\"0\"}}가\n시작됐어， {{pause frames=\"5\"}}{{string value=\"Catchphrase\"}}{{color id=\"6\"}}\n{{color id=\"0\"}}마을을 꽃으로\n가득 채우자！{{pressButton}}\n{{reaction type=\"Happiness\"}}날 위해서， {{pause frames=\"5\"}}{{string value=\"Catchphrase\"}}",
      "USen": "The {{color id=\"3\"}}Flower Fest{{color id=\"0\"}} that we've\nall been waiting for has\nstarted, {{pause frames=\"5\"}}{{string value=\"Catchphrase\"}}!{{color id=\"6\"}}\n{{color id=\"0\"}}Let's paint this town with\nblooming flowers!{{pressButton}} {{reaction type=\"Happiness\"}}Let's\nmake it as pretty as I am!"
    }
  },
  {
    "label": "02",
    "attribute": "0x00000000FE000000",
    "locale": {
      "EUde": "He he! Na, {{pause frames=\"5\"}}{{pause frames=\"5\"}}{{string value=\"PlayerNickname\"}},{{pause frames=\"10\"}}\nwie wachsen denn {{reaction type=\"Curiosity\"}}deine\nBlumen so?\n{{reaction type=\"Intense\"}}Der letzte Tag des\n{{color id=\"3\"}}Blumenfestes{{color id=\"0\"}} ist am\nnächsten Sonntag, weißt du?\n{{resetReaction}}Tritt also bis dahin nicht\nin meinen Garten,\n{{pause frames=\"5\"}}{{string value=\"Catchphrase\"}}!",
      "EUen": "Tee hee! So, {{pause frames=\"5\"}}{{string value=\"PlayerNickname\"}},{{pause frames=\"10\"}}\nhow are your {{reaction type=\"Curiosity\"}}flowers\ngrowing?\n{{reaction type=\"Intense\"}}You know the last day of\nthe {{color id=\"3\"}}Flower Fest{{color id=\"0\"}} is next\nSunday, right?!\n{{resetReaction}}So until then, don't go \nmessing around with my \ngarden, {{pause frames=\"5\"}}{{string value=\"Catchphrase\"}}!",
      "EUes": "¡Ja, ja! Dime, {{pause frames=\"5\"}}{{string value=\"PlayerNickname\"}},{{pause frames=\"10\"}}\n¿qué tal {{reaction type=\"Curiosity\"}}van tus flores?\n\n{{reaction type=\"Intense\"}}Sabes que el {{color id=\"3\"}}Festival de las\nFlores{{color id=\"0\"}} acaba el próximo\ndomingo, ¿verdad?\n{{resetReaction}}¡Pues ojito con corretear\npor mi jardín hasta después\ndel domingo, {{pause frames=\"5\"}}{{string value=\"Catchphrase\"}}!",
      "EUfr": "Hi hi! Alors, {{pause frames=\"5\"}}{{pause frames=\"5\"}}{{string value=\"PlayerNickname\"}},{{pause frames=\"10\"}}\ntes {{reaction type=\"Curiosity\"}}fleurs poussent bien?\n\n{{reaction type=\"Intense\"}}Tu sais que le dernier jour\ndu {{color id=\"3\"}}festival floral{{color id=\"0\"}}, c'est\ndimanche prochain, non?!\n{{resetReaction}}Alors, jusque-là, ne fais\npas l{{gender m=\"e\" f=\"a\"}} fo{{gender m=\"u\" f=\"lle\"}} dans\nmon jardin, {{pause frames=\"5\"}}{{string value=\"Catchphrase\"}}!",
      "EUit": "E allora, {{pause frames=\"5\"}}{{pause frames=\"5\"}}{{string value=\"PlayerNickname\"}},{{pause frames=\"10\"}}\ncome vanno {{reaction type=\"Curiosity\"}}i tuoi fiori?\n\n{{reaction type=\"Intense\"}}Lo sai che domenica è\nl'ultimo giorno del {{color id=\"3\"}}Festival\ndei fiori{{color id=\"0\"}}, vero?\n{{resetReaction}}Levati di torno e non\nportar scompiglio nel mio\ngiardino, {{pause frames=\"5\"}}{{string value=\"Catchphrase\"}}!",
      "JPja": "フフン、{{pause frames=\"5\"}}{{pause frames=\"5\"}}{{string value=\"PlayerNickname\"}}ちゃん{{pause frames=\"10\"}}\nおたくの　お{{kanjiReplace charNum=\"1\" value=\"はな\"}}花の{{kanjiReplace charNum=\"2\" value=\"ちょうし\"}}調子は\n{{reaction type=\"Curiosity\"}}どうかしら？\n{{reaction type=\"Intense\"}}{{kanjiReplace charNum=\"3\" value=\"さいしゅうび\"}}最終日は\n{{kanjiReplace charNum=\"2\" value=\"らいしゅう\"}}来週の　{{kanjiReplace charNum=\"2\" value=\"にちよう\"}}日曜よ！\n{{pause frames=\"5\"}}{{string value=\"Catchphrase\"}}！\n{{resetReaction}}それまで　あたしのお{{kanjiReplace charNum=\"1\" value=\"はな\"}}花に\nイタズラとか\nしないでね、{{pause frames=\"5\"}}{{string value=\"Catchphrase\"}}",
      "KRko": "후훗， {{pause frames=\"5\"}}{{pause frames=\"5\"}}{{string value=\"PlayerNickname\"}}{{pause frames=\"10\"}}\n당신네 꽃 상태는\n{{reaction type=\"Curiosity\"}}어때？\n{{reaction type=\"Intense\"}}마지막 날은\n이번 주 일요일이야！\n{{pause frames=\"5\"}}{{string value=\"Catchphrase\"}}！\n{{resetReaction}}그때까지 내 꽃은\n건드리지 말아 줘，\n{{pause frames=\"5\"}}{{string value=\"Catchphrase\"}}",
      "USen": "Tee hee! So, {{pause frames=\"5\"}}{{string value=\"PlayerNickname\"}},{{pause frames=\"10\"}}\nhow are your {{reaction type=\"Curiosity\"}}flowers\ngrowing?\n{{reaction type=\"Intense\"}}You know the last day of\nthe {{color id=\"3\"}}Flower Fest{{color id=\"0\"}} is next\nSunday, right?!\n{{resetReaction}}So until then, don't go \nmessing around with my \ngarden, {{pause frames=\"5\"}}{{string value=\"Catchphrase\"}}!"
    }
  },
  {
    "label": "03",
    "attribute": "0x00000000FE000000",
    "locale": {
      "EUde": "{{reaction type=\"Happiness\"}}Geht in deinem Garten alles\nzu deiner Zufriedenheit,\n{{pause frames=\"10\"}}{{string value=\"Catchphrase\"}}?\n{{reaction type=\"Intense\"}}Das Ergebnis wird am\nSonntag verkündet werden,\nweißt du?\n{{reaction type=\"Mischief\"}}Und der {{color id=\"7\"}}Pokal{{color id=\"0\"}}? Oh,{{pause frames=\"5\"}} den\nwerde ICH mit nach Hause\nnehmen, {{pause frames=\"5\"}}{{string value=\"Catchphrase\"}}!",
      "EUen": "{{reaction type=\"Happiness\"}}Is your garden doing\neverything you want it to,\n{{pause frames=\"10\"}}{{string value=\"Catchphrase\"}}?\n{{reaction type=\"Intense\"}}The results will be\nannounced on Sunday,\nyou know.\n{{reaction type=\"Mischief\"}}And the {{color id=\"7\"}}trophy{{color id=\"0\"}}? Oh,{{pause frames=\"5\"}} I'll be\ntaking that home with ME,\n{{pause frames=\"5\"}}{{string value=\"Catchphrase\"}}!",
      "EUes": "{{reaction type=\"Happiness\"}}¿Estás consiguiendo que el\njardín te quede como\nquieres, {{pause frames=\"10\"}}{{string value=\"Catchphrase\"}}?\n{{reaction type=\"Intense\"}}Los resultados del festival\nse anunciarán el domingo.\n\n{{reaction type=\"Mischief\"}}¿El {{color id=\"7\"}}trofeo{{color id=\"0\"}}?{{pause frames=\"5\"}} ¡Me lo\nllevaré a casa, {{pause frames=\"5\"}}{{string value=\"Catchphrase\"}}!",
      "EUfr": "{{reaction type=\"Happiness\"}}Est-ce que ton jardin\nva comme tu le\nsouhaites, {{pause frames=\"10\"}}{{string value=\"Catchphrase\"}}?\n{{reaction type=\"Intense\"}}Les résultats seront\nannoncés dimanche, tu sais.\n\n{{reaction type=\"Mischief\"}}Et le {{color id=\"7\"}}trophée{{color id=\"0\"}}?{{pause frames=\"5\"}} Je le\nramènerai chez moi,\n{{pause frames=\"5\"}}{{string value=\"Catchphrase\"}}!",
      "EUit": "{{reaction type=\"Happiness\"}}Il tuo giardino sta\nriuscendo bene,\n{{pause frames=\"10\"}}{{string value=\"Catchphrase\"}}?\n{{reaction type=\"Intense\"}}I risultati saranno\nannunciati domenica.\n\n{{reaction type=\"Mischief\"}}Il {{color id=\"7\"}}trofeo{{color id=\"0\"}}? Oh,{{pause frames=\"5\"}} quello\nme lo porterò a casa IO,\n{{pause frames=\"5\"}}{{string value=\"Catchphrase\"}}!",
      "JPja": "{{reaction type=\"Happiness\"}}あら、{{pause frames=\"5\"}}{{string value=\"PlayerNickname\"}}ちゃん{{pause frames=\"10\"}}\nおたくのガーデニング\nうまく　いってる？　{{pause frames=\"10\"}}{{string value=\"Catchphrase\"}}？\n{{reaction type=\"Intense\"}}{{kanjiReplace charNum=\"2\" value=\"けっか\"}}結果{{kanjiReplace charNum=\"2\" value=\"はっぴょう\"}}発表は\n{{kanjiReplace charNum=\"2\" value=\"らいしゅう\"}}来週の　{{kanjiReplace charNum=\"3\" value=\"にちようび\"}}日曜日{{pause frames=\"3\"}}・{{pause frames=\"3\"}}・{{pause frames=\"3\"}}・\n\n{{reaction type=\"Happiness\"}}{{color id=\"7\"}}トロフィー{{color id=\"0\"}}は　{{kanjiReplace charNum=\"2\" value=\"ぜったい\"}}絶対\nあたしが　いただくわ！\n{{pause frames=\"10\"}}{{string value=\"Catchphrase\"}}！",
      "KRko": "{{reaction type=\"Happiness\"}}당신， 정원가꾸기는\n잘 돼가？\n{{pause frames=\"10\"}}{{string value=\"Catchphrase\"}}？\n{{reaction type=\"Intense\"}}결과 발표는\n이번 주 일요일이야\n\n{{reaction type=\"Mischief\"}}{{color id=\"7\"}}트로피{{color id=\"0\"}}는 반드시\n내가 갖게 될거야！\n{{pause frames=\"5\"}}{{string value=\"Catchphrase\"}}！",
      "USen": "{{reaction type=\"Happiness\"}}Is your garden doing\neverything you want it to,\n{{pause frames=\"10\"}}{{string value=\"Catchphrase\"}}?\n{{reaction type=\"Intense\"}}The results will be\nannounced on Sunday,\nyou know.\n{{reaction type=\"Mischief\"}}And the {{color id=\"7\"}}trophy{{color id=\"0\"}}? Oh,{{pause frames=\"5\"}} I'll be\ntaking that home with ME,\n{{pause frames=\"5\"}}{{string value=\"Catchphrase\"}}!"
    }
  },
  {
    "label": "04",
    "attribute": "0x00000000FE000000",
    "locale": {
      "EUde": "Hmmm. {{pause frames=\"5\"}}Nun, {{reaction type=\"Mischief\"}}ich werde ganz\n{{string value=\"TownName\"}} in einen\nBlumengarten verwandeln!",
      "EUen": "Hmm. {{pause frames=\"5\"}}Well, {{reaction type=\"Mischief\"}}I plan to make\nall of {{string value=\"TownName\"}} beautiful\nlike a flower garden.",
      "EUes": "¿Sabes?{{pause frames=\"5\"}}{{reaction type=\"Mischief\"}} Voy a dejar\n{{string value=\"TownName\"}} tan bonito\ncomo un jardín de flores.",
      "EUfr": "Hum... {{pause frames=\"5\"}}eh bien, {{reaction type=\"Mischief\"}}j'ai prévu\nde rendre {{string value=\"TownName\"}} aussi\nbelle qu'un jardin en fleurs.",
      "EUit": "Mmm. {{pause frames=\"5\"}}Beh, {{reaction type=\"Mischief\"}}io vorrei rendere\n{{string value=\"TownName\"}} bella come un\ngiardino fiorito.",
      "JPja": "{{reaction type=\"Happiness\"}}はりきってるわね\n{{string value=\"PlayerNickname\"}}ちゃん！\n\n{{resetReaction}}いろんな　お{{kanjiReplace charNum=\"1\" value=\"はな\"}}花をうえて\n{{string value=\"TownName\"}}{{kanjiReplace charNum=\"1\" value=\"むら\"}}村を\nあたしみたいに　しましょ！",
      "KRko": "후훗， {{pause frames=\"5\"}}여러 가지 꽃을 심어서\n{{reaction type=\"Mischief\"}}{{string value=\"TownName\"}} 마을을\n화원으로 만들어 보겠어",
      "USen": "Hmm. {{pause frames=\"5\"}}Well, {{reaction type=\"Mischief\"}}I plan to make\nall of {{string value=\"TownName\"}} beautiful\nlike a flower garden."
    }
  },
  {
    "label": "05",
    "attribute": "0x00000000FE000000",
    "locale": {
      "EUde": "{{reaction type=\"Happiness\"}}Oh, hey, {{pause frames=\"5\"}}{{string value=\"PlayerNickname\"}},{{pause frames=\"10\"}}\nwie geht es deinen Blumen?\n{{resetReaction}}Weißt du,\nam Sonntag wird der\nGewinner ernannt. {{pause frames=\"5\"}}Ich hoffe,\nich werde der {{color id=\"2\"}}Grüne Daumen{{color id=\"0\"}}!\n{{reaction type=\"Happiness\"}}Bis dahin werden wir beide\naber noch hart arbeiten\nmüssen!",
      "EUen": "{{reaction type=\"Happiness\"}}Oh, hey, {{pause frames=\"5\"}}{{string value=\"PlayerNickname\"}},{{pause frames=\"10\"}}\nhow are your flowers doing?\n{{resetReaction}}You know,\nthey're announcing the\nwinner on Sunday. {{pause frames=\"5\"}}I hope I'm\nthis year's {{color id=\"2\"}}Green Thumb{{color id=\"0\"}}!\n{{reaction type=\"Happiness\"}}Until then, let's both\nkeep up the hard work!",
      "EUes": "{{reaction type=\"Happiness\"}}Eh, oye, {{pause frames=\"5\"}}{{string value=\"PlayerNickname\"}},{{pause frames=\"10\"}}\n¿cómo van tus flores?\n\n{{resetReaction}}Ya sabrás que el domingo\nse anunciará el ganador del\nfestival... {{pause frames=\"5\"}}\n¡Espero ser yo la {{color id=\"2\"}}Florista\nMayor{{color id=\"0\"}}! {{reaction type=\"Happiness\"}}¡Pero, hasta que se\nanuncie, seguiré trabajando!",
      "EUfr": "{{reaction type=\"Happiness\"}}Oh, dis, {{pause frames=\"5\"}}{{string value=\"PlayerNickname\"}},{{pause frames=\"10\"}}\nque donnent tes fleurs?\n\n{{resetReaction}}Tu sais, ils annoncent le\nvainqueur dimanche.\n\n{{pause frames=\"5\"}}J'espère que je serai le\n{{color id=\"2\"}}Pouce vert{{color id=\"0\"}} cette année!\n{{reaction type=\"Happiness\"}}En attendant, continuons!",
      "EUit": "{{reaction type=\"Happiness\"}}Oh, ehi, {{pause frames=\"5\"}}{{string value=\"PlayerNickname\"}},{{pause frames=\"10\"}}\ncome vanno i tuoi fiori?\n\n{{resetReaction}}Domenica verrà annunciato\nil vincitore. {{pause frames=\"5\"}}Spero di\nessere io il {{color id=\"2\"}}Pollice verde{{color id=\"0\"}}!\n{{reaction type=\"Happiness\"}}Vale la pena continuare a\ndarsi da fare!",
      "JPja": "{{reaction type=\"Happiness\"}}あら　{{string value=\"PlayerNickname\"}}ちゃん、{{pause frames=\"10\"}}\nお{{kanjiReplace charNum=\"1\" value=\"はな\"}}花の{{kanjiReplace charNum=\"2\" value=\"ちょうし\"}}調子は　いかが？\n\n{{resetReaction}}{{kanjiReplace charNum=\"3\" value=\"にちようび\"}}日曜日は　いよいよ\n{{kanjiReplace charNum=\"2\" value=\"けっか\"}}結果{{kanjiReplace charNum=\"2\" value=\"はっぴょう\"}}発表よ！",
      "KRko": "{{reaction type=\"Happiness\"}}어머， {{pause frames=\"5\"}}{{string value=\"PlayerNickname\"}}{{pause frames=\"10\"}}\n꽃 상태는 어때？\n\n{{resetReaction}}일요일엔 드디어\n결과 발표야， {{pause frames=\"5\"}}{{string value=\"Catchphrase\"}}\n\n{{reaction type=\"Happiness\"}}마지막까지\n열심히 하자！",
      "USen": "{{reaction type=\"Happiness\"}}Oh, hey, {{pause frames=\"5\"}}{{string value=\"PlayerNickname\"}},{{pause frames=\"10\"}}\nhow are your flowers doing?\n{{resetReaction}}You know,\nthey're announcing the\nwinner on Sunday. {{pause frames=\"5\"}}I hope I'm\nthis year's {{color id=\"2\"}}Green Thumb{{color id=\"0\"}}!\n{{reaction type=\"Happiness\"}}Until then, let's both\nkeep up the hard work!"
    }
  },
  {
    "label": "06",
    "attribute": "0x00000000FE000000",
    "locale": {
      "EUde": "{{reaction type=\"Happiness\"}}Das{{color id=\"3\"}} Blumenfest {{color id=\"0\"}}nähert sich\nschnell seinem Ende! {{pause frames=\"10\"}}Sag\nmir, {{string value=\"PlayerNickname\"}}...\n{{reaction type=\"Curiosity\"}}Ist dein Garten so gut\ngeworden, wie du wolltest?\n{{pause frames=\"10\"}}So gut, wie du KONNTEST?\n{{resetReaction}}Selbst wenn du verlierst,\nsolltest du auf deine\nBlumen achten, {{pause frames=\"5\"}}{{string value=\"Catchphrase\"}}.",
      "EUen": "{{reaction type=\"Happiness\"}}The{{color id=\"3\"}} Flower Fest{{color id=\"0\"}} is quickly\ncoming to an end! {{pause frames=\"10\"}}So, tell\nme, {{string value=\"PlayerNickname\"}}...\n{{reaction type=\"Curiosity\"}}Is your garden everything\nyou want it to be?\n{{pause frames=\"10\"}}Everything it COULD be?\n{{resetReaction}}Even if you don't win, you\nSHOULD take care of your\nflowers, {{pause frames=\"5\"}}{{string value=\"Catchphrase\"}}.",
      "EUes": "{{reaction type=\"Happiness\"}}¡El{{color id=\"3\"}} Festival de las Flores{{color id=\"0\"}} se\nestá acabando!{{pause frames=\"10\"}}\nDime, {{string value=\"PlayerNickname\"}}...\n{{reaction type=\"Curiosity\"}}¿Tu jardín está tal y como\nquerías? {{pause frames=\"10\"}}¿Has conseguido\ndejarlo bien bonito?\n{{resetReaction}}Porque, aunque no ganes,\ntienes que ocuparte de tus\nflores, ¿sabes, {{pause frames=\"5\"}}{{string value=\"Catchphrase\"}}?",
      "EUfr": "{{reaction type=\"Happiness\"}}Le{{color id=\"3\"}} festival floral{{color id=\"0\"}} se\ntermine bientôt! {{pause frames=\"10\"}}Alors,\ndis-moi, {{string value=\"PlayerNickname\"}}...\n{{reaction type=\"Curiosity\"}}Ton jardin est comme tu\nvoulais qu'il soit? {{pause frames=\"10\"}}Ou\ntu aurais pu faire mieux?\n{{resetReaction}}Même si tu ne gagnes pas,\ntu DEVRAIS prendre soin de\ntes fleurs, {{pause frames=\"5\"}}{{string value=\"Catchphrase\"}}.",
      "EUit": "{{reaction type=\"Happiness\"}}Il{{color id=\"3\"}} Festival dei fiori{{color id=\"0\"}} sta\nvolgendo alla fine! {{pause frames=\"10\"}}Dimmi,\n{{string value=\"PlayerNickname\"}}...\n{{reaction type=\"Curiosity\"}}Va bene il tuo giardino?\n{{pause frames=\"10\"}}Stai dando il massimo?\n\n{{resetReaction}}Anche se non vinci, devi\ncontinuare a prenderti cura\ndei tuoi fiori, {{pause frames=\"5\"}}{{string value=\"Catchphrase\"}}.",
      "JPja": "{{reaction type=\"Happiness\"}}{{color id=\"3\"}}ガーデニングたいかい{{color id=\"0\"}}も\nそろそろ　ラストスパートね\n\n{{reaction type=\"Resignation\"}}フフン、{{pause frames=\"10\"}}\nあたしは　いつだって\nがけっぷちの　{{kanjiReplace charNum=\"1\" value=\"オンナ\"}}女だけど！",
      "KRko": "{{reaction type=\"Happiness\"}}{{color id=\"3\"}}정원가꾸기대회{{color id=\"0\"}}도\n이제 막바지에 접어들었네\n\n{{string value=\"PlayerNickname\"}}의\n{{reaction type=\"Curiosity\"}}정원은 잘 꾸미고 있니？\n\n{{resetReaction}}꽃 돌보는 것 정도는\n제대로 하렴， {{pause frames=\"5\"}}{{string value=\"Catchphrase\"}}",
      "USen": "{{reaction type=\"Happiness\"}}The{{color id=\"3\"}} Flower Fest{{color id=\"0\"}} is quickly\ncoming to an end! {{pause frames=\"10\"}}So, tell\nme, {{string value=\"PlayerNickname\"}}...\n{{reaction type=\"Curiosity\"}}Is your garden everything\nyou want it to be?\n{{pause frames=\"10\"}}Everything it COULD be?\n{{resetReaction}}Even if you don't win, you\nSHOULD take care of your\nflowers, {{pause frames=\"5\"}}{{string value=\"Catchphrase\"}}."
    }
  },
  {
    "label": "07",
    "attribute": "0x00000000FE000000",
    "locale": {
      "EUde": "Das {{color id=\"3\"}}Blumenfest {{color id=\"0\"}}ist fast um.{{pause frames=\"5\"}}\nJeder fragt sich, wer der\n{{color id=\"2\"}}Grüne Daumen {{color id=\"0\"}}sein wird.\n{{reaction type=\"Happiness\"}}Ich? {{pressButton}}Ich will nur sehen, ob\ndu das alles durchstehst,\n{{pause frames=\"5\"}}{{string value=\"Catchphrase\"}}!",
      "EUen": "The {{color id=\"3\"}}Flower Fest {{color id=\"0\"}}is almost\nover.{{pause frames=\"5\"}} Everyone's wondering\nwho'll be the {{color id=\"2\"}}Green Thumb{{color id=\"0\"}}.\n{{reaction type=\"Happiness\"}}Me? {{pressButton}}I just wanna see if you\ncan see this whole thing\nthrough, {{pause frames=\"5\"}}{{string value=\"Catchphrase\"}}!",
      "EUes": "El {{color id=\"3\"}}Festival de las Flores {{color id=\"0\"}}se\nacaba{{pause frames=\"5\"}} y todos quieren saber\nquién será {{color id=\"2\"}}Florista Mayor{{color id=\"0\"}}.\n{{reaction type=\"Happiness\"}}¿Yo? {{pressButton}}Es probable. ¡Yo solo\nquiero saber si tú logras\nsobrevivir, {{pause frames=\"5\"}}{{string value=\"Catchphrase\"}}!",
      "EUfr": "Le {{color id=\"3\"}}festival floral {{color id=\"0\"}}touche à\nsa fin.{{pause frames=\"5\"}} Qui sera le {{color id=\"2\"}}Pouce\nvert{{color id=\"0\"}} cette année?\n{{reaction type=\"Happiness\"}}Moi? {{pressButton}}Je veux juste\nvoir si tu vas jusqu'au\nbout, {{pause frames=\"5\"}}{{string value=\"Catchphrase\"}}!",
      "EUit": "Il {{color id=\"3\"}}Festival dei fiori {{color id=\"0\"}}è quasi\nfinito.{{pause frames=\"5\"}} Chi sarà il {{color id=\"2\"}}Pollice\nverde{{color id=\"0\"}}? Sono tutti curiosi!\n{{reaction type=\"Happiness\"}}Io? {{pressButton}}Sono ansiosa di\nvedere come te la cavi tu,\n{{pause frames=\"5\"}}{{string value=\"Catchphrase\"}}!",
      "JPja": "{{color id=\"3\"}}ガーデニングたいかい{{color id=\"0\"}}も\nあと{{kanjiReplace charNum=\"1\" value=\"すこ\"}}少しね、{{pause frames=\"5\"}}{{string value=\"Catchphrase\"}}\n\n{{reaction type=\"Happiness\"}}おたくの　{{kanjiReplace charNum=\"2\" value=\"こんき\"}}根気が\n{{kanjiReplace charNum=\"2\" value=\"さいご\"}}最後まで　もつか\n{{kanjiReplace charNum=\"1\" value=\"たの\"}}楽しみにしてるわ、{{pause frames=\"5\"}}{{string value=\"Catchphrase\"}}",
      "KRko": "{{color id=\"3\"}}정원가꾸기대회{{color id=\"0\"}}도\n이제 얼마 안 남았어， {{pause frames=\"5\"}}\n{{string value=\"Catchphrase\"}}\n{{reaction type=\"Happiness\"}}당신의 끈기가\n마지막까지 갈지\n기대되는걸， {{pause frames=\"5\"}}{{string value=\"Catchphrase\"}}",
      "USen": "The {{color id=\"3\"}}Flower Fest {{color id=\"0\"}}is almost\nover.{{pause frames=\"5\"}} Everyone's wondering\nwho'll be the {{color id=\"2\"}}Green Thumb{{color id=\"0\"}}.\n{{reaction type=\"Happiness\"}}Me? {{pressButton}}I just wanna see if you\ncan see this whole thing\nthrough, {{pause frames=\"5\"}}{{string value=\"Catchphrase\"}}!"
    }
  },
  {
    "label": "08",
    "attribute": "0x00000000FE000000",
    "locale": {
      "EUde": "{{resetReaction}}Ich werde bald aufhören,\nmit Blüten um mich zu\nwerfen.\nEs geht nicht ums Gärtnern,{{reaction type=\"Mischief\"}}\nsondern darum, {{string value=\"TownName\"}}\nzu verschönern{{pause frames=\"3\"}}.{{pause frames=\"3\"}}.{{pause frames=\"3\"}}.\n{{reaction type=\"Resignation\"}}Der {{color id=\"6\"}}Bürgermeister{{color id=\"0\"}} ist\nbestimmt zufrieden mit\nsich, {{pause frames=\"10\"}}{{string value=\"Catchphrase\"}}.",
      "EUen": "{{resetReaction}}My days of surrounding\nmyself with blooms will\ncome to an end today.\nIt seems like gardening, {{reaction type=\"Mischief\"}}\nbut it's about beautifying\n{{string value=\"TownName\"}} in the end{{pause frames=\"3\"}}.{{pause frames=\"3\"}}.{{pause frames=\"3\"}}.\n{{reaction type=\"Resignation\"}}The{{color id=\"6\"}} mayor{{color id=\"0\"}} must be very \npleased with himself,\n{{pause frames=\"10\"}}{{string value=\"Catchphrase\"}}.",
      "EUes": "{{resetReaction}}Hoy se acabarán estos días\nhermosos que he pasado\nrodeada de flores.\nEl festival es de jardinería,\npero {{reaction type=\"Mischief\"}}también embellece\n{{string value=\"TownName\"}}{{pause frames=\"3\"}}.{{pause frames=\"3\"}}.{{pause frames=\"3\"}}.\n{{reaction type=\"Resignation\"}}El{{color id=\"6\"}} alcalde{{color id=\"0\"}} debe de estar\nmuy orgulloso de sí mismo,\n{{pause frames=\"10\"}}{{string value=\"Catchphrase\"}}.",
      "EUfr": "{{resetReaction}}Aujourd'hui, c'est le\ndernier jour pour\nplanter des fleurs.\nCe n'est pas que du\njardinage, {{reaction type=\"Mischief\"}}mais le but est\nd'embellir {{string value=\"TownName\"}}{{pause frames=\"3\"}}.{{pause frames=\"3\"}}.{{pause frames=\"3\"}}.\n{{reaction type=\"Resignation\"}}Le{{color id=\"6\"}} maire{{color id=\"0\"}} doit être très\ncontent, {{pause frames=\"10\"}}{{string value=\"Catchphrase\"}}.",
      "EUit": "{{resetReaction}}Da oggi in poi non sarò più\ncircondata da fiori. Non è\nsolo una questione di\ngiardinaggio, {{reaction type=\"Mischief\"}}con i fiori\nsi rende {{string value=\"TownName\"}} più\nbella{{pause frames=\"3\"}}.{{pause frames=\"3\"}}.{{pause frames=\"3\"}}.\n{{reaction type=\"Resignation\"}}Il{{color id=\"6\"}} sindaco{{color id=\"0\"}} deve essere\nmolto orgoglioso,\n{{pause frames=\"10\"}}{{string value=\"Catchphrase\"}}.",
      "JPja": "{{resetReaction}}お{{kanjiReplace charNum=\"1\" value=\"はな\"}}花まみれの　{{kanjiReplace charNum=\"2\" value=\"せいかつ\"}}生活も\nいよいよ　{{kanjiReplace charNum=\"2\" value=\"きょう\"}}今日で\nおしまいね、{{pause frames=\"10\"}}{{string value=\"Catchphrase\"}}\nガーデニングとは　{{kanjiReplace charNum=\"1\" value=\"な\"}}名ばかりの\n{{reaction type=\"Mischief\"}}{{string value=\"TownName\"}}{{kanjiReplace charNum=\"1\" value=\"むら\"}}村の\nかんきょう{{kanjiReplace charNum=\"2\" value=\"せいび\"}}整備イベント{{pause frames=\"3\"}}・{{pause frames=\"3\"}}・{{pause frames=\"3\"}}・\n{{reaction type=\"Resignation\"}}{{color id=\"6\"}}{{kanjiReplace charNum=\"2\" value=\"そんちょう\"}}村長さん{{color id=\"0\"}}も　さぞや\nホクホクでしょうね、\n{{pause frames=\"10\"}}{{string value=\"Catchphrase\"}}",
      "KRko": "{{resetReaction}}꽃에 둘러싸인 생활도\n이제 오늘로\n끝이네， {{pause frames=\"10\"}}{{string value=\"Catchphrase\"}}\n정원가꾸기란 이름으로 이루어지는\n{{reaction type=\"Mischief\"}}{{string value=\"TownName\"}} 마을의\n환경 정비 이벤트{{pause frames=\"3\"}}.{{pause frames=\"3\"}}.{{pause frames=\"3\"}}.\n{{reaction type=\"Resignation\"}}{{color id=\"6\"}}촌장님{{color id=\"0\"}}은\n아마 싱글벙글하겠지，\n{{pause frames=\"10\"}}{{string value=\"Catchphrase\"}}",
      "USen": "{{resetReaction}}My days of surrounding\nmyself with blooms will\ncome to an end today.\nIt seems like gardening, {{reaction type=\"Mischief\"}}\nbut it's about beautifying\n{{string value=\"TownName\"}} in the end{{pause frames=\"3\"}}.{{pause frames=\"3\"}}.{{pause frames=\"3\"}}.\n{{reaction type=\"Resignation\"}}The{{color id=\"6\"}} mayor{{color id=\"0\"}} must be very \npleased with himself,\n{{pause frames=\"10\"}}{{string value=\"Catchphrase\"}}."
    }
  },
  {
    "label": "09",
    "attribute": "0x00000000FE000000",
    "locale": {
      "EUde": "Heute endet das {{color id=\"3\"}}Blumenfest{{color id=\"0\"}},\naber ich frage mich...\n\n{{reaction type=\"Curiosity\"}}Ist {{string value=\"TownName\"}} jetzt\nwirklich ein Pflanzen-\nparadies geworden,\n{{reaction type=\"Worry\"}}wie der{{color id=\"6\"}} Bürgermeister{{color id=\"0\"}} das\nvon Anfang an vorhatte,\n{{pause frames=\"5\"}}{{string value=\"Catchphrase\"}}?",
      "EUen": "Today marks the end of the\n{{color id=\"3\"}}Flower Fest{{color id=\"0\"}}, but I'm\nwondering something.\n{{reaction type=\"Curiosity\"}}Has {{string value=\"TownName\"}} really been\ntransformed into the\nbotanical paradise\n{{reaction type=\"Worry\"}}that the{{color id=\"6\"}} mayor{{color id=\"0\"}} was aiming\nfor when he thought up the\nevent, {{pause frames=\"5\"}}{{string value=\"Catchphrase\"}}?",
      "EUes": "Hoy es el último día del\n{{color id=\"3\"}}Festival de las Flores {{color id=\"0\"}}y yo\ntengo una duda.\n{{reaction type=\"Curiosity\"}}¿De verdad hemos\nconvertido {{string value=\"TownName\"}} en\nun paraíso botánico?\n{{reaction type=\"Worry\"}}¿Ese que el{{color id=\"6\"}} alcalde{{color id=\"0\"}} deseaba\nconseguir cuando organizó\neste festival, {{pause frames=\"5\"}}{{string value=\"Catchphrase\"}}?",
      "EUfr": "C'est le dernier jour du\n{{color id=\"3\"}}festival floral{{color id=\"0\"}}, mais je me\ndemande quelque chose.\n{{reaction type=\"Curiosity\"}}Est-ce que {{string value=\"TownName\"}} a\nvraiment été transformée\nen ce paradis botanique\n{{reaction type=\"Worry\"}}que souhaitait le{{color id=\"6\"}} maire\n{{color id=\"0\"}}quand il a organisé cet\névènement, {{pause frames=\"5\"}}{{string value=\"Catchphrase\"}}?",
      "EUit": "Oggi finisce il {{color id=\"3\"}}Festival dei\nfiori{{color id=\"0\"}}. Mi chiedevo una\ncosa, però...\n{{reaction type=\"Curiosity\"}}{{string value=\"TownName\"}} sarà diventata\nun paradiso dei fiori come\nvoleva {{reaction type=\"Worry\"}}il{{color id=\"6\"}} sindaco{{color id=\"0\"}} quando ha\norganizzato questa\nmanifestazione,\n{{pause frames=\"5\"}}{{string value=\"Catchphrase\"}}?",
      "JPja": "{{resetReaction}}{{color id=\"3\"}}ガーデニングたいかい{{color id=\"0\"}}も\nもう　おしまいね\n\n{{reaction type=\"Worry\"}}あたし　{{pause frames=\"5\"}}ちょっと{{pause frames=\"10\"}}\n{{kanjiReplace charNum=\"2\" value=\"ひや\"}}日焼けしちゃった、{{pause frames=\"10\"}}{{string value=\"Catchphrase\"}}\n\n{{reaction type=\"Intense\"}}これで　{{kanjiReplace charNum=\"2\" value=\"ゆうしょう\"}}優勝\nできなかったら、{{pause frames=\"5\"}}\nせきにん　{{kanjiReplace charNum=\"1\" value=\"と\"}}取ってもらうから！",
      "KRko": "오늘로 {{color id=\"3\"}}정원가꾸기대회{{color id=\"0\"}}도\n끝인데，\n\n{{reaction type=\"Worry\"}}야망이 크신 {{color id=\"6\"}}촌장님{{color id=\"0\"}}이\n그렇게나 바라던\n\n꽃이 가득한\n{{reaction type=\"Curiosity\"}}{{string value=\"TownName\"}} 마을로\n변했을려나， {{pause frames=\"5\"}}{{string value=\"Catchphrase\"}}",
      "USen": "Today marks the end of the\n{{color id=\"3\"}}Flower Fest{{color id=\"0\"}}, but I'm\nwondering something.\n{{reaction type=\"Curiosity\"}}Has {{string value=\"TownName\"}} really been\ntransformed into the\nbotanical paradise\n{{reaction type=\"Worry\"}}that the{{color id=\"6\"}} mayor{{color id=\"0\"}} was aiming\nfor when he thought up the\nevent, {{pause frames=\"5\"}}{{string value=\"Catchphrase\"}}?"
    }
  },
  {
    "label": "10",
    "attribute": "0x00000000FF000000",
    "locale": {
      "EUde": "{{reaction type=\"Happiness\"}}Meine Kleidung und meine\nSchuhe riechen nach Blumen.\n{{pressButton}}{{reaction type=\"Fearful\"}}Und nach Erde!",
      "EUen": "{{reaction type=\"Happiness\"}}My clothes and shoes all\nsmell like flowers. {{pressButton}}{{reaction type=\"Fearful\"}}And dirt.",
      "EUes": "{{reaction type=\"Happiness\"}}La ropa y los zapatos me\nhuelen a flores. {{pressButton}}{{reaction type=\"Fearful\"}}Y a tierra.",
      "EUfr": "{{reaction type=\"Happiness\"}}Mes habits et mes\nchaussures sentent les\nfleurs... {{pressButton}}{{reaction type=\"Fearful\"}}et la terre.",
      "EUit": "{{reaction type=\"Happiness\"}}I miei vestiti e le scarpe\nprofumano di fiori. {{pressButton}}{{reaction type=\"Fearful\"}}\nE di sporco.",
      "JPja": "フフン、{{pause frames=\"5\"}}\nいいカオリね！　{{pause frames=\"10\"}}{{string value=\"Catchphrase\"}}！",
      "KRko": "{{reaction type=\"Happiness\"}}옷이나 구두도\n꽃 향기로 가득해",
      "USen": "{{reaction type=\"Happiness\"}}My clothes and shoes all\nsmell like flowers. {{pressButton}}{{reaction type=\"Fearful\"}}And dirt."
    }
  },
  {
    "label": "11",
    "attribute": "0x00000000FF000000",
    "locale": {
      "EUde": "Solche Feste sind gar nicht\nso schlimm, {{pause frames=\"5\"}}{{string value=\"Catchphrase\"}}.",
      "EUen": "I don't hate events like\nthis, {{pause frames=\"5\"}}{{string value=\"Catchphrase\"}}.",
      "EUes": "No es que odie los\nfestivales como este,\n{{pause frames=\"5\"}}{{string value=\"Catchphrase\"}}.",
      "EUfr": "Je ne déteste pas ce genre\nd'évènements, {{pause frames=\"5\"}}{{string value=\"Catchphrase\"}}.",
      "EUit": "Queste manifestazioni non\nmi dispiacciono,\n{{pause frames=\"5\"}}{{string value=\"Catchphrase\"}}.",
      "JPja": "あたしって\nまるで{{pause frames=\"5\"}}　{{kanjiReplace charNum=\"1\" value=\"はな\"}}花ね、{{pause frames=\"10\"}}{{string value=\"Catchphrase\"}}！",
      "KRko": "이런 이벤트\n괜찮은 거 같아， {{pause frames=\"5\"}}{{string value=\"Catchphrase\"}}",
      "USen": "I don't hate events like\nthis, {{pause frames=\"5\"}}{{string value=\"Catchphrase\"}}."
    }
  },
  {
    "label": "12",
    "attribute": "0x00000000FF000000",
    "locale": {
      "EUde": "{{reaction type=\"Happiness\"}}Oh, hallo, {{pause frames=\"5\"}}{{string value=\"PlayerNickname\"}}!\n{{pause frames=\"5\"}}{{capitalizeLetter}}{{string value=\"Catchphrase\"}}!",
      "EUen": "{{reaction type=\"Happiness\"}}Oh, hey there, {{pause frames=\"5\"}}{{string value=\"PlayerNickname\"}}!\n{{pause frames=\"5\"}}{{capitalizeLetter}}{{string value=\"Catchphrase\"}}!",
      "EUes": "{{reaction type=\"Happiness\"}}¡Oh, hola, {{pause frames=\"5\"}}{{string value=\"PlayerNickname\"}}!\n{{pause frames=\"5\"}}¡{{capitalizeLetter}}{{string value=\"Catchphrase\"}}!",
      "EUfr": "{{reaction type=\"Happiness\"}}Oh, salut, {{pause frames=\"5\"}}{{string value=\"PlayerNickname\"}}!\n{{pause frames=\"5\"}}{{capitalizeLetter}}{{string value=\"Catchphrase\"}}!",
      "EUit": "{{reaction type=\"Happiness\"}}Oh, ciao, {{pause frames=\"5\"}}{{string value=\"PlayerNickname\"}}!\n{{pause frames=\"5\"}}{{capitalizeLetter}}{{string value=\"Catchphrase\"}}!",
      "JPja": "{{reaction type=\"Happiness\"}}あら、{{pause frames=\"5\"}}{{string value=\"PlayerNickname\"}}ちゃん！\n{{pause frames=\"10\"}}{{string value=\"Catchphrase\"}}！",
      "KRko": "{{reaction type=\"Happiness\"}}어머， {{pause frames=\"5\"}}{{string value=\"PlayerNickname\"}}！\n{{pause frames=\"5\"}}{{string value=\"Catchphrase\"}}！",
      "USen": "{{reaction type=\"Happiness\"}}Oh, hey there, {{pause frames=\"5\"}}{{string value=\"PlayerNickname\"}}!\n{{pause frames=\"5\"}}{{capitalizeLetter}}{{string value=\"Catchphrase\"}}!"
    }
  },
  {
    "label": "13",
    "attribute": "0x00000000FE000000",
    "locale": {
      "EUde": "{{reaction type=\"Thought\"}}Ich{{pause frames=\"5\"}}.{{pause frames=\"5\"}}.{{pause frames=\"5\"}}.{{pause frames=\"5\"}} Ich kann mich an die\nBlumen erinnern, die er mir\ngeschenkt hat, aber...\n{{reaction type=\"Worry\"}}An sein Gesicht kann ich\nmich nicht mehr erinnern.\n\n{{reaction type=\"Happiness\"}}Du solltest Blumen nur dann\nverschenken, wenn du es\nernst meinst!",
      "EUen": "{{reaction type=\"Thought\"}}I{{pause frames=\"5\"}}.{{pause frames=\"5\"}}.{{pause frames=\"5\"}}.{{pause frames=\"5\"}}remember the flowers\nthat I got as a gift, but...\n\n{{reaction type=\"Worry\"}}I just can't remember the \nface of the person who\ngave them to me.\n{{reaction type=\"Happiness\"}}I don't think you should\ngive people flowers unless\nyou really mean it.",
      "EUes": "{{reaction type=\"Thought\"}}Recuerdo que{{pause frames=\"5\"}}.{{pause frames=\"5\"}}.{{pause frames=\"5\"}}.{{pause frames=\"5\"}} alguien me\nregaló unas flores...\n{{reaction type=\"Worry\"}}Pero no recuerdo quién fue.\n{{reaction type=\"Happiness\"}}Creo que nadie debería\nregalar flores si no son\npara alguien especial.",
      "EUfr": "{{reaction type=\"Thought\"}}Je me{{pause frames=\"5\"}}.{{pause frames=\"5\"}}.{{pause frames=\"5\"}}.{{pause frames=\"5\"}} souviens des fleurs\nque j'ai reçues en cadeau...\n\n{{reaction type=\"Worry\"}}Mais je ne me rappelle pas\nle visage de la personne qui\nme les a offertes.\n{{reaction type=\"Happiness\"}}Tu ne devrais pas\noffrir de fleurs à quelqu'un\nsans raison.",
      "EUit": "{{reaction type=\"Thought\"}}Mi{{pause frames=\"5\"}}.{{pause frames=\"5\"}}.{{pause frames=\"5\"}}.{{pause frames=\"5\"}} ricordo dei fiori che\nmi hanno regalato, ma...\n\n{{reaction type=\"Worry\"}}Non ricordo la faccia\ndella persona.\n\n{{reaction type=\"Happiness\"}}Non si regalano fiori\na chiunque e senza motivo.",
      "JPja": "{{reaction type=\"Thought\"}}あたし、{{pause frames=\"10\"}}\nプレゼントされた\nお{{kanjiReplace charNum=\"1\" value=\"はな\"}}花は　{{kanjiReplace charNum=\"1\" value=\"おぼ\"}}覚えてるんだけど\n{{reaction type=\"Worry\"}}プレゼントしてくれた\n{{kanjiReplace charNum=\"1\" value=\"ヒト\"}}人の{{kanjiReplace charNum=\"1\" value=\"かお\"}}顔って　{{kanjiReplace charNum=\"1\" value=\"おぼ\"}}覚えてないの\n\n{{reaction type=\"Happiness\"}}{{kanjiReplace charNum=\"2\" value=\"ほんき\"}}本気の　{{kanjiReplace charNum=\"2\" value=\"あいて\"}}相手に\nお{{kanjiReplace charNum=\"1\" value=\"はな\"}}花のプレゼントって\nあんまり　よくないわね",
      "KRko": "{{reaction type=\"Thought\"}}난{{pause frames=\"5\"}}.{{pause frames=\"5\"}}.{{pause frames=\"5\"}}.{{pause frames=\"5\"}}\n선물 받은\n꽃은 기억하는데，\n{{reaction type=\"Worry\"}}선물해 준\n사람 얼굴은 기억나지 않아\n\n{{reaction type=\"Happiness\"}}진정 좋아하는 사람에게\n꽃을 선물하는 건\n별로인 거 같아",
      "USen": "{{reaction type=\"Thought\"}}I{{pause frames=\"5\"}}.{{pause frames=\"5\"}}.{{pause frames=\"5\"}}.{{pause frames=\"5\"}}remember the flowers\nthat I got as a gift, but...\n\n{{reaction type=\"Worry\"}}I just can't remember the \nface of the person who\ngave them to me.\n{{reaction type=\"Happiness\"}}I don't think you should\ngive people flowers unless\nyou really mean it."
    }
  },
  {
    "label": "14",
    "attribute": "0x00000000FE000000",
    "locale": {
      "EUde": "{{reaction type=\"Happiness\"}}Einmal nur will ich einen\nStrauß Blumen bekommen,\nder größer ist als ich!\n{{resetReaction}}Bei jedem Schritt hinter-\nlasse ich Blütenblätter.\n{{reaction type=\"Love\"}}Das wäre wunderschön!",
      "EUen": "{{reaction type=\"Happiness\"}}Just once, I'd like to walk\naround with a bouquet of\nflowers bigger than me!\n{{resetReaction}}With every step, I'd drop \na few petals and {{reaction type=\"Love\"}}leave a\ntrail of them in my wake!",
      "EUes": "{{reaction type=\"Happiness\"}}¡Cómo me gustaría ir por\nahí con un ramo de flores\nmás grande que yo!\n{{resetReaction}}¡Iría soltando pétalos a\ncada paso{{reaction type=\"Love\"}} dejando un rastro\nde perfume tras de mí!",
      "EUfr": "{{reaction type=\"Happiness\"}}Juste une fois, j'aimerais\nme promener avec un\nbouquet plus grand que moi!\n{{resetReaction}}A chaque pas, je laisserais\ntomber des pétales pour{{reaction type=\"Love\"}}\nmarquer mon chemin!",
      "EUit": "{{reaction type=\"Happiness\"}}Mi piacerebbe farmi vedere\nin giro con un mazzo di\nfiori più grande di me!\n{{resetReaction}}Farei cadere dei petali\na ogni passo {{reaction type=\"Love\"}}in mio\nonore!",
      "JPja": "{{reaction type=\"Sighing\"}}{{pause frames=\"5\"}}{{kanjiReplace charNum=\"1\" value=\"も\"}}持ちきれないくらい\n{{kanjiReplace charNum=\"1\" value=\"おお\"}}大きな　{{kanjiReplace charNum=\"1\" value=\"はな\"}}花たばを\nもらってみたいわ、{{pause frames=\"5\"}}{{string value=\"Catchphrase\"}}\n{{resetReaction}}そうすると　{{kanjiReplace charNum=\"1\" value=\"ある\"}}歩くたびに\n{{kanjiReplace charNum=\"1\" value=\"はな\"}}花びらが　{{kanjiReplace charNum=\"1\" value=\"お\"}}落ちて、\n\n{{reaction type=\"Happiness\"}}あたしが　{{kanjiReplace charNum=\"1\" value=\"ある\"}}歩いたあとに\nお{{kanjiReplace charNum=\"1\" value=\"はな\"}}花の{{kanjiReplace charNum=\"1\" value=\"みち\"}}道が　できるの！\n\n{{reaction type=\"Joy\"}}フフン、{{pause frames=\"5\"}}まさに\n{{kanjiReplace charNum=\"1\" value=\"オンナ\"}}女の　{{kanjiReplace charNum=\"2\" value=\"はなみち\"}}花道ね！\n{{pause frames=\"10\"}}{{string value=\"Catchphrase\"}}！",
      "KRko": "{{reaction type=\"Happiness\"}}양손으로 다 들 수 없을 정도로\n큰 꽃다발을\n들고 걷고 싶어\n{{resetReaction}}걸을 때마다 꽃잎이\n떨어져서\n\n{{reaction type=\"Love\"}}내가 걸어간 뒤에\n꽃길이 생기겠지！\n{{pause frames=\"5\"}}{{string value=\"Catchphrase\"}}！",
      "USen": "{{reaction type=\"Happiness\"}}Just once, I'd like to walk\naround with a bouquet of\nflowers bigger than me!\n{{resetReaction}}With every step, I'd drop \na few petals and {{reaction type=\"Love\"}}leave a\ntrail of them in my wake!"
    }
  },
  {
    "label": "15",
    "attribute": "0x00000000FE000000",
    "locale": {
      "EUde": "{{reaction type=\"Thought\"}}Blumen und ich{{pause frames=\"3\"}}.{{pause frames=\"3\"}}.{{pause frames=\"3\"}}.{{pause frames=\"3\"}} Nun, wir\nsind beide wunderschön,\naber...\n{{reaction type=\"Agreement\"}}Ich kann nicht nur von\nBlumen allein leben.\n\n{{reaction type=\"Annoyed\"}}Und das sollte ich auch\nnicht!{{pause frames=\"10\"}} Niemand sollte das!{{pause frames=\"10\"}}\nDas sieht ZU dämlich aus.",
      "EUen": "{{reaction type=\"Thought\"}}Flowers and me{{pause frames=\"3\"}}.{{pause frames=\"3\"}}.{{pause frames=\"3\"}}.{{pause frames=\"3\"}} Well, we're\nboth beautiful, but I can't\nlive {{reaction type=\"Agreement\"}}on flowers alone.\n{{reaction type=\"Annoyed\"}}And I shouldn't have to!{{pause frames=\"10\"}} No\none should!{{pause frames=\"10\"}} Unless you're\nREALLY funny looking!",
      "EUes": "{{reaction type=\"Thought\"}}Soy tan bonita como\ncualquier flor, pero en\neste mundo{{pause frames=\"3\"}}.{{pause frames=\"3\"}}.{{pause frames=\"3\"}}.{{pause frames=\"3\"}}\n{{reaction type=\"Agreement\"}}No se puede vivir solo de\nser guapa.{{pause frames=\"10\"}} {{reaction type=\"Annoyed\"}}¡Hay que\ntener intereses!",
      "EUfr": "{{reaction type=\"Thought\"}}Les fleurs et moi{{pause frames=\"3\"}}.{{pause frames=\"3\"}}.{{pause frames=\"3\"}}.{{pause frames=\"3\"}} on se\nressemble. Nous sommes\nbelles, mais je n'en peux\nplus{{reaction type=\"Agreement\"}} qu'on nous compare.\n{{reaction type=\"Annoyed\"}}Je suis beaucoup plus\nintelligente!{{pause frames=\"10\"}} C'est vrai!\n{{pause frames=\"10\"}}J'en ai assez qu'on me\ncasse les oreilles avec ça!",
      "EUit": "{{reaction type=\"Thought\"}}I fiori ed io{{pause frames=\"3\"}}.{{pause frames=\"3\"}}.{{pause frames=\"3\"}}.{{pause frames=\"3\"}} siamo\nentrambi favolosi, ma {{reaction type=\"Agreement\"}}non\nsi vive solo di fiori.\n{{reaction type=\"Annoyed\"}}Non bisogna farlo!{{pause frames=\"10\"}}\nNessuno dovrebbe!{{pause frames=\"10\"}} Se non\nsi vuole essere ridicoli!",
      "JPja": "{{reaction type=\"Happiness\"}}{{kanjiReplace charNum=\"2\" value=\"まいにち\"}}毎日　あたしに\nお{{kanjiReplace charNum=\"1\" value=\"はな\"}}花を{{kanjiReplace charNum=\"1\" value=\"おく\"}}贈ってくれた\n{{kanjiReplace charNum=\"1\" value=\"ヒト\"}}人が　いたわ、{{pause frames=\"10\"}}{{string value=\"Catchphrase\"}}\n{{reaction type=\"Worry\"}}{{kanjiReplace charNum=\"1\" value=\"みち\"}}道ばたで　つんだってコトぐらい\n{{kanjiReplace charNum=\"1\" value=\"わ\"}}分かってたけど{{pause frames=\"3\"}}・{{pause frames=\"3\"}}・{{pause frames=\"3\"}}・{{pause frames=\"3\"}}\n{{reaction type=\"Happiness\"}}うれしかったから　だまってたの",
      "KRko": "{{reaction type=\"Thought\"}}꽃과 나{{pause frames=\"3\"}}.{{pause frames=\"3\"}}.{{pause frames=\"3\"}}.{{pause frames=\"3\"}}\n둘다 아름답긴 하지만，\n\n난 물만으로는\n{{reaction type=\"Agreement\"}}살 수 없어{{pressButton}}\n{{reaction type=\"Happiness\"}}당연한 얘기지만， {{pause frames=\"5\"}}{{string value=\"Catchphrase\"}}",
      "USen": "{{reaction type=\"Thought\"}}Flowers and me{{pause frames=\"3\"}}.{{pause frames=\"3\"}}.{{pause frames=\"3\"}}.{{pause frames=\"3\"}} Well, we're\nboth beautiful, but I can't\nlive {{reaction type=\"Agreement\"}}on flowers alone.\n{{reaction type=\"Annoyed\"}}And I shouldn't have to!{{pause frames=\"10\"}} No\none should!{{pause frames=\"10\"}} Unless you're\nREALLY funny looking!"
    }
  }
]