[
  {
    "label": "00",
    "attribute": "0x00000000FE000000",
    "locale": {
      "EUde": "{{reaction type=\"Happiness\"}}Hey,{{pause frames=\"10\"}} heute ist {{color id=\"3\"}}Lala-Tag{{color id=\"0\"}}.\n{{reaction type=\"Bashfulness\"}}Ich wäre beinahe{{pause frames=\"5\"}} ein großer\nPopstar geworden.\n{{reaction type=\"Happiness\"}}Gib dein Bestes,\n{{string value=\"PlayerNickname\"}}, und mach uns\neine schöne Stadtmelodie.",
      "EUen": "{{reaction type=\"Happiness\"}}Hey,{{pause frames=\"10\"}} it's {{color id=\"3\"}}La-Di-Day {{color id=\"0\"}}today.\n{{reaction type=\"Bashfulness\"}}Lucky for me,{{pause frames=\"5\"}} I was THIS\nclose to being a pop star.\n{{reaction type=\"Happiness\"}}But you better give it your\nall, {{string value=\"PlayerNickname\"}}. You could\ncreate a new town tune!",
      "EUes": "{{reaction type=\"Happiness\"}}Hoy{{pause frames=\"10\"}} es el {{color id=\"3\"}}Día Lalalá{{color id=\"0\"}}. {{reaction type=\"Bashfulness\"}}Sabes,{{pause frames=\"5\"}}\nyo estuve a punto de ser\nuna estrella del pop.\n{{reaction type=\"Happiness\"}}¿Te gusta la música,\n{{string value=\"PlayerNickname\"}}? ¡Pues cambia\nla melodía del pueblo!",
      "EUfr": "{{reaction type=\"Happiness\"}}{{pause frames=\"10\"}}C'est le {{color id=\"3\"}}jour tralalère{{color id=\"0\"}}. {{reaction type=\"Bashfulness\"}}\nCrois-moi si tu veux,{{pause frames=\"5\"}} j'ai\nfailli devenir une star.\n{{reaction type=\"Happiness\"}}Mais donne-toi à fond,\n{{string value=\"PlayerNickname\"}}. Tu composeras\nle nouvel hymne de la ville!",
      "EUit": "{{reaction type=\"Happiness\"}}Ehi,{{pause frames=\"10\"}} oggi è il {{color id=\"3\"}}Giorno\ndell'ugola d'oro{{color id=\"0\"}}.\n{{reaction type=\"Bashfulness\"}}Io sono fortunata!{{pause frames=\"5\"}}\nC'è mancato poco che\ndiventassi una pop star.\n{{reaction type=\"Happiness\"}}Ti conviene darti da fare,\n{{string value=\"PlayerNickname\"}}. La tua canzone\npotrebbe diventare il nuovo\ninno cittadino!",
      "JPja": "{{reaction type=\"Happiness\"}}ねぇ、{{string value=\"PlayerNickname\"}}ちゃん{{pause frames=\"10\"}}\n{{kanjiReplace charNum=\"2\" value=\"きょう\"}}今日は　{{color id=\"3\"}}うたのひ{{color id=\"0\"}}よ！\n\n{{reaction type=\"Bashfulness\"}}{{kanjiReplace charNum=\"2\" value=\"きあい\"}}気合をいれて　{{kanjiReplace charNum=\"1\" value=\"うた\"}}歌うから、{{pause frames=\"5\"}}\nあたしの　{{kanjiReplace charNum=\"1\" value=\"うた\"}}歌を\n{{kanjiReplace charNum=\"1\" value=\"むら\"}}村メロに　さいようしてよね",
      "KRko": "{{reaction type=\"Happiness\"}}있잖아， {{string value=\"PlayerNickname\"}}{{pause frames=\"10\"}}\n오늘은 {{color id=\"3\"}}노래자랑의 날{{color id=\"0\"}}이야！\n\n{{reaction type=\"Bashfulness\"}}최선을 다해서 부를 테니{{pause frames=\"5\"}}\n내 노래를\n마을멜로디로 선정해 줘",
      "USen": "{{reaction type=\"Happiness\"}}Hey,{{pause frames=\"10\"}} it's {{color id=\"3\"}}La-Di-Day {{color id=\"0\"}}today.\n{{reaction type=\"Bashfulness\"}}Lucky for me,{{pause frames=\"5\"}} I was THIS\nclose to being a pop star.\n{{reaction type=\"Happiness\"}}But you better give it your\nall, {{string value=\"PlayerNickname\"}}. You could\ncreate a new town tune!"
    }
  },
  {
    "label": "01",
    "attribute": "0x00000000FE000000",
    "locale": {
      "EUde": "{{resetReaction}}{{musicNoteSymbol}}Fa la la la la!{{pause frames=\"15\"}} Heute ist\n{{color id=\"3\"}}Lala-Tag{{color id=\"0\"}}, hurra!{{musicNoteSymbol}}\n{{pressButton}}Das werde ich singen.\nDas wird die nächste{{pause frames=\"5\"}}\nStadtmelodie, also gewöhn\ndich schon mal dran!",
      "EUen": "{{resetReaction}}{{musicNoteSymbol}}Yay yay!{{pause frames=\"15\"}} It's {{color id=\"3\"}}La-Di-Day\n{{color id=\"0\"}}todaaaay!{{musicNoteSymbol}} {{pressButton}}That's the song\nI'm gonna sing.\nI'm expecting it to be the\nnext{{pause frames=\"5\"}} town tune, so get\nready to hear it A LOT!",
      "EUes": "{{resetReaction}}{{musicNoteSymbol}} ¡Yupi-ya, yupi-ya!{{pause frames=\"15\"}} ¡Es el\n{{color id=\"3\"}}Día Lalalá{{color id=\"0\"}}! {{musicNoteSymbol}} {{pressButton}}Esa es la\ncanción que voy a cantar.\nSeguro que se convierte en\nla próxima melodía del{{pause frames=\"5\"}}\npueblo, ¡la oirás mucho!",
      "EUfr": "{{resetReaction}}{{musicNoteSymbol}}Youpiii!{{pause frames=\"15\"}} C'est le {{color id=\"3\"}}jour\ntralalère{{color id=\"0\"}} aujourd'huiii!{{musicNoteSymbol}}\n{{pressButton}}C'est la chanson que je vais\nchanter. J'espère que ce\nsera le nouvel{{pause frames=\"5\"}} hymne de la\nville, alors, prépare-toi à\nl'entendre SOUVENT!",
      "EUit": "{{resetReaction}}{{musicNoteSymbol}}Evviva!{{pause frames=\"15\"}} È il {{color id=\"3\"}}Giorno dell'u-\ngola d'oro{{color id=\"0\"}}!{{musicNoteSymbol}} {{pressButton}}Canterò\nquesta canzone.\nDiventerà di sicuro il nuovo{{pause frames=\"5\"}}\ninno cittadino, la sentirai\nspesso in futuro!",
      "JPja": "{{resetReaction}}フフン、{{pause frames=\"15\"}}\n{{kanjiReplace charNum=\"2\" value=\"きょう\"}}今日は　{{color id=\"3\"}}うたのひ{{color id=\"0\"}}よ！\n\nいつも　カラオケで\n{{kanjiReplace charNum=\"1\" value=\"うた\"}}歌ってる　あの{{kanjiReplace charNum=\"1\" value=\"きょく\"}}曲を\n{{kanjiReplace charNum=\"1\" value=\"うた\"}}歌わせてもらうから、\nぜひ、{{pause frames=\"5\"}}{{kanjiReplace charNum=\"1\" value=\"むら\"}}村メロに\nさいようしてね！　{{pause frames=\"5\"}}{{string value=\"Catchphrase\"}}！",
      "KRko": "{{resetReaction}}후훗，{{pause frames=\"15\"}}\n오늘은 {{color id=\"3\"}}노래자랑의 날{{color id=\"0\"}}이야！\n\n언제나 노래방에서\n연습했던 노래를\n부를 테니，\n꼭 {{pause frames=\"5\"}}마을멜로디로\n선정해 줘！ {{pause frames=\"5\"}}{{string value=\"Catchphrase\"}}！",
      "USen": "{{resetReaction}}{{musicNoteSymbol}}Yay yay!{{pause frames=\"15\"}} It's {{color id=\"3\"}}La-Di-Day\n{{color id=\"0\"}}todaaaay!{{musicNoteSymbol}} {{pressButton}}That's the song\nI'm gonna sing.\nI'm expecting it to be the\nnext{{pause frames=\"5\"}} town tune, so get\nready to hear it A LOT!"
    }
  },
  {
    "label": "02",
    "attribute": "0x00000000FE000000",
    "locale": {
      "EUde": "{{reaction type=\"Happiness\"}}La la la!{{musicNoteSymbol}} Ähm.{{pause frames=\"20\"}} Ich habe\nmich nur aufgewärmt. {{pressButton}}Denn\nheute ist {{color id=\"3\"}}Lala-Tag{{color id=\"0\"}}!\n{{resetReaction}}Wenn du gut singen kannst,\nwird dein Lied die neue\nStadtmelodie, {{pause frames=\"5\"}}{{string value=\"Catchphrase\"}}.\n{{reaction type=\"Happiness\"}}Ich bin ja eigentlich total\ncool, aber{{pause frames=\"5\"}} sogar ich\nfreue mich darauf!",
      "EUen": "{{reaction type=\"Happiness\"}}La la la!{{musicNoteSymbol}} Ahem.{{pause frames=\"20\"}} I was just\nwarming up my pipes. {{pressButton}}'Cause\nit's {{color id=\"3\"}}La-Di-Day {{color id=\"0\"}}today!\n{{resetReaction}}If you sing it right, your\nsong could become the next\ntown tune, {{pause frames=\"5\"}}{{string value=\"Catchphrase\"}}.\n{{reaction type=\"Happiness\"}}I know I'm normally too cool\nfor school,{{pause frames=\"5\"}} but even I'm\ngetting all worked up!",
      "EUes": "{{reaction type=\"Happiness\"}}¡La la la! {{musicNoteSymbol}} Ejem.{{pause frames=\"20\"}} Estaba\ncalentando motores. {{pressButton}}¡Porque\nhoy es el {{color id=\"3\"}}Día Lalalá{{color id=\"0\"}}!\n{{resetReaction}}Si cantas bien tu canción\npuedes hacer que sea la\npróxima melodía del pueblo.\n{{reaction type=\"Happiness\"}}Para ir al colegio no me\npongo nerviosa,{{pause frames=\"5\"}} pero con\nesto de cantar...",
      "EUfr": "{{reaction type=\"Happiness\"}}La la la!{{musicNoteSymbol}} Hum hum.{{pause frames=\"20\"}} Je\nme chauffais les cordes\nvocales.\nC'est le {{color id=\"3\"}}jour tralalère\n{{color id=\"0\"}}aujourd'hui, {{pause frames=\"5\"}}{{string value=\"Catchphrase\"}}!\n\n{{resetReaction}}Si ta chanson\nplaît, elle peut devenir\nnotre nouvel hymne.\n{{reaction type=\"Happiness\"}}Je n'aime pas trop\ntravailler, {{pause frames=\"5\"}}mais je suis\nà fond dedans!",
      "EUit": "{{reaction type=\"Happiness\"}}La la la!{{musicNoteSymbol}} Ehm.{{pause frames=\"20\"}} Mi stavo\nriscaldando le corde vocali.{{pressButton}}\nÈ il {{color id=\"3\"}}Giorno dell'ugola d'oro{{color id=\"0\"}}!\n{{resetReaction}}La tua canzone potrebbe\ndiventare il nuovo inno\ncittadino, {{pause frames=\"5\"}}{{string value=\"Catchphrase\"}}.\n{{reaction type=\"Happiness\"}}Normalmente sono\ntranquilla, {{pause frames=\"5\"}}ma ora sono\nagitata anch'io!",
      "JPja": "{{reaction type=\"Happiness\"}}フフフン{{musicNoteSymbol}}{{pause frames=\"20\"}}\n{{kanjiReplace charNum=\"2\" value=\"きょう\"}}今日は　{{color id=\"3\"}}うたのひ{{color id=\"0\"}}よ\n\n{{resetReaction}}ステキに　{{kanjiReplace charNum=\"1\" value=\"うた\"}}歌えば\nその{{kanjiReplace charNum=\"1\" value=\"きょく\"}}曲が　{{kanjiReplace charNum=\"1\" value=\"むら\"}}村メロに\nなっちゃうの、{{pause frames=\"5\"}}{{string value=\"Catchphrase\"}}\n{{reaction type=\"Happiness\"}}これは　さすがの　あたしも\n{{kanjiReplace charNum=\"2\" value=\"れいせい\"}}冷静じゃ　いられないわね！",
      "KRko": "{{reaction type=\"Happiness\"}}후후훗{{musicNoteSymbol}}{{pause frames=\"20\"}}\n오늘은 {{color id=\"3\"}}노래자랑의 날{{color id=\"0\"}}이야\n\n{{resetReaction}}멋지게 부르면\n그 곡이 마을멜로디가\n되는 거지， {{pause frames=\"5\"}}{{string value=\"Catchphrase\"}}\n{{reaction type=\"Happiness\"}}나도\n열심히 할까해！",
      "USen": "{{reaction type=\"Happiness\"}}La la la!{{musicNoteSymbol}} Ahem.{{pause frames=\"20\"}} I was just\nwarming up my pipes. {{pressButton}}'Cause\nit's {{color id=\"3\"}}La-Di-Day {{color id=\"0\"}}today!\n{{resetReaction}}If you sing it right, your\nsong could become the next\ntown tune, {{pause frames=\"5\"}}{{string value=\"Catchphrase\"}}.\n{{reaction type=\"Happiness\"}}I know I'm normally too cool\nfor school,{{pause frames=\"5\"}} but even I'm\ngetting all worked up!"
    }
  },
  {
    "label": "03",
    "attribute": "0x00000000FF000000",
    "locale": {
      "EUde": "{{reaction type=\"Happiness\"}}Hey, {{string value=\"PlayerNickname\"}},{{pause frames=\"10\"}} willst du\nnoch mein Lied hören, {{resetReaction}}bevor\ndu gehst?",
      "EUen": "{{reaction type=\"Happiness\"}}Hey, {{string value=\"PlayerNickname\"}},{{pause frames=\"10\"}} do you\nwanna hear my song {{resetReaction}}before\nyou go?",
      "EUes": "{{reaction type=\"Happiness\"}}Oye, {{string value=\"PlayerNickname\"}},{{pause frames=\"10\"}}\n¿quieres oír mi canción{{resetReaction}}\nantes de irte?",
      "EUfr": "{{reaction type=\"Happiness\"}}{{capitalizeLetter}}{{string value=\"PlayerNickname\"}},{{pause frames=\"10\"}} tu veux\nécouter ma chanson {{resetReaction}}avant\nde partir?",
      "EUit": "{{reaction type=\"Happiness\"}}Ehi, {{string value=\"PlayerNickname\"}},{{pause frames=\"10\"}} vuoi\nsentire la mia canzone {{resetReaction}}\nprima di andartene?",
      "JPja": "{{reaction type=\"Happiness\"}}ねぇ、{{string value=\"PlayerNickname\"}}ちゃん{{pause frames=\"10\"}}\nあたしの{{kanjiReplace charNum=\"1\" value=\"うた\"}}歌を\n{{resetReaction}}{{kanjiReplace charNum=\"1\" value=\"き\"}}聞いていかない？",
      "KRko": "{{reaction type=\"Happiness\"}}있잖아， {{string value=\"PlayerNickname\"}}{{pause frames=\"10\"}}\n내 노래를\n{{resetReaction}}듣고 가지 않을래？",
      "USen": "{{reaction type=\"Happiness\"}}Hey, {{string value=\"PlayerNickname\"}},{{pause frames=\"10\"}} do you\nwanna hear my song {{resetReaction}}before\nyou go?"
    }
  },
  {
    "label": "04",
    "attribute": "0x00000000FF000000",
    "locale": {
      "EUde": "{{resetReaction}}Also, {{pause frames=\"5\"}}{{string value=\"PlayerNickname\"}},{{pause frames=\"20\"}} {{reaction type=\"Happiness\"}}willst du\nmein Lied jetzt hören oder\nnicht?!? {{pause frames=\"5\"}}{{capitalizeLetter}}{{string value=\"Catchphrase\"}}?",
      "EUen": "{{resetReaction}}So, {{pause frames=\"5\"}}{{string value=\"PlayerNickname\"}},{{pause frames=\"20\"}} {{reaction type=\"Happiness\"}}do you\nwanna hear my song or\nwhat?! {{pause frames=\"5\"}}{{capitalizeLetter}}{{string value=\"Catchphrase\"}}?",
      "EUes": "{{resetReaction}}Oye, {{pause frames=\"5\"}}{{string value=\"PlayerNickname\"}},{{pause frames=\"20\"}} {{reaction type=\"Happiness\"}}¡¿quieres\noír mi canción o qué?!\n{{pause frames=\"5\"}}¿{{capitalizeLetter}}{{string value=\"Catchphrase\"}}?",
      "EUfr": "{{resetReaction}}Alors, {{pause frames=\"5\"}}{{string value=\"PlayerNickname\"}},{{pause frames=\"20\"}} {{reaction type=\"Happiness\"}}tu veux\nécouter ma chanson ou\nquoi, {{pause frames=\"5\"}}{{string value=\"Catchphrase\"}}?",
      "EUit": "{{resetReaction}}Allora, {{pause frames=\"5\"}}{{string value=\"PlayerNickname\"}},{{pause frames=\"20\"}} {{reaction type=\"Happiness\"}}vuoi o\nnon vuoi sentire la mia\ncanzone?! {{pause frames=\"5\"}}{{capitalizeLetter}}{{string value=\"Catchphrase\"}}?",
      "JPja": "{{resetReaction}}フフン、{{pause frames=\"5\"}}{{string value=\"PlayerNickname\"}}ちゃん{{pause frames=\"20\"}}\n{{reaction type=\"Happiness\"}}あたしの{{kanjiReplace charNum=\"1\" value=\"うた\"}}歌を\n{{kanjiReplace charNum=\"1\" value=\"き\"}}聞きたいのね？　{{pause frames=\"5\"}}{{string value=\"Catchphrase\"}}？",
      "KRko": "{{resetReaction}}후훗， {{pause frames=\"5\"}}{{string value=\"PlayerNickname\"}}{{pause frames=\"20\"}}\n{{reaction type=\"Happiness\"}}내 노래를\n듣고 싶구나？ {{pause frames=\"5\"}}{{string value=\"Catchphrase\"}}？",
      "USen": "{{resetReaction}}So, {{pause frames=\"5\"}}{{string value=\"PlayerNickname\"}},{{pause frames=\"20\"}} {{reaction type=\"Happiness\"}}do you\nwanna hear my song or\nwhat?! {{pause frames=\"5\"}}{{capitalizeLetter}}{{string value=\"Catchphrase\"}}?"
    }
  },
  {
    "label": "05",
    "attribute": "0x00000000FF000000",
    "locale": {
      "EUde": "{{reaction type=\"Sighing\"}}{{pause frames=\"5\"}}Schon komisch, so ganz ohne\nBühne und Publikum\nzu singen...\n{{reaction type=\"Intense\"}}Aber{{pause frames=\"20\"}} tu mir den Gefallen,\n{{string value=\"PlayerNickname\"}}, und hör dir\nmein Lied an, O.K.?",
      "EUen": "{{reaction type=\"Sighing\"}}{{pause frames=\"5\"}}It's weird to sing without a\nstage and lights and all...\n\n{{reaction type=\"Intense\"}}But{{pause frames=\"20\"}} do me a favor,\n{{string value=\"PlayerNickname\"}}, and listen to\nmy song, OK?",
      "EUes": "{{reaction type=\"Sighing\"}}{{pause frames=\"5\"}}Se hace raro cantar así,\nsin escenario, ni focos...\n\n{{reaction type=\"Intense\"}}Pero{{pause frames=\"20\"}} hazme un favor,\n{{string value=\"PlayerNickname\"}}, y escucha mi\ncanción, ¿vale?",
      "EUfr": "{{reaction type=\"Sighing\"}}{{pause frames=\"5\"}}C'est bizarre de chanter\nsans scène, ni lumière...\n\n{{reaction type=\"Intense\"}}Mais{{pause frames=\"20\"}} fais-moi plaisir,\n{{string value=\"PlayerNickname\"}}, et écoute ma\nchanson, ok?",
      "EUit": "{{reaction type=\"Sighing\"}}{{pause frames=\"5\"}}Che strano cantare senza\npalcoscenico e riflettori...\n\n{{reaction type=\"Intense\"}}Però{{pause frames=\"20\"}} fammi un piacere,\n{{string value=\"PlayerNickname\"}}, ascolta la mia\ncanzone, OK?",
      "JPja": "{{reaction type=\"Sighing\"}}{{pause frames=\"5\"}}ステージが　{{kanjiReplace charNum=\"1\" value=\"な\"}}無いのに\n{{kanjiReplace charNum=\"1\" value=\"うた\"}}歌うのも　{{kanjiReplace charNum=\"1\" value=\"かんが\"}}考えものだけど、\n\n{{reaction type=\"Intense\"}}{{string value=\"PlayerNickname\"}}ちゃん{{pause frames=\"20\"}}\nちょっと　あたしの{{kanjiReplace charNum=\"1\" value=\"うた\"}}歌、\n{{kanjiReplace charNum=\"1\" value=\"き\"}}聞いていってよ、{{pause frames=\"10\"}}{{string value=\"Catchphrase\"}}",
      "KRko": "{{reaction type=\"Sighing\"}}{{pause frames=\"5\"}}무대도 없는데\n노래 부르기 좀 그렇지만，\n\n{{reaction type=\"Intense\"}}{{string value=\"PlayerNickname\"}}{{pause frames=\"20\"}}\n내 노래 좀\n들어 봐， {{pause frames=\"10\"}}{{string value=\"Catchphrase\"}}",
      "USen": "{{reaction type=\"Sighing\"}}{{pause frames=\"5\"}}It's weird to sing without a\nstage and lights and all...\n\n{{reaction type=\"Intense\"}}But{{pause frames=\"20\"}} do me a favor,\n{{string value=\"PlayerNickname\"}}, and listen to\nmy song, OK?"
    }
  },
  {
    "label": "06",
    "attribute": "0x00000000FF000000",
    "locale": {
      "EUde": "Also{{pause frames=\"5\"}}.{{pause frames=\"5\"}}.{{pause frames=\"5\"}}.{{pause frames=\"5\"}}{{reaction type=\"Curiosity\"}} Was meinst du?{{pause frames=\"20\"}} Bin\nich gut oder bin ich gut,\n{{pause frames=\"5\"}}{{string value=\"Catchphrase\"}}?",
      "EUen": "So{{pause frames=\"5\"}}.{{pause frames=\"5\"}}.{{pause frames=\"5\"}}.{{pause frames=\"5\"}}{{reaction type=\"Curiosity\"}}what do you think?{{pause frames=\"20\"}} Am\nI good or am I good,\n{{pause frames=\"5\"}}{{string value=\"Catchphrase\"}}?",
      "EUes": "Dime{{pause frames=\"5\"}}.{{pause frames=\"5\"}}.{{pause frames=\"5\"}}.{{pause frames=\"5\"}},{{reaction type=\"Curiosity\"}} ¿qué te parece?{{pause frames=\"20\"}}\n¿Soy buena? ¿Sí o sí,\n{{pause frames=\"5\"}}{{string value=\"Catchphrase\"}}?",
      "EUfr": "Alors{{pause frames=\"5\"}}.{{pause frames=\"5\"}}.{{pause frames=\"5\"}}.{{pause frames=\"5\"}}{{reaction type=\"Curiosity\"}} tu en penses quoi?{{pause frames=\"20\"}}\nJe suis douée ou quoi,\n{{pause frames=\"5\"}}{{string value=\"Catchphrase\"}}?",
      "EUit": "Allora{{pause frames=\"5\"}}.{{pause frames=\"5\"}}.{{pause frames=\"5\"}}.{{pause frames=\"5\"}}{{reaction type=\"Curiosity\"}} Cosa ne pensi?{{pause frames=\"20\"}}\nSono o non sono brava,\n{{pause frames=\"5\"}}{{string value=\"Catchphrase\"}}?",
      "JPja": "{{pause frames=\"5\"}}・{{pause frames=\"5\"}}・{{pause frames=\"5\"}}・{{pause frames=\"5\"}}{{reaction type=\"Curiosity\"}}どう？{{pause frames=\"20\"}}\nなかなか　いいカンジ\nだったでしょ？　{{pause frames=\"5\"}}{{string value=\"Catchphrase\"}}？",
      "KRko": "{{pause frames=\"5\"}}・{{pause frames=\"5\"}}・{{pause frames=\"5\"}}・{{pause frames=\"5\"}}{{reaction type=\"Curiosity\"}}어때？{{pause frames=\"20\"}}\n꽤 괜찮치 않았어？\n{{pause frames=\"5\"}}{{string value=\"Catchphrase\"}}？",
      "USen": "So{{pause frames=\"5\"}}.{{pause frames=\"5\"}}.{{pause frames=\"5\"}}.{{pause frames=\"5\"}}{{reaction type=\"Curiosity\"}}what do you think?{{pause frames=\"20\"}} Am\nI good or am I good,\n{{pause frames=\"5\"}}{{string value=\"Catchphrase\"}}?"
    }
  },
  {
    "label": "07",
    "attribute": "0x00000000FF000000",
    "locale": {
      "EUde": "{{reaction type=\"Happiness\"}}Puh{{pause frames=\"5\"}}.{{pause frames=\"5\"}}.{{pause frames=\"5\"}}.{{pause frames=\"20\"}} {{resetReaction}}Ich habe mich noch\nmehr angestrengt als\ngewöhnlich.\n{{reaction type=\"Glee\"}}Hat man es gemerkt?{{pause frames=\"5\"}} Hat es\ndich berührt,\n{{pause frames=\"10\"}}{{string value=\"Catchphrase\"}}?",
      "EUen": "{{reaction type=\"Happiness\"}}Phew{{pause frames=\"5\"}}.{{pause frames=\"5\"}}.{{pause frames=\"5\"}}.{{pause frames=\"20\"}} {{resetReaction}}I put a little more\nsoul into it today than\nI normally do.\n{{reaction type=\"Glee\"}}Did you feel it?{{pause frames=\"5\"}} Did it\ntwist your heart right up,\n{{pause frames=\"10\"}}{{string value=\"Catchphrase\"}}?",
      "EUes": "{{reaction type=\"Happiness\"}}Puf{{pause frames=\"5\"}}.{{pause frames=\"5\"}}.{{pause frames=\"5\"}}.{{pause frames=\"20\"}} {{resetReaction}}Hoy he puesto\nun poco más de sentimiento\ndel que suelo poner.\n{{reaction type=\"Glee\"}}¿Lo has notado?{{pause frames=\"5\"}} ¿Te ha\ndado un vuelco el corazón,\n{{pause frames=\"10\"}}{{string value=\"Catchphrase\"}}?",
      "EUfr": "{{reaction type=\"Happiness\"}}Pfiou{{pause frames=\"5\"}}.{{pause frames=\"5\"}}.{{pause frames=\"5\"}}.{{pause frames=\"20\"}} {{resetReaction}}j'y ai mis plus\nd'émotion que d'habitude.\n\n{{reaction type=\"Glee\"}}Tu l'as senti?{{pause frames=\"5\"}} Est-ce que\nça t'est allé droit au cœur,\n{{pause frames=\"10\"}}{{string value=\"Catchphrase\"}}?",
      "EUit": "{{reaction type=\"Happiness\"}}Sai{{pause frames=\"5\"}}.{{pause frames=\"5\"}}.{{pause frames=\"5\"}}.{{pause frames=\"20\"}} {{resetReaction}}Oggi ho messo\nl'anima nella mia canzone.\n{{reaction type=\"Glee\"}}Te ne sei accort{{gender m=\"o\" f=\"a\"}}?{{pause frames=\"5\"}}\nNon hai sentito sobbalzare\nil tuo cuore,\n{{pause frames=\"10\"}}{{string value=\"Catchphrase\"}}?",
      "JPja": "{{reaction type=\"Happiness\"}}ふぅ{{pause frames=\"5\"}}・{{pause frames=\"5\"}}・{{pause frames=\"5\"}}・{{pause frames=\"20\"}}\n{{resetReaction}}いつもより　こぶしをきかせて\n{{kanjiReplace charNum=\"1\" value=\"うた\"}}歌ってみたわ\n{{reaction type=\"Glee\"}}おたくの　ハートに\n{{kanjiReplace charNum=\"1\" value=\"とど\"}}届いたかしら、{{pause frames=\"10\"}}{{string value=\"Catchphrase\"}}？",
      "KRko": "{{reaction type=\"Happiness\"}}후우{{pause frames=\"5\"}}・{{pause frames=\"5\"}}・{{pause frames=\"5\"}}・{{pause frames=\"20\"}}\n{{resetReaction}}평소 때보다 더 정성스럽게\n불러 봤어\n{{reaction type=\"Glee\"}}당신 마음에 잘 전해졌나\n모르겠네， {{pause frames=\"10\"}}{{string value=\"Catchphrase\"}}？",
      "USen": "{{reaction type=\"Happiness\"}}Phew{{pause frames=\"5\"}}.{{pause frames=\"5\"}}.{{pause frames=\"5\"}}.{{pause frames=\"20\"}} {{resetReaction}}I put a little more\nsoul into it today than\nI normally do.\n{{reaction type=\"Glee\"}}Did you feel it?{{pause frames=\"5\"}} Did it\ntwist your heart right up,\n{{pause frames=\"10\"}}{{string value=\"Catchphrase\"}}?"
    }
  },
  {
    "label": "08",
    "attribute": "0x00000000FE000000",
    "locale": {
      "EUde": "{{reaction type=\"Agreement\"}}Ja, {{pause frames=\"5\"}}es ist ja offensichtlich.{{pause frames=\"20\"}}\n{{reaction type=\"Happiness\"}}In dieser Stadt bin ich die\nMusikkönigin!",
      "EUen": "{{reaction type=\"Agreement\"}}Yeah, {{pause frames=\"5\"}}I guess it's totally\nobvious.{{pause frames=\"20\"}} {{reaction type=\"Happiness\"}}I'm the Melody\nQueen of this town!",
      "EUes": "{{reaction type=\"Agreement\"}}Sé que es{{pause frames=\"5\"}} una perogrullada,\n{{reaction type=\"Happiness\"}}¡pero soy la Reina de la\nMelodía de este pueblo!",
      "EUfr": "{{reaction type=\"Agreement\"}}Ouais, {{pause frames=\"5\"}}c'est incontestable.{{pause frames=\"20\"}}\n{{reaction type=\"Happiness\"}}Je suis la reine\nde la chanson en ville!",
      "EUit": "{{reaction type=\"Agreement\"}}Sì, {{pause frames=\"5\"}}lo sanno tutti.{{pause frames=\"20\"}}\n{{reaction type=\"Happiness\"}}Io sono la regina della\ncanzone in questa città!",
      "JPja": "{{reaction type=\"Agreement\"}}ま、{{pause frames=\"5\"}}トウゼンよね{{pause frames=\"20\"}}\n{{reaction type=\"Happiness\"}}あたしは　この{{kanjiReplace charNum=\"1\" value=\"むら\"}}村の\nメロディー・クイーンだもの！",
      "KRko": "{{reaction type=\"Agreement\"}}훗， {{pause frames=\"5\"}}당연하지{{pause frames=\"20\"}}\n{{reaction type=\"Happiness\"}}난 이 마을의\n멜로디 퀸이거든！",
      "USen": "{{reaction type=\"Agreement\"}}Yeah, {{pause frames=\"5\"}}I guess it's totally\nobvious.{{pause frames=\"20\"}} {{reaction type=\"Happiness\"}}I'm the Melody\nQueen of this town!"
    }
  },
  {
    "label": "09",
    "attribute": "0x00000000FE000000",
    "locale": {
      "EUde": "{{reaction type=\"Inspiration\"}}Was?!?{{pressButton}} {{reaction type=\"Worry\"}}Das war die beste\nVorstellung, dich ich bieten\nkann{{pause frames=\"3\"}}.{{pause frames=\"3\"}}.{{pause frames=\"3\"}}.\n{{reaction type=\"Happiness\"}}Du erkennst gute Musik,\n{{pause frames=\"5\"}}wenn du sie hörst.",
      "EUen": "{{reaction type=\"Inspiration\"}}What?!{{pressButton}} {{reaction type=\"Worry\"}}That was my best\nnumber{{pause frames=\"3\"}}.{{pause frames=\"3\"}}.{{pause frames=\"3\"}}.\n\n{{reaction type=\"Happiness\"}}You've got a gift{{pause frames=\"5\"}} for\nknowing good music when you\nhear it!",
      "EUes": "{{reaction type=\"Inspiration\"}}¡¿Qué?!{{pressButton}} {{reaction type=\"Worry\"}}Pues es mi mejor\nnúmero{{pause frames=\"3\"}}.{{pause frames=\"3\"}}.{{pause frames=\"3\"}}.\n\n{{reaction type=\"Happiness\"}}¡Tienes un don{{pause frames=\"5\"}} para\ndistinguir la buena música\ncuando la oyes!",
      "EUfr": "{{reaction type=\"Inspiration\"}}Quoi?!{{pressButton}} {{reaction type=\"Worry\"}}C'était mon plus beau\nnuméro{{pause frames=\"3\"}}.{{pause frames=\"3\"}}.{{pause frames=\"3\"}}.\n\n{{reaction type=\"Happiness\"}}Tu as un don.{{pause frames=\"5\"}} Tu reconnais\nla bonne musique\nquand tu l'entends!",
      "EUit": "{{reaction type=\"Inspiration\"}}Cosa?!{{pressButton}} {{reaction type=\"Worry\"}}Questo è il mio\npezzo forte{{pause frames=\"3\"}}.{{pause frames=\"3\"}}.{{pause frames=\"3\"}}.\n\n{{reaction type=\"Happiness\"}}Tu sai riconoscere{{pause frames=\"5\"}} la buona\nmusica quando la senti!",
      "JPja": "{{reaction type=\"Inspiration\"}}へえ！{{pressButton}}\n{{reaction type=\"Worry\"}}あんなに　ちょっとしか\n{{kanjiReplace charNum=\"1\" value=\"うた\"}}歌ってないのに{{pause frames=\"3\"}}・{{pause frames=\"3\"}}・{{pause frames=\"3\"}}・\n{{reaction type=\"Happiness\"}}おたく、{{pause frames=\"5\"}}いい{{kanjiReplace charNum=\"1\" value=\"うた\"}}歌を\n{{kanjiReplace charNum=\"2\" value=\"みぬ\"}}見抜くセンスは\n{{kanjiReplace charNum=\"1\" value=\"も\"}}持ち{{kanjiReplace charNum=\"1\" value=\"あ\"}}合わせてるみたいね",
      "KRko": "{{reaction type=\"Inspiration\"}}헤에！{{pressButton}}\n{{reaction type=\"Worry\"}}아주 조금만\n불렀을 뿐인데{{pause frames=\"3\"}}・{{pause frames=\"3\"}}・{{pause frames=\"3\"}}・\n{{reaction type=\"Happiness\"}}당신， {{pause frames=\"5\"}}좋은 노래를\n선별할 수 있는 센스가\n있는 것 같네",
      "USen": "{{reaction type=\"Inspiration\"}}What?!{{pressButton}} {{reaction type=\"Worry\"}}That was my best\nnumber{{pause frames=\"3\"}}.{{pause frames=\"3\"}}.{{pause frames=\"3\"}}.\n\n{{reaction type=\"Happiness\"}}You've got a gift{{pause frames=\"5\"}} for\nknowing good music when you\nhear it!"
    }
  },
  {
    "label": "10",
    "attribute": "0x00000000FE000000",
    "locale": {
      "EUde": "{{resetReaction}}O.K. {{pause frames=\"5\"}}O.K. {{pressButton}}{{reaction type=\"Resignation\"}}Von einem\nKind kann ich schließlich\nnicht erwarten,\ndass es mich versteht,\n{{pause frames=\"5\"}}{{string value=\"Catchphrase\"}}.",
      "EUen": "{{resetReaction}}OK. {{pause frames=\"5\"}}That's fine. {{pressButton}}{{reaction type=\"Resignation\"}}I shouldn't\nexpect a child to get my\nmusic anyway, {{pause frames=\"5\"}}{{string value=\"Catchphrase\"}}.",
      "EUes": "{{resetReaction}}Ya. {{pause frames=\"5\"}}{{pressButton}}{{reaction type=\"Resignation\"}}No sé por qué pensaba\nque u{{gender m=\"n\" f=\"na\"}} niñ{{gender m=\"o\" f=\"a\"}} podría\nentender mi música.",
      "EUfr": "{{resetReaction}}Laisse tomber. {{pressButton}}{{reaction type=\"Resignation\"}}Un enfant ne\npeut pas comprendre ma\nmusique, {{pause frames=\"5\"}}{{string value=\"Catchphrase\"}}.",
      "EUit": "{{resetReaction}}Se la pensi così.{{pause frames=\"5\"}}{{pressButton}} {{reaction type=\"Resignation\"}}Gli\ninesperti non capiscono\nla mia musica, {{pause frames=\"5\"}}{{string value=\"Catchphrase\"}}.",
      "JPja": "{{resetReaction}}フフン、{{pause frames=\"5\"}}まあ　いいわ\n\n\n{{reaction type=\"Resignation\"}}あたしの{{kanjiReplace charNum=\"1\" value=\"うた\"}}歌は\nコドモには　{{kanjiReplace charNum=\"1\" value=\"わ\"}}分からないのよ、\n{{pause frames=\"5\"}}{{string value=\"Catchphrase\"}}",
      "KRko": "{{resetReaction}}후훗， {{pause frames=\"5\"}}뭐， 좋아\n\n\n{{reaction type=\"Resignation\"}}내 노래는\n어린애들한테는 안 먹히거든\n{{pause frames=\"5\"}}{{string value=\"Catchphrase\"}}",
      "USen": "{{resetReaction}}OK. {{pause frames=\"5\"}}That's fine. {{pressButton}}{{reaction type=\"Resignation\"}}I shouldn't\nexpect a child to get my\nmusic anyway, {{pause frames=\"5\"}}{{string value=\"Catchphrase\"}}."
    }
  },
  {
    "label": "11",
    "attribute": "0x00000000FE000000",
    "locale": {
      "EUde": "{{pause frames=\"3\"}}.{{pause frames=\"3\"}}.{{pause frames=\"3\"}}.{{pause frames=\"3\"}}{{reaction type=\"Intense\"}}Wirklich?!?{{pressButton}} Dann sollte ich\nwohl besser nochmal üben,\n{{pause frames=\"10\"}}{{string value=\"Catchphrase\"}}.",
      "EUen": "{{pause frames=\"3\"}}.{{pause frames=\"3\"}}.{{pause frames=\"3\"}}.{{pause frames=\"3\"}}{{reaction type=\"Intense\"}}Really?!{{pressButton}} Well, I guess I\nshould go practice more,\n{{pause frames=\"10\"}}{{string value=\"Catchphrase\"}}.",
      "EUes": "{{reaction type=\"Intense\"}}¡¿De verdad?! Mm{{pause frames=\"3\"}}.{{pause frames=\"3\"}}.{{pause frames=\"3\"}}.{{pause frames=\"3\"}}{{pressButton}}\nVoy a tener que practicar\nmás, {{pause frames=\"10\"}}{{string value=\"Catchphrase\"}}.",
      "EUfr": "{{pause frames=\"3\"}}.{{pause frames=\"3\"}}.{{pause frames=\"3\"}}.{{pause frames=\"3\"}}{{reaction type=\"Intense\"}} Vraiment?!{{pressButton}} Eh bien, je\ndevrais m'exercer un peu\nplus alors, {{pause frames=\"10\"}}{{string value=\"Catchphrase\"}}.",
      "EUit": "{{pause frames=\"3\"}}.{{pause frames=\"3\"}}.{{pause frames=\"3\"}}.{{pause frames=\"3\"}}{{reaction type=\"Intense\"}} Davvero?!{{pressButton}} Allora devo\nesercitarmi di più,\n{{pause frames=\"10\"}}{{string value=\"Catchphrase\"}}.",
      "JPja": "{{pause frames=\"3\"}}・{{pause frames=\"3\"}}・{{pause frames=\"3\"}}・{{pause frames=\"3\"}}{{reaction type=\"Intense\"}}そう{{pressButton}}\nちょっと　れんしゅう\nしなおすわ、{{pause frames=\"10\"}}{{string value=\"Catchphrase\"}}",
      "KRko": "{{pause frames=\"3\"}}・{{pause frames=\"3\"}}・{{pause frames=\"3\"}}・{{pause frames=\"3\"}}{{reaction type=\"Intense\"}}그래{{pressButton}}\n다시 연습할게，\n{{pause frames=\"10\"}}{{string value=\"Catchphrase\"}}",
      "USen": "{{pause frames=\"3\"}}.{{pause frames=\"3\"}}.{{pause frames=\"3\"}}.{{pause frames=\"3\"}}{{reaction type=\"Intense\"}}Really?!{{pressButton}} Well, I guess I\nshould go practice more,\n{{pause frames=\"10\"}}{{string value=\"Catchphrase\"}}."
    }
  },
  {
    "label": "12",
    "attribute": "0x00000000FE000000",
    "locale": {
      "EUde": "{{reaction type=\"Resignation\"}}Wow,{{pause frames=\"20\"}} du bist brutal ehrlich,\n{{pause frames=\"5\"}}{{string value=\"Catchphrase\"}}.",
      "EUen": "{{reaction type=\"Resignation\"}}Wow,{{pause frames=\"20\"}} you're really brutal,\n{{pause frames=\"5\"}}{{string value=\"Catchphrase\"}}.",
      "EUes": "{{reaction type=\"Resignation\"}}Vaya,{{pause frames=\"20\"}} eres un poco{{pause frames=\"10\"}}.{{pause frames=\"10\"}}.{{pause frames=\"10\"}}.\nbrutal, {{pause frames=\"5\"}}{{string value=\"Catchphrase\"}}.",
      "EUfr": "{{reaction type=\"Resignation\"}}Oh,{{pause frames=\"20\"}} tu es vraiment franc{{gender m=\"\" f=\"he\"}},\n{{pause frames=\"5\"}}{{string value=\"Catchphrase\"}}.",
      "EUit": "{{reaction type=\"Resignation\"}}Ehi,{{pause frames=\"20\"}} non hai peli sulla\nlingua, {{pause frames=\"5\"}}{{string value=\"Catchphrase\"}}.",
      "JPja": "{{reaction type=\"Resignation\"}}フフン、{{pause frames=\"20\"}}\n{{kanjiReplace charNum=\"1\" value=\"つめ\"}}冷たいのね、{{pause frames=\"5\"}}{{string value=\"Catchphrase\"}}",
      "KRko": "{{reaction type=\"Resignation\"}}흐흥， {{pause frames=\"20\"}}\n냉정하네， {{pause frames=\"5\"}}{{string value=\"Catchphrase\"}}",
      "USen": "{{reaction type=\"Resignation\"}}Wow,{{pause frames=\"20\"}} you're really brutal,\n{{pause frames=\"5\"}}{{string value=\"Catchphrase\"}}."
    }
  },
  {
    "label": "13",
    "attribute": "0x00000000FE000000",
    "locale": {
      "EUde": "{{reaction type=\"Resignation\"}}Ach!{{pause frames=\"20\"}} Es geht hier um ein\nFest. Es soll uns Spaß\nmachen, schon vergessen?",
      "EUen": "{{reaction type=\"Resignation\"}}Well!{{pause frames=\"20\"}} Let me remind you\nthat this is a festival! It's\nsupposed to be fun!",
      "EUes": "{{reaction type=\"Resignation\"}}¡Permite que te recuerde{{pause frames=\"20\"}}\nque esto es un festival!\n¡Se supone que es divertido!",
      "EUfr": "{{reaction type=\"Resignation\"}}Ok!{{pause frames=\"20\"}} Souviens-toi que\nc'est une fête! C'est\nsupposé être marrant!",
      "EUit": "{{reaction type=\"Resignation\"}}Beh,{{pause frames=\"20\"}} vorrei ricordarti che\nquesto è un festival, dove\nbisognerebbe divertirsi!",
      "JPja": "{{reaction type=\"Resignation\"}}ヤーねぇ{{pause frames=\"20\"}}\nせっかくの　お{{kanjiReplace charNum=\"1\" value=\"まつ\"}}祭りなのに！\n{{pause frames=\"5\"}}{{string value=\"Catchphrase\"}}！",
      "KRko": "{{reaction type=\"Resignation\"}}어머， 너무하네{{pause frames=\"20\"}}\n모처럼의 축제인데！\n{{pause frames=\"5\"}}{{string value=\"Catchphrase\"}}！",
      "USen": "{{reaction type=\"Resignation\"}}Well!{{pause frames=\"20\"}} Let me remind you\nthat this is a festival! It's\nsupposed to be fun!"
    }
  },
  {
    "label": "14",
    "attribute": "0x00000000FE000000",
    "locale": {
      "EUde": "Hey, {{pause frames=\"5\"}}{{reaction type=\"Curiosity\"}}hast du schon das Lied\nvon {{color id=\"6\"}}{{string value=\"GossipVillager1\"}} {{color id=\"0\"}}gehört?\n\n{{reaction type=\"Happiness\"}}{{color id=\"6\"}}{{capitalizeLetter}}{{string value=\"GossipVillager1\"}}{{color id=\"0\"}} hat eine tolle\nStimme und kann ordentliche\nLieder schreiben.\n{{reaction type=\"Agreement\"}}Endlich einmal ein würdiger\nWettkampfgegner für mich!{{resetReaction}}",
      "EUen": "Hey, {{pause frames=\"5\"}}{{reaction type=\"Curiosity\"}}have you already heard\n{{color id=\"6\"}}{{string value=\"GossipVillager1\"}}{{color id=\"0\"}}'s song?\n\n{{reaction type=\"Happiness\"}}{{color id=\"6\"}}{{capitalizeLetter}}{{string value=\"GossipVillager1\"}}{{color id=\"0\"}}'s got a pretty \nimpressive voice, and solid\nsongwriting skills.\n{{reaction type=\"Agreement\"}}Now there's talent that's\nworthy of being considered\nmy competition!{{resetReaction}}",
      "EUes": "Oye, {{pause frames=\"5\"}}{{reaction type=\"Curiosity\"}}¿has oído ya la canción\nde {{color id=\"6\"}}{{string value=\"GossipVillager1\"}}{{color id=\"0\"}}?\n\n{{reaction type=\"Happiness\"}}{{color id=\"6\"}}{{capitalizeLetter}}{{string value=\"GossipVillager1\"}}{{color id=\"0\"}} tiene una voz\nimpresionante y buenas\ndotes de composición.\n{{reaction type=\"Agreement\"}}¡Por fin un talento a mi\naltura en esta competición!{{resetReaction}}",
      "EUfr": "Dis-moi, {{pause frames=\"5\"}}{{reaction type=\"Curiosity\"}}tu as déjà entendu\nla chanson de {{color id=\"6\"}}{{string value=\"GossipVillager1\"}}{{color id=\"0\"}}?\n\n{{reaction type=\"Happiness\"}}{{color id=\"6\"}}{{capitalizeLetter}}{{string value=\"GossipVillager1\"}} {{color id=\"0\"}}a une voix\nextraordinaire et un vrai\ntalent de composition.\n{{reaction type=\"Agreement\"}}Ça, c'est un adversaire\nvraiment digne de moi!{{resetReaction}}",
      "EUit": "Ehi, {{pause frames=\"5\"}}{{reaction type=\"Curiosity\"}}hai già sentito la\ncanzone di {{color id=\"6\"}}{{string value=\"GossipVillager1\"}}{{color id=\"0\"}}?\n\n{{reaction type=\"Happiness\"}}{{color id=\"6\"}}{{capitalizeLetter}}{{string value=\"GossipVillager1\"}} {{color id=\"0\"}}ha una voce \nbellissima ed è anche molto\nabile nel comporre.\n{{reaction type=\"Agreement\"}}Ci sono persone degne di\nessere considerate miei\nrivali!{{resetReaction}}",
      "JPja": "ねぇ、{{pause frames=\"5\"}}{{string value=\"GossipVillager1\"}}ちゃんの\n{{reaction type=\"Curiosity\"}}{{kanjiReplace charNum=\"1\" value=\"うた\"}}歌は　もう{{kanjiReplace charNum=\"1\" value=\"き\"}}聞いた？\n\n{{reaction type=\"Happiness\"}}なかなか　いい{{kanjiReplace charNum=\"1\" value=\"こえ\"}}声で\n{{kanjiReplace charNum=\"1\" value=\"うた\"}}歌うわよ、{{pause frames=\"5\"}}{{string value=\"Catchphrase\"}}\n\n{{reaction type=\"Agreement\"}}さすが　あたしの\nライバルだわ、{{pause frames=\"10\"}}{{string value=\"Catchphrase\"}}！{{resetReaction}}",
      "KRko": "있잖아， {{pause frames=\"5\"}}{{string value=\"GossipVillager1\"}}의\n{{reaction type=\"Curiosity\"}}노래는 벌써 들었어？\n\n{{reaction type=\"Happiness\"}}노래 음성이 꽤\n좋던데， {{pause frames=\"5\"}}{{string value=\"Catchphrase\"}}\n\n{{reaction type=\"Agreement\"}}역시 내 라이벌다워，\n{{pause frames=\"10\"}}{{string value=\"Catchphrase\"}}！{{resetReaction}}",
      "USen": "Hey, {{pause frames=\"5\"}}{{reaction type=\"Curiosity\"}}have you already heard\n{{color id=\"6\"}}{{string value=\"GossipVillager1\"}}{{color id=\"0\"}}'s song?\n\n{{reaction type=\"Happiness\"}}{{color id=\"6\"}}{{capitalizeLetter}}{{string value=\"GossipVillager1\"}}{{color id=\"0\"}}'s got a pretty \nimpressive voice, and solid\nsongwriting skills.\n{{reaction type=\"Agreement\"}}Now there's talent that's\nworthy of being considered\nmy competition!{{resetReaction}}"
    }
  },
  {
    "label": "15",
    "attribute": "0x00000000FE000000",
    "locale": {
      "EUde": "Wenn ich mein Bestes gebe,{{pause frames=\"5\"}}\nwerde ich immer so hungrig,\n{{pause frames=\"5\"}}{{string value=\"Catchphrase\"}}.",
      "EUen": "When I give it all I've got,{{pause frames=\"5\"}}\nI get so hungry,\n{{pause frames=\"5\"}}{{string value=\"Catchphrase\"}}.",
      "EUes": "Cuando me dejo el alma\ncantando,{{pause frames=\"5\"}} me entra\nmucha hambre, {{pause frames=\"5\"}}{{string value=\"Catchphrase\"}}.",
      "EUfr": "Quand je donne tout ce que\nj'ai,{{pause frames=\"5\"}} ça me donne faim,\n{{pause frames=\"5\"}}{{string value=\"Catchphrase\"}}.",
      "EUit": "Quando mi impegno,{{pause frames=\"5\"}}\nmi viene una gran fame,\n{{pause frames=\"5\"}}{{string value=\"Catchphrase\"}}.",
      "JPja": "{{kanjiReplace charNum=\"1\" value=\"おも\"}}思いっきり　{{kanjiReplace charNum=\"1\" value=\"うた\"}}歌うと\nおなかが　すくのよね、{{pause frames=\"5\"}}{{string value=\"Catchphrase\"}}",
      "KRko": "힘껏 노래를 부르면\n배가 고파지더라， {{pause frames=\"5\"}}{{string value=\"Catchphrase\"}}",
      "USen": "When I give it all I've got,{{pause frames=\"5\"}}\nI get so hungry,\n{{pause frames=\"5\"}}{{string value=\"Catchphrase\"}}."
    }
  },
  {
    "label": "16",
    "attribute": "0x00000000FE000000",
    "locale": {
      "EUde": "{{reaction type=\"Bashfulness\"}}Ich habe {{pause frames=\"5\"}}das absolute\nGehör.\n\n{{reaction type=\"Surprise\"}}Was! {{pause frames=\"5\"}}Das ist die Wahrheit!{{pressButton}}\n{{reaction type=\"Agreement\"}}Hat mir mein Exfreund\ngesagt, {{pause frames=\"5\"}}{{string value=\"Catchphrase\"}}!{{reaction type=\"Intense\"}}",
      "EUen": "{{reaction type=\"Bashfulness\"}}Actually, {{pause frames=\"5\"}}I have perfect\npitch.\n\n{{reaction type=\"Surprise\"}}What! {{pause frames=\"5\"}}I'm telling the truth!{{pressButton}}\n{{reaction type=\"Agreement\"}}An ex-boyfriend told me\nthat once, {{pause frames=\"5\"}}{{string value=\"Catchphrase\"}}!{{reaction type=\"Intense\"}}",
      "EUes": "{{reaction type=\"Bashfulness\"}}De hecho,{{pause frames=\"5\"}} tengo una voz\nmuy penetrante.\n\n{{reaction type=\"Surprise\"}}¡¿Qué?! {{pause frames=\"5\"}}¡Es verdad!{{pressButton}}\n{{reaction type=\"Agreement\"}}¡Me lo dijo un ex hace\nmucho, {{pause frames=\"5\"}}{{string value=\"Catchphrase\"}}!{{reaction type=\"Intense\"}}",
      "EUfr": "{{reaction type=\"Bashfulness\"}}En fait, {{pause frames=\"5\"}}j'ai une voix\ntrès pure.\n\n{{reaction type=\"Surprise\"}}Quoi! {{pause frames=\"5\"}}C'est la vérité!{{pressButton}}\n{{reaction type=\"Agreement\"}}C'est un ex-petit ami qui\nme l'a dit, {{pause frames=\"5\"}}{{string value=\"Catchphrase\"}}!{{reaction type=\"Intense\"}}",
      "EUit": "{{reaction type=\"Bashfulness\"}}Io sono {{pause frames=\"5\"}}molto\nintonata.\n\n{{reaction type=\"Surprise\"}}Come osi! {{pause frames=\"5\"}}Dico la verità!{{pressButton}}\n{{reaction type=\"Agreement\"}}Me l'ha detto anche il mio\nex ragazzo, {{pause frames=\"5\"}}{{string value=\"Catchphrase\"}}!{{reaction type=\"Intense\"}}",
      "JPja": "{{reaction type=\"Bashfulness\"}}あたし、{{pause frames=\"5\"}}{{kanjiReplace charNum=\"1\" value=\"じつ\"}}実は\n{{kanjiReplace charNum=\"2\" value=\"ぜったい\"}}絶対{{kanjiReplace charNum=\"2\" value=\"おんかん\"}}音感があるの\n\n{{reaction type=\"Surprise\"}}ウソじゃないわよ！？\n{{pause frames=\"5\"}}{{string value=\"Catchphrase\"}}！？\n\n{{reaction type=\"Agreement\"}}{{kanjiReplace charNum=\"1\" value=\"むかし\"}}昔　つきあってた\nカレシに　{{kanjiReplace charNum=\"1\" value=\"い\"}}言われたコト\nあるんだから！　{{pause frames=\"5\"}}{{string value=\"Catchphrase\"}}！{{reaction type=\"Intense\"}}",
      "KRko": "{{reaction type=\"Bashfulness\"}}난 {{pause frames=\"5\"}}사실은\n절대음감이 있어\n\n{{reaction type=\"Surprise\"}}거짓말 아니야！\n{{pause frames=\"5\"}}{{string value=\"Catchphrase\"}}！？\n\n{{reaction type=\"Agreement\"}}예전에 사귀었던\n남친이 한 말이란 말이야！\n{{pause frames=\"5\"}}{{string value=\"Catchphrase\"}}！{{reaction type=\"Intense\"}}",
      "USen": "{{reaction type=\"Bashfulness\"}}Actually, {{pause frames=\"5\"}}I have perfect\npitch.\n\n{{reaction type=\"Surprise\"}}What! {{pause frames=\"5\"}}I'm telling the truth!{{pressButton}}\n{{reaction type=\"Agreement\"}}An ex-boyfriend told me\nthat once, {{pause frames=\"5\"}}{{string value=\"Catchphrase\"}}!{{reaction type=\"Intense\"}}"
    }
  },
  {
    "label": "17",
    "attribute": "0x00000000FF000000",
    "locale": {
      "EUde": "{{reaction type=\"Amazed\"}}Hey, {{pause frames=\"5\"}}{{string value=\"PlayerNickname\"}}.{{pressButton}} {{resetReaction}}Willst du\nwas von mir, {{pause frames=\"10\"}}{{string value=\"Catchphrase\"}}?",
      "EUen": "{{reaction type=\"Amazed\"}}Hey, {{pause frames=\"5\"}}{{string value=\"PlayerNickname\"}}.{{pressButton}} {{resetReaction}}Do you\nneed something from me,\n{{pause frames=\"10\"}}{{string value=\"Catchphrase\"}}?",
      "EUes": "{{reaction type=\"Amazed\"}}Oye, {{pause frames=\"5\"}}{{string value=\"PlayerNickname\"}}.{{pressButton}} {{resetReaction}}¿Necesitas\nalgo de mí, {{pause frames=\"10\"}}{{string value=\"Catchphrase\"}}?",
      "EUfr": "{{reaction type=\"Amazed\"}}Dis, {{pause frames=\"5\"}}{{string value=\"PlayerNickname\"}}.{{pressButton}} {{resetReaction}}Tu veux\nquelque chose de moi, non,\n{{pause frames=\"10\"}}{{string value=\"Catchphrase\"}}?",
      "EUit": "{{reaction type=\"Amazed\"}}Ehi, {{pause frames=\"5\"}}{{string value=\"PlayerNickname\"}}.{{pressButton}} {{resetReaction}}Hai\nbisogno di qualcosa,\n{{pause frames=\"10\"}}{{string value=\"Catchphrase\"}}?",
      "JPja": "{{reaction type=\"Amazed\"}}あら、{{pause frames=\"5\"}}{{string value=\"PlayerNickname\"}}ちゃん\n\n\n{{resetReaction}}あたしに　{{kanjiReplace charNum=\"1\" value=\"なに\"}}何か\nご{{kanjiReplace charNum=\"1\" value=\"よう\"}}用かしら？　{{pause frames=\"10\"}}{{string value=\"Catchphrase\"}}？",
      "KRko": "{{reaction type=\"Amazed\"}}어머， {{pause frames=\"5\"}}{{string value=\"PlayerNickname\"}}\n\n\n{{resetReaction}}나한테 무슨\n할 말 있어？ {{pause frames=\"10\"}}{{string value=\"Catchphrase\"}}？",
      "USen": "{{reaction type=\"Amazed\"}}Hey, {{pause frames=\"5\"}}{{string value=\"PlayerNickname\"}}.{{pressButton}} {{resetReaction}}Do you\nneed something from me,\n{{pause frames=\"10\"}}{{string value=\"Catchphrase\"}}?"
    }
  },
  {
    "label": "18",
    "attribute": "0x00000000FF000000",
    "locale": {
      "EUde": "{{reaction type=\"Happiness\"}}Puh, nach diesem Lied geht\nes mir schon besser.{{pause frames=\"10\"}}\nEine richtige Katharsis.\n{{resetReaction}}Hey, kann ich etwas\nfür dich tun,\n{{pause frames=\"10\"}}{{string value=\"Catchphrase\"}}?",
      "EUen": "{{reaction type=\"Happiness\"}}Phew, I feel so much better\nafter belting out a tune.{{pause frames=\"10\"}}\nIt's so cathartic!\n{{resetReaction}}Hey, is there something I\ncan do for you,\n{{pause frames=\"10\"}}{{string value=\"Catchphrase\"}}?",
      "EUes": "{{reaction type=\"Happiness\"}}Me siento genial después de\ncantar a grito pelado.{{pause frames=\"10\"}}\n¡Es toda una catarsis!\n{{resetReaction}}¿Querías algo, {{pause frames=\"10\"}}{{string value=\"Catchphrase\"}}?",
      "EUfr": "{{reaction type=\"Happiness\"}}Pfiou, je me sens tellement\nmieux après une chanson.{{pause frames=\"10\"}}\nC'est cathartique!\n{{resetReaction}}Hé, je peux faire quelque\nchose pour toi,\n{{pause frames=\"10\"}}{{string value=\"Catchphrase\"}}?",
      "EUit": "{{reaction type=\"Happiness\"}}Quando canto, mi sento\nal settimo cielo.{{pause frames=\"10\"}} È\nun'esperienza liberatoria!\n{{resetReaction}}Ehi, c'è qualcosa che posso\nfare per te, {{pause frames=\"10\"}}{{string value=\"Catchphrase\"}}?",
      "JPja": "{{reaction type=\"Happiness\"}}フフン、\n{{kanjiReplace charNum=\"1\" value=\"おも\"}}思いっきり　{{kanjiReplace charNum=\"1\" value=\"うた\"}}歌うと\nすっきりするわ、{{pause frames=\"10\"}}{{string value=\"Catchphrase\"}}\n{{resetReaction}}ところで　あたしに\n{{kanjiReplace charNum=\"1\" value=\"なに\"}}何か　ご{{kanjiReplace charNum=\"1\" value=\"よう\"}}用かしら？\n{{pause frames=\"10\"}}{{string value=\"Catchphrase\"}}？",
      "KRko": "{{reaction type=\"Happiness\"}}후훗，\n마음껏 노래 부르니\n기분이 상쾌하네， {{pause frames=\"10\"}}{{string value=\"Catchphrase\"}}\n{{resetReaction}}근데 나한테\n무슨 볼일이야？\n{{pause frames=\"10\"}}{{string value=\"Catchphrase\"}}？",
      "USen": "{{reaction type=\"Happiness\"}}Phew, I feel so much better\nafter belting out a tune.{{pause frames=\"10\"}}\nIt's so cathartic!\n{{resetReaction}}Hey, is there something I\ncan do for you,\n{{pause frames=\"10\"}}{{string value=\"Catchphrase\"}}?"
    }
  },
  {
    "label": "19",
    "attribute": "0x00000000FF000000",
    "locale": {
      "EUde": "{{reaction type=\"Happiness\"}}Musik ist etwas\nWundervolles, nicht wahr,\n{{pause frames=\"5\"}}{{string value=\"Catchphrase\"}}?\n{{resetReaction}}Hey, warum starrst du mich\nso an? Willst du etwas\nvon mir?",
      "EUen": "{{reaction type=\"Happiness\"}}Music is such a wonderful \nthing, don't you think,\n{{pause frames=\"5\"}}{{string value=\"Catchphrase\"}}?\n{{resetReaction}}Hey, why are you staring at\nme like that? Do you need\nsomething from me?",
      "EUes": "{{reaction type=\"Happiness\"}}La música es algo\nmaravilloso, ¿no te parece,\n{{pause frames=\"5\"}}{{string value=\"Catchphrase\"}}?\n{{resetReaction}}Oye, ¿por qué me miras así?\n¿Necesitas algo?",
      "EUfr": "{{reaction type=\"Happiness\"}}La musique, c'est\nmerveilleux. Tu ne trouves\npas, {{pause frames=\"5\"}}{{string value=\"Catchphrase\"}}?\n{{resetReaction}}Hé, pourquoi tu me regardes\ncomme ça? Tu as besoin de\nquelque chose?",
      "EUit": "{{reaction type=\"Happiness\"}}La musica è una cosa\nmeravigliosa, non ti pare,\n{{pause frames=\"5\"}}{{string value=\"Catchphrase\"}}?\n{{resetReaction}}Ehi, perché mi guardi\na quel modo? Vuoi qualcosa\nda me?",
      "JPja": "{{reaction type=\"Happiness\"}}{{kanjiReplace charNum=\"2\" value=\"おんがく\"}}音楽って\nやっぱりいいわね、{{pause frames=\"5\"}}{{string value=\"Catchphrase\"}}\n\n{{resetReaction}}ところで　あたしに\n{{kanjiReplace charNum=\"1\" value=\"なに\"}}何か{{kanjiReplace charNum=\"1\" value=\"よう\"}}用？　{{pause frames=\"5\"}}{{string value=\"Catchphrase\"}}？",
      "KRko": "{{reaction type=\"Happiness\"}}음악은\n역시 좋아， {{pause frames=\"5\"}}{{string value=\"Catchphrase\"}}\n\n{{resetReaction}}근데 나한테\n무슨 볼일？ {{pause frames=\"5\"}}{{string value=\"Catchphrase\"}}？",
      "USen": "{{reaction type=\"Happiness\"}}Music is such a wonderful \nthing, don't you think,\n{{pause frames=\"5\"}}{{string value=\"Catchphrase\"}}?\n{{resetReaction}}Hey, why are you staring at\nme like that? Do you need\nsomething from me?"
    }
  },
  {
    "label": "20",
    "attribute": "0x00000000FF000000",
    "locale": {
      "EUde": "{{fun_01}}{{reaction type=\"Happiness\"}}He he he!{{pause frames=\"5\"}} Anschnallen\nund festhalten,\n{{pause frames=\"5\"}}{{string value=\"Catchphrase\"}}!\n{{resetReaction}}O.K., also gut,{{pause frames=\"5\"}} es geht los!{{reaction type=\"Glee\"}}{{pause frames=\"30\"}}{{resettiInputPrompt}}{{fun_01}}",
      "EUen": "{{fun_01}}{{reaction type=\"Happiness\"}}Tee hee hee!{{pause frames=\"5\"}} Prepare to\nhave your socks knocked\noff, {{pause frames=\"5\"}}{{string value=\"Catchphrase\"}}!\n{{resetReaction}}OK, well,{{pause frames=\"5\"}} here I go!{{reaction type=\"Glee\"}}{{pause frames=\"30\"}}{{resettiInputPrompt}}{{fun_01}}",
      "EUes": "{{fun_01}}{{reaction type=\"Happiness\"}}¡Prepárate!{{pause frames=\"5\"}} ¡Se te van a\ncaer los calcetines! ¡Ya\nverás, {{pause frames=\"5\"}}{{string value=\"Catchphrase\"}}!\n{{resetReaction}}¡Allá voy!{{reaction type=\"Glee\"}}{{pause frames=\"30\"}}{{resettiInputPrompt}}{{fun_01}}",
      "EUfr": "{{fun_01}}{{reaction type=\"Happiness\"}}Hi, hi, hi!{{pause frames=\"5\"}} Prépare-toi à\navoir le choc de ta vie,\n{{pause frames=\"5\"}}{{string value=\"Catchphrase\"}}!\n{{resetReaction}}Bon,{{pause frames=\"5\"}} j'y vais!{{reaction type=\"Glee\"}}{{pause frames=\"30\"}}{{resettiInputPrompt}}{{fun_01}}",
      "EUit": "{{fun_01}}{{reaction type=\"Happiness\"}}Ah ah!{{pause frames=\"5\"}} Preparati a essere\nsbaragliat{{gender m=\"o\" f=\"a\"}},\n{{pause frames=\"5\"}}{{string value=\"Catchphrase\"}}!\n{{resetReaction}}OK,{{pause frames=\"5\"}} eccomi!{{reaction type=\"Glee\"}}{{pause frames=\"30\"}}{{resettiInputPrompt}}{{fun_01}}",
      "JPja": "{{fun_01}}{{reaction type=\"Happiness\"}}フフン、{{pause frames=\"5\"}}\nずいぶん　スナオね、{{pause frames=\"5\"}}{{string value=\"Catchphrase\"}}\n\n{{resetReaction}}それじゃ、{{pause frames=\"5\"}}\n{{kanjiReplace charNum=\"1\" value=\"うた\"}}歌わせてもらうわ{{reaction type=\"Glee\"}}{{pause frames=\"30\"}}{{resettiInputPrompt}}{{fun_01}}",
      "KRko": "{{fun_01}}{{reaction type=\"Happiness\"}}후훗，{{pause frames=\"5\"}}\n상당히 솔직하네， {{pause frames=\"5\"}}{{string value=\"Catchphrase\"}}\n\n{{resetReaction}}그럼{{pause frames=\"5\"}}\n불러 볼게{{reaction type=\"Glee\"}}{{pause frames=\"30\"}}{{resettiInputPrompt}}{{fun_01}}",
      "USen": "{{fun_01}}{{reaction type=\"Happiness\"}}Tee hee hee!{{pause frames=\"5\"}} Prepare to\nhave your socks knocked\noff, {{pause frames=\"5\"}}{{string value=\"Catchphrase\"}}!\n{{resetReaction}}OK, well,{{pause frames=\"5\"}} here I go!{{reaction type=\"Glee\"}}{{pause frames=\"30\"}}{{resettiInputPrompt}}{{fun_01}}"
    }
  },
  {
    "label": "21",
    "attribute": "0x00000000FF000000",
    "locale": {
      "EUde": "{{fun_01}}{{reaction type=\"Happiness\"}}Du wolltest es so!{{pause frames=\"20\"}} {{resetReaction}}Du\nkannst währenddessen nicht\nweglaufen, {{pause frames=\"5\"}}{{string value=\"Catchphrase\"}}!\nDrei, {{pause frames=\"3\"}}zwei, {{pause frames=\"3\"}}eins{{pause frames=\"3\"}}.{{pause frames=\"3\"}}.{{pause frames=\"3\"}}.{{reaction type=\"Glee\"}}{{pause frames=\"30\"}}{{resettiInputPrompt}}{{fun_01}}",
      "EUen": "{{fun_01}}{{reaction type=\"Happiness\"}}You said it!{{pause frames=\"20\"}} {{resetReaction}}You can't walk\naway while I'm singing,\n{{pause frames=\"5\"}}{{string value=\"Catchphrase\"}}!\nThree {{pause frames=\"3\"}}two {{pause frames=\"3\"}}one{{pause frames=\"3\"}}.{{pause frames=\"3\"}}.{{pause frames=\"3\"}}.{{reaction type=\"Glee\"}}{{pause frames=\"30\"}}{{resettiInputPrompt}}{{fun_01}}",
      "EUes": "{{fun_01}}{{reaction type=\"Happiness\"}}¡Quiet{{gender m=\"o\" f=\"a\"}} parad{{gender m=\"o\" f=\"a\"}}!{{pause frames=\"20\"}} {{resetReaction}}¡No puedes\nirte cuando estoy cantando,\n{{pause frames=\"5\"}}{{string value=\"Catchphrase\"}}!\nTres, {{pause frames=\"3\"}}dos, {{pause frames=\"3\"}}uno{{pause frames=\"3\"}}.{{pause frames=\"3\"}}.{{pause frames=\"3\"}}.{{reaction type=\"Glee\"}}{{pause frames=\"30\"}}{{resettiInputPrompt}}{{fun_01}}",
      "EUfr": "{{fun_01}}{{reaction type=\"Happiness\"}}Tu l'as dit!{{pause frames=\"20\"}} {{resetReaction}}Tu ne peux pas\nt'éloigner quand je chante,\n{{pause frames=\"5\"}}{{string value=\"Catchphrase\"}}!\nTrois, {{pause frames=\"3\"}}deux, {{pause frames=\"3\"}}un{{pause frames=\"3\"}}.{{pause frames=\"3\"}}.{{pause frames=\"3\"}}.{{reaction type=\"Glee\"}}{{pause frames=\"30\"}}{{resettiInputPrompt}}{{fun_01}}",
      "EUit": "{{fun_01}}{{reaction type=\"Happiness\"}}Ehi!{{pause frames=\"20\"}} {{resetReaction}}Non puoi andartene\nvia mentre canto,\n{{pause frames=\"5\"}}{{string value=\"Catchphrase\"}}!\nTre{{pause frames=\"3\"}} due {{pause frames=\"3\"}}uno{{pause frames=\"3\"}}.{{pause frames=\"3\"}}.{{pause frames=\"3\"}}.{{reaction type=\"Glee\"}}{{pause frames=\"30\"}}{{resettiInputPrompt}}{{fun_01}}",
      "JPja": "{{fun_01}}{{reaction type=\"Happiness\"}}{{kanjiReplace charNum=\"1\" value=\"い\"}}言ったわね？{{pause frames=\"20\"}}\n{{resetReaction}}とちゅうで　にげ{{kanjiReplace charNum=\"1\" value=\"だ\"}}出しちゃ\nダメよ、{{pause frames=\"5\"}}{{string value=\"Catchphrase\"}}\n３・{{pause frames=\"3\"}}２・{{pause frames=\"3\"}}１{{pause frames=\"3\"}}・{{pause frames=\"3\"}}・{{pause frames=\"3\"}}・{{reaction type=\"Glee\"}}{{pause frames=\"30\"}}{{resettiInputPrompt}}{{fun_01}}",
      "KRko": "{{fun_01}}{{reaction type=\"Happiness\"}}말했지？{{pause frames=\"20\"}}\n{{resetReaction}}중간에 도망치면\n안 돼， {{pause frames=\"5\"}}{{string value=\"Catchphrase\"}}\n３・{{pause frames=\"3\"}}２・{{pause frames=\"3\"}}１{{pause frames=\"3\"}}・{{pause frames=\"3\"}}・{{pause frames=\"3\"}}・{{reaction type=\"Glee\"}}{{pause frames=\"30\"}}{{resettiInputPrompt}}{{fun_01}}",
      "USen": "{{fun_01}}{{reaction type=\"Happiness\"}}You said it!{{pause frames=\"20\"}} {{resetReaction}}You can't walk\naway while I'm singing,\n{{pause frames=\"5\"}}{{string value=\"Catchphrase\"}}!\nThree {{pause frames=\"3\"}}two {{pause frames=\"3\"}}one{{pause frames=\"3\"}}.{{pause frames=\"3\"}}.{{pause frames=\"3\"}}.{{reaction type=\"Glee\"}}{{pause frames=\"30\"}}{{resettiInputPrompt}}{{fun_01}}"
    }
  },
  {
    "label": "22",
    "attribute": "0x00000000FF000000",
    "locale": {
      "EUde": "{{fun_01}}{{reaction type=\"Agreement\"}}Diese Show ist{{pause frames=\"5\"}}\nnur für dich, {{pause frames=\"5\"}}{{string value=\"Catchphrase\"}}!\n\n{{resetReaction}}Jetzt hörst du ein\nGesangswunder ohnegleichen!\n{{string value=\"VillagerName\"}}, {{pause frames=\"5\"}}{{string value=\"Catchphrase\"}}!{{reaction type=\"Glee\"}}{{pause frames=\"30\"}}{{resettiInputPrompt}}{{fun_01}}",
      "EUen": "{{fun_01}}{{reaction type=\"Agreement\"}}This is a special free show{{pause frames=\"5\"}}\njust for you, {{pause frames=\"5\"}}{{string value=\"Catchphrase\"}}!\n\n{{resetReaction}}You're about to hear a\nsinging sensation live!\n{{string value=\"VillagerName\"}}, {{pause frames=\"5\"}}{{string value=\"Catchphrase\"}}!{{reaction type=\"Glee\"}}{{pause frames=\"30\"}}{{resettiInputPrompt}}{{fun_01}}",
      "EUes": "{{fun_01}}{{reaction type=\"Agreement\"}}Voy a dedicarte un show\n{{pause frames=\"5\"}}gratis, especial para\nti, {{pause frames=\"5\"}}{{string value=\"Catchphrase\"}}.\n{{resetReaction}}¡Estás a punto de oír\na la gran {{string value=\"VillagerName\"}}!\n¡Y en directo, {{pause frames=\"5\"}}{{string value=\"Catchphrase\"}}!{{reaction type=\"Glee\"}}{{pause frames=\"30\"}}{{resettiInputPrompt}}{{fun_01}}",
      "EUfr": "{{fun_01}}{{reaction type=\"Agreement\"}}Voilà un spectacle gratuit!{{pause frames=\"5\"}}\nRien que pour toi,\n{{pause frames=\"5\"}}{{string value=\"Catchphrase\"}}!\n{{resetReaction}}Tu vas entendre en direct\nune voix sensationnelle!\n{{capitalizeLetter}}{{string value=\"VillagerName\"}}, {{pause frames=\"5\"}}{{string value=\"Catchphrase\"}}!{{reaction type=\"Glee\"}}{{pause frames=\"30\"}}{{resettiInputPrompt}}{{fun_01}}",
      "EUit": "{{fun_01}}{{reaction type=\"Agreement\"}}Questo è uno spettacolino\nsoltanto per te,\n{{pause frames=\"5\"}}{{string value=\"Catchphrase\"}}!\n{{resetReaction}}Preparati a sentire\nqualcosa di eccezionale,\n{{string value=\"VillagerName\"}}, {{pause frames=\"5\"}}{{string value=\"Catchphrase\"}}!{{reaction type=\"Glee\"}}{{pause frames=\"30\"}}{{resettiInputPrompt}}{{fun_01}}",
      "JPja": "{{fun_01}}{{reaction type=\"Agreement\"}}{{kanjiReplace charNum=\"2\" value=\"こんかい\"}}今回は　{{kanjiReplace charNum=\"2\" value=\"とくべつ\"}}特別に\nただで　{{kanjiReplace charNum=\"1\" value=\"き\"}}聞かせてあげるわ、\n{{pause frames=\"5\"}}{{string value=\"Catchphrase\"}}\n{{resetReaction}}これが　ウワサの\n{{string value=\"VillagerName\"}}ミュージックよ！\n{{pause frames=\"5\"}}{{string value=\"Catchphrase\"}}！{{reaction type=\"Glee\"}}{{pause frames=\"30\"}}{{resettiInputPrompt}}{{fun_01}}",
      "KRko": "{{fun_01}}{{reaction type=\"Agreement\"}}이번에는 특별히\n공짜로 들려 줄게，\n{{pause frames=\"5\"}}{{string value=\"Catchphrase\"}}\n{{resetReaction}}이게 그 유명한\n{{string value=\"VillagerName\"}} 뮤직이야！\n{{pause frames=\"5\"}}{{string value=\"Catchphrase\"}}！{{reaction type=\"Glee\"}}{{pause frames=\"30\"}}{{resettiInputPrompt}}{{fun_01}}",
      "USen": "{{fun_01}}{{reaction type=\"Agreement\"}}This is a special free show{{pause frames=\"5\"}}\njust for you, {{pause frames=\"5\"}}{{string value=\"Catchphrase\"}}!\n\n{{resetReaction}}You're about to hear a\nsinging sensation live!\n{{string value=\"VillagerName\"}}, {{pause frames=\"5\"}}{{string value=\"Catchphrase\"}}!{{reaction type=\"Glee\"}}{{pause frames=\"30\"}}{{resettiInputPrompt}}{{fun_01}}"
    }
  }
]