[
  {
    "label": "0",
    "attribute": "0x00000000FE000000",
    "locale": {
      "EUde": "{{reaction type=\"Surprise\"}}Oh, du hier, {{string value=\"PlayerNickname\"}}?{{pause frames=\"5\"}}\nDu hast ein kleines\nProblem, {{pause frames=\"5\"}}{{string value=\"Catchphrase\"}}!\n{{reaction type=\"Worry\"}}{{color id=\"6\"}}{{string index=\"0\"}}{{color id=\"0\"}} hat dich ge-\nsucht, und {{gender m=\"er\" f=\"sie\" n=\"es\"}} war ZIEMLICH\ngeladen!\nIch habe nicht gefragt, was\nlos ist, aber{{pause frames=\"5\"}} {{reaction type=\"Curiosity\"}}du solltest\ndich wohl entschuldigen!?!",
      "EUen": "{{reaction type=\"Surprise\"}}Oh, gosh, it's {{string value=\"PlayerNickname\"}}!{{pause frames=\"5\"}}\nYou're in some hot water,\n{{pause frames=\"5\"}}{{string value=\"Catchphrase\"}}!\n{{reaction type=\"Worry\"}}{{color id=\"6\"}}{{string index=\"0\"}}{{color id=\"0\"}} was looking\nfor you with the REDDEST\nface I've ever seen!\nI was too freaked to ask\nfor details, but{{pause frames=\"5\"}} {{reaction type=\"Curiosity\"}}I'd say\nsorry soon, huh?",
      "EUes": "{{reaction type=\"Surprise\"}}¡Eh, {{string value=\"PlayerNickname\"}}!{{pause frames=\"5\"}}\n¡Creo que estás en un\nbuen lío, {{pause frames=\"5\"}}{{string value=\"Catchphrase\"}}!\n{{reaction type=\"Worry\"}}{{color id=\"6\"}}{{string index=\"0\"}}{{color id=\"0\"}} te está\nbuscando ¡con la cara más\nroja que he visto nunca!\nTuve demasiado miedo para\npedir detalles, pero{{pause frames=\"5\"}} {{reaction type=\"Curiosity\"}}yo que\ntú, le pediría perdón ya...",
      "EUfr": "{{reaction type=\"Surprise\"}}Mais, c'est {{string value=\"PlayerNickname\"}}!{{pause frames=\"5\"}}\nTu es dans un sacré pétrin,\n{{pause frames=\"5\"}}{{string value=\"Catchphrase\"}}!\n{{reaction type=\"Worry\"}}{{color id=\"6\"}}{{string index=\"0\"}}{{color id=\"0\"}} te cherchait.\nSon visage avait une jolie\nteinte ECREVISSE!\nJe n'ai pas osé lui demander\nce qui se passait, mais{{pause frames=\"5\"}} {{reaction type=\"Curiosity\"}}ça\nrisque de mal se passer!",
      "EUit": "{{reaction type=\"Surprise\"}}Oh, capperillo, {{string value=\"PlayerNickname\"}}!{{pause frames=\"5\"}}\nSei nei guai, per caso,\n{{pause frames=\"5\"}}{{string value=\"Catchphrase\"}}?\n{{reaction type=\"Worry\"}}{{capitalizeLetter}}{{color id=\"6\"}}{{string index=\"0\"}}{{color id=\"0\"}} ti stava\ncercando con una faccia\nROSSA come un peperone!\nNon ho chiesto che hai\ncombinato, ma{{pause frames=\"5\"}} {{reaction type=\"Curiosity\"}}è meglio\nse vai subito a scusarti!",
      "JPja": "{{reaction type=\"Surprise\"}}あっ、{{pause frames=\"5\"}}\n{{string value=\"PlayerNickname\"}}さん！　{{pause frames=\"5\"}}{{string value=\"Catchphrase\"}}！\n\n{{resetReaction}}さっき　{{color id=\"6\"}}{{string index=\"0\"}}{{color id=\"0\"}}さんが\nさがしていましたよ、{{pause frames=\"5\"}}{{string value=\"Catchphrase\"}}{{pause frames=\"15\"}}\n{{reaction type=\"Worry\"}}それも　スゴイけんまくでした！\n{{reaction type=\"Distress\"}}{{kanjiReplace charNum=\"1\" value=\"さき\"}}先に　そちらに\n{{kanjiReplace charNum=\"1\" value=\"かお\"}}顔を{{kanjiReplace charNum=\"1\" value=\"だ\"}}出した{{kanjiReplace charNum=\"1\" value=\"ほう\"}}方が\n{{kanjiReplace charNum=\"1\" value=\"よ\"}}良さそうです！　{{pause frames=\"5\"}}{{string value=\"Catchphrase\"}}！",
      "KRko": "{{reaction type=\"Surprise\"}}앗！{{pause frames=\"5\"}}\n{{string value=\"PlayerNickname\"}}님！ {{pause frames=\"5\"}}{{string value=\"Catchphrase\"}}\n\n{{resetReaction}}아까 {{color id=\"6\"}}{{string index=\"0\"}}{{color id=\"0\"}}님이\n찾으셨어요，{{pause frames=\"5\"}} {{string value=\"Catchphrase\"}}{{pause frames=\"15\"}}\n{{reaction type=\"Worry\"}}무서운 얼굴로 말이에요！\n{{reaction type=\"Distress\"}}어서 그분에게\n찾아가 보세요！\n{{pause frames=\"5\"}}{{string value=\"Catchphrase\"}}！",
      "USen": "{{reaction type=\"Surprise\"}}Oh, gosh, it's {{string value=\"PlayerNickname\"}}!{{pause frames=\"5\"}}\nYou're in some hot water,\n{{pause frames=\"5\"}}{{string value=\"Catchphrase\"}}!\n{{reaction type=\"Worry\"}}{{color id=\"6\"}}{{string index=\"0\"}}{{color id=\"0\"}} was looking\nfor you with the REDDEST\nface I've ever seen!\nI was too freaked to ask\nfor details, but{{pause frames=\"5\"}} {{reaction type=\"Curiosity\"}}I'd say\nsorry soon, huh?"
    }
  },
  {
    "label": "1",
    "attribute": "0x00000000FE000000",
    "locale": {
      "EUde": "{{reaction type=\"Amazed\"}}{{string value=\"PlayerNickname\"}},{{pause frames=\"5\"}} was machst\ndu denn hier? Hast du\nzu viel Zeit?\n{{reaction type=\"Worry\"}}{{color id=\"6\"}}{{capitalizeLetter}}{{string index=\"0\"}} {{color id=\"0\"}}sucht dich\nüberall!\n\n{{reaction type=\"Distress\"}}Du solltest {{gender m=\"ihn\" f=\"sie\" n=\"es\"}} SCHNELL\nfinden und fragen, was\ndenn los ist, {{pause frames=\"5\"}}{{string value=\"Catchphrase\"}}!",
      "EUen": "{{reaction type=\"Amazed\"}}{{string value=\"PlayerNickname\"}},{{pause frames=\"5\"}} what're you\ndoing, just goofing off\nlike that?\n{{reaction type=\"Worry\"}}{{color id=\"6\"}}{{capitalizeLetter}}{{string index=\"0\"}} {{color id=\"0\"}}was practically\ndoing a door-to-door\ncheck looking for you!\n{{reaction type=\"Distress\"}}You'd better go get that\nsituation under control,\nand quick, {{pause frames=\"5\"}}{{string value=\"Catchphrase\"}}!",
      "EUes": "{{reaction type=\"Amazed\"}}{{capitalizeLetter}}{{string value=\"PlayerNickname\"}},{{pause frames=\"5\"}} ¿qué haces?\n¿Por qué lías todo tanto?\n\n{{reaction type=\"Worry\"}}¡{{color id=\"6\"}}{{string index=\"0\"}} {{color id=\"0\"}}estuvo\nyendo puerta a puerta\npreguntando por ti!\n{{reaction type=\"Distress\"}}¡Será mejor que vayas a\narreglar lo que sea que\nhicieras mal, {{pause frames=\"5\"}}{{string value=\"Catchphrase\"}}!",
      "EUfr": "{{reaction type=\"Amazed\"}}{{string value=\"PlayerNickname\"}},{{pause frames=\"5\"}} qu'est-ce que\ntu fais à délirer comme ça?\n\n{{reaction type=\"Worry\"}}{{color id=\"6\"}}{{capitalizeLetter}}{{string index=\"0\"}} {{color id=\"0\"}}quadrille le\nvillage pour te retrouver!\n\n{{reaction type=\"Distress\"}}Tu ferais bien de régler\nle problème et vite fait,\n{{pause frames=\"5\"}}{{string value=\"Catchphrase\"}}!",
      "EUit": "{{reaction type=\"Amazed\"}}{{string value=\"PlayerNickname\"}},{{pause frames=\"5\"}} ma cosa fai\nin giro a perdere tempo\ncosì spudoratamente?!\n{{reaction type=\"Worry\"}}{{color id=\"6\"}}{{capitalizeLetter}}{{string index=\"0\"}} {{color id=\"0\"}}ti sta\ncercando in ogni casa e non\nha una faccia allegra!\n{{reaction type=\"Distress\"}}Meglio che chiarisci\nla situazione. E in fretta\nanche, {{pause frames=\"5\"}}{{string value=\"Catchphrase\"}}!",
      "JPja": "{{reaction type=\"Surprise\"}}それどころじゃないです{{pause frames=\"5\"}}\n{{string value=\"PlayerNickname\"}}さん！\n\n{{reaction type=\"Worry\"}}あの　{{color id=\"6\"}}{{string index=\"0\"}}{{color id=\"0\"}}さんが\nすっごく　こわい{{kanjiReplace charNum=\"1\" value=\"かお\"}}顔をして、\n\n{{string value=\"PlayerNickname\"}}さんのコトを\nさがし{{kanjiReplace charNum=\"1\" value=\"まわ\"}}回っていたんです！\n\n{{resetReaction}}きっと　ただごとでは\nありません{{pause frames=\"5\"}}・{{pause frames=\"5\"}}・{{pause frames=\"5\"}}・{{pause frames=\"5\"}}{{string value=\"Catchphrase\"}}{{pause frames=\"15\"}}\n{{reaction type=\"Distress\"}}{{kanjiReplace charNum=\"1\" value=\"いそ\"}}急いで　{{kanjiReplace charNum=\"1\" value=\"い\"}}行ってあげてください！",
      "KRko": "{{reaction type=\"Surprise\"}}이럴 때가 아니에요{{pause frames=\"5\"}}\n{{string value=\"PlayerNickname\"}}님！\n\n{{reaction type=\"Worry\"}}{{color id=\"6\"}}{{string index=\"0\"}}{{color id=\"0\"}}님이\n엄청나게 무서운 얼굴로\n\n{{string value=\"PlayerNickname\"}}님을\n찾아다녔어요！\n\n{{resetReaction}}분명히 무슨 일이 있나 봐요\n{{pause frames=\"5\"}}・{{pause frames=\"5\"}}・{{pause frames=\"5\"}}・{{pause frames=\"5\"}}{{string value=\"Catchphrase\"}}{{pause frames=\"15\"}}\n{{reaction type=\"Distress\"}}어서 가 보세요！",
      "USen": "{{reaction type=\"Amazed\"}}{{string value=\"PlayerNickname\"}},{{pause frames=\"5\"}} what're you\ndoing, just goofing off\nlike that?\n{{reaction type=\"Worry\"}}{{color id=\"6\"}}{{capitalizeLetter}}{{string index=\"0\"}} {{color id=\"0\"}}was practically\ndoing a door-to-door\ncheck looking for you!\n{{reaction type=\"Distress\"}}You'd better go get that\nsituation under control,\nand quick, {{pause frames=\"5\"}}{{string value=\"Catchphrase\"}}!"
    }
  },
  {
    "label": "2",
    "attribute": "0x00000000FE000000",
    "locale": {
      "EUde": "{{reaction type=\"Surprise\"}}Oh! {{pause frames=\"10\"}}Du hier?{{pause frames=\"5\"}}\n{{reaction type=\"Curiosity\"}}Warst du etwa noch nicht\nbei {{color id=\"6\"}}{{string index=\"0\"}}{{color id=\"0\"}}?\n{{resetReaction}}{{color id=\"6\"}}{{capitalizeLetter}}{{string index=\"0\"}}{{color id=\"0\"}} sucht dich\nnämlich überall{{pause frames=\"5\"}} und\nscheint ziemlich sauer...\n{{reaction type=\"Worry\"}}Ehrlich, RICHTIG sauer!{{pause frames=\"5\"}} Du\nsolltest {{pause frames=\"5\"}}dich mal bei {{gender m=\"ihm\" f=\"ihr\" n=\"ihm\"}}\nmelden, {{pause frames=\"5\"}}{{string value=\"Catchphrase\"}}!",
      "EUen": "{{reaction type=\"Surprise\"}}Uh-oh! {{pause frames=\"10\"}}It's you!{{pause frames=\"5\"}}\n{{reaction type=\"Curiosity\"}}Haven't you gone to \n{{color id=\"6\"}}{{string index=\"0\"}}{{color id=\"0\"}}'s place yet?\n{{resetReaction}}{{color id=\"6\"}}{{capitalizeLetter}}{{string index=\"0\"}}{{color id=\"0\"}} was looking\nfor you all over{{pause frames=\"5\"}} with a\nthrobbing forehead vein...\n{{reaction type=\"Worry\"}}That was one mad animal!{{pause frames=\"5\"}}\nMaybe {{pause frames=\"5\"}}you oughta go take\ncare of that, {{pause frames=\"5\"}}{{string value=\"Catchphrase\"}}?",
      "EUes": "{{reaction type=\"Surprise\"}}¡Oh, oh! {{pause frames=\"10\"}}¡Eres tú!{{pause frames=\"5\"}}\n{{reaction type=\"Curiosity\"}}¿Todavía no has ido a casa\nde {{color id=\"6\"}}{{string index=\"0\"}}{{color id=\"0\"}}?\n{{resetReaction}}{{color id=\"6\"}}{{string index=\"0\"}}{{color id=\"0\"}} te estaba\nbuscando por todas partes{{pause frames=\"5\"}}\ncon una vena hinchadísima...\n{{reaction type=\"Worry\"}}¡Parecía que iba a explotar!{{pause frames=\"5\"}}\n¿No crees{{pause frames=\"5\"}} que deberías ir a\nver qué pasa, {{pause frames=\"5\"}}{{string value=\"Catchphrase\"}}?",
      "EUfr": "{{reaction type=\"Surprise\"}}Oh oh! {{pause frames=\"10\"}}C'est toi!{{pause frames=\"5\"}}\n{{reaction type=\"Curiosity\"}}Tu n'es pas encore passé{{gender m=\"\" f=\"e\"}}\nvoir {{color id=\"6\"}}{{string index=\"0\"}}{{color id=\"0\"}}?\n{{resetReaction}}{{color id=\"6\"}}{{capitalizeLetter}}{{string index=\"0\"}}{{color id=\"0\"}} te cherchait\n{{pause frames=\"5\"}}et je ne voudrais pas être\nà ta place...\n{{reaction type=\"Worry\"}}C'était un animal déchaîné!{{pause frames=\"5\"}}\nPeut-être {{pause frames=\"5\"}}que tu voudrais\nt'en occuper, {{pause frames=\"5\"}}{{string value=\"Catchphrase\"}}?",
      "EUit": "{{reaction type=\"Surprise\"}}Oh oh! {{pause frames=\"10\"}}Sei tu!{{pause frames=\"5\"}}\n{{reaction type=\"Curiosity\"}}Non sei ancora andat{{gender m=\"o\" f=\"a\"}}\na casa di {{color id=\"6\"}}{{string index=\"0\"}}{{color id=\"0\"}}?\n{{resetReaction}}{{color id=\"6\"}}{{capitalizeLetter}}{{string index=\"0\"}}{{color id=\"0\"}} ti cerca\novunque{{pause frames=\"5\"}} e la sua vena sulla\nfronte sta per scoppiare...\n{{reaction type=\"Worry\"}}È davvero in bestia!{{pause frames=\"5\"}}\nForse è meglio{{pause frames=\"5\"}} se vai a\nchiarirti, {{pause frames=\"5\"}}{{string value=\"Catchphrase\"}}!",
      "JPja": "{{reaction type=\"Surprise\"}}ちょっと{{kanjiReplace charNum=\"1\" value=\"ま\"}}待ってください、{{pause frames=\"5\"}}\n{{string value=\"PlayerNickname\"}}さん！　{{pause frames=\"5\"}}{{string value=\"Catchphrase\"}}！\n\n{{reaction type=\"Intense\"}}{{color id=\"6\"}}{{string index=\"0\"}}{{color id=\"0\"}}さんが\nものすごい　けんまくで\nあなたのコト　さがしていたの\n{{reaction type=\"Distress\"}}まずは　そっちに\n{{kanjiReplace charNum=\"1\" value=\"かお\"}}顔を{{kanjiReplace charNum=\"1\" value=\"だ\"}}出して\nあげなくっちゃ、{{pause frames=\"5\"}}{{string value=\"Catchphrase\"}}！",
      "KRko": "{{reaction type=\"Surprise\"}}잠깐만요{{pause frames=\"5\"}}\n{{string value=\"PlayerNickname\"}}님！ {{pause frames=\"5\"}}{{string value=\"Catchphrase\"}}\n\n{{reaction type=\"Intense\"}}{{color id=\"6\"}}{{string index=\"0\"}}{{color id=\"0\"}}님이\n무서운 얼굴로\n당신을 찾았어요\n{{reaction type=\"Distress\"}}어서 그분에게\n가 보세요！\n{{pause frames=\"5\"}}{{string value=\"Catchphrase\"}}！",
      "USen": "{{reaction type=\"Surprise\"}}Uh-oh! {{pause frames=\"10\"}}It's you!{{pause frames=\"5\"}}\n{{reaction type=\"Curiosity\"}}Haven't you gone to \n{{color id=\"6\"}}{{string index=\"0\"}}{{color id=\"0\"}}'s place yet?\n{{resetReaction}}{{color id=\"6\"}}{{capitalizeLetter}}{{string index=\"0\"}}{{color id=\"0\"}} was looking\nfor you all over{{pause frames=\"5\"}} with a\nthrobbing forehead vein...\n{{reaction type=\"Worry\"}}That was one mad animal!{{pause frames=\"5\"}}\nMaybe {{pause frames=\"5\"}}you oughta go take\ncare of that, {{pause frames=\"5\"}}{{string value=\"Catchphrase\"}}?"
    }
  }
]