[
  {
    "label": "00",
    "attribute": "0x00000000FF000000",
    "locale": {
      "EUde": "{{reaction type=\"Happiness\"}}{{capitalizeLetter}}{{fun_01}}Moin{{fun_01}},\n{{pause frames=\"5\"}}{{string value=\"Catchphrase\"}}.",
      "EUen": "{{reaction type=\"Happiness\"}}{{capitalizeLetter}}{{fun_01}}Mornin'{{fun_01}}!\nHow are you, {{pause frames=\"5\"}}{{string value=\"Catchphrase\"}}?",
      "EUes": "{{reaction type=\"Happiness\"}}{{capitalizeLetter}}{{fun_01}}Buenos días{{fun_01}},\n{{pause frames=\"5\"}}{{string value=\"Catchphrase\"}}.",
      "EUfr": "{{reaction type=\"Happiness\"}}{{capitalizeLetter}}{{fun_01}}Bonjour{{fun_01}},\n{{pause frames=\"5\"}}{{string value=\"Catchphrase\"}}.",
      "EUit": "{{reaction type=\"Happiness\"}}{{capitalizeLetter}}{{fun_01}}'Giorno{{fun_01}},\n{{pause frames=\"5\"}}{{string value=\"Catchphrase\"}}.",
      "JPja": "{{reaction type=\"Happiness\"}}{{fun_01}}おはようございます、{{fun_01}}\n{{pause frames=\"5\"}}{{string value=\"Catchphrase\"}}",
      "KRko": "{{reaction type=\"Happiness\"}}{{fun_01}}안녕하세요！{{fun_01}}\n{{pause frames=\"5\"}}{{string value=\"Catchphrase\"}}",
      "USen": "{{reaction type=\"Happiness\"}}{{capitalizeLetter}}{{fun_01}}Mornin'{{fun_01}}!\nHow are you, {{pause frames=\"5\"}}{{string value=\"Catchphrase\"}}?"
    }
  },
  {
    "label": "01",
    "attribute": "0x00000000FF000000",
    "locale": {
      "EUde": "{{reaction type=\"Happiness\"}}{{capitalizeLetter}}{{fun_01}}Du schon wieder{{fun_01}},\n{{pause frames=\"5\"}}{{string value=\"PlayerNickname\"}}!",
      "EUen": "{{reaction type=\"Happiness\"}}{{capitalizeLetter}}{{fun_01}}You again{{fun_01}}!\nIt's {{pause frames=\"5\"}}{{string value=\"PlayerNickname\"}}!",
      "EUes": "{{reaction type=\"Happiness\"}}¡{{capitalizeLetter}}{{fun_01}}Tú otra vez{{fun_01}},\n{{pause frames=\"5\"}}{{string value=\"PlayerNickname\"}}!",
      "EUfr": "{{reaction type=\"Happiness\"}}{{capitalizeLetter}}{{fun_01}}Encore toi{{fun_01}},\n{{pause frames=\"5\"}}{{string value=\"PlayerNickname\"}}!",
      "EUit": "{{reaction type=\"Happiness\"}}{{capitalizeLetter}}{{fun_01}}Ancora tu{{fun_01}},\n{{pause frames=\"5\"}}{{string value=\"PlayerNickname\"}}!",
      "JPja": "{{reaction type=\"Happiness\"}}{{fun_01}}あら、{{fun_01}}{{pause frames=\"5\"}}\n{{string value=\"PlayerNickname\"}}さん、{{pause frames=\"5\"}}{{string value=\"Catchphrase\"}}！",
      "KRko": "{{reaction type=\"Happiness\"}}{{fun_01}}어머！{{fun_01}}{{pause frames=\"5\"}}\n{{string value=\"PlayerNickname\"}}님， {{pause frames=\"5\"}}{{string value=\"Catchphrase\"}}",
      "USen": "{{reaction type=\"Happiness\"}}{{capitalizeLetter}}{{fun_01}}You again{{fun_01}}!\nIt's {{pause frames=\"5\"}}{{string value=\"PlayerNickname\"}}!"
    }
  },
  {
    "label": "02",
    "attribute": "0x00000000FF000000",
    "locale": {
      "EUde": "{{reaction type=\"Amazed\"}}{{capitalizeLetter}}{{fun_01}}Oh{{fun_01}},\n{{pause frames=\"5\"}}{{string value=\"PlayerNickname\"}}!",
      "EUen": "{{reaction type=\"Amazed\"}}{{capitalizeLetter}}{{fun_01}}Oh{{fun_01}}!\n{{pause frames=\"5\"}}{{capitalizeLetter}}{{string value=\"PlayerNickname\"}}!",
      "EUes": "{{reaction type=\"Amazed\"}}¡{{capitalizeLetter}}{{fun_01}}Oh{{fun_01}},\n{{pause frames=\"5\"}}{{string value=\"PlayerNickname\"}}!",
      "EUfr": "{{reaction type=\"Amazed\"}}{{capitalizeLetter}}{{fun_01}}Oh{{fun_01}},\n{{pause frames=\"5\"}}{{string value=\"PlayerNickname\"}}!",
      "EUit": "{{reaction type=\"Amazed\"}}{{capitalizeLetter}}{{fun_01}}Oh{{fun_01}},\n{{pause frames=\"5\"}}{{string value=\"PlayerNickname\"}}!",
      "JPja": "{{reaction type=\"Amazed\"}}{{fun_01}}あっ、{{fun_01}}{{pause frames=\"5\"}}\n{{string value=\"PlayerNickname\"}}さん！",
      "KRko": "{{reaction type=\"Amazed\"}}{{fun_01}}앗！{{fun_01}}{{pause frames=\"5\"}}\n{{string value=\"PlayerNickname\"}}님！",
      "USen": "{{reaction type=\"Amazed\"}}{{capitalizeLetter}}{{fun_01}}Oh{{fun_01}}!\n{{pause frames=\"5\"}}{{capitalizeLetter}}{{string value=\"PlayerNickname\"}}!"
    }
  },
  {
    "label": "03",
    "attribute": "0x00000000FE000000",
    "locale": {
      "EUde": "{{reaction type=\"Thought\"}}.{{pause frames=\"5\"}}.{{pause frames=\"5\"}}.{{pause frames=\"5\"}}Oh, {{reaction type=\"Amazed\"}}{{pause frames=\"15\"}}tut mir Leid!{{resetReaction}}\n\n\nIch war {{pause frames=\"5\"}}nur{{pause frames=\"5\"}} verwirrt,\n{{pause frames=\"5\"}}{{string value=\"Catchphrase\"}}.",
      "EUen": "{{reaction type=\"Thought\"}}.{{pause frames=\"5\"}}.{{pause frames=\"5\"}}.{{pause frames=\"5\"}}Oh, {{reaction type=\"Amazed\"}}{{pause frames=\"15\"}}sorry!{{resetReaction}}\n\n\nI was {{pause frames=\"5\"}}just{{pause frames=\"5\"}} spacing out,\n{{pause frames=\"5\"}}{{string value=\"Catchphrase\"}}.",
      "EUes": "{{reaction type=\"Thought\"}}¡Oh, {{reaction type=\"Amazed\"}}{{pause frames=\"15\"}}perdona!{{resetReaction}}\n\n\nEstaba {{pause frames=\"5\"}}en{{pause frames=\"5\"}} mis cosas,\n{{pause frames=\"5\"}}{{string value=\"Catchphrase\"}}.",
      "EUfr": "{{reaction type=\"Thought\"}}.{{pause frames=\"5\"}}.{{pause frames=\"5\"}}.{{pause frames=\"5\"}} Oh, {{reaction type=\"Amazed\"}}{{pause frames=\"15\"}}pardon!{{resetReaction}}\n\n\nJ'avais la {{pause frames=\"5\"}}tête{{pause frames=\"5\"}} ailleurs,\n{{pause frames=\"5\"}}{{string value=\"Catchphrase\"}}.",
      "EUit": "{{reaction type=\"Thought\"}}.{{pause frames=\"5\"}}.{{pause frames=\"5\"}}.{{pause frames=\"5\"}} Oh, {{reaction type=\"Amazed\"}}{{pause frames=\"15\"}}scusa!{{resetReaction}}\n\n\nEro {{pause frames=\"5\"}}assorta{{pause frames=\"5\"}} nei miei\n{{pause frames=\"5\"}}pensieri, {{string value=\"Catchphrase\"}}.",
      "JPja": "・{{pause frames=\"5\"}}・{{pause frames=\"5\"}}・{{pause frames=\"5\"}}あ、{{reaction type=\"Amazed\"}}{{pause frames=\"15\"}}ごめんなさい\n\n\n{{resetReaction}}{{kanjiReplace charNum=\"1\" value=\"いま\"}}今、{{pause frames=\"5\"}}ちょっと{{pause frames=\"5\"}}\n{{kanjiReplace charNum=\"1\" value=\"かんが\"}}考え{{kanjiReplace charNum=\"1\" value=\"ごと\"}}事してました、{{pause frames=\"5\"}}{{string value=\"Catchphrase\"}}",
      "KRko": "・{{pause frames=\"5\"}}・{{pause frames=\"5\"}}・{{pause frames=\"5\"}}아， {{reaction type=\"Amazed\"}}{{pause frames=\"15\"}}죄송해요\n\n\n{{resetReaction}}지금， {{pause frames=\"5\"}}잠깐{{pause frames=\"5\"}}\n생각 중이었어요， {{pause frames=\"5\"}}{{string value=\"Catchphrase\"}}",
      "USen": "{{reaction type=\"Thought\"}}.{{pause frames=\"5\"}}.{{pause frames=\"5\"}}.{{pause frames=\"5\"}}Oh, {{reaction type=\"Amazed\"}}{{pause frames=\"15\"}}sorry!{{resetReaction}}\n\n\nI was {{pause frames=\"5\"}}just{{pause frames=\"5\"}} spacing out,\n{{pause frames=\"5\"}}{{string value=\"Catchphrase\"}}."
    }
  },
  {
    "label": "04",
    "attribute": "0x00000000FF000000",
    "locale": {
      "EUde": "{{capitalizeLetter}}{{fun_01}}Oh{{fun_01}},\n{{string value=\"PlayerNickname\"}}! Ähm,{{pause frames=\"5\"}} hallo!",
      "EUen": "{{capitalizeLetter}}{{fun_01}}Oh{{fun_01}}!\n{{capitalizeLetter}}{{string value=\"PlayerNickname\"}}! Uh,{{pause frames=\"5\"}} hi!",
      "EUes": "¡{{capitalizeLetter}}{{fun_01}}Eh{{fun_01}},\n{{string value=\"PlayerNickname\"}}! {{pause frames=\"5\"}}¡Hola!",
      "EUfr": "{{capitalizeLetter}}{{fun_01}}Oh{{fun_01}},\n{{string value=\"PlayerNickname\"}}! Euh,{{pause frames=\"5\"}} salut!",
      "EUit": "{{capitalizeLetter}}{{fun_01}}Oh{{fun_01}},\n{{string value=\"PlayerNickname\"}}! Eh?{{pause frames=\"5\"}} Ciao!",
      "JPja": "{{fun_01}}こんにちは、{{fun_01}}{{pause frames=\"5\"}}\n{{string value=\"PlayerNickname\"}}さん",
      "KRko": "{{fun_01}}안녕하세요！{{fun_01}}{{pause frames=\"5\"}}\n{{string value=\"PlayerNickname\"}}님",
      "USen": "{{capitalizeLetter}}{{fun_01}}Oh{{fun_01}}!\n{{capitalizeLetter}}{{string value=\"PlayerNickname\"}}! Uh,{{pause frames=\"5\"}} hi!"
    }
  },
  {
    "label": "05",
    "attribute": "0x00000000FF000000",
    "locale": {
      "EUde": "Sieh sich einer dich an,\n{{string value=\"PlayerNickname\"}}!{{pause frames=\"5\"}}{{reaction type=\"Happiness\"}}\n\n{{capitalizeLetter}}{{fun_01}}Du bist voller Energie{{fun_01}},\n{{pause frames=\"5\"}}{{string value=\"Catchphrase\"}}!",
      "EUen": "Look at you, {{string value=\"PlayerNickname\"}}!{{pause frames=\"5\"}}{{reaction type=\"Happiness\"}}\n{{capitalizeLetter}}{{fun_01}}You're sure peppy today{{fun_01}}!\nI'll say, {{pause frames=\"5\"}}{{string value=\"Catchphrase\"}}!",
      "EUes": "¡Mírate, {{string value=\"PlayerNickname\"}}!{{pause frames=\"5\"}}{{reaction type=\"Happiness\"}}\n¡{{capitalizeLetter}}{{fun_01}}Hoy estás impresionante{{fun_01}},\n{{pause frames=\"5\"}}{{string value=\"Catchphrase\"}}!",
      "EUfr": "Eh bien, {{string value=\"PlayerNickname\"}}!{{pause frames=\"5\"}}{{reaction type=\"Happiness\"}}\n{{capitalizeLetter}}{{fun_01}}Tu débordes d'énergie\naujourd'hui{{fun_01}}, {{pause frames=\"5\"}}{{string value=\"Catchphrase\"}}!",
      "EUit": "Ma guardati, {{string value=\"PlayerNickname\"}}!{{pause frames=\"5\"}}{{reaction type=\"Happiness\"}}\n{{capitalizeLetter}}{{fun_01}}Sei pien{{gender m=\"o\" f=\"a\"}} di energia{{fun_01}},\n{{pause frames=\"5\"}}{{string value=\"Catchphrase\"}}!",
      "JPja": "{{string value=\"PlayerNickname\"}}さん、{{pause frames=\"5\"}}{{reaction type=\"Happiness\"}}\n{{fun_01}}はりきってますね{{fun_01}}！",
      "KRko": "{{string value=\"PlayerNickname\"}}님{{pause frames=\"5\"}}{{reaction type=\"Happiness\"}}\n{{fun_01}}건강하시군요{{fun_01}}！",
      "USen": "Look at you, {{string value=\"PlayerNickname\"}}!{{pause frames=\"5\"}}{{reaction type=\"Happiness\"}}\n{{capitalizeLetter}}{{fun_01}}You're sure peppy today{{fun_01}}!\nI'll say, {{pause frames=\"5\"}}{{string value=\"Catchphrase\"}}!"
    }
  },
  {
    "label": "06",
    "attribute": "0x00000000FF000000",
    "locale": {
      "EUde": "{{capitalizeLetter}}{{fun_01}}Hallo{{fun_01}},\n{{pause frames=\"5\"}}{{string value=\"Catchphrase\"}}!",
      "EUen": "{{capitalizeLetter}}{{fun_01}}Hello{{fun_01}}!\nWhat's up, {{pause frames=\"5\"}}{{string value=\"Catchphrase\"}}!",
      "EUes": "¡{{capitalizeLetter}}{{fun_01}}Hola{{fun_01}},\n{{pause frames=\"5\"}}{{string value=\"Catchphrase\"}}!",
      "EUfr": "{{capitalizeLetter}}{{fun_01}}Salut{{fun_01}},\n{{pause frames=\"5\"}}{{string value=\"Catchphrase\"}}!",
      "EUit": "{{capitalizeLetter}}{{fun_01}}Ciao{{fun_01}},\n{{pause frames=\"5\"}}{{string value=\"Catchphrase\"}}!",
      "JPja": "{{fun_01}}こんにちは{{fun_01}}！\n{{pause frames=\"5\"}}{{string value=\"Catchphrase\"}}！",
      "KRko": "{{fun_01}}안녕하세요{{fun_01}}！\n{{pause frames=\"5\"}}{{string value=\"Catchphrase\"}}！",
      "USen": "{{capitalizeLetter}}{{fun_01}}Hello{{fun_01}}!\nWhat's up, {{pause frames=\"5\"}}{{string value=\"Catchphrase\"}}!"
    }
  },
  {
    "label": "07",
    "attribute": "0x00000000FE000000",
    "locale": {
      "EUde": "Hm. {{pause frames=\"15\"}}An so einem Tag geht\nman doch gerne\n{{reaction type=\"Agreement\"}}{{string value=\"Hobby\"}}!{{pause frames=\"5\"}}\nStimmt doch, oder etwa\nnicht, {{pause frames=\"5\"}}{{string value=\"Catchphrase\"}}?",
      "EUen": "Hm. {{pause frames=\"15\"}}It's looking like a good\nday to{{reaction type=\"Agreement\"}} {{string value=\"Hobby\"}},{{pause frames=\"5\"}}\nam I right, {{pause frames=\"5\"}}{{string value=\"Catchphrase\"}}?",
      "EUes": "Mm. {{pause frames=\"15\"}}Hoy parece un buen día\npara{{reaction type=\"Agreement\"}} {{string value=\"Hobby\"}},{{pause frames=\"5\"}}\n¿verdad, {{pause frames=\"5\"}}{{string value=\"Catchphrase\"}}?",
      "EUfr": "{{pause frames=\"15\"}}C'est une belle journée pour\n{{reaction type=\"Agreement\"}}{{string value=\"Hobby\"}},{{pause frames=\"5\"}}\npas vrai, {{pause frames=\"5\"}}{{string value=\"Catchphrase\"}}?",
      "EUit": "È {{pause frames=\"15\"}}la giornata ideale per\n{{reaction type=\"Agreement\"}}{{string value=\"Hobby\"}},{{pause frames=\"5\"}}\nvero, {{pause frames=\"5\"}}{{string value=\"Catchphrase\"}}?",
      "JPja": "さあ、{{pause frames=\"15\"}}{{kanjiReplace charNum=\"2\" value=\"きょう\"}}今日も{{reaction type=\"Agreement\"}}\n{{string value=\"Hobby\"}}、{{pause frames=\"5\"}}\nがんばっちゃいます、{{pause frames=\"5\"}}{{string value=\"Catchphrase\"}}",
      "KRko": "자， {{pause frames=\"15\"}}오늘도{{reaction type=\"Agreement\"}}\n{{string value=\"Hobby\"}}{{pause frames=\"5\"}}\n힘낼 거예요！ {{pause frames=\"5\"}}{{string value=\"Catchphrase\"}}",
      "USen": "Hm. {{pause frames=\"15\"}}It's looking like a good\nday to{{reaction type=\"Agreement\"}} {{string value=\"Hobby\"}},{{pause frames=\"5\"}}\nam I right, {{pause frames=\"5\"}}{{string value=\"Catchphrase\"}}?"
    }
  },
  {
    "label": "08",
    "attribute": "0x00000000FF000000",
    "locale": {
      "EUde": "{{capitalizeLetter}}{{fun_01}}Hm, schönen guten Abend{{fun_01}}!{{pause frames=\"10\"}}\nWo ist die Zeit geblieben?\nEs ist schon {{string value=\"Hour\"}} Uhr!",
      "EUen": "{{capitalizeLetter}}{{fun_01}}Well, good evening to you{{fun_01}}!{{pause frames=\"10\"}}\nWhere does the day go? It's\nalready {{string value=\"Hour\"}} o'clock!",
      "EUes": "¡{{capitalizeLetter}}{{fun_01}}Hola, buenas{{fun_01}}!{{pause frames=\"10\"}}\n¡Cómo vuela el tiempo!\n¡Mira qué hora es!",
      "EUfr": "{{capitalizeLetter}}{{fun_01}}Bien le bonsoir{{fun_01}}!{{pause frames=\"10\"}}\nLe temps file, hein? Il est\ndéjà {{string value=\"Hour\"}}h!",
      "EUit": "{{capitalizeLetter}}{{fun_01}}Oh, buonasera{{fun_01}}!{{pause frames=\"10\"}}\nCome passa il tempo! Sono\ngià le {{string value=\"Hour\"}}!",
      "JPja": "{{fun_01}}こんばんは{{fun_01}}{{pause frames=\"10\"}}\nもう　{{string value=\"Hour\"}}{{kanjiReplace charNum=\"1\" value=\"じ\"}}時ですね、\n{{pause frames=\"5\"}}{{string value=\"Catchphrase\"}}",
      "KRko": "{{fun_01}}안녕하세요{{fun_01}}{{pause frames=\"10\"}}\n벌써 {{string value=\"Hour\"}}시예요\n{{pause frames=\"5\"}}{{string value=\"Catchphrase\"}}",
      "USen": "{{capitalizeLetter}}{{fun_01}}Well, good evening to you{{fun_01}}!{{pause frames=\"10\"}}\nWhere does the day go? It's\nalready {{string value=\"Hour\"}} o'clock!"
    }
  },
  {
    "label": "09",
    "attribute": "0x00000000FF000000",
    "locale": {
      "EUde": "{{reaction type=\"Happiness\"}}{{capitalizeLetter}}{{fun_01}}Eine schöne Nacht{{fun_01}},\n{{pause frames=\"6\"}}{{string value=\"Catchphrase\"}}!",
      "EUen": "{{reaction type=\"Happiness\"}}{{capitalizeLetter}}{{fun_01}}Nice night out, isn't it{{fun_01}}!\n{{pause frames=\"6\"}}{{capitalizeLetter}}{{string value=\"Catchphrase\"}}!",
      "EUes": "{{reaction type=\"Happiness\"}}{{capitalizeLetter}}{{fun_01}}Una noche estupenda{{fun_01}},\n¿verdad, {{pause frames=\"6\"}}{{string value=\"Catchphrase\"}}?",
      "EUfr": "{{reaction type=\"Happiness\"}}{{capitalizeLetter}}{{fun_01}}Belle soirée, n'est-ce pas{{fun_01}},\n{{pause frames=\"6\"}}{{string value=\"Catchphrase\"}}?",
      "EUit": "{{reaction type=\"Happiness\"}}{{capitalizeLetter}}{{fun_01}}Bella la notte, eh{{fun_01}},\n{{pause frames=\"6\"}}{{string value=\"Catchphrase\"}}?",
      "JPja": "{{reaction type=\"Happiness\"}}{{fun_01}}こんばんは{{fun_01}}{{pause frames=\"15\"}}\n{{pause frames=\"6\"}}{{string value=\"Catchphrase\"}}！",
      "KRko": "{{reaction type=\"Happiness\"}}{{fun_01}}안녕하세요{{fun_01}}{{pause frames=\"15\"}}\n{{pause frames=\"6\"}}{{string value=\"Catchphrase\"}}！",
      "USen": "{{reaction type=\"Happiness\"}}{{capitalizeLetter}}{{fun_01}}Nice night out, isn't it{{fun_01}}!\n{{pause frames=\"6\"}}{{capitalizeLetter}}{{string value=\"Catchphrase\"}}!"
    }
  },
  {
    "label": "10",
    "attribute": "0x00000000FF000000",
    "locale": {
      "EUde": "Es wird jetzt draußen\nziemlich dunkel,\n{{pause frames=\"5\"}}{{string value=\"Catchphrase\"}}.",
      "EUen": "It's getting pretty dark\nout, {{pause frames=\"5\"}}{{string value=\"Catchphrase\"}}.",
      "EUes": "Está oscureciendo\nmucho, {{pause frames=\"5\"}}{{string value=\"Catchphrase\"}}.",
      "EUfr": "Il commence à faire assez\nsombre dehors, {{pause frames=\"5\"}}{{string value=\"Catchphrase\"}}.",
      "EUit": "Si è fatto molto buio,\nvero, {{pause frames=\"5\"}}{{string value=\"Catchphrase\"}}?",
      "JPja": "だんだん\n{{kanjiReplace charNum=\"1\" value=\"くら\"}}暗くなって　きましたね、\n{{pause frames=\"5\"}}{{string value=\"Catchphrase\"}}",
      "KRko": "많이\n어두워졌네요\n{{pause frames=\"5\"}}{{string value=\"Catchphrase\"}}",
      "USen": "It's getting pretty dark\nout, {{pause frames=\"5\"}}{{string value=\"Catchphrase\"}}."
    }
  },
  {
    "label": "11",
    "attribute": "0x00000000FE000000",
    "locale": {
      "EUde": "Schon so spät.{{pause frames=\"5\"}}.{{pause frames=\"5\"}}.{{pause frames=\"5\"}}\n\n\n{{reaction type=\"Curiosity\"}}Ich frage mich, ob\n{{string value=\"GossipVillager1\"}}{{pause frames=\"5\"}} immer noch\nackern muss, {{pause frames=\"5\"}}{{string value=\"Catchphrase\"}}.",
      "EUen": "Look at the time.{{pause frames=\"5\"}}.{{pause frames=\"5\"}}.{{pause frames=\"5\"}}\n\n\n{{reaction type=\"Curiosity\"}}I wonder if my friend\n{{string value=\"GossipVillager1\"}}{{pause frames=\"5\"}} is still hard\nat work, {{pause frames=\"5\"}}{{string value=\"Catchphrase\"}}.",
      "EUes": "Mira qué hora es.{{pause frames=\"5\"}}.{{pause frames=\"5\"}}.{{pause frames=\"5\"}}\n\n\n{{reaction type=\"Curiosity\"}}Me pregunto si {{string value=\"GossipVillager1\"}}{{pause frames=\"5\"}}\nestará trabajando\ntodavía, {{pause frames=\"5\"}}{{string value=\"Catchphrase\"}}.",
      "EUfr": "Regarde l'heure.{{pause frames=\"5\"}}.{{pause frames=\"5\"}}.{{pause frames=\"5\"}}\n\n\n{{reaction type=\"Curiosity\"}}Je me demande si\n{{string value=\"GossipVillager1\"}}{{pause frames=\"5\"}} est encore\nau travail, {{pause frames=\"5\"}}{{string value=\"Catchphrase\"}}.",
      "EUit": "Ma guarda che ore sono.{{pause frames=\"5\"}}.{{pause frames=\"5\"}}.{{pause frames=\"5\"}}\n\n\n{{reaction type=\"Curiosity\"}}Chissà se\n{{string value=\"GossipVillager1\"}}{{pause frames=\"5\"}} è ancora\na lavorare, {{pause frames=\"5\"}}{{string value=\"Catchphrase\"}}.",
      "JPja": "{{kanjiReplace charNum=\"1\" value=\"ひ\"}}日がくれて　きましたね、\n{{pause frames=\"5\"}}{{string value=\"Catchphrase\"}}\n\n{{reaction type=\"Curiosity\"}}{{kanjiReplace charNum=\"2\" value=\"なかよ\"}}仲良しの　{{string value=\"GossipVillager1\"}}さん、{{pause frames=\"5\"}}\nまだ　がんばってるのかしら？",
      "KRko": "날이 어두워졌네요\n{{pause frames=\"5\"}}{{string value=\"Catchphrase\"}}\n\n{{reaction type=\"Curiosity\"}}제 친구 {{string value=\"GossipVillager1\"}}님은{{pause frames=\"5\"}}\n지금도 열심이시겠죠？",
      "USen": "Look at the time.{{pause frames=\"5\"}}.{{pause frames=\"5\"}}.{{pause frames=\"5\"}}\n\n\n{{reaction type=\"Curiosity\"}}I wonder if my friend\n{{string value=\"GossipVillager1\"}}{{pause frames=\"5\"}} is still hard\nat work, {{pause frames=\"5\"}}{{string value=\"Catchphrase\"}}."
    }
  },
  {
    "label": "12",
    "attribute": "0x00000000FF000000",
    "locale": {
      "EUde": "{{capitalizeLetter}}{{fun_01}}Hallöchen{{fun_01}},\n{{pause frames=\"15\"}}{{reaction type=\"Happiness\"}}{{string value=\"PlayerNickname\"}}.\n\nEine schöne Nacht zum\nSpazieren, {{pause frames=\"5\"}}{{string value=\"Catchphrase\"}}?",
      "EUen": "{{capitalizeLetter}}{{fun_01}}Hello there{{fun_01}}!\n{{pause frames=\"15\"}}{{reaction type=\"Happiness\"}}{{capitalizeLetter}}{{string value=\"PlayerNickname\"}}, nice night for\na walk, huh, {{pause frames=\"5\"}}{{string value=\"Catchphrase\"}}?",
      "EUes": "{{capitalizeLetter}}{{fun_01}}Eh, hola{{fun_01}},\n{{pause frames=\"15\"}}{{reaction type=\"Happiness\"}}{{string value=\"PlayerNickname\"}}. Noche ideal\npara pasear, {{pause frames=\"5\"}}{{string value=\"Catchphrase\"}}.",
      "EUfr": "{{capitalizeLetter}}{{fun_01}}Salut{{fun_01}}, {{pause frames=\"15\"}}{{reaction type=\"Happiness\"}}{{string value=\"PlayerNickname\"}}.\nBelle soirée pour se\nbalader, hein, {{pause frames=\"5\"}}{{string value=\"Catchphrase\"}}?",
      "EUit": "{{capitalizeLetter}}{{fun_01}}Ma ciao{{fun_01}},\n{{pause frames=\"15\"}}{{reaction type=\"Happiness\"}}{{string value=\"PlayerNickname\"}}!\n\nÈ la notte ideale per fare\ndue passi, eh, {{pause frames=\"5\"}}{{string value=\"Catchphrase\"}}?",
      "JPja": "{{fun_01}}こんばんは{{fun_01}}！{{pause frames=\"15\"}}\n{{reaction type=\"Happiness\"}}{{string value=\"PlayerNickname\"}}さん、{{pause frames=\"5\"}}{{string value=\"Catchphrase\"}}",
      "KRko": "{{fun_01}}안녕하세요{{fun_01}}！{{pause frames=\"15\"}}\n{{reaction type=\"Happiness\"}}{{string value=\"PlayerNickname\"}}님， {{pause frames=\"5\"}}{{string value=\"Catchphrase\"}}",
      "USen": "{{capitalizeLetter}}{{fun_01}}Hello there{{fun_01}}!\n{{pause frames=\"15\"}}{{reaction type=\"Happiness\"}}{{capitalizeLetter}}{{string value=\"PlayerNickname\"}}, nice night for\na walk, huh, {{pause frames=\"5\"}}{{string value=\"Catchphrase\"}}?"
    }
  },
  {
    "label": "13",
    "attribute": "0x00000000FF000000",
    "locale": {
      "EUde": "Tut mir Leid, aber ich muss\nins Bett{{pause frames=\"5\"}}.{{pause frames=\"5\"}}.{{pause frames=\"5\"}}.{{pause frames=\"5\"}} {{string value=\"Catchphrase\"}}.",
      "EUen": "I'm sorry, but I have to\nget to bed{{pause frames=\"5\"}}.{{pause frames=\"5\"}}.{{pause frames=\"5\"}}.{{pause frames=\"5\"}}{{string value=\"Catchphrase\"}}.",
      "EUes": "Lo siento, tengo que irme\na la cama{{pause frames=\"5\"}}.{{pause frames=\"5\"}}.{{pause frames=\"5\"}}.{{pause frames=\"5\"}} {{string value=\"Catchphrase\"}}.",
      "EUfr": "Désolée, mais je dois aller\nme coucher{{pause frames=\"5\"}}.{{pause frames=\"5\"}}.{{pause frames=\"5\"}}.{{pause frames=\"5\"}} {{string value=\"Catchphrase\"}}.",
      "EUit": "Scusa, ma ora devo andare\na letto{{pause frames=\"5\"}}.{{pause frames=\"5\"}}.{{pause frames=\"5\"}}.{{pause frames=\"5\"}} {{string value=\"Catchphrase\"}}.",
      "JPja": "そろそろ\nねむらなきゃ・{{pause frames=\"5\"}}・{{pause frames=\"5\"}}・{{pause frames=\"5\"}}{{string value=\"Catchphrase\"}}",
      "KRko": "이제\n주무셔야죠・{{pause frames=\"5\"}}・{{pause frames=\"5\"}}・{{pause frames=\"5\"}} {{string value=\"Catchphrase\"}}",
      "USen": "I'm sorry, but I have to\nget to bed{{pause frames=\"5\"}}.{{pause frames=\"5\"}}.{{pause frames=\"5\"}}.{{pause frames=\"5\"}}{{string value=\"Catchphrase\"}}."
    }
  },
  {
    "label": "14",
    "attribute": "0x00000000FF000000",
    "locale": {
      "EUde": "{{reaction type=\"Happiness\"}}{{capitalizeLetter}}{{fun_01}}Guten Abend{{fun_01}},\n{{pause frames=\"5\"}}{{string value=\"Catchphrase\"}}.",
      "EUen": "{{reaction type=\"Happiness\"}}{{capitalizeLetter}}{{fun_01}}Good evening{{fun_01}}.\n{{pause frames=\"5\"}}{{capitalizeLetter}}{{string value=\"Catchphrase\"}}!",
      "EUes": "{{reaction type=\"Happiness\"}}{{capitalizeLetter}}{{fun_01}}Buenas noches{{fun_01}},\n{{pause frames=\"5\"}}{{string value=\"Catchphrase\"}}.",
      "EUfr": "{{reaction type=\"Happiness\"}}{{capitalizeLetter}}{{fun_01}}Bonsoir{{fun_01}},\n{{pause frames=\"5\"}}{{string value=\"Catchphrase\"}}.",
      "EUit": "{{reaction type=\"Happiness\"}}{{capitalizeLetter}}{{fun_01}}Buonasera{{fun_01}},\n{{pause frames=\"5\"}}{{string value=\"Catchphrase\"}}.",
      "JPja": "{{reaction type=\"Happiness\"}}{{fun_01}}こんばんは{{fun_01}}！\n{{pause frames=\"5\"}}{{string value=\"Catchphrase\"}}！",
      "KRko": "{{reaction type=\"Happiness\"}}{{fun_01}}안녕하세요{{fun_01}}！\n{{pause frames=\"5\"}}{{string value=\"Catchphrase\"}}！",
      "USen": "{{reaction type=\"Happiness\"}}{{capitalizeLetter}}{{fun_01}}Good evening{{fun_01}}.\n{{pause frames=\"5\"}}{{capitalizeLetter}}{{string value=\"Catchphrase\"}}!"
    }
  },
  {
    "label": "15",
    "attribute": "0x00000000FE000000",
    "locale": {
      "EUde": "Ehrlich? Es ist schon\n{{string value=\"Hour\"}}:{{string value=\"Minute\"}} Uhr,{{pause frames=\"10\"}}\n{{string value=\"PlayerNickname\"}}?\nWenn du nicht bald schläfst,\nwirst du morgen müde\nsein, {{pause frames=\"5\"}}{{string value=\"Catchphrase\"}}!",
      "EUen": "Are you serious? It's\nalready {{string value=\"Hour\"}}:{{string value=\"Minute\"}},{{pause frames=\"10\"}}\n{{string value=\"PlayerNickname\"}}?\nIf you don't hit the sack\nsoon, you're in for a rough\nday tomorrow, {{pause frames=\"5\"}}{{string value=\"Catchphrase\"}}!",
      "EUes": "¿En serio? ¿Me engaña mi\nreloj,{{pause frames=\"10\"}} {{string value=\"PlayerNickname\"}}?\n\nSi no te vas al sobre ya,\n¡mañana tendrás un día\nmuy duro, {{pause frames=\"5\"}}{{string value=\"Catchphrase\"}}!",
      "EUfr": "Sans blague? Il est déjà\n{{string value=\"Hour\"}}h{{string value=\"Minute\"}},{{pause frames=\"10\"}} {{string value=\"PlayerNickname\"}}?\n\nSi tu ne vas pas te coucher\nbientôt, demain sera une\ndure journée, {{pause frames=\"5\"}}{{string value=\"Catchphrase\"}}!",
      "EUit": "Dici sul serio? Sono\ngià le {{string value=\"Hour\"}}:{{string value=\"Minute\"}},{{pause frames=\"10\"}}\n{{string value=\"PlayerNickname\"}}?\nSe non vai a dormire,\ndomani non ti reggerai in\npiedi, {{pause frames=\"5\"}}{{string value=\"Catchphrase\"}}!",
      "JPja": "{{string value=\"Hour\"}}{{kanjiReplace charNum=\"1\" value=\"じ\"}}時{{string value=\"Minute\"}}です、{{pause frames=\"10\"}}\n{{string value=\"PlayerNickname\"}}さん\n\nもう　ねないと\n{{kanjiReplace charNum=\"2\" value=\"あした\"}}明日が　つらいですよ、\n{{pause frames=\"5\"}}{{string value=\"Catchphrase\"}}",
      "KRko": "{{string value=\"Hour\"}}시 {{string value=\"Minute\"}}이에요{{pause frames=\"10\"}}\n{{string value=\"PlayerNickname\"}}님！\n\n주무시지 않으면\n내일 힘들어져요\n{{pause frames=\"5\"}}{{string value=\"Catchphrase\"}}",
      "USen": "Are you serious? It's\nalready {{string value=\"Hour\"}}:{{string value=\"Minute\"}},{{pause frames=\"10\"}}\n{{string value=\"PlayerNickname\"}}?\nIf you don't hit the sack\nsoon, you're in for a rough\nday tomorrow, {{pause frames=\"5\"}}{{string value=\"Catchphrase\"}}!"
    }
  }
]