[
  {
    "label": "00",
    "attribute": "0x00000000FF000000",
    "locale": {
      "EUde": "{{reaction type=\"Happiness\"}}Hey, {{string value=\"PlayerNickname\"}}, du hast\neinen wunderbaren Stil.\n\nAls Liebhaber des guten\nGeschmacks{{pause frames=\"5\"}} fühlte ich \nnoch nie den Drang...\ndich vor einer modischen\nPanne bewahren zu müssen.\n\n{{resetReaction}}{{pause frames=\"3\"}}.{{pause frames=\"3\"}}.{{pause frames=\"3\"}}.{{pause frames=\"3\"}}{{reaction type=\"Curiosity\"}}Oh, heute ist \n{{color id=\"3\"}}Schmeicheltag{{color id=\"0\"}}, oder?{{pressButton}}\n\n{{reaction type=\"Distress\"}}Nun, warum sage ich wohl all\ndie netten Dinge?\n\nJetzt du! Sag etwas ECHT\nNettes über mich, O.K.?",
      "EUen": "{{reaction type=\"Happiness\"}}Hey, {{string value=\"PlayerNickname\"}}, you've got\nincredible style.\n\nAs Fashion Lad,{{pause frames=\"5\"}} I never feel\nthe need to swoop in and\nsave you from tackiness.\n{{resetReaction}}{{pause frames=\"3\"}}.{{pause frames=\"3\"}}.{{pause frames=\"3\"}}.{{pause frames=\"3\"}}{{reaction type=\"Curiosity\"}}Uh, today IS {{color id=\"3\"}}Yay Day{{color id=\"0\"}},\nisn't it? {{pressButton}}{{reaction type=\"Distress\"}}Well, why am I\ndoing all the complimenting?\nIt's your turn now! Say\nsomething REALLY nice about\nme, OK?",
      "EUes": "{{reaction type=\"Happiness\"}}Eh, {{string value=\"PlayerNickname\"}}, tienes un\nestilo increíble.\n\nEl Capitán Tendencia nunca\ntendrá que intervenir para\nsalvarte del mal gusto.\n{{resetReaction}}Mm{{pause frames=\"3\"}}.{{pause frames=\"3\"}}.{{pause frames=\"3\"}}.{{pause frames=\"3\"}}{{reaction type=\"Curiosity\"}} ¿Hoy no era el\n{{color id=\"3\"}}Día Guay{{color id=\"0\"}}? {{pressButton}}{{reaction type=\"Distress\"}}¿Los cumplidos no\ntienen que ser recíprocos?\n¡Ahora te toca a ti! Di algo\ngenial sobre mí, ¿vale?",
      "EUfr": "{{reaction type=\"Happiness\"}}Salut, {{string value=\"PlayerNickname\"}}, t'as un\nlook d'enfer.\n\nMoi, Superchébran, le\nhéros de la mode,\nje ne ressens...{{pause frames=\"5\"}}  \n... jamais le besoin de\nvenir te sauver du\nmauvais goût!\n{{resetReaction}}{{pause frames=\"3\"}}.{{pause frames=\"3\"}}.{{pause frames=\"3\"}}.{{pause frames=\"3\"}}{{reaction type=\"Curiosity\"}} Oh, c'est {{color id=\"3\"}}le jour de \nl'amitié{{color id=\"0\"}}?{{pressButton}}{{reaction type=\"Distress\"}} Je ne vais pas\nfaire tous les compliments?\nA ton tour! Tu dois dire\nun truc VRAIMENT sympa sur\nmoi, OK?",
      "EUit": "{{reaction type=\"Happiness\"}}Ehi, {{string value=\"PlayerNickname\"}}, hai uno\nstile incredibile.\n\nE se te lo dice Baby Trendy,{{pause frames=\"5\"}}\npuoi fidarti.\n\n{{resetReaction}}{{pause frames=\"3\"}}.{{pause frames=\"3\"}}.{{pause frames=\"3\"}}.{{pause frames=\"3\"}}{{reaction type=\"Curiosity\"}} Uh, oggi è il {{color id=\"3\"}}Gentilgiorno{{color id=\"0\"}},\nnon è vero? {{pressButton}}\n\n{{reaction type=\"Distress\"}}Beh, perché sono solo\nio a essere gentile?\n\nTocca a te adesso! Dimmi\nqualcosa di CARINO, intesi?",
      "JPja": "{{reaction type=\"Happiness\"}}{{string value=\"PlayerNickname\"}}くんの\nふくの　きこなしって\nステキだなぁ～\nなんか　ピチピチで\n{{kanjiReplace charNum=\"1\" value=\"め\"}}目の　やり{{kanjiReplace charNum=\"1\" value=\"ば\"}}場に\nこまっちゃうよぉ～\n{{resetReaction}}{{pause frames=\"3\"}}・{{pause frames=\"3\"}}・{{pause frames=\"3\"}}・{{pause frames=\"3\"}}{{reaction type=\"Curiosity\"}}って　あれ？\n{{kanjiReplace charNum=\"2\" value=\"きょう\"}}今日は「{{color id=\"3\"}}ホメるひ{{color id=\"0\"}}」だよねぇ？\n\n{{reaction type=\"Distress\"}}キミばっかり　ホメられてないで\nボクのことも　ちゃんと\nホメてよぉ～！",
      "KRko": "{{reaction type=\"Happiness\"}}{{string value=\"PlayerNickname\"}}{{fun_0B arg=\"0x0100\"}}\n정말로 옷을\n잘 입는거 같아～\n옷을 꽉 끼게 입으니까\n눈을 어디에 둬야 할지\n모르겠어～～\n{{resetReaction}}{{pause frames=\"3\"}}・{{pause frames=\"3\"}}・{{pause frames=\"3\"}}・{{pause frames=\"3\"}}{{reaction type=\"Curiosity\"}}응？ 어？\n오늘 「{{color id=\"3\"}}칭찬하는 날{{color id=\"0\"}}」이었네！\n\n{{reaction type=\"Distress\"}}너만 칭찬 듣지 말고\n나도 한번 제대로\n칭찬해봐～！",
      "USen": "{{reaction type=\"Happiness\"}}Hey, {{string value=\"PlayerNickname\"}}, you've got\nincredible style.\n\nAs Fashion Lad,{{pause frames=\"5\"}} I never feel\nthe need to swoop in and\nsave you from tackiness.\n{{resetReaction}}{{pause frames=\"3\"}}.{{pause frames=\"3\"}}.{{pause frames=\"3\"}}.{{pause frames=\"3\"}}{{reaction type=\"Curiosity\"}}Uh, today IS {{color id=\"3\"}}Yay Day{{color id=\"0\"}},\nisn't it? {{pressButton}}{{reaction type=\"Distress\"}}Well, why am I\ndoing all the complimenting?\nIt's your turn now! Say\nsomething REALLY nice about\nme, OK?"
    }
  },
  {
    "label": "01",
    "attribute": "0x00000000FF000000",
    "locale": {
      "EUde": "{{reaction type=\"Happiness\"}}Hey,{{pause frames=\"5\"}} {{string value=\"PlayerNickname\"}}!{{pause frames=\"20\"}} Du bist\nsooo cool!{{pause frames=\"20\"}} Wie ein\nBananensplit!\nOh{{resetReaction}}{{pause frames=\"3\"}}.{{pause frames=\"3\"}}.{{pause frames=\"3\"}}.{{pause frames=\"3\"}}{{reaction type=\"Curiosity\"}} ist heute nicht \n{{color id=\"3\"}}Schmeicheltag{{color id=\"0\"}}?\n\n{{reaction type=\"Distress\"}}Warum kriegst nur du alle\nKomplimente?!? Mach MIR\nendlich auch welche!",
      "EUen": "{{reaction type=\"Happiness\"}}Hey,{{pause frames=\"5\"}} {{string value=\"PlayerNickname\"}}!{{pause frames=\"20\"}} You're\nsooo cool!{{pause frames=\"20\"}} You're like a\nbanana split!\nUh{{resetReaction}}{{pause frames=\"3\"}}.{{pause frames=\"3\"}}.{{pause frames=\"3\"}}.{{pause frames=\"3\"}}{{reaction type=\"Curiosity\"}}isn't today {{color id=\"3\"}}Yay Day{{color id=\"0\"}}?{{pressButton}}\n{{reaction type=\"Distress\"}}So why are you getting all\nthe compliments?!\nCompliment ME already!",
      "EUes": "{{reaction type=\"Happiness\"}}¡Eh,{{pause frames=\"5\"}} {{string value=\"PlayerNickname\"}}!{{pause frames=\"20\"}} ¡Cómo\nmolas!{{pause frames=\"20\"}} ¡Eres como un helado\nde nata y chocolate!\nMm{{resetReaction}}{{pause frames=\"3\"}}.{{pause frames=\"3\"}}.{{pause frames=\"3\"}}.{{pause frames=\"3\"}}{{reaction type=\"Curiosity\"}} ¿No es hoy el\n{{color id=\"3\"}}Día Guay{{color id=\"0\"}}?{{pressButton}} {{reaction type=\"Distress\"}}¡Pues no acapares\ntodos los cumplidos!\n¡Estoy esperando que\nme digas lo maravilloso\nque soy!",
      "EUfr": "{{reaction type=\"Happiness\"}}Salut,{{pause frames=\"5\"}} {{string value=\"PlayerNickname\"}}!{{pause frames=\"20\"}} Ton\nlook est caliente!{{pause frames=\"20\"}} Chaud\ncomme une banane flambée!\nOh{{resetReaction}}{{pause frames=\"3\"}}.{{pause frames=\"3\"}}.{{pause frames=\"3\"}}.{{pause frames=\"3\"}}{{reaction type=\"Curiosity\"}} c'est le {{color id=\"3\"}}jour de \nl'amitié{{color id=\"0\"}}?{{pressButton}}{{reaction type=\"Distress\"}} Fais-moi aussi\ndes compliments!\nAllez, c'est MON tour!",
      "EUit": "{{reaction type=\"Happiness\"}}Ehi,{{pause frames=\"5\"}} {{string value=\"PlayerNickname\"}}!{{pause frames=\"20\"}} Sei troppo\nganz{{gender m=\"o\" f=\"a\"}}!{{pause frames=\"20\"}} Sei come una\nbanana split!\nUh{{resetReaction}}{{pause frames=\"3\"}}.{{pause frames=\"3\"}}.{{pause frames=\"3\"}}.{{pause frames=\"3\"}}{{reaction type=\"Curiosity\"}} oggi non è il\n{{color id=\"3\"}}Gentilgiorno{{color id=\"0\"}}?{{pressButton}}\n\n{{reaction type=\"Distress\"}}E allora perché sei solo\ntu a ricevere complimenti?!\nFanne un po' anche a ME!",
      "JPja": "{{reaction type=\"Happiness\"}}わぁい、{{pause frames=\"5\"}}{{string value=\"PlayerNickname\"}}くん{{pause frames=\"20\"}}\nキミって　カッコイイなぁ{{pause frames=\"20\"}}\n\n{{resetReaction}}{{pause frames=\"3\"}}・{{pause frames=\"3\"}}・{{pause frames=\"3\"}}・{{pause frames=\"3\"}}って、{{reaction type=\"Curiosity\"}}あれ？{{pause frames=\"20\"}}\n{{kanjiReplace charNum=\"2\" value=\"きょう\"}}今日は「{{color id=\"3\"}}ホメるひ{{color id=\"0\"}}」だよねぇ？\n\n{{reaction type=\"Distress\"}}キミばっかり　ホメられてないで\nボクのことも\nしっかり　ホメてよぉ～！",
      "KRko": "{{reaction type=\"Happiness\"}}와아！{{pause frames=\"5\"}} {{string value=\"PlayerNickname\"}}{{fun_0B arg=\"0x0400\"}}{{pause frames=\"20\"}}\n너 진짜 멋지다아～{{pause frames=\"20\"}}\n\n{{resetReaction}}{{pause frames=\"3\"}}・{{pause frames=\"3\"}}・{{pause frames=\"3\"}}・{{pause frames=\"3\"}}응？ {{reaction type=\"Curiosity\"}}어？{{pause frames=\"20\"}}\n오늘 「{{color id=\"3\"}}칭찬하는 날{{color id=\"0\"}}」 맞지？\n\n{{reaction type=\"Distress\"}}너만 칭찬 듣지 말고\n이제 나도 본격적으로\n칭찬해봐아～！",
      "USen": "{{reaction type=\"Happiness\"}}Hey,{{pause frames=\"5\"}} {{string value=\"PlayerNickname\"}}!{{pause frames=\"20\"}} You're\nsooo cool!{{pause frames=\"20\"}} You're like a\nbanana split!\nUh{{resetReaction}}{{pause frames=\"3\"}}.{{pause frames=\"3\"}}.{{pause frames=\"3\"}}.{{pause frames=\"3\"}}{{reaction type=\"Curiosity\"}}isn't today {{color id=\"3\"}}Yay Day{{color id=\"0\"}}?{{pressButton}}\n{{reaction type=\"Distress\"}}So why are you getting all\nthe compliments?!\nCompliment ME already!"
    }
  },
  {
    "label": "02",
    "attribute": "0x00000000FE000000",
    "locale": {
      "EUde": "{{resetReaction}}{{capitalizeLetter}}{{string value=\"YayDayCompliment\"}}, huh{{pause frames=\"3\"}}.{{pause frames=\"3\"}}.{{pause frames=\"3\"}}.{{pressButton}}\n{{reaction type=\"Joy\"}}Das ist sooo nett von dir!\n{{pause frames=\"20\"}}Du bist ein echter Kumpel!",
      "EUen": "{{resetReaction}}{{capitalizeLetter}}{{string value=\"YayDayCompliment\"}}, huh{{pause frames=\"3\"}}.{{pause frames=\"3\"}}.{{pause frames=\"3\"}}.{{pressButton}}\n{{reaction type=\"Joy\"}}That's sooo nice of you to\nsay!{{pause frames=\"20\"}} You're a real pal!",
      "EUes": "{{resetReaction}}{{capitalizeLetter}}{{string value=\"YayDayCompliment\"}}, mm{{pause frames=\"3\"}}.{{pause frames=\"3\"}}.{{pause frames=\"3\"}}.{{pressButton}}\n{{reaction type=\"Joy\"}}¡Gracias por tan bonitas\npalabras!{{pause frames=\"20\"}} ¡Viniendo de ti...!",
      "EUfr": "{{resetReaction}}{{capitalizeLetter}}{{string value=\"YayDayCompliment\"}}, hein{{pause frames=\"3\"}}.{{pause frames=\"3\"}}.{{pause frames=\"3\"}}.{{pressButton}}\n{{reaction type=\"Joy\"}}C'est vraiment gentil de ta \npart!{{pause frames=\"20\"}} T'es {{gender m=\"un ami\" f=\"une amie\"}} en or!",
      "EUit": "{{resetReaction}}{{capitalizeLetter}}{{string value=\"YayDayCompliment\"}}, uh{{pause frames=\"3\"}}.{{pause frames=\"3\"}}.{{pause frames=\"3\"}}.{{pressButton}}\n{{reaction type=\"Joy\"}}Che cosa carina mi hai\ndetto!{{pause frames=\"20\"}} Sei così gentile!",
      "JPja": "{{resetReaction}}{{string value=\"YayDayCompliment\"}}かぁ{{pause frames=\"3\"}}・{{pause frames=\"3\"}}・{{pause frames=\"3\"}}・\n\n\n{{reaction type=\"Joy\"}}うれしい！{{pause frames=\"20\"}}\nボク、{{pause frames=\"5\"}}ホメられるのって\nだいすきなんだぁ！　{{pause frames=\"10\"}}{{string value=\"Catchphrase\"}}！",
      "KRko": "{{resetReaction}}{{string value=\"YayDayCompliment\"}}～{{pause frames=\"3\"}}・{{pause frames=\"3\"}}・{{pause frames=\"3\"}}・\n\n\n{{reaction type=\"Joy\"}}기뻐～！{{pause frames=\"20\"}}\n난{{pause frames=\"5\"}} 칭찬받는게 제일\n좋더라아～！{{pause frames=\"10\"}} {{string value=\"Catchphrase\"}}！",
      "USen": "{{resetReaction}}{{capitalizeLetter}}{{string value=\"YayDayCompliment\"}}, huh{{pause frames=\"3\"}}.{{pause frames=\"3\"}}.{{pause frames=\"3\"}}.{{pressButton}}\n{{reaction type=\"Joy\"}}That's sooo nice of you to\nsay!{{pause frames=\"20\"}} You're a real pal!"
    }
  },
  {
    "label": "03",
    "attribute": "0x00000000FE000000",
    "locale": {
      "EUde": "{{reaction type=\"Love\"}}{{capitalizeLetter}}{{string value=\"YayDayCompliment\"}}, huh.{{pause frames=\"5\"}}.{{pause frames=\"5\"}}.{{pause frames=\"5\"}}\n\n\n{{reaction type=\"Happiness\"}}Das habe ich nicht ganz\nkapiert, aber jedes Kompli-\nment macht mich glücklich!\n{{reaction type=\"Bashfulness\"}}Je mehr Komplimente ich\nbekomme, desto wärmer wird\nmein Bauch, {{pause frames=\"5\"}}{{string value=\"Catchphrase\"}}!",
      "EUen": "{{reaction type=\"Love\"}}{{capitalizeLetter}}{{string value=\"YayDayCompliment\"}}, huh.{{pause frames=\"5\"}}.{{pause frames=\"5\"}}.{{pause frames=\"5\"}}\n\n\n{{reaction type=\"Happiness\"}}I don't really get that, but\nany compliment from you\nmakes me happy!\n{{reaction type=\"Bashfulness\"}}The more compliments I get,\nthe warmer my belly gets,\n{{pause frames=\"5\"}}{{string value=\"Catchphrase\"}}!",
      "EUes": "{{reaction type=\"Love\"}}{{capitalizeLetter}}{{string value=\"YayDayCompliment\"}}, mmm.{{pause frames=\"5\"}}.{{pause frames=\"5\"}}.{{pause frames=\"5\"}}\n\n\n{{reaction type=\"Happiness\"}}¡No lo pillo, pero me digas\nlo que me digas, me alegras\nel día!\n{{reaction type=\"Bashfulness\"}}¡Cuantos más cumplidos\nrecibo, más calor siento en\nla tripa, {{pause frames=\"5\"}}{{string value=\"Catchphrase\"}}!",
      "EUfr": "{{reaction type=\"Love\"}}{{capitalizeLetter}}{{string value=\"YayDayCompliment\"}}, hein.{{pause frames=\"5\"}}.{{pause frames=\"5\"}}.{{pause frames=\"5\"}}\n\n\n{{reaction type=\"Happiness\"}}Je ne suis pas sûr de\ncomprendre, mais ça me \nva droit au cœur!\n{{reaction type=\"Bashfulness\"}}Quand on me complimente,\nça me réchauffe le bidon,\n{{pause frames=\"5\"}}{{string value=\"Catchphrase\"}}!",
      "EUit": "{{reaction type=\"Love\"}}{{capitalizeLetter}}{{string value=\"YayDayCompliment\"}}, uh.{{pause frames=\"5\"}}.{{pause frames=\"5\"}}.{{pause frames=\"5\"}}\n\n\n{{reaction type=\"Happiness\"}}Me lo dicono spesso, ma i\ntuoi complimenti mi fanno\nsempre felice!\n{{reaction type=\"Bashfulness\"}}Più complimenti mi fai,\npiù mi si scalda il pancino,\n{{pause frames=\"5\"}}{{string value=\"Catchphrase\"}}!",
      "JPja": "{{reaction type=\"Love\"}}{{string value=\"YayDayCompliment\"}}・{{pause frames=\"5\"}}・{{pause frames=\"5\"}}・{{pause frames=\"5\"}}\n\n\n{{reaction type=\"Happiness\"}}よく　わかんないけど\nキミが　ホメてくれるなんて\nすっごく　うれしいよぉ！\n{{reaction type=\"Bashfulness\"}}ボクは　ホメられて\nのびるコ　だからねぇ！\n{{pause frames=\"5\"}}{{string value=\"Catchphrase\"}}！",
      "KRko": "{{reaction type=\"Love\"}}{{string value=\"YayDayCompliment\"}}・{{pause frames=\"5\"}}・{{pause frames=\"5\"}}・{{pause frames=\"5\"}}\n\n\n{{reaction type=\"Happiness\"}}잘은 모르겠지만\n너가 날 칭찬해주니까\n너～무너무 기쁘다아～！\n{{reaction type=\"Bashfulness\"}}나는 칭찬을 먹고 사는\n아이거든～～！！\n{{pause frames=\"5\"}}{{string value=\"Catchphrase\"}}！",
      "USen": "{{reaction type=\"Love\"}}{{capitalizeLetter}}{{string value=\"YayDayCompliment\"}}, huh.{{pause frames=\"5\"}}.{{pause frames=\"5\"}}.{{pause frames=\"5\"}}\n\n\n{{reaction type=\"Happiness\"}}I don't really get that, but\nany compliment from you\nmakes me happy!\n{{reaction type=\"Bashfulness\"}}The more compliments I get,\nthe warmer my belly gets,\n{{pause frames=\"5\"}}{{string value=\"Catchphrase\"}}!"
    }
  },
  {
    "label": "04",
    "attribute": "0x00000000FF000000",
    "locale": {
      "EUde": "{{reaction type=\"Happiness\"}}Nun, {{string value=\"PlayerNickname\"}}, die Worte\n\"{{string value=\"YayDayCompliment\"}}\" kommen\nauch mir...\n...immer in den Sinn\nbeim Gedanken an dich.",
      "EUen": "{{reaction type=\"Happiness\"}}Well, {{string value=\"PlayerNickname\"}}, I totally\nthink \"{{string value=\"YayDayCompliment\"}}\"\nwhen I think of you, too.",
      "EUes": "{{reaction type=\"Happiness\"}}Mm, {{string value=\"PlayerNickname\"}}, yo también\npienso \"{{string value=\"YayDayCompliment\"}}\"\ncuando me acuerdo de ti.",
      "EUfr": "{{reaction type=\"Happiness\"}}Bien parlé, {{string value=\"PlayerNickname\"}}. \n\"{{capitalizeLetter}}{{string value=\"YayDayCompliment\"}}\"!\nToi aussi, ça t'irait bien.",
      "EUit": "{{reaction type=\"Happiness\"}}Beh, {{string value=\"PlayerNickname\"}},\n\"{{string value=\"YayDayCompliment\"}}\" è anche\nquello che penso io di te.",
      "JPja": "{{reaction type=\"Happiness\"}}{{string value=\"PlayerNickname\"}}くんも\n{{string value=\"YayDayCompliment\"}}って\nカンジだねぇ、{{pause frames=\"5\"}}{{string value=\"Catchphrase\"}}",
      "KRko": "{{reaction type=\"Happiness\"}}{{string value=\"PlayerNickname\"}}도\n정말로 {{string value=\"YayDayCompliment\"}}～\n{{pause frames=\"5\"}}{{string value=\"Catchphrase\"}}",
      "USen": "{{reaction type=\"Happiness\"}}Well, {{string value=\"PlayerNickname\"}}, I totally\nthink \"{{string value=\"YayDayCompliment\"}}\"\nwhen I think of you, too."
    }
  },
  {
    "label": "05",
    "attribute": "0x00000000FF000000",
    "locale": {
      "EUde": "{{reaction type=\"Happiness\"}}Huh huh huh!{{pause frames=\"5\"}} Also denkst du\necht \"{{string value=\"YayDayCompliment\"}}\",\nwenn du an mich denkst?!?\n{{pause frames=\"5\"}}Cool!",
      "EUen": "{{reaction type=\"Happiness\"}}Huh huh huh!{{pause frames=\"5\"}} So when you\nthink of me, you think\n\"{{string value=\"YayDayCompliment\"}}\"! {{pause frames=\"5\"}}Cool!",
      "EUes": "{{reaction type=\"Happiness\"}}¡Ja!{{pause frames=\"5\"}} ¿\"{{capitalizeLetter}}{{string value=\"YayDayCompliment\"}}\"?\n¿Eso es lo que piensas de\nmí?{{pause frames=\"5\"}} ¡Mola!",
      "EUfr": "{{reaction type=\"Happiness\"}}Oh oh oh!{{pause frames=\"5\"}} Alors quand tu\npenses à moi, tu penses\n\"{{string value=\"YayDayCompliment\"}}\"! {{pause frames=\"5\"}}Cool!",
      "EUit": "{{reaction type=\"Happiness\"}}Uh uh uh!{{pause frames=\"5\"}} E così\n\"{{string value=\"YayDayCompliment\"}}\" è\nquello che pensi quando ti\nricordi di me! {{pause frames=\"5\"}}Che bello!",
      "JPja": "{{reaction type=\"Happiness\"}}ウフフ、{{pause frames=\"5\"}}ボクって\n{{string value=\"YayDayCompliment\"}}だぁ～、\n{{pause frames=\"5\"}}{{string value=\"Catchphrase\"}}",
      "KRko": "{{reaction type=\"Happiness\"}}우후훗！ {{pause frames=\"5\"}}난\n{{string value=\"YayDayCompliment\"}}～\n{{pause frames=\"5\"}}{{string value=\"Catchphrase\"}}～",
      "USen": "{{reaction type=\"Happiness\"}}Huh huh huh!{{pause frames=\"5\"}} So when you\nthink of me, you think\n\"{{string value=\"YayDayCompliment\"}}\"! {{pause frames=\"5\"}}Cool!"
    }
  },
  {
    "label": "06",
    "attribute": "0x00000000FF000000",
    "locale": {
      "EUde": "{{capitalizeLetter}}{{fun_01}}Hallo{{fun_01}},\n{{pause frames=\"15\"}}{{string value=\"PlayerNickname\"}}.",
      "EUen": "{{capitalizeLetter}}{{fun_01}}Heya{{fun_01}}!\nIt's {{pause frames=\"15\"}}{{string value=\"PlayerNickname\"}}.",
      "EUes": "{{capitalizeLetter}}{{fun_01}}Hola{{fun_01}},\n{{pause frames=\"15\"}}{{string value=\"PlayerNickname\"}}.",
      "EUfr": "{{capitalizeLetter}}{{fun_01}}Youhou{{fun_01}},\n{{pause frames=\"15\"}}{{string value=\"PlayerNickname\"}}.",
      "EUit": "{{capitalizeLetter}}{{fun_01}}Ehilà{{fun_01}},\n{{pause frames=\"15\"}}{{string value=\"PlayerNickname\"}}.",
      "JPja": "{{fun_01}}やぁ～{{fun_01}}、{{pause frames=\"15\"}}\n{{string value=\"PlayerNickname\"}}くん",
      "KRko": "{{fun_01}}이야～{{fun_01}}{{pause frames=\"15\"}}\n{{string value=\"PlayerNickname\"}}{{fun_0B arg=\"0x0400\"}}～",
      "USen": "{{capitalizeLetter}}{{fun_01}}Heya{{fun_01}}!\nIt's {{pause frames=\"15\"}}{{string value=\"PlayerNickname\"}}."
    }
  },
  {
    "label": "07",
    "attribute": "0x00000000FF000000",
    "locale": {
      "EUde": "{{reaction type=\"Worry\"}}Sag mal,{{pause frames=\"5\"}} {{string value=\"PlayerNickname\"}},{{pause frames=\"10\"}}\nbeschreibt mich\n\"{{string value=\"YayDayCompliment\"}}\"...\n...{{pause frames=\"10\"}}{{reaction type=\"Curiosity\"}}WIRKLICH treffend,\n{{pause frames=\"10\"}}{{string value=\"Catchphrase\"}}?",
      "EUen": "{{reaction type=\"Worry\"}}Say,{{pause frames=\"5\"}} {{string value=\"PlayerNickname\"}},{{pause frames=\"10\"}} does\n\"{{string value=\"YayDayCompliment\"}}\" {{pause frames=\"10\"}}{{reaction type=\"Curiosity\"}}REALLY\ndescribe me, {{pause frames=\"10\"}}{{string value=\"Catchphrase\"}}?",
      "EUes": "{{reaction type=\"Worry\"}}Dime,{{pause frames=\"5\"}} {{string value=\"PlayerNickname\"}},{{pause frames=\"10\"}} ¿crees\nque \"{{string value=\"YayDayCompliment\"}}\"{{pause frames=\"10\"}}{{reaction type=\"Curiosity\"}} me\ndefine BIEN, {{pause frames=\"10\"}}{{string value=\"Catchphrase\"}}?",
      "EUfr": "{{reaction type=\"Worry\"}}Quoi{{pause frames=\"5\"}} {{string value=\"PlayerNickname\"}},{{pause frames=\"10\"}} tu penses\nque \"{{string value=\"YayDayCompliment\"}}\" {{pause frames=\"10\"}}{{reaction type=\"Curiosity\"}}me\ncorrespond, {{pause frames=\"10\"}}{{string value=\"Catchphrase\"}}?",
      "EUit": "{{reaction type=\"Worry\"}}Senti,{{pause frames=\"5\"}} {{string value=\"PlayerNickname\"}},{{pause frames=\"10\"}} \n\"{{string value=\"YayDayCompliment\"}}\" {{pause frames=\"10\"}}{{reaction type=\"Curiosity\"}}DAVVERO\nmi si addice, {{pause frames=\"10\"}}{{string value=\"Catchphrase\"}}?",
      "JPja": "{{reaction type=\"Worry\"}}ねぇ、{{pause frames=\"5\"}}{{string value=\"PlayerNickname\"}}くん{{pause frames=\"10\"}}\n{{string value=\"YayDayCompliment\"}}って、\n\n{{reaction type=\"Curiosity\"}}ホントに　ボクに\nにあってるかなぁ？　{{pause frames=\"10\"}}{{string value=\"Catchphrase\"}}？",
      "KRko": "{{reaction type=\"Worry\"}}저기～ {{pause frames=\"5\"}}{{string value=\"PlayerNickname\"}}{{fun_0B arg=\"0x0400\"}}～{{pause frames=\"10\"}}\n{{string value=\"YayDayCompliment\"}}{{fun_0B arg=\"0x0500\"}}라는 말\n\n{{reaction type=\"Curiosity\"}}정말로 나한테\n잘 어울려？ {{pause frames=\"10\"}}{{string value=\"Catchphrase\"}}？",
      "USen": "{{reaction type=\"Worry\"}}Say,{{pause frames=\"5\"}} {{string value=\"PlayerNickname\"}},{{pause frames=\"10\"}} does\n\"{{string value=\"YayDayCompliment\"}}\" {{pause frames=\"10\"}}{{reaction type=\"Curiosity\"}}REALLY\ndescribe me, {{pause frames=\"10\"}}{{string value=\"Catchphrase\"}}?"
    }
  },
  {
    "label": "08",
    "attribute": "0x00000000FF000000",
    "locale": {
      "EUde": "{{reaction type=\"Intense\"}}{{capitalizeLetter}}{{string value=\"PlayerNickname\"}}, {{pause frames=\"20\"}}ich habe eine\nFrage zum Kompliment\n\"{{string value=\"YayDayCompliment\"}}\".\n{{reaction type=\"Worry\"}}Glaubst du wirklich, es\npasst zu mir, {{pause frames=\"10\"}}{{string value=\"Catchphrase\"}}?",
      "EUen": "{{reaction type=\"Intense\"}}{{capitalizeLetter}}{{string value=\"PlayerNickname\"}}, {{pause frames=\"20\"}}lemme ask you\nabout the compliment\n\"{{string value=\"YayDayCompliment\"}}.\"\n{{reaction type=\"Worry\"}}Do you really think it\nsuits me, {{pause frames=\"10\"}}{{string value=\"Catchphrase\"}}?",
      "EUes": "{{reaction type=\"Intense\"}}{{capitalizeLetter}}{{string value=\"PlayerNickname\"}}, {{pause frames=\"20\"}}¿qué opinas\ndel cumplido\n\"{{string value=\"YayDayCompliment\"}}\"?\n{{reaction type=\"Worry\"}}¿Crees que me va,\n{{pause frames=\"10\"}}{{string value=\"Catchphrase\"}}?",
      "EUfr": "{{reaction type=\"Intense\"}}{{capitalizeLetter}}{{string value=\"PlayerNickname\"}}, {{pause frames=\"20\"}}à propos du\ncompliment\n\"{{string value=\"YayDayCompliment\"}}.\"\n{{reaction type=\"Worry\"}}Tu trouves vraiment qu'il\nme correspond, {{pause frames=\"10\"}}{{string value=\"Catchphrase\"}}?",
      "EUit": "{{reaction type=\"Intense\"}}{{capitalizeLetter}}{{string value=\"PlayerNickname\"}}, {{pause frames=\"20\"}}che ne pensi\ndel complimento\n\"{{string value=\"YayDayCompliment\"}}\"?\n{{reaction type=\"Worry\"}}Pensi che mi si\naddica, {{pause frames=\"10\"}}{{string value=\"Catchphrase\"}}?",
      "JPja": "{{reaction type=\"Intense\"}}そういえば　{{string value=\"PlayerNickname\"}}くん{{pause frames=\"20\"}}\n「{{string value=\"YayDayCompliment\"}}」って\nコトバだけど、\n{{reaction type=\"Worry\"}}ちゃんと　ボクに\nにあってるのかなぁ？\n{{pause frames=\"10\"}}{{string value=\"Catchphrase\"}}？",
      "KRko": "{{reaction type=\"Intense\"}}근데 {{string value=\"PlayerNickname\"}}{{fun_0B arg=\"0x0400\"}}{{pause frames=\"20\"}}\n「{{string value=\"YayDayCompliment\"}}」{{fun_0B arg=\"0x0500\"}}라는\n말 말이야아～\n{{reaction type=\"Worry\"}}진짜 나랑\n잘 어울려어～？？\n{{pause frames=\"10\"}}{{string value=\"Catchphrase\"}}？",
      "USen": "{{reaction type=\"Intense\"}}{{capitalizeLetter}}{{string value=\"PlayerNickname\"}}, {{pause frames=\"20\"}}lemme ask you\nabout the compliment\n\"{{string value=\"YayDayCompliment\"}}.\"\n{{reaction type=\"Worry\"}}Do you really think it\nsuits me, {{pause frames=\"10\"}}{{string value=\"Catchphrase\"}}?"
    }
  },
  {
    "label": "09",
    "attribute": "0x00000000FF000000",
    "locale": {
      "EUde": "Übrigens,{{pause frames=\"5\"}}{{reaction type=\"Curiosity\"}} wenn du an mich\ndenkst...\n\n...kommt dir ehrlich\n\"{{string value=\"YayDayCompliment\"}}\" in den\nSinn? {{resetReaction}}Ich weiß nicht...",
      "EUen": "By the way,{{pause frames=\"5\"}}{{reaction type=\"Curiosity\"}} when you think\nof me, do you really think\n\"{{string value=\"YayDayCompliment\"}}\"?\n{{resetReaction}}I'm not so sure anymore.",
      "EUes": "Por cierto,{{pause frames=\"5\"}}{{reaction type=\"Curiosity\"}} ¿dirías que\nme pega el cumplido\n\"{{string value=\"YayDayCompliment\"}}\"?\n{{resetReaction}}Ya no estoy tan seguro.",
      "EUfr": "Au fait,{{pause frames=\"5\"}}{{reaction type=\"Curiosity\"}} quand tu penses à\nmoi, tu penses vraiment\n\"{{string value=\"YayDayCompliment\"}}\"?\n{{resetReaction}}Je n'en suis plus si sûr.",
      "EUit": "A proposito,{{pause frames=\"5\"}}{{reaction type=\"Curiosity\"}} quando pensi a\nme, ti viene in mente\n\"{{string value=\"YayDayCompliment\"}}\"?\n{{resetReaction}}Non ne sono più così sicuro.",
      "JPja": "ところで　{{pause frames=\"5\"}}ボクに\n「{{string value=\"YayDayCompliment\"}}」って\n{{reaction type=\"Curiosity\"}}ホントに　にあってるかなぁ？\n{{resetReaction}}なんか　ちょっとだけ\nふあんに　なってきちゃってさぁ",
      "KRko": "있잖아～ {{pause frames=\"5\"}}나랑\n「{{string value=\"YayDayCompliment\"}}」{{fun_0B arg=\"0x0500\"}}랑\n{{reaction type=\"Curiosity\"}}잘 어울리기는 해？？\n{{resetReaction}}왠지 조금\n걱정이 돼서 말이야～～",
      "USen": "By the way,{{pause frames=\"5\"}}{{reaction type=\"Curiosity\"}} when you think\nof me, do you really think\n\"{{string value=\"YayDayCompliment\"}}\"?\n{{resetReaction}}I'm not so sure anymore."
    }
  },
  {
    "label": "10",
    "attribute": "0x00000000FE000000",
    "locale": {
      "EUde": "{{resetReaction}}Juhuuu!{{pause frames=\"20\"}} {{reaction type=\"Happiness\"}}Ich fühle mich{{pause frames=\"5\"}} SO\nselbstbewusst. Ich stolziere\njetzt ein wenig herum.",
      "EUen": "{{resetReaction}}Yayyy!{{pause frames=\"20\"}} {{reaction type=\"Happiness\"}}I feel{{pause frames=\"5\"}} so super\nconfident now! I'm gonna go\nstrut around now.",
      "EUes": "{{resetReaction}}¡Guay!{{pause frames=\"20\"}} {{reaction type=\"Happiness\"}}¡Ahora me siento{{pause frames=\"5\"}} tan\nseguro de mí mismo! Voy a\npavonearme por ahí.",
      "EUfr": "{{resetReaction}}Ouais!{{pause frames=\"20\"}} {{reaction type=\"Happiness\"}}Je me{{pause frames=\"5\"}} sens vraiment\nconfiant, maintenant! Il est\ntemps d'aller pavaner.",
      "EUit": "{{resetReaction}}Evviva!{{pause frames=\"20\"}} {{reaction type=\"Happiness\"}}Mi sento{{pause frames=\"5\"}} super\nsicuro di me ora! Camminerò\na testa alta!",
      "JPja": "{{resetReaction}}うわぁ～い！{{pause frames=\"20\"}}\n{{reaction type=\"Happiness\"}}なんだか　ボク、{{pause frames=\"5\"}}\nじしんが　わいてきたよぉ！",
      "KRko": "{{resetReaction}}와아～！{{pause frames=\"20\"}}\n{{reaction type=\"Happiness\"}}나 말이야아～{{pause frames=\"5\"}}\n자신감이 부쩍 늘었어～！！",
      "USen": "{{resetReaction}}Yayyy!{{pause frames=\"20\"}} {{reaction type=\"Happiness\"}}I feel{{pause frames=\"5\"}} so super\nconfident now! I'm gonna go\nstrut around now."
    }
  },
  {
    "label": "11",
    "attribute": "0x00000000FE000000",
    "locale": {
      "EUde": "{{reaction type=\"Happiness\"}}Ah, hör auf,{{pause frames=\"5\"}} {{string value=\"PlayerNickname\"}}.{{pause frames=\"20\"}}\ndas geht zu weit.\n\n{{reaction type=\"Joy\"}}He he he!{{pause frames=\"10\"}} Aber ich \ndenke, \"{{string value=\"YayDayCompliment\"}}\"\npasst tatsächlich zu mir!",
      "EUen": "{{reaction type=\"Happiness\"}}Aw, cut it out,{{pause frames=\"5\"}} {{string value=\"PlayerNickname\"}}.{{pause frames=\"20\"}}\nThat's going too far.\n\n{{reaction type=\"Joy\"}}Huh huh huh!{{pause frames=\"10\"}} But I\nguess \"{{string value=\"YayDayCompliment\"}}\"\ndoes kinda suit me!",
      "EUes": "{{reaction type=\"Happiness\"}}Eh, déjalo ya,{{pause frames=\"5\"}} {{string value=\"PlayerNickname\"}}.{{pause frames=\"20\"}}\nEso ya es pasarse.\n\n{{reaction type=\"Joy\"}}¡Ja, ja, ja!{{pause frames=\"10\"}} ¡Aunque supongo\nque \"{{string value=\"YayDayCompliment\"}}\"\nme va que ni pintado!",
      "EUfr": "{{reaction type=\"Happiness\"}}Arrête ton char,{{pause frames=\"5\"}}\n{{string value=\"PlayerNickname\"}}.{{pause frames=\"20\"}}\nSoyons sérieux.\n{{reaction type=\"Joy\"}}Oh oh oh!{{pause frames=\"10\"}} Mais quand même,\n\"{{string value=\"YayDayCompliment\"}}\", je\ntrouve que ça me va bien!",
      "EUit": "{{reaction type=\"Happiness\"}}Oh, finiscila,{{pause frames=\"5\"}} {{string value=\"PlayerNickname\"}}.{{pause frames=\"20\"}}\nOra esageri.\n\n{{reaction type=\"Joy\"}}Uh uh uh!{{pause frames=\"10\"}} Ma penso che\n\"{{string value=\"YayDayCompliment\"}}\" mi si\naddica!",
      "JPja": "{{reaction type=\"Happiness\"}}やだなぁ、{{pause frames=\"5\"}}{{string value=\"PlayerNickname\"}}くん{{pause frames=\"20\"}}\nホメすぎだよぉ\n\n{{reaction type=\"Joy\"}}エヘヘ、{{pause frames=\"10\"}}\nボクって　やっぱり\n{{string value=\"YayDayCompliment\"}}！！",
      "KRko": "{{reaction type=\"Happiness\"}}헤헤헤～ {{pause frames=\"5\"}}{{string value=\"PlayerNickname\"}}{{fun_0B arg=\"0x0400\"}}{{pause frames=\"20\"}}\n칭찬이 지나치잖아～～\n\n{{reaction type=\"Joy\"}}에헤헷～{{pause frames=\"10\"}}\n난 역시\n{{string value=\"YayDayCompliment\"}}！！",
      "USen": "{{reaction type=\"Happiness\"}}Aw, cut it out,{{pause frames=\"5\"}} {{string value=\"PlayerNickname\"}}.{{pause frames=\"20\"}}\nThat's going too far.\n\n{{reaction type=\"Joy\"}}Huh huh huh!{{pause frames=\"10\"}} But I\nguess \"{{string value=\"YayDayCompliment\"}}\"\ndoes kinda suit me!"
    }
  },
  {
    "label": "12",
    "attribute": "0x00000000FF000000",
    "locale": {
      "EUde": "{{reaction type=\"Worry\"}}Oh,{{pause frames=\"10\"}} ehrlich?{{pause frames=\"20\"}} Ich finde das\naber seltsam,{{pause frames=\"10\"}}\n{{string value=\"Catchphrase\"}}.\n{{reaction type=\"Distress\"}}Na ja, dann wirst du mir \neben noch ein Kompliment \nmachen müssen, {{pause frames=\"10\"}}{{string value=\"PlayerNickname\"}}!",
      "EUen": "{{reaction type=\"Worry\"}}Aw,{{pause frames=\"10\"}} really?{{pause frames=\"20\"}} I thought it was\nkind of strange, though,{{pause frames=\"10\"}}\n{{string value=\"Catchphrase\"}}.\n{{reaction type=\"Distress\"}}Well, you'll just have to\ncompliment me again,\n{{pause frames=\"10\"}}{{string value=\"PlayerNickname\"}}!",
      "EUes": "{{reaction type=\"Worry\"}}Oh,{{pause frames=\"10\"}} ¿en serio?{{pause frames=\"20\"}} Ya decía yo\nque me sonaba un poco\nextraño,{{pause frames=\"10\"}} {{string value=\"Catchphrase\"}}.\n{{reaction type=\"Distress\"}}¡Pues tendrás que decirme\notro cumplido, {{pause frames=\"10\"}}{{string value=\"PlayerNickname\"}}!",
      "EUfr": "{{reaction type=\"Worry\"}}Oh,{{pause frames=\"10\"}} vraiment?{{pause frames=\"20\"}} J'ai trouvé ça\nassez étrange, pourtant,{{pause frames=\"10\"}}\n{{string value=\"Catchphrase\"}}.\n{{reaction type=\"Distress\"}}Pas grave, tu peux toujours\ntrouver un autre \ncompliment, {{pause frames=\"10\"}}{{string value=\"PlayerNickname\"}}!",
      "EUit": "{{reaction type=\"Worry\"}}Oh,{{pause frames=\"10\"}} davvero?{{pause frames=\"20\"}} Pensavo che\nfosse un po' strano, sai,{{pause frames=\"10\"}}\n{{string value=\"Catchphrase\"}}.\n{{reaction type=\"Distress\"}}Beh, allora devi farmi\nun altro complimento,\n{{pause frames=\"10\"}}{{string value=\"PlayerNickname\"}}!",
      "JPja": "{{reaction type=\"Worry\"}}あ、{{pause frames=\"10\"}}やっぱり～？{{pause frames=\"20\"}}\nなんか　おかしいと\n{{kanjiReplace charNum=\"1\" value=\"おも\"}}思ったんだよねぇ、{{pause frames=\"10\"}}{{string value=\"Catchphrase\"}}\n{{reaction type=\"Distress\"}}ホメ{{kanjiReplace charNum=\"1\" value=\"なお\"}}直してよぉ、{{pause frames=\"10\"}}\n{{string value=\"PlayerNickname\"}}くん！",
      "KRko": "{{reaction type=\"Worry\"}}앗！ {{pause frames=\"10\"}}그런거였어～？{{pause frames=\"20\"}}\n어쩐지 이상하다\n했어～ {{pause frames=\"10\"}}{{string value=\"Catchphrase\"}}\n{{reaction type=\"Distress\"}}다시 칭찬해봐아～ {{pause frames=\"10\"}}\n{{string value=\"PlayerNickname\"}}{{fun_0B arg=\"0x0400\"}}！",
      "USen": "{{reaction type=\"Worry\"}}Aw,{{pause frames=\"10\"}} really?{{pause frames=\"20\"}} I thought it was\nkind of strange, though,{{pause frames=\"10\"}}\n{{string value=\"Catchphrase\"}}.\n{{reaction type=\"Distress\"}}Well, you'll just have to\ncompliment me again,\n{{pause frames=\"10\"}}{{string value=\"PlayerNickname\"}}!"
    }
  },
  {
    "label": "13",
    "attribute": "0x00000000FF000000",
    "locale": {
      "EUde": "{{reaction type=\"Shocked\"}}WAS?!?{{pause frames=\"20\"}} {{reaction type=\"Distress\"}}Das ist einfach\nschrecklich, {{string value=\"PlayerNickname\"}}!\n\n{{reaction type=\"Sorrow\"}}{{pause frames=\"5\"}}Du musst jetzt etwas\nwirklich Nettes über mich \nsagen!",
      "EUen": "{{reaction type=\"Shocked\"}}WHAT?!{{pause frames=\"20\"}} {{reaction type=\"Distress\"}}That's just so\nterrible, {{string value=\"PlayerNickname\"}}!\n\n{{reaction type=\"Sorrow\"}}{{pause frames=\"5\"}}You have to say something\nreally nice about me now!",
      "EUes": "{{reaction type=\"Shocked\"}}¡¿QUÉ?!{{pause frames=\"20\"}} {{reaction type=\"Distress\"}}¡Pero eso es\nterrible, {{string value=\"PlayerNickname\"}}!\n\n{{reaction type=\"Sorrow\"}}{{pause frames=\"5\"}}¡Ahora mismo necesito que\nme digas algo bonito que me\nlevante la moral!",
      "EUfr": "{{reaction type=\"Shocked\"}}QUOI?!{{pause frames=\"20\"}} {{reaction type=\"Distress\"}}Mais c'est terrible, \n{{string value=\"PlayerNickname\"}}!\n\n{{reaction type=\"Sorrow\"}}{{pause frames=\"5\"}}Tu dois faire un effort\npour te rattraper!",
      "EUit": "{{reaction type=\"Shocked\"}}COSA?!{{pause frames=\"20\"}} {{reaction type=\"Distress\"}}È terribile,\n{{string value=\"PlayerNickname\"}}!\n\n{{reaction type=\"Sorrow\"}}{{pause frames=\"5\"}}Ora devi dirmi qualcosa\ndi veramente carino!",
      "JPja": "{{reaction type=\"Shocked\"}}エエ～ッ！？{{pause frames=\"20\"}}\n{{reaction type=\"Distress\"}}ひどいよ　ひどいよ\n{{string value=\"PlayerNickname\"}}くん！\n{{reaction type=\"Sorrow\"}}{{pause frames=\"5\"}}もう１{{kanjiReplace charNum=\"1\" value=\"かい\"}}回\nホメ{{kanjiReplace charNum=\"1\" value=\"なお\"}}直してぇ～！　{{pause frames=\"10\"}}{{string value=\"Catchphrase\"}}！",
      "KRko": "{{reaction type=\"Shocked\"}}뭐어～엇！？{{pause frames=\"20\"}}\n{{reaction type=\"Distress\"}}너무해～ 너무해～～\n{{string value=\"PlayerNickname\"}}！！\n{{reaction type=\"Sorrow\"}}{{pause frames=\"5\"}}다시 한 번\n칭찬해봐아～！ {{pause frames=\"10\"}}{{string value=\"Catchphrase\"}}！",
      "USen": "{{reaction type=\"Shocked\"}}WHAT?!{{pause frames=\"20\"}} {{reaction type=\"Distress\"}}That's just so\nterrible, {{string value=\"PlayerNickname\"}}!\n\n{{reaction type=\"Sorrow\"}}{{pause frames=\"5\"}}You have to say something\nreally nice about me now!"
    }
  },
  {
    "label": "14",
    "attribute": "0x00000000FE000000",
    "locale": {
      "EUde": "{{reaction type=\"Worry\"}}\"{{capitalizeLetter}}{{string value=\"YayDayCompliment\"}}\", ha{{pause frames=\"3\"}}.{{pause frames=\"3\"}}.{{pause frames=\"3\"}}.\n\n\n{{reaction type=\"Happiness\"}}Nun,{{pause frames=\"10\"}} sicherlich nicht so\nbewegend wie das letzte,\n{{pause frames=\"10\"}}{{string value=\"Catchphrase\"}}.\n{{reaction type=\"Love\"}}Ich schätze, Komplimente\nmüssen mich nicht immer\numhauen. {{pause frames=\"10\"}}Trotzdem {{reaction type=\"Happiness\"}}danke.",
      "EUen": "{{reaction type=\"Worry\"}}\"{{capitalizeLetter}}{{string value=\"YayDayCompliment\"}},\" huh{{pause frames=\"3\"}}.{{pause frames=\"3\"}}.{{pause frames=\"3\"}}.\n\n\n{{reaction type=\"Happiness\"}}Well,{{pause frames=\"10\"}} it's definitely not as\nearth shattering as the\nlast one, {{pause frames=\"10\"}}{{string value=\"Catchphrase\"}}.\n{{reaction type=\"Love\"}}I guess compliments don't\nalways have to rock my\nworld. {{pause frames=\"10\"}}Anyways, {{reaction type=\"Happiness\"}}thanks.",
      "EUes": "{{reaction type=\"Worry\"}}\"{{capitalizeLetter}}{{string value=\"YayDayCompliment\"}}\", mmm{{pause frames=\"3\"}}.{{pause frames=\"3\"}}.{{pause frames=\"3\"}}.\n\n\n{{reaction type=\"Happiness\"}}Definitivamente{{pause frames=\"10\"}} no suena\ntan imponente como el\nanterior, {{pause frames=\"10\"}}{{string value=\"Catchphrase\"}}.\n{{reaction type=\"Love\"}}Pero bueno, yo nunca he\ntenido muy buen oído para\nnada. {{pause frames=\"10\"}}Pues eso, {{reaction type=\"Happiness\"}}gracias.",
      "EUfr": "{{reaction type=\"Worry\"}}\"{{capitalizeLetter}}{{string value=\"YayDayCompliment\"}},\" hein{{pause frames=\"3\"}}.{{pause frames=\"3\"}}.{{pause frames=\"3\"}}.\n\n\n{{reaction type=\"Happiness\"}}Eh bien,{{pause frames=\"10\"}} c'est un peu\nplat comparé au dernier que\nj'ai reçu, {{pause frames=\"10\"}}{{string value=\"Catchphrase\"}}.\n{{reaction type=\"Love\"}}Enfin, ça ne peut pas être \nl'extase à tous les coups. \n{{pause frames=\"10\"}}Bref, {{reaction type=\"Happiness\"}}merci quand même.",
      "EUit": "{{reaction type=\"Worry\"}}\"{{capitalizeLetter}}{{string value=\"YayDayCompliment\"}},\" uh{{pause frames=\"3\"}}.{{pause frames=\"3\"}}.{{pause frames=\"3\"}}.\n\n\n{{reaction type=\"Happiness\"}}Beh,{{pause frames=\"10\"}} l'altro era\ndecisamente meglio,\n{{pause frames=\"10\"}}{{string value=\"Catchphrase\"}}.\n{{reaction type=\"Love\"}}Immagino che ci si debba\naccontentare a volte.\n{{pause frames=\"10\"}}Vabbè, {{reaction type=\"Happiness\"}}grazie.",
      "JPja": "{{reaction type=\"Worry\"}}「{{string value=\"YayDayCompliment\"}}」{{pause frames=\"3\"}}・{{pause frames=\"3\"}}・{{pause frames=\"3\"}}・\n\n\n{{reaction type=\"Happiness\"}}あ、{{pause frames=\"10\"}}なんか　さっきよりも\nほんわかしてて、\n{{kanjiReplace charNum=\"2\" value=\"じぶん\"}}自分に　{{kanjiReplace charNum=\"1\" value=\"あ\"}}合ってるカンジぃ{{pause frames=\"3\"}}・{{pause frames=\"3\"}}・{{pause frames=\"3\"}}・\n{{reaction type=\"Love\"}}ホントの　{{color id=\"2\"}}ホメコトバ{{color id=\"0\"}}って\n{{kanjiReplace charNum=\"1\" value=\"こころ\"}}心に　やさしいんだねぇ、\n{{pause frames=\"5\"}}{{string value=\"Catchphrase\"}}！",
      "KRko": "{{reaction type=\"Worry\"}}「{{string value=\"YayDayCompliment\"}}」{{pause frames=\"3\"}}・{{pause frames=\"3\"}}・{{pause frames=\"3\"}}・\n\n\n{{reaction type=\"Happiness\"}}아～ {{pause frames=\"10\"}}역시 아까보다는\n마음도 따뜻해지고\n나랑도 어울리는거 같애～{{pause frames=\"3\"}}・{{pause frames=\"3\"}}・{{pause frames=\"3\"}}・\n{{reaction type=\"Love\"}}진정한 칭찬이란\n이런 맛이구나아～\n\n{{reaction type=\"Happiness\"}}고마워～ {{pause frames=\"10\"}}{{string value=\"Catchphrase\"}}",
      "USen": "{{reaction type=\"Worry\"}}\"{{capitalizeLetter}}{{string value=\"YayDayCompliment\"}},\" huh{{pause frames=\"3\"}}.{{pause frames=\"3\"}}.{{pause frames=\"3\"}}.\n\n\n{{reaction type=\"Happiness\"}}Well,{{pause frames=\"10\"}} it's definitely not as\nearth shattering as the\nlast one, {{pause frames=\"10\"}}{{string value=\"Catchphrase\"}}.\n{{reaction type=\"Love\"}}I guess compliments don't\nalways have to rock my\nworld. {{pause frames=\"10\"}}Anyways, {{reaction type=\"Happiness\"}}thanks."
    }
  },
  {
    "label": "15",
    "attribute": "0x00000000FE000000",
    "locale": {
      "EUde": "{{resetReaction}}\"{{capitalizeLetter}}{{string value=\"YayDayCompliment\"}}\"{{pause frames=\"3\"}}.{{pause frames=\"3\"}}.{{pause frames=\"3\"}}.{{pressButton}}\nScheinbar kein großer\nUnterschied zum Letzten.\n{{reaction type=\"Happiness\"}}Aber ich mag es irgendwie!{{pause frames=\"20\"}}\n{{reaction type=\"Glee\"}}Danke, {{string value=\"PlayerNickname\"}}!{{pause frames=\"10\"}} Vielen\nDank,{{pause frames=\"10\"}} {{string value=\"Catchphrase\"}}!",
      "EUen": "{{resetReaction}}\"{{capitalizeLetter}}{{string value=\"YayDayCompliment\"}}\"{{pause frames=\"3\"}}.{{pause frames=\"3\"}}.{{pause frames=\"3\"}}.{{pressButton}} It\ndoesn't seem that different\nfrom the last one.\n{{reaction type=\"Happiness\"}}But I kinda like it!{{pause frames=\"20\"}}\n{{reaction type=\"Glee\"}}Thanks, {{string value=\"PlayerNickname\"}}!{{pause frames=\"10\"}} Thanks\na lot,{{pause frames=\"10\"}} {{string value=\"Catchphrase\"}}!",
      "EUes": "{{resetReaction}}\"{{capitalizeLetter}}{{string value=\"YayDayCompliment\"}}\"{{pause frames=\"3\"}}.{{pause frames=\"3\"}}.{{pause frames=\"3\"}}.{{pressButton}} No\nparece muy diferente al\nanterior.\n{{reaction type=\"Happiness\"}}¡Pero creo que me gusta!{{pause frames=\"20\"}}\n{{reaction type=\"Glee\"}}¡Gracias, {{string value=\"PlayerNickname\"}}!{{pause frames=\"10\"}}\n¡Y muchas,{{pause frames=\"10\"}} {{string value=\"Catchphrase\"}}!",
      "EUfr": "{{resetReaction}}\"{{capitalizeLetter}}{{string value=\"YayDayCompliment\"}}\"{{pause frames=\"3\"}}.{{pause frames=\"3\"}}.{{pause frames=\"3\"}}.{{pressButton}} Ça\nme rappelle un peu celui\nde la dernière fois.\n{{reaction type=\"Happiness\"}}Mais ça me plaît!{{pause frames=\"20\"}}\n{{reaction type=\"Glee\"}}Merci, {{string value=\"PlayerNickname\"}}!{{pause frames=\"10\"}} Merci\nbeaucoup,{{pause frames=\"10\"}} {{string value=\"Catchphrase\"}}!",
      "EUit": "{{resetReaction}}\"{{capitalizeLetter}}{{string value=\"YayDayCompliment\"}}\"{{pause frames=\"3\"}}.{{pause frames=\"3\"}}.{{pause frames=\"3\"}}.{{pressButton}} Non\nhai molta fantasia, eh.\n\n{{reaction type=\"Happiness\"}}Ma non mi dispiace!{{pause frames=\"20\"}}\n{{reaction type=\"Glee\"}}Grazie, {{string value=\"PlayerNickname\"}}!{{pause frames=\"10\"}} Grazie\nmille,{{pause frames=\"10\"}} {{string value=\"Catchphrase\"}}!",
      "JPja": "{{resetReaction}}「{{string value=\"YayDayCompliment\"}}」{{pause frames=\"3\"}}・{{pause frames=\"3\"}}・{{pause frames=\"3\"}}・\n\n\nう～ん、{{pause frames=\"10\"}}\nさっきと　あんまり\nかわらない{{kanjiReplace charNum=\"1\" value=\"き\"}}気が　するけど、\n{{reaction type=\"Happiness\"}}なんだか　{{kanjiReplace charNum=\"1\" value=\"き\"}}気に{{kanjiReplace charNum=\"1\" value=\"い\"}}入っちゃった！{{pause frames=\"20\"}}\n{{reaction type=\"Glee\"}}ありがとぉ、{{pause frames=\"10\"}}\n{{string value=\"PlayerNickname\"}}くん！　{{pause frames=\"10\"}}{{string value=\"Catchphrase\"}}！",
      "KRko": "{{resetReaction}}「{{string value=\"YayDayCompliment\"}}」{{pause frames=\"3\"}}・{{pause frames=\"3\"}}・{{pause frames=\"3\"}}・\n\n\n흐～음{{pause frames=\"10\"}}\n아까랑 비교해서\n크게 바뀐 것 같진 않지만\n{{reaction type=\"Happiness\"}}그래도 맘에 들어！！{{pause frames=\"20\"}}\n{{reaction type=\"Glee\"}}고마워！！{{pause frames=\"10\"}}\n{{string value=\"PlayerNickname\"}}{{fun_0B arg=\"0x0400\"}} {{pause frames=\"10\"}}{{string value=\"Catchphrase\"}}",
      "USen": "{{resetReaction}}\"{{capitalizeLetter}}{{string value=\"YayDayCompliment\"}}\"{{pause frames=\"3\"}}.{{pause frames=\"3\"}}.{{pause frames=\"3\"}}.{{pressButton}} It\ndoesn't seem that different\nfrom the last one.\n{{reaction type=\"Happiness\"}}But I kinda like it!{{pause frames=\"20\"}}\n{{reaction type=\"Glee\"}}Thanks, {{string value=\"PlayerNickname\"}}!{{pause frames=\"10\"}} Thanks\na lot,{{pause frames=\"10\"}} {{string value=\"Catchphrase\"}}!"
    }
  }
]