[
  {
    "label": "0",
    "attribute": "0x00000000FE000000",
    "locale": {
      "EUde": "{{reaction type=\"Intense\"}}Wow WOW,{{pause frames=\"5\"}} {{string value=\"PlayerNickname\"}}!{{pressButton}}\nDas kommt nicht in Frage,\n{{pause frames=\"5\"}}{{string value=\"Catchphrase\"}}!",
      "EUen": "{{reaction type=\"Intense\"}}Whoa WHOA,{{pause frames=\"5\"}} {{string value=\"PlayerNickname\"}}!{{pressButton}}\nThat one's off-limits,\n{{pause frames=\"5\"}}{{string value=\"Catchphrase\"}}!",
      "EUes": "{{reaction type=\"Intense\"}}Tiempo muerto,{{pause frames=\"5\"}} {{string value=\"PlayerNickname\"}}.{{pressButton}}\nEso no está en venta,\n{{pause frames=\"5\"}}¡{{string value=\"Catchphrase\"}}!",
      "EUfr": "{{reaction type=\"Intense\"}}Waouh, WAOUH,{{pause frames=\"5\"}} {{string value=\"PlayerNickname\"}}!{{pressButton}}\nÇa, c'est pas à vendre,\n{{pause frames=\"5\"}}{{string value=\"Catchphrase\"}}!",
      "EUit": "{{reaction type=\"Intense\"}}Ehi! Calma,{{pause frames=\"5\"}} {{string value=\"PlayerNickname\"}}!{{pressButton}}\nGiù le mani,\n{{pause frames=\"5\"}}{{string value=\"Catchphrase\"}}!",
      "JPja": "{{reaction type=\"Intense\"}}こらー！{{pause frames=\"5\"}}　{{string value=\"PlayerNickname\"}}！{{pressButton}}\nそいつは　おサワリきんしだ！\n{{pause frames=\"5\"}}{{string value=\"Catchphrase\"}}！",
      "KRko": "{{reaction type=\"Intense\"}}야ー！{{pause frames=\"5\"}} {{string value=\"PlayerNickname\"}}！{{pressButton}}\n그건 만지지 마！\n{{pause frames=\"5\"}}{{string value=\"Catchphrase\"}}！",
      "USen": "{{reaction type=\"Intense\"}}Whoa WHOA,{{pause frames=\"5\"}} {{string value=\"PlayerNickname\"}}!{{pressButton}}\nThat one's off-limits,\n{{pause frames=\"5\"}}{{string value=\"Catchphrase\"}}!"
    }
  },
  {
    "label": "1",
    "attribute": "0x00000000FE000000",
    "locale": {
      "EUde": "{{reaction type=\"Happiness\"}}Ziemlich gut, {{pause frames=\"5\"}}hm?{{pressButton}} {{reaction type=\"Agreement\"}}Das gebe\nich nicht her.{{pause frames=\"5\"}} Damit\ntrainiere ich jeden Tag!",
      "EUen": "{{reaction type=\"Happiness\"}}That's pretty sweet, {{pause frames=\"5\"}}huh?{{pressButton}}\n{{reaction type=\"Agreement\"}}I'll never let that go.{{pause frames=\"5\"}}\nI train with it every day!",
      "EUes": "{{reaction type=\"Happiness\"}}Te gusta, {{pause frames=\"5\"}}¿verdad?{{pressButton}} {{reaction type=\"Agreement\"}}Pero no\nse vende.{{pause frames=\"5\"}} ¡Es para el\nentrenamiento!",
      "EUfr": "{{reaction type=\"Happiness\"}}C'est joli, {{pause frames=\"5\"}}hein?{{pressButton}} {{reaction type=\"Agreement\"}}Mais c'est\npas à vendre.{{pause frames=\"5\"}} Je m'entraîne\ndessus tous les jours!",
      "EUit": "{{reaction type=\"Happiness\"}}Ti piace, {{pause frames=\"5\"}}eh?{{pressButton}} {{reaction type=\"Agreement\"}}Ma non è\nin vendita.{{pause frames=\"5\"}} Mi serve\nper gli allenamenti!",
      "JPja": "{{reaction type=\"Happiness\"}}それ、{{pause frames=\"5\"}}なかなかイイだろ？{{pressButton}}\n{{reaction type=\"Agreement\"}}おいらの　トレーニングには\nかかせない　シロモノなんだ",
      "KRko": "{{reaction type=\"Happiness\"}}그거 {{pause frames=\"5\"}}멋지지 않냐？{{pressButton}}\n{{reaction type=\"Agreement\"}}내 운동에\n뗄래야 뗄 수 없는 물건이야",
      "USen": "{{reaction type=\"Happiness\"}}That's pretty sweet, {{pause frames=\"5\"}}huh?{{pressButton}}\n{{reaction type=\"Agreement\"}}I'll never let that go.{{pause frames=\"5\"}}\nI train with it every day!"
    }
  },
  {
    "label": "2",
    "attribute": "0x00000000FE000000",
    "locale": {
      "EUde": "{{reaction type=\"Thought\"}}Äh{{pause frames=\"5\"}}.{{pause frames=\"5\"}}.{{pause frames=\"5\"}}.{{pause frames=\"5\"}} Das kann ich dir nicht\nverkaufen, {{pause frames=\"5\"}}{{string value=\"Catchphrase\"}}.\n{{pause frames=\"5\"}}Tut mir Leid.\n{{reaction type=\"Worry\"}}Es ist schon{{pause frames=\"5\"}}.{{pause frames=\"5\"}}.{{pause frames=\"5\"}}.{{pause frames=\"5\"}} ein Teil\nvon mir, {{pause frames=\"5\"}}{{string value=\"Catchphrase\"}}.",
      "EUen": "{{reaction type=\"Thought\"}}Uh{{pause frames=\"5\"}}.{{pause frames=\"5\"}}.{{pause frames=\"5\"}}.{{pause frames=\"5\"}} Can't give you that\none, {{pause frames=\"5\"}}{{string value=\"Catchphrase\"}}. {{pause frames=\"5\"}}Sorry.\n\n{{reaction type=\"Worry\"}}That's{{pause frames=\"5\"}}.{{pause frames=\"5\"}}.{{pause frames=\"5\"}}.{{pause frames=\"5\"}}a part of me now,\n{{pause frames=\"5\"}}{{string value=\"Catchphrase\"}}.",
      "EUes": "{{reaction type=\"Thought\"}}Esto{{pause frames=\"5\"}}.{{pause frames=\"5\"}}.{{pause frames=\"5\"}}.{{pause frames=\"5\"}} No puedo darte eso,\n{{pause frames=\"5\"}}{{string value=\"Catchphrase\"}}. {{pause frames=\"5\"}}Lo siento.\n\n{{reaction type=\"Worry\"}}Es que{{pause frames=\"5\"}}.{{pause frames=\"5\"}}.{{pause frames=\"5\"}}.{{pause frames=\"5\"}} La verdad es que\nle tengo mucho cariño,\n{{pause frames=\"5\"}}{{string value=\"Catchphrase\"}}.",
      "EUfr": "{{reaction type=\"Thought\"}}Euh{{pause frames=\"5\"}}.{{pause frames=\"5\"}}.{{pause frames=\"5\"}}.{{pause frames=\"5\"}} je peux pas te vendre\nça, {{pause frames=\"5\"}}{{string value=\"Catchphrase\"}}. {{pause frames=\"5\"}}Désolé.\n\n{{reaction type=\"Worry\"}}Ça{{pause frames=\"5\"}}.{{pause frames=\"5\"}}.{{pause frames=\"5\"}}.{{pause frames=\"5\"}} fait partie de moi\nmaintenant, {{pause frames=\"5\"}}{{string value=\"Catchphrase\"}}.",
      "EUit": "{{reaction type=\"Thought\"}}Ehm{{pause frames=\"5\"}}.{{pause frames=\"5\"}}.{{pause frames=\"5\"}}.{{pause frames=\"5\"}} Proprio non posso\ndarti quell'oggettino,\n{{pause frames=\"5\"}}{{string value=\"Catchphrase\"}}. {{pause frames=\"5\"}}Scusa.\n{{reaction type=\"Worry\"}}È come{{pause frames=\"5\"}}.{{pause frames=\"5\"}}.{{pause frames=\"5\"}}.{{pause frames=\"5\"}} una parte di me,\n{{pause frames=\"5\"}}{{string value=\"Catchphrase\"}}.",
      "JPja": "{{reaction type=\"Thought\"}}うーん{{pause frames=\"5\"}}・{{pause frames=\"5\"}}・{{pause frames=\"5\"}}・{{pause frames=\"5\"}}\nそいつは　ゆずれないな、\n{{pause frames=\"5\"}}{{string value=\"Catchphrase\"}}\n{{reaction type=\"Worry\"}}なんてゆーか、{{pause frames=\"5\"}}\nおいらの　{{kanjiReplace charNum=\"1\" value=\"カラダ\"}}体の\n{{kanjiReplace charNum=\"2\" value=\"いちぶ\"}}一部なんだよ、{{pause frames=\"5\"}}{{string value=\"Catchphrase\"}}",
      "KRko": "{{reaction type=\"Thought\"}}우ー웅{{pause frames=\"5\"}}・{{pause frames=\"5\"}}・{{pause frames=\"5\"}}・{{pause frames=\"5\"}}\n그건 양보 못하는데ー\n{{pause frames=\"5\"}}{{string value=\"Catchphrase\"}}\n{{reaction type=\"Worry\"}}내 몸의{{pause frames=\"5\"}}\n일부라고 할 수 있거든\n{{pause frames=\"5\"}}{{string value=\"Catchphrase\"}}",
      "USen": "{{reaction type=\"Thought\"}}Uh{{pause frames=\"5\"}}.{{pause frames=\"5\"}}.{{pause frames=\"5\"}}.{{pause frames=\"5\"}} Can't give you that\none, {{pause frames=\"5\"}}{{string value=\"Catchphrase\"}}. {{pause frames=\"5\"}}Sorry.\n\n{{reaction type=\"Worry\"}}That's{{pause frames=\"5\"}}.{{pause frames=\"5\"}}.{{pause frames=\"5\"}}.{{pause frames=\"5\"}}a part of me now,\n{{pause frames=\"5\"}}{{string value=\"Catchphrase\"}}."
    }
  }
]