[
  {
    "label": "0",
    "attribute": "0x00000000FF000000",
    "locale": {
      "EUde": "{{reaction type=\"Intense\"}}Jetzt!{{pause frames=\"5\"}} Hier!{{pause frames=\"5\"}}\nEs GILT!{{pause frames=\"5\"}} Ich fordere dich\nheraus, {{pause frames=\"5\"}}{{string value=\"Catchphrase\"}}!\n{{resetReaction}}Fange einen seltenen Fisch{{pause frames=\"5\"}}\nund zeig ihn mir! {{pause frames=\"5\"}}Hörst du?\n\n{{reaction type=\"Intense\"}}Wer den gefährlichsten Fisch\nfängt, gewinnt!{{pause frames=\"5\"}}\n\nGefahr, Baby! {{reaction type=\"Curiosity\"}}Wie klingt\ndas? {{pause frames=\"5\"}}Gefällt dir das,\n{{pause frames=\"5\"}}{{string value=\"Catchphrase\"}}?",
      "EUen": "{{reaction type=\"Intense\"}}Right now!{{pause frames=\"5\"}} Right here!{{pause frames=\"5\"}}\nIt's ON!{{pause frames=\"5\"}} I'm gonna challenge\nyou, {{pause frames=\"5\"}}{{string value=\"Catchphrase\"}}!\n{{resetReaction}}Catch a rare fish{{pause frames=\"5\"}} and come\nshow it to me! {{pause frames=\"5\"}}Hear me?!\n\n{{reaction type=\"Intense\"}}Whichever of us gets the \nmost dangerous fish wins!{{pause frames=\"5\"}}\nDanger, baby! \n{{reaction type=\"Curiosity\"}}How's that? {{pause frames=\"5\"}}You like it,\n{{pause frames=\"5\"}}{{string value=\"Catchphrase\"}}?!",
      "EUes": "{{reaction type=\"Intense\"}}¡Aquí!{{pause frames=\"5\"}} ¡Ahora!{{pause frames=\"5\"}} ¡Prepárate{{pause frames=\"5\"}}\npara enfrentarte a mí,\n{{pause frames=\"5\"}}{{string value=\"Catchphrase\"}}!\n{{resetReaction}}¡Pesca el pez{{pause frames=\"5\"}} más raro\nque veas y muéstramelo!{{pause frames=\"5\"}}\n¡¿Entendido?!\n{{reaction type=\"Intense\"}}¡El que pesque el pez más\npeligroso, gana!{{pause frames=\"5\"}} ¡Me encanta\nel peligro! \n{{reaction type=\"Curiosity\"}}¿Qué te parece?{{pause frames=\"5\"}}\n¿Te apuntas, {{pause frames=\"5\"}}{{string value=\"Catchphrase\"}}?",
      "EUfr": "{{reaction type=\"Intense\"}}Ici!{{pause frames=\"5\"}} Là!{{pause frames=\"5\"}}\nMaintenant!{{pause frames=\"5\"}} Je te mets au\ndéfi, {{pause frames=\"5\"}}{{string value=\"Catchphrase\"}}!\n{{resetReaction}}Pêche un poisson rare{{pause frames=\"5\"}} et\nmontre-le-moi! {{pause frames=\"5\"}}Compris?!\n\n{{reaction type=\"Intense\"}}Celui qui aura le poisson le\nplus dangereux aura gagné!{{pause frames=\"5\"}}\nDangereux, bébé! \n{{reaction type=\"Curiosity\"}}Alors? {{pause frames=\"5\"}}Ça te dit,\n{{pause frames=\"5\"}}{{string value=\"Catchphrase\"}}?!",
      "EUit": "{{reaction type=\"Intense\"}}Proprio ora!{{pause frames=\"5\"}} Proprio qui!{{pause frames=\"5\"}}\nSI COMINCIA!{{pause frames=\"5\"}} Ti\nsfido, {{pause frames=\"5\"}}{{string value=\"Catchphrase\"}}!\n{{resetReaction}}Prendi un pesce raro{{pause frames=\"5\"}} e\nportalo da me! {{pause frames=\"5\"}}Capito?!\n\n{{reaction type=\"Intense\"}}Vince chi di noi pesca\nl'esemplare più pericoloso!{{pause frames=\"5\"}}\nPERICOLO, BRIVIDO! \n{{reaction type=\"Curiosity\"}}Allora? {{pause frames=\"5\"}}Ci stai,\n{{pause frames=\"5\"}}{{string value=\"Catchphrase\"}}?!",
      "JPja": "{{reaction type=\"Intense\"}}{{kanjiReplace charNum=\"2\" value=\"きょう\"}}今日は　おまえに\nちょうせんじょうだー！\n{{pause frames=\"5\"}}{{string value=\"Catchphrase\"}}！\n{{resetReaction}}なんか　めずらしい\nサカナをつり{{kanjiReplace charNum=\"1\" value=\"あ\"}}上げて、{{pause frames=\"5\"}}\nつれたら　おいらに{{kanjiReplace charNum=\"1\" value=\"み\"}}見せやがれ！\n{{reaction type=\"Intense\"}}で、{{pause frames=\"5\"}}より　ヤバそうなサカナを\nゲットしてた{{kanjiReplace charNum=\"1\" value=\"ほう\"}}方が\n{{kanjiReplace charNum=\"1\" value=\"か\"}}勝ちって　すんぽーだ！\n{{reaction type=\"Curiosity\"}}どうだ、{{pause frames=\"5\"}}やるかー？！\n{{pause frames=\"5\"}}{{string value=\"Catchphrase\"}}？！",
      "KRko": "{{reaction type=\"Intense\"}}오늘은\n내 도전장을 받아랏ー！\n{{pause frames=\"5\"}}{{string value=\"Catchphrase\"}}！\n{{resetReaction}}희귀해 보이는\n물고기를 잡아서{{pause frames=\"5\"}}\n내 눈앞에 가져와 봐！\n{{reaction type=\"Intense\"}}그래서 {{pause frames=\"5\"}}죽여주는 물고기를\n잡는 쪽이\n승자가 되는 거지！\n{{reaction type=\"Curiosity\"}}어떠냐， {{pause frames=\"5\"}}해 볼 테냐ー？！\n{{pause frames=\"5\"}}{{string value=\"Catchphrase\"}}？！",
      "USen": "{{reaction type=\"Intense\"}}Right now!{{pause frames=\"5\"}} Right here!{{pause frames=\"5\"}}\nIt's ON!{{pause frames=\"5\"}} I'm gonna challenge\nyou, {{pause frames=\"5\"}}{{string value=\"Catchphrase\"}}!\n{{resetReaction}}Catch a rare fish{{pause frames=\"5\"}} and come\nshow it to me! {{pause frames=\"5\"}}Hear me?!\n\n{{reaction type=\"Intense\"}}Whichever of us gets the \nmost dangerous fish wins!{{pause frames=\"5\"}}\nDanger, baby! \n{{reaction type=\"Curiosity\"}}How's that? {{pause frames=\"5\"}}You like it,\n{{pause frames=\"5\"}}{{string value=\"Catchphrase\"}}?!"
    }
  },
  {
    "label": "1",
    "attribute": "0x00000000FF000000",
    "locale": {
      "EUde": "{{reaction type=\"Intense\"}}{{color id=\"5\"}}{{capitalizeLetter}}{{string value=\"PlayerNickname\"}}{{color id=\"0\"}}!{{pause frames=\"10\"}} Du siehst\nso was von todlangweilig\naus!\n{{reaction type=\"Distress\"}}Fang doch lieber einen\nseltenen Fisch und\nüberrasche mich damit!\n{{reaction type=\"Happiness\"}}Ich versuche inzwischen,\neinen viel besseren Fisch\nals deinen zu fangen.\nEin Wettkampf!{{pause frames=\"3\"}}\nDer Kampf um den selten-\nsten Fisch, {{pause frames=\"5\"}}{{string value=\"Catchphrase\"}}!",
      "EUen": "{{reaction type=\"Intense\"}}{{color id=\"5\"}}{{capitalizeLetter}}{{string value=\"PlayerNickname\"}}{{color id=\"0\"}}!{{pause frames=\"10\"}} You're looking\nabout as dull as dirt!\n\n{{reaction type=\"Distress\"}}Why don't you go catch a\nrare fish and surprise me?\n\n{{reaction type=\"Happiness\"}}I'm gonna try to catch a\nlot better fish than yours\nin the meanwhile!\nLet's make it a real battle!{{pause frames=\"3\"}}\nA battle for the season's\nrarest fish, {{pause frames=\"5\"}}{{string value=\"Catchphrase\"}}!",
      "EUes": "{{reaction type=\"Intense\"}}¡{{color id=\"5\"}}{{capitalizeLetter}}{{string value=\"PlayerNickname\"}}{{color id=\"0\"}}!{{pause frames=\"10\"}} Tienes pinta\nde aburrirte mortalmente.\n\n{{reaction type=\"Distress\"}}¿Por qué no pescas un pez\nraro para salir de la\nmonotonía?\n{{reaction type=\"Happiness\"}}Es más, yo también me\napunto y podemos hacer una\ncompetición, {{pause frames=\"5\"}}{{string value=\"Catchphrase\"}}.\n¡Será emocionante!{{pause frames=\"3\"}} ¡La\nbatalla por pescar el pez\nmás raro ha comenzado!",
      "EUfr": "{{reaction type=\"Intense\"}}{{color id=\"5\"}}{{capitalizeLetter}}{{string value=\"PlayerNickname\"}}{{color id=\"0\"}}!{{pause frames=\"10\"}} T'as l'air\naussi morose que la\npoussière!\n{{reaction type=\"Distress\"}}Pourquoi tu n'irais pas\npêcher un poisson rare pour\nme faire une surprise?\n{{reaction type=\"Happiness\"}}Je vais essayer d'en pêcher\ndes mieux que toi en\nattendant!\nFaut qu'on fasse un duel!{{pause frames=\"3\"}}\nPour le poisson le plus rare\nde la saison, {{pause frames=\"5\"}}{{string value=\"Catchphrase\"}}!",
      "EUit": "{{reaction type=\"Intense\"}}{{color id=\"5\"}}{{capitalizeLetter}}{{string value=\"PlayerNickname\"}}{{color id=\"0\"}}!{{pause frames=\"10\"}} Perché hai\nquella faccia annoiata?\n\n{{reaction type=\"Distress\"}}IDEA: vai a prendere un\npesce raro e portamelo!\n\n{{reaction type=\"Happiness\"}}Nel frattempo, anch'io\ncercherò di pescare\nuna vera rarità!\nAccetta la sfida!{{pause frames=\"3\"}} Vince chi\nprende il pesce più raro\ndella stagione, {{pause frames=\"5\"}}{{string value=\"Catchphrase\"}}!",
      "JPja": "{{reaction type=\"Intense\"}}{{color id=\"5\"}}{{string value=\"PlayerNickname\"}}ー{{color id=\"0\"}}！{{pause frames=\"10\"}}\nおまえ　{{kanjiReplace charNum=\"2\" value=\"あいか\"}}相変わらず\nとぼけた{{kanjiReplace charNum=\"1\" value=\"かお\"}}顔してるけど、\n{{reaction type=\"Distress\"}}たまには、{{pause frames=\"5\"}}\nめずらしいサカナでも　つって\nおいらのドギモを　ぬいてくれよ！\n{{reaction type=\"Happiness\"}}おいらも\nおまえに　{{kanjiReplace charNum=\"1\" value=\"ま\"}}負けない\nすげーサカナ　つるから、\nどっちが　{{kanjiReplace charNum=\"1\" value=\"いま\"}}今のきせつ{{pause frames=\"3\"}}\nめずらしいサカナ　つったか\nしんけん{{kanjiReplace charNum=\"2\" value=\"しょうぶ\"}}勝負だ！　{{pause frames=\"5\"}}{{string value=\"Catchphrase\"}}！",
      "KRko": "{{reaction type=\"Intense\"}}{{color id=\"5\"}}{{string value=\"PlayerNickname\"}}ー{{color id=\"0\"}}！{{pause frames=\"10\"}}\n여전히 넌\n멍한 표정을 짓고 있지만，\n{{reaction type=\"Distress\"}}가끔은{{pause frames=\"5\"}}\n희귀한 물고기를 잡아서\n내 애간장을 녹여 봐！\n{{reaction type=\"Happiness\"}}나도\n너한테 지지 않을 만큼\n끝내주는 물고기를 잡을 테니까，\n누가 더{{pause frames=\"3\"}} 희귀한 물고기를 잡는지\n한판승부를 하는 거야！{{pause frames=\"5\"}}\n{{string value=\"Catchphrase\"}}",
      "USen": "{{reaction type=\"Intense\"}}{{color id=\"5\"}}{{capitalizeLetter}}{{string value=\"PlayerNickname\"}}{{color id=\"0\"}}!{{pause frames=\"10\"}} You're looking\nabout as dull as dirt!\n\n{{reaction type=\"Distress\"}}Why don't you go catch a\nrare fish and surprise me?\n\n{{reaction type=\"Happiness\"}}I'm gonna try to catch a\nlot better fish than yours\nin the meanwhile!\nLet's make it a real battle!{{pause frames=\"3\"}}\nA battle for the season's\nrarest fish, {{pause frames=\"5\"}}{{string value=\"Catchphrase\"}}!"
    }
  },
  {
    "label": "2",
    "attribute": "0x00000000FF000000",
    "locale": {
      "EUde": "{{reaction type=\"Happiness\"}}Kein Zweifel: Es gibt\nverflixt viele verrückte\nFische im Wasser.\n{{reaction type=\"Distress\"}}Einmal will ich einen Fisch\nsehen, der mein Adrenalin in\ndie HÖHE schießen lässt!\n{{reaction type=\"Intense\"}}Also, {{pause frames=\"5\"}}{{color id=\"5\"}}{{string value=\"PlayerNickname\"}}{{color id=\"0\"}}!{{pause frames=\"10\"}}\n{{reaction type=\"Worry\"}}Warum fängst du mir nicht\nso einen Fisch?!?\n{{reaction type=\"Happiness\"}}Ich versuche es auch,{{pause frames=\"3\"}} und\ndann vergleichen wir,\n{{pause frames=\"5\"}}{{string value=\"Catchphrase\"}}!\nDu musst einen selteneren\nFisch als ich fangen!{{pause frames=\"20\"}}\n{{reaction type=\"Curiosity\"}}Wie siehts aus, {{pause frames=\"5\"}}{{string value=\"Catchphrase\"}}?",
      "EUen": "{{reaction type=\"Happiness\"}}Look, there's no doubt that\na ton of weird fish are in\nthe world, just chilling.\n{{reaction type=\"Distress\"}}Just once, I wanna see an\namazing fish that'll give\nme a HUGE adrenaline rush!\n{{reaction type=\"Intense\"}}So, c'mon {{pause frames=\"5\"}}{{color id=\"5\"}}{{string value=\"PlayerNickname\"}}{{color id=\"0\"}}!{{pause frames=\"10\"}}\n{{reaction type=\"Worry\"}}Why don't you go catch\na fish like that?!\n{{reaction type=\"Happiness\"}}I'll try too,{{pause frames=\"3\"}} so we can\ncompare which of us got\nthe best one, {{pause frames=\"5\"}}{{string value=\"Catchphrase\"}}!\nWhat you need to get is\na rarer fish than mine!{{pause frames=\"20\"}}\n{{reaction type=\"Curiosity\"}}How's that, {{pause frames=\"5\"}}{{string value=\"Catchphrase\"}}?!",
      "EUes": "{{reaction type=\"Happiness\"}}¿Es cierto eso de que hay\nespecies de peces\ndesconocidas?\n{{reaction type=\"Distress\"}}Por una vez me gustaría\nver un pez realmente raro,\nla verdad.\n{{reaction type=\"Intense\"}}¡Va, {{pause frames=\"5\"}}{{color id=\"5\"}}{{string value=\"PlayerNickname\"}}{{color id=\"0\"}}!{{pause frames=\"10\"}} {{reaction type=\"Worry\"}}¿Por qué\nno pescas tú uno para mí?\n\n{{reaction type=\"Happiness\"}}Yo también lo intentaré.{{pause frames=\"3\"}}\nLuego compararemos, a ver\ncuál es mejor, {{pause frames=\"5\"}}¡{{string value=\"Catchphrase\"}}!\n¡Tienes que conseguir un\npez más raro que el mío!{{pause frames=\"20\"}}\n{{reaction type=\"Curiosity\"}}¿Vale, {{pause frames=\"5\"}}{{string value=\"Catchphrase\"}}?",
      "EUfr": "{{reaction type=\"Happiness\"}}Ecoute, je parie qu'il y a\ndes milliers de poissons\ndans le monde.\n{{reaction type=\"Distress\"}}J'aimerais en voir un\ntellement rare que ça me\ndonnerait des frissons!\n{{reaction type=\"Intense\"}}Allez {{pause frames=\"5\"}}{{color id=\"5\"}}{{string value=\"PlayerNickname\"}}{{color id=\"0\"}}!{{pause frames=\"10\"}}\n{{reaction type=\"Worry\"}}Tu veux pas aller pêcher un\npoisson comme ça?!\n{{reaction type=\"Happiness\"}}Moi, je vais essayer{{pause frames=\"3\"}} et\naprès on comparera,\n{{pause frames=\"5\"}}{{string value=\"Catchphrase\"}}!\nTu dois pêcher un poisson\nplus rare que le mien!{{pause frames=\"20\"}}\n{{reaction type=\"Curiosity\"}}Ça te tente, {{pause frames=\"5\"}}{{string value=\"Catchphrase\"}}?!",
      "EUit": "{{reaction type=\"Happiness\"}}Senti, non c'è dubbio che al\nmondo ci siano tanti pesci.\n\n{{reaction type=\"Distress\"}}Ma per una volta vorrei\nvederne uno rarissimo,\nche mi sconvolga!\n{{reaction type=\"Intense\"}}Dai, {{pause frames=\"5\"}}{{color id=\"5\"}}{{string value=\"PlayerNickname\"}}{{color id=\"0\"}}!{{pause frames=\"10\"}}\n{{reaction type=\"Worry\"}}Metticela tutta e prendi un\npesce fenomenale!\n{{reaction type=\"Happiness\"}}Ci proverò anch'io,{{pause frames=\"3\"}} così\nvedremo chi se la cava\nmeglio tra noi, {{pause frames=\"5\"}}{{string value=\"Catchphrase\"}}!\nRicorda, devi prendere un\npesce più raro del mio!{{pause frames=\"20\"}}\n{{reaction type=\"Curiosity\"}}Che ne dici, {{pause frames=\"5\"}}{{string value=\"Catchphrase\"}}?!",
      "JPja": "{{reaction type=\"Happiness\"}}この{{kanjiReplace charNum=\"1\" value=\"よ\"}}世には\nとんでもないサカナが\nわんさか　いるみたいだし、\n{{reaction type=\"Distress\"}}{{kanjiReplace charNum=\"2\" value=\"いちど\"}}一度で　イイから\nアドレナリン{{kanjiReplace charNum=\"1\" value=\"で\"}}出っぱなしに\nなりそうなのを　{{kanjiReplace charNum=\"1\" value=\"み\"}}見てみたいぞー！\n{{reaction type=\"Intense\"}}だから、{{color id=\"5\"}}{{pause frames=\"5\"}}{{string value=\"PlayerNickname\"}}ー{{color id=\"0\"}}！{{pause frames=\"10\"}}\n{{reaction type=\"Worry\"}}そんな　マブいヤツを\nつってきてくれよー！\n{{reaction type=\"Happiness\"}}おいらも　つるから、{{pause frames=\"3\"}}\nおまえも　つって{{pause frames=\"3\"}}\nくらべっこ！　{{pause frames=\"5\"}}{{string value=\"Catchphrase\"}}！\nめずらしいサカナを\nつり{{kanjiReplace charNum=\"1\" value=\"あ\"}}上げた{{kanjiReplace charNum=\"1\" value=\"ほう\"}}方が　{{kanjiReplace charNum=\"1\" value=\"か\"}}勝ちだー！{{pause frames=\"20\"}}\n{{reaction type=\"Curiosity\"}}どうだー？！　{{pause frames=\"5\"}}{{string value=\"Catchphrase\"}}？！",
      "KRko": "{{reaction type=\"Happiness\"}}이 세상에는\n말도 안 되게 끝내주는 물고기가\n엄청 많대 \n{{reaction type=\"Distress\"}}단 한 번만이라도 좋으니까\n아드레날린이 퐁퐁 나오는 물고기를\n보고 싶어ー！\n{{reaction type=\"Intense\"}}그니까 {{color id=\"5\"}}{{pause frames=\"5\"}}{{string value=\"PlayerNickname\"}}ー{{color id=\"0\"}}！{{pause frames=\"10\"}}\n{{reaction type=\"Worry\"}}그런 아름다운 녀석을\n잡아 와라ー！\n{{reaction type=\"Happiness\"}}나도 잡을 테니까{{pause frames=\"3\"}}\n너도 잡아서{{pause frames=\"3\"}}\n비교해 보자！ {{pause frames=\"5\"}}{{string value=\"Catchphrase\"}}！\n희귀한 물고기를\n잡은 쪽이 승리다ー！{{pause frames=\"20\"}}\n{{reaction type=\"Curiosity\"}}어때ー？！ {{pause frames=\"5\"}}{{string value=\"Catchphrase\"}}？！",
      "USen": "{{reaction type=\"Happiness\"}}Look, there's no doubt that\na ton of weird fish are in\nthe world, just chilling.\n{{reaction type=\"Distress\"}}Just once, I wanna see an\namazing fish that'll give\nme a HUGE adrenaline rush!\n{{reaction type=\"Intense\"}}So, c'mon {{pause frames=\"5\"}}{{color id=\"5\"}}{{string value=\"PlayerNickname\"}}{{color id=\"0\"}}!{{pause frames=\"10\"}}\n{{reaction type=\"Worry\"}}Why don't you go catch\na fish like that?!\n{{reaction type=\"Happiness\"}}I'll try too,{{pause frames=\"3\"}} so we can\ncompare which of us got\nthe best one, {{pause frames=\"5\"}}{{string value=\"Catchphrase\"}}!\nWhat you need to get is\na rarer fish than mine!{{pause frames=\"20\"}}\n{{reaction type=\"Curiosity\"}}How's that, {{pause frames=\"5\"}}{{string value=\"Catchphrase\"}}?!"
    }
  }
]