[
  {
    "label": "0",
    "attribute": "0x000A0000FF000000",
    "locale": {
      "EUde": "{{resetReaction}}Hm?{{pause frames=\"20\"}} Oh.{{pause frames=\"5\"}} Das ist von\n{{color id=\"6\"}}{{string index=\"0\"}}{{color id=\"0\"}}, {{pause frames=\"20\"}}nicht wahr?",
      "EUen": "{{resetReaction}}Hmm?{{pause frames=\"20\"}} Oh.{{pause frames=\"5\"}} This is from\n{{color id=\"6\"}}{{string index=\"0\"}}{{color id=\"0\"}}, {{pause frames=\"20\"}}isn't it?",
      "EUes": "{{resetReaction}}¿Mmm?{{pause frames=\"20\"}} Ah.{{pause frames=\"5\"}} Esto es de\n{{color id=\"6\"}}{{string index=\"0\"}}{{color id=\"0\"}}, {{pause frames=\"20\"}}¿no?",
      "EUfr": "{{resetReaction}}Hmm?{{pause frames=\"20\"}} Oh.{{pause frames=\"5\"}} Ça vient de chez\n{{color id=\"6\"}}{{string index=\"0\"}}{{color id=\"0\"}}, {{pause frames=\"20\"}}n'est-ce pas?",
      "EUit": "{{resetReaction}}Uhm?{{pause frames=\"20\"}} Oh.{{pause frames=\"5\"}} Questo arriva da\n{{color id=\"6\"}}{{string index=\"0\"}}{{color id=\"0\"}}, {{pause frames=\"20\"}}vero?",
      "JPja": "{{resetReaction}}{{pause frames=\"5\"}}・{{pause frames=\"5\"}}・{{pause frames=\"5\"}}・{{pause frames=\"10\"}}？{{pause frames=\"20\"}}\n\n\nあ、{{pause frames=\"5\"}}{{color id=\"6\"}}{{string index=\"0\"}}{{color id=\"0\"}}くんからだ{{pause frames=\"20\"}}\nなんだろう？　",
      "KRko": "{{resetReaction}}{{pause frames=\"5\"}}・{{pause frames=\"5\"}}・{{pause frames=\"5\"}}・{{pause frames=\"10\"}}？{{pause frames=\"20\"}}\n\n\n앗！ {{pause frames=\"5\"}}{{color id=\"6\"}}{{string index=\"0\"}}{{color id=\"0\"}}{{fun_0B arg=\"0x0300\"}} 보낸거네？{{pause frames=\"20\"}}\n뭘까？？　",
      "USen": "{{resetReaction}}Hmm?{{pause frames=\"20\"}} Oh.{{pause frames=\"5\"}} This is from\n{{color id=\"6\"}}{{string index=\"0\"}}{{color id=\"0\"}}, {{pause frames=\"20\"}}isn't it?"
    }
  },
  {
    "label": "1",
    "attribute": "0x000A0000FF000000",
    "locale": {
      "EUde": "{{resetReaction}}Hu hu hu!{{pause frames=\"10\"}} Das ging schnell.{{pressButton}}\n{{capitalizeLetter}}{{color id=\"6\"}}{{string index=\"0\"}}{{color id=\"0\"}}{{pause frames=\"10\"}} und ich waren\nschon in Sorge um dich.",
      "EUen": "{{resetReaction}}Huh huh huh!{{pause frames=\"10\"}} That was fast.{{pressButton}}\n{{capitalizeLetter}}{{color id=\"6\"}}{{string index=\"0\"}}{{color id=\"0\"}}{{pause frames=\"10\"}} and I were\nworried about you, pal.",
      "EUes": "{{resetReaction}}¡Ja, ja, ja!{{pause frames=\"10\"}} Qué rápido.{{pressButton}}\nNos tenías preocupados a\n{{color id=\"6\"}}{{string index=\"0\"}}{{color id=\"0\"}}{{pause frames=\"10\"}} y a mí.",
      "EUfr": "{{resetReaction}}Oh oh oh!{{pause frames=\"10\"}} C'était rapide.{{pressButton}}\n{{capitalizeLetter}}{{color id=\"6\"}}{{string index=\"0\"}}{{color id=\"0\"}}{{pause frames=\"10\"}} et moi, on se\nfaisait du souci pour toi.",
      "EUit": "{{resetReaction}}Uh uh uh!{{pause frames=\"10\"}} Ci hai messo\npoco.{{pressButton}} Io e {{color id=\"6\"}}{{string index=\"0\"}}{{color id=\"0\"}}{{pause frames=\"10\"}}\nsiamo meravigliati!",
      "JPja": "{{resetReaction}}ウフフ、{{pause frames=\"10\"}}{{kanjiReplace charNum=\"1\" value=\"はや\"}}早かったねぇ{{pressButton}}\n{{color id=\"6\"}}{{string index=\"0\"}}{{color id=\"0\"}}くん、{{pause frames=\"10\"}}\nキミのこと　しんぱいしてたよぉ\n{{pause frames=\"5\"}}・{{pause frames=\"5\"}}・{{pause frames=\"5\"}}・{{pause frames=\"10\"}}あけちゃお、{{pause frames=\"10\"}}{{string value=\"Catchphrase\"}}",
      "KRko": "{{resetReaction}}우후훗～ {{pause frames=\"10\"}}빨리 왔네～{{pressButton}}\n{{color id=\"6\"}}{{string index=\"0\"}}{{color id=\"0\"}}{{fun_0B arg=\"0x0300\"}}{{pause frames=\"10\"}}\n너 많이 걱정하더라\n{{pause frames=\"5\"}}・{{pause frames=\"5\"}}・{{pause frames=\"5\"}}・{{pause frames=\"10\"}}열어봐야지이～\n{{pause frames=\"10\"}}{{string value=\"Catchphrase\"}}～",
      "USen": "{{resetReaction}}Huh huh huh!{{pause frames=\"10\"}} That was fast.{{pressButton}}\n{{capitalizeLetter}}{{color id=\"6\"}}{{string index=\"0\"}}{{color id=\"0\"}}{{pause frames=\"10\"}} and I were\nworried about you, pal."
    }
  },
  {
    "label": "2",
    "attribute": "0x000A0000FF000000",
    "locale": {
      "EUde": "{{resetReaction}}Ist das Geschenk von\n{{color id=\"6\"}}{{string index=\"0\"}}{{color id=\"0\"}}?\n\nIst schon eine Weile her,\nseit ich eins bekommen\nhabe. Was kann es nur sein?\n\n{{pause frames=\"10\"}}{{capitalizeLetter}}{{string value=\"Catchphrase\"}}!",
      "EUen": "{{resetReaction}}Is this present from\n{{color id=\"6\"}}{{string index=\"0\"}}{{color id=\"0\"}}?\n\nIt's been a while since I\ngot one. I wonder what it\ncould be,{{pause frames=\"10\"}} {{string value=\"Catchphrase\"}}?!",
      "EUes": "{{resetReaction}}¿Este regalo es de\n{{color id=\"6\"}}{{string index=\"0\"}}{{color id=\"0\"}}?\n\nHace bastante que no\nrecibo uno. Me pregunto\nqué será,{{pause frames=\"10\"}} {{string value=\"Catchphrase\"}}.",
      "EUfr": "{{resetReaction}}Ce cadeau, c'est\n{{color id=\"6\"}}{{string index=\"0\"}} {{color id=\"0\"}}qui te l'a \ndonné?\nÇa fait longtemps qu'on ne\nm'a rien offert. Qu'y a-t-il\nlà-dedans,{{pause frames=\"10\"}} {{string value=\"Catchphrase\"}}?!",
      "EUit": "{{resetReaction}}Questo è un regalo di\n{{color id=\"6\"}}{{string index=\"0\"}}{{color id=\"0\"}}?\n\nÈ da un po' che non ne\nricevo, chissà che cos'è,\n{{pause frames=\"10\"}}{{string value=\"Catchphrase\"}}?!",
      "JPja": "{{resetReaction}}{{color id=\"6\"}}{{string index=\"0\"}}{{color id=\"0\"}}くんからの\nプレゼント？\n\nひさしぶりだなぁ\nいったい　なんだろぉ～？\n{{pause frames=\"10\"}}{{string value=\"Catchphrase\"}}？",
      "KRko": "{{resetReaction}}{{color id=\"6\"}}{{string index=\"0\"}}{{color id=\"0\"}}{{fun_0B arg=\"0x0300\"}} 주는\n선물？？\n\n오랜만이야～\n이게 뭘까아～？\n{{pause frames=\"10\"}}{{string value=\"Catchphrase\"}}？",
      "USen": "{{resetReaction}}Is this present from\n{{color id=\"6\"}}{{string index=\"0\"}}{{color id=\"0\"}}?\n\nIt's been a while since I\ngot one. I wonder what it\ncould be,{{pause frames=\"10\"}} {{string value=\"Catchphrase\"}}?!"
    }
  }
]