[
  {
    "label": "0",
    "attribute": "",
    "locale": {
      "EUde": "Nutze dies, um dein Leben\nzu, äh, verbessern! Nur\nwenn du willst. Du musst\nnatürlich nicht.",
      "EUen": "Use this to spruce up\nyour, uh, life! I mean,\nonly if you want to. You\ndon't have to or anything.",
      "EUes": "¡Usa esto que te mando\npara darle un toque a tu\nvida! Si quieres, claro.\nQue no es obligatorio.",
      "EUfr": "Utilise ceci pour embellir\nta, euh, ta vie! Enfin, \nseulement si tu le veux.\nCe n'est pas obligatoire.",
      "EUit": "Usa questo regalo per\nmigliorare la tua vita,\nma solo se vuoi. Non\nti posso obbligare.",
      "JPja": "キミの　おへやを\nもっと　ワンダーにするために\nこれ　どうかなぁ？　きっと\nワンダフルって　いいたくなるよ！",
      "KRko": "니 방을 원더풀하게\n만들기 위해 이건 어때？？\n분명히 원더풀！ 하고\n외치게 될꺼야아～！！",
      "USen": "Use this to spruce up\nyour, uh, life! I mean,\nonly if you want to. You\ndon't have to or anything."
    }
  },
  {
    "label": "1",
    "attribute": "",
    "locale": {
      "EUde": "Danke für deine Hilfe!\nIch würde mich freuen,\nwenn du dies zum Dank\nannehmen würdest!",
      "EUen": "Thanks for your help the\nother day! I'd be pleased\nif you would accept this\ntoken of my appreciation!",
      "EUes": "Te mando este humilde\nregalo para agradecerte\nque me ayudaras el otro\ndía. Eres genial, colega.",
      "EUfr": "Merci pour ton aide de\nl'autre jour! Je serai \nheureux que tu acceptes\ncette marque d'estime!",
      "EUit": "Grazie per l'aiuto che mi\nhai dato l'altro giorno.\nQuesto è un pegno della\nmia riconoscenza!",
      "JPja": "こないだは　ありがとねぇ～！\nこれは　あのときの　おれい！\nかざれば　キミもウキウキ、\nボクも　ワクワクだよぉ～！！",
      "KRko": "저번엔 고마웠어～！！\n이건 내 마음의 선물이야！！\n방에 두면 너도 싱글벙글\n나도 싱글벙글～！！",
      "USen": "Thanks for your help the\nother day! I'd be pleased\nif you would accept this\ntoken of my appreciation!"
    }
  },
  {
    "label": "2",
    "attribute": "",
    "locale": {
      "EUde": "Dein Haus scheint feucht\nzu sein. Dieses Geschenk\nist dafür bekannt, dass\nes Räume trocknet.",
      "EUen": "Your room seems damp.\nWhy don't you try putting\nthis in it. I heard it\nhelps dry out rooms.",
      "EUes": "Sé que tienes problemas\nde humedad en casa. ¿Por\nqué no usas esto que te\nmando? ¡Funciona!",
      "EUfr": "Ta maison a l'air humide.\nEssaye d'utiliser ce truc\nchez toi. On dit que ça\naide à chasser l'humidité.",
      "EUit": "La tua stanza sembra\nspenta. Prova a usare\nquesta sciccheria...\ndovrebbe illuminarla.",
      "JPja": "キミの　おへや、なんだか\nしめってたんだよねぇ\nこれでも　おいてみなよぉ～！\nしっけをとる　こうかもあるんだよ",
      "KRko": "니 방이 왠지\n습했던 것 같아～！\n이거라도 방에 둘래？？\n습기 제거 효과도 있거든～",
      "USen": "Your room seems damp.\nWhy don't you try putting\nthis in it. I heard it\nhelps dry out rooms."
    }
  }
]