[
  {
    "label": "0",
    "attribute": "",
    "locale": {
      "EUde": "Am {{string index=\"3\"}}. {{string index=\"2\"}} ist\nmein GEBURTSTAG! Komm\ndoch zu meiner Party!\n(Mit GESCHENK!!!)",
      "EUen": "{{string index=\"2\"}} {{string index=\"3\"}} is, like,\nmy BIRTHDAY! I'm having a \nbig party, so you should\ncome! (With a PRESENT!!)",
      "EUes": "¡El {{string index=\"3\"}} de {{string index=\"2\"}}\nes MI CUMPLE! ¡Celebro una\nfiesta, así que tienes que\nvenir (con regalo, claro)!",
      "EUfr": "Le {{string index=\"3\"}} {{string index=\"2\"}} c'est\nmon ANNIVERSAIRE! On va\nfaire la fête! Alors viens!\n(Avec un cadeau, bien sûr)",
      "EUit": "il giorno {{string index=\"3\"}} di\n{{string index=\"2\"}} è il mio\ncompleanno e faccio\nuna festa, per cui vieni!",
      "JPja": "{{string index=\"2\"}}がつ{{string index=\"3\"}}にちは\nアタイの　たんじょうび！\nうちでパーティーするから\nプレゼントもって　かけつけてね！",
      "KRko": "{{string index=\"2\"}}월 {{string index=\"3\"}}일은\n내 생일이야！\n우리 집에서 파티할 테니까\n선물 들고 놀러 와！",
      "USen": "{{string index=\"2\"}} {{string index=\"3\"}} is, like,\nmy BIRTHDAY! I'm having a \nbig party, so you should\ncome! (With a PRESENT!!)"
    }
  },
  {
    "label": "1",
    "attribute": "",
    "locale": {
      "EUde": "Am {{string index=\"3\"}}. {{string index=\"2\"}} gebe\nich eine Geburtstagsparty!\nOhne dich wäre es lang-\nweilig! Du MUSST kommen!",
      "EUen": "I'm having a BIG birthday\nbash on {{string index=\"2\"}} {{string index=\"3\"}},\nand it won't be a party\nwithout YOU! So come!",
      "EUes": "¡El {{string index=\"3\"}} de {{string index=\"2\"}}\ncelebro una megafiesta\npor mi cumple y quiero\nque vengas! Esto... porfi.",
      "EUfr": "Je vais fêter mon anniv'\ncomme il se doit le\n{{string index=\"3\"}} {{string index=\"2\"}}.\nJe VEUX que TU sois là!",
      "EUit": "il giorno {{string index=\"3\"}} di\n{{string index=\"2\"}}, festeggerò il\ncompleanno, ma se manchi\ntu, che festa sarà? Vieni!",
      "JPja": "{{string index=\"2\"}}がつ{{string index=\"3\"}}にちに　アタイの\nおたんじょうかいするよ！　\nアンタがこなきゃ　とりあえず\nはじまらないし　ゼッタイきてね！",
      "KRko": "{{string index=\"2\"}}월 {{string index=\"3\"}}일\n내 생일 파티에 초대할게！\n네가 올 때까지 시작 안 하고\n기다릴 테니 꼭 와야 해！",
      "USen": "I'm having a BIG birthday\nbash on {{string index=\"2\"}} {{string index=\"3\"}},\nand it won't be a party\nwithout YOU! So come!"
    }
  },
  {
    "label": "2",
    "attribute": "",
    "locale": {
      "EUde": "Meine Geburtstagsfeier ist\nam {{string index=\"3\"}}. {{string index=\"2\"}}.\nEs wäre echt BLÖD, wenn\ndu nicht kommst!",
      "EUen": "My big birthday bash is on\n{{string index=\"2\"}} {{string index=\"3\"}}, and it\nwill totally STINK if you\naren't there. PLEASE come!",
      "EUes": "¡Mi superfiesta de cumple\nes el {{string index=\"3\"}} de {{string index=\"2\"}}\ny no valdrá nada si tú no\nestás! ¡Ven, por favor!",
      "EUfr": "Mon anniversaire aura lieu\nle {{string index=\"3\"}} {{string index=\"2\"}}, \net sans toi ce ne serait\npas pareil! Alors viens!",
      "EUit": "la mia festa di\ncompleanno sarà il giorno\n{{string index=\"3\"}} {{string index=\"2\"}},\nti aspetto!",
      "JPja": "アタイの　バースデーパーティーを{{string index=\"2\"}}がつ{{string index=\"3\"}}にちに　するけど\nアンタなしじゃ　もりあがんない！ホラ、いっしょにフィーバーしよっ",
      "KRko": "내 생일 파티는\n{{string index=\"2\"}}월 {{string index=\"3\"}}일이야！\n네가 안 오면 재미없으니까\n꼭 와서 같이 신나게 놀자！",
      "USen": "My big birthday bash is on\n{{string index=\"2\"}} {{string index=\"3\"}}, and it\nwill totally STINK if you\naren't there. PLEASE come!"
    }
  }
]