[
  {
    "label": "0",
    "attribute": "",
    "locale": {
      "EUde": "Frohes neues Jahr! Du\nweißt, was ich mir\nvornehme... Mehr Training.\nIch werde RIESIG sein!",
      "EUen": "Happy New Year! You know\nwhat I'll be doing...\nPumping iron! I'm gonna\nget HUGE!",
      "EUes": "¡Feliz Año Nuevo! Este año\nquiero... ¡tener aún más\nmúsculos!",
      "EUfr": "Bonne année! Tu sais ce \nque je vais faire...\nDe la muscu! Je vais\ndevenir balèze!",
      "EUit": "Buon anno! Sai che farò?\nEsercizi per le braccia!\nI miei muscoli\ndiventeranno ENORMI!",
      "JPja": "あけまして　オメデトー！！\nおいらはことしも　キンニクツウのせいしんを　つらぬいていくぞ！\nおまえには　まけねー！！",
      "KRko": "새해 복 많이 받아！！\n난 올해도 근육통 정신으로\n밀어붙일 거야！\n특히 너한테만큼은 안 져！！",
      "USen": "Happy New Year! You know\nwhat I'll be doing...\nPumping iron! I'm gonna\nget HUGE!"
    }
  },
  {
    "label": "1",
    "attribute": "",
    "locale": {
      "EUde": "Ich wusste nicht, ob der\nBrief nächstes Jahr noch\nzugestellt wird, also habe\nich ihn selber gebracht!",
      "EUen": "I didn't know if mail would\nstill be delivered in the\nnew year... So I just\ncrammed this in your box!",
      "EUes": "¡Espero que el correo aún\nfuncione el año que viene\ny me puedas responder!",
      "EUfr": "Je ne savais pas si le\ncourrier serait distribué\ncette année... Alors j'ai\ntout mis dans ta boîte!",
      "EUit": "Non ero sicuro che le\nposte funzionassero con\nl'anno nuovo... così la\nlettera l'ho portata io!",
      "JPja": "ねんがじょう　まにあいそうに\nなかったし、マラソンついでに\nちょくせつポストにいれといたぞ！ま、ことしもヨロシクな！",
      "KRko": "연하장을 급하게 보내야 해서\n마라톤하러 나간 김에\n직접 우체통에 넣었어！\n올해도 잘 부탁해！",
      "USen": "I didn't know if mail would\nstill be delivered in the\nnew year... So I just\ncrammed this in your box!"
    }
  },
  {
    "label": "2",
    "attribute": "",
    "locale": {
      "EUde": "Frohes neues Jahr!\nWenn wir uns wiedersehen,\nwirst du ganz neidisch auf\nmeinen Bizeps sein!",
      "EUen": "Happy New Year to you!\nNext time we meet, my\nmighty pecs will do all\nthe talking!",
      "EUes": "¡Que seas muy feliz en\neste año que entra!\n¡Y que pierdas peso!",
      "EUfr": "Bonne année à toi!\nLa prochaine fois qu'on se\nverra mes pecs\nparleront pour moi!",
      "EUit": "Buon anno! La prossima\nvolta che ci vediamo\nsaranno i miei pettorali\na parlare per me!",
      "JPja": "あけまして　おめでとうさん！\nきょねんは　おまえとは　いろいろあったよな！　ことしも\nこぶしで　かたりあおうぜ！",
      "KRko": "새해 복 많이 받아라！\n작년에는 많은 일이 있었지！\n올해도 주먹 불끈 쥐고\n많은 얘기를 나눠 보자！",
      "USen": "Happy New Year to you!\nNext time we meet, my\nmighty pecs will do all\nthe talking!"
    }
  }
]