[
  {
    "label": "00",
    "attribute": "",
    "locale": {
      "EUde": "Tja, der Frühling: Vom\nWind sehen meine Haare\njetzt aus, als wäre ich\nein Löwe.",
      "EUen": "The first sign of spring:\nAfter I did my hair, the\nwind got to it. Your dad\nsaid I looked like a lion.",
      "EUes": "Se nota que es primavera.\nVoy a la pelu, el viento\nme despeina y tu padre\ndice que parezco un león.",
      "EUfr": "1er signe du printemps:\nle vent m'a décoiffée.\nTon père m'a dit que je\nressemblais à un lion...",
      "EUit": "I primi segni della prima-\nvera. Dopo essermi fatta\ni capelli, è arrivato il\nvento. Sembravo un leone.",
      "JPja": "はるいちばん\nセットもむなしく\nみだれがみ\nライオンみたいと　とうさんがいう",
      "KRko": "봄단장 한답시고\n나름 세팅 파마\n너네 아빠는 \n사자 같단다",
      "USen": "The first sign of spring:\nAfter I did my hair, the\nwind got to it. Your dad\nsaid I looked like a lion."
    }
  },
  {
    "label": "01",
    "attribute": "",
    "locale": {
      "EUde": "Emma und ich haben Tennis\ngespielt. Dabei habe ich\nsie versehentlich am\nKopf getroffen. Ups.",
      "EUen": "It's the start of softball\nseason! I accidentally hit\nAgnes with the ball when I\nwas pitching. Oops.",
      "EUes": "¡Ha empezado la temporada\nde fútbol! Ayer le di un\nbalonazo a Agnes, que\nestaba de defensa.",
      "EUfr": "La saison d'athlétisme\nvient de commencer!\nJ'ai blessé Agnès avec\nmon javelot. Oups.",
      "EUit": "È ricominciato il corso di\nballo! Per sbaglio ho\nschiacciato un piede\na Matilda. Oops.",
      "JPja": "まっさかり\nそつぎょうシーズン\nかあさんも\nセーラーふくを　ふとなつかしむ",
      "KRko": "또다시\n입학 시즌이 돌아왔어\n엄마도\n교복이 그리워",
      "USen": "It's the start of softball\nseason! I accidentally hit\nAgnes with the ball when I\nwas pitching. Oops."
    }
  },
  {
    "label": "02",
    "attribute": "",
    "locale": {
      "EUde": "Die Wärme der\nMittagssonne lockt.\nZeit für ein Nickerchen!",
      "EUen": "The warmth of the noon\nsun beckons me. Napping\nseason is finally here!",
      "EUes": "El sol de mediodía ya\nempieza a calentar. ¡Ha\nempezado la temporada\nde la siesta!",
      "EUfr": "Ah la douce chaleur du\nsoleil de midi... La saison\nde la sieste est enfin là!",
      "EUit": "Il sole di mezzogiorno\nmi riscalda. È tornata la\nstagione dei sonnellini!",
      "JPja": "ポカポカと\nはるのようきに\nさそわれて\nやってきました　ひるねのきせつ",
      "KRko": "따뜻한\n봄 햇살의 유혹\n올해도 왔구나\n낮잠의 계절이",
      "USen": "The warmth of the noon\nsun beckons me. Napping\nseason is finally here!"
    }
  },
  {
    "label": "03",
    "attribute": "",
    "locale": {
      "EUde": "Ein Schmetterling ist\nhereingeflogen. Jetzt darf\nich das Fenster nicht\nmehr schließen.",
      "EUen": "A tiger butterfly has\ndecided to pay me a\nvisit, and now I can't\nshut the window.",
      "EUes": "Una mariposa tigre ha\nentrado a hacerme una\nvisita y ahora no puedo\ncerrar la ventana.",
      "EUfr": "Un papillon tigre a décidé\nde me rendre visite. Et\nmaintenant je ne peux\nplus fermer ma fenêtre!",
      "EUit": "Una farfalla ha deciso\ndi farmi una visita e\nora non posso chiudere\nla finestra.",
      "JPja": "ここはどこ？\nまよいこんできた\nアゲハチョウ\nおかげでまどが　しめられなくて",
      "KRko": "여기는 어디지？\n길 잃은 호랑나비\n나도 모르게\n창문을 열게 된단다",
      "USen": "A tiger butterfly has\ndecided to pay me a\nvisit, and now I can't\nshut the window."
    }
  },
  {
    "label": "04",
    "attribute": "",
    "locale": {
      "EUde": "Die warme Maisonne und\ndie sanfte Brise schreien\nja geradezu nach\neinem Picknick.",
      "EUen": "The warm May sun\nand gentle breeze make\nme want to dust off the\npicnic basket.",
      "EUes": "Este sol de mayo y esta\nbrisa suave me han hecho\nsacar la cesta de picnic.\n¡Voy a quitarle el polvo!",
      "EUfr": "Le doux soleil de mai et\nla brise légère m'ont \ndonné envie d'organiser\nun pique-nique!",
      "EUit": "Il sole di maggio e la \nbrezza gentile mi fanno\nvenire voglia di un bel\npicnic.",
      "JPja": "さつきばれ\nやさしいかぜに\nつつまれて\nまたいきたいわね　ピクニック",
      "KRko": "５월 하늘\n포근한 바람과 함께\n다시 가 보자\n봄 소풍",
      "USen": "The warm May sun\nand gentle breeze make\nme want to dust off the\npicnic basket."
    }
  },
  {
    "label": "05",
    "attribute": "",
    "locale": {
      "EUde": "Ich liebe die Farbe dieses\nHemdes.\nDu hoffentlich auch.",
      "EUen": "I love the color of this\nshirt. I hope you like it,\ntoo!",
      "EUes": "Encontré una ganga el\notro día y me gustó el\ncolor. ¡Espero que a ti\ntambién te guste!",
      "EUfr": "J'adore la couleur de ce \nT-shirt. J'espère que toi\naussi!",
      "EUit": "Adoro il colore di questo\ncapo. Spero che piaccia\nanche a te!",
      "JPja": "このふくは\nかあさんとっても\nすきないろ\nあなたもスキだと　よいのだけれど",
      "KRko": "이 옷은\n엄마가 정말로\n좋아하는 색\n너도 좋아했으면 좋겠다",
      "USen": "I love the color of this\nshirt. I hope you like it,\ntoo!"
    }
  },
  {
    "label": "06",
    "attribute": "",
    "locale": {
      "EUde": "Als es neulich regnete,\nhat dein Vater mir den\nSchirm gehalten, obwohl er\nselber nass wurde. Süß.",
      "EUen": "I met your dad at the bus\nstop with an umbrella of\nlove! It was raining, you\nsee.",
      "EUes": "Hoy he ido a buscar a tu\npadre al autobús con un\nparaguas de amor... Lo\ndigo porque llovía.",
      "EUfr": "J'ai rencontré ton père\nà l'arrêt de bus. Il avait\nun parapluie cœur! Il\npleuvait, tu vois.",
      "EUit": "Ho incontrato tuo padre\nalla fermata del bus e mi\nsono avvicinata. Aveva un\nombrello a cuori!",
      "JPja": "あめのなか\nとうさんむかえに\nいきました\nまっかなパラソル　あいあいガサ",
      "KRko": "빗속을 뚫고\n아빠를 마중하러 나갔어\n아빠랑 빨간 우산을\n함께 썼단다",
      "USen": "I met your dad at the bus\nstop with an umbrella of\nlove! It was raining, you\nsee."
    }
  },
  {
    "label": "07",
    "attribute": "",
    "locale": {
      "EUde": "Ich genoss das Geräusch\ndes Regens. Bis ich daran\ndachte, dass das Auto-\nverdeck noch offen war.",
      "EUen": "I was enjoying the sound\nof the rain... Then I\nremembered that I left\nthe car's sunroof open.",
      "EUes": "Estaba disfrutando de la\nlluvia... Hasta que recordé\nque había dejado el techo\nsolar del coche abierto.",
      "EUfr": "J'écoutais la pluie, quand\nje me suis souvenue\nque j'avais laissé la\nfenêtre ouverte.",
      "EUit": "Stavo ascoltando il suono\ndella pioggia... Poi mi\nsono ricordata del\nbucato steso fuori.",
      "JPja": "あまおとが\nしずかにひびく\nあらイヤだ\nせんたくものが　ほしっぱなしよ",
      "KRko": "비 오는 소리가\n나지막히 들렸어\n어머！ 어떡해\n빨래를 안 걷었네",
      "USen": "I was enjoying the sound\nof the rain... Then I\nremembered that I left\nthe car's sunroof open."
    }
  },
  {
    "label": "08",
    "attribute": "",
    "locale": {
      "EUde": "Es ist so laut, dass ich\nnicht schlafen kann. Nein,\nnicht dein schnarchender\nVater. Die Klimaanlage.",
      "EUen": "It's so loud I can't sleep!\nI'm not talking about your\ndad's snoring. I'm talking\nabout the air conditioner!",
      "EUes": "¡Hace tanto ruido que no\nme deja dormir! ¡No hablo\nde los ronquidos de tu\npadre, sino del ventilador!",
      "EUfr": "Le bruit est si fort que\nje ne dors plus! Ce n'est\npas les ronflements de\nton père mais la clim!",
      "EUit": "C'è così tanto rumore!\nNon parlo del russare di\ntuo padre. Mi riferisco al\ncondizionatore!",
      "JPja": "まったくもう\nねむれないでしょ　うるさくて\nむしのこえじゃなく\nクーラーのおと",
      "KRko": "나 참！ 시끄러워서\n잠이 안 오잖아\n벌레 울음소리 말고\n에어컨 소리 말이야",
      "USen": "It's so loud I can't sleep!\nI'm not talking about your\ndad's snoring. I'm talking\nabout the air conditioner!"
    }
  },
  {
    "label": "09",
    "attribute": "",
    "locale": {
      "EUde": "Aus dem Sonnenblumenkern,\nden ich eingepflanzt habe,\nist eine wunderschöne\nSonnenblume geworden.",
      "EUen": "A tiny sunflower seed\nfound its way into my\ngarden and blossomed into\na magnificent yellow orb!",
      "EUes": "Una semillita de girasol\nllegó hasta mi jardín ¡y\nse ha convertido en un\nmagnífico orbe amarillo!",
      "EUfr": "Une graine de tournesol a\natterri dans mon jardin\net est devenue une plante\nmagnifique!",
      "EUit": "Un seme di girasole è\narrivato chissà come in\ngiardino ed è diventato\nuna magnifica pianta!",
      "JPja": "ひまわりの\nちいさなタネが\nいつのまに\nおおきなハナを　さかせております",
      "KRko": "해바라기의\n작은 씨앗이\n어느새\n커다란 꽃을 피웠습니다",
      "USen": "A tiny sunflower seed\nfound its way into my\ngarden and blossomed into\na magnificent yellow orb!"
    }
  },
  {
    "label": "10",
    "attribute": "",
    "locale": {
      "EUde": "Heute habe ich mir einen\nBadeanzug gekauft. Dieses\nJahr gehe ich ins Freibad.\nBestimmt!",
      "EUen": "I went out today and just\ndid it. I bought a bathing\nsuit! This summer is all\nabout me and my bikini!",
      "EUes": "Hoy por fin he reunido el\nvalor para hacerlo: ¡me he\ncomprado un biquini! ¡Este\naño voy a arrasar!",
      "EUfr": "Je suis sortie aujourd'hui\net je l'ai fait. J'ai enfin\nacheté ce maillot de bain!\nVivement la plage!",
      "EUit": "Oggi sono uscita e l'ho\nfatto. Ho comprato un\ncostume! Quest'estate\nil bikini tornerà di moda!",
      "JPja": "はりきって\nあたらしいみずぎ\nかってきた\nぼうけんのなつ　ビキニのなつ",
      "KRko": "큰맘 먹고\n새로운 수영복을\n사 버렸단다\n모험의 여름， 비키니의 여름",
      "USen": "I went out today and just\ndid it. I bought a bathing\nsuit! This summer is all\nabout me and my bikini!"
    }
  },
  {
    "label": "11",
    "attribute": "",
    "locale": {
      "EUde": "Der Sommer ist heftig.\nSonst friere ich ja oft,\naber heute ist mir\nrichtig heiß.",
      "EUen": "The summer sun is so\nunforgiving. I'm usually\nnever warm enough, but\nI'm plenty warm today!",
      "EUes": "El sol de verano es\nimplacable. Y mira que\nsoy friolera, ¡pero hoy\ntengo un calor...!",
      "EUfr": "Le soleil d'été, c'est \ndangereux. D'habitude je\nfais pas trop attention,\nmais là j'aurais dû!",
      "EUit": "Il sole estivo è così\nimplacabile. Di solito ho\nsempre un po' freddo,\nma non oggi!",
      "JPja": "ジリジリと\nなつのひざしは\nねつしせん\nおハダがきになる　きょうこのごろ",
      "KRko": "이글이글 여름 햇살은\n피부의 적\n요즘 부쩍\n내 피부가 신경 쓰여",
      "USen": "The summer sun is so\nunforgiving. I'm usually\nnever warm enough, but\nI'm plenty warm today!"
    }
  },
  {
    "label": "12",
    "attribute": "",
    "locale": {
      "EUde": "Ich habe mir heute ein\nEis gekauft. Aber als ich\nmit den Zähnen drankam...\nSCHMERZ! Aua.",
      "EUen": "I was enjoying a snow\ncone today...until that\nfateful bite. BRAINFREEZE!\nNow I have a headache.",
      "EUes": "Hoy me he comprado un\nhelado riquísimo. ¡Pero me\nlo he comido tan rápido\nque me duele la cabeza!",
      "EUfr": "Je dégustais une glace...\nJusqu'à cette bouchée où\nmon cerveau a gelé.\nDepuis, j'ai la migraine.",
      "EUit": "Stavo gustandomi un\ngelato, ma ne ho mangiato\ntroppo. CHE FREDDO!\nOra ho il mal di testa.",
      "JPja": "かきごおり\nつめたいしょうげき\nあたまにキーン！\nぜんぶたべたら　なんだかずつうが",
      "KRko": "팥빙수는\n차가운 충격！\n머리가 띵～\n급하게 먹었더니 왠지 두통이…",
      "USen": "I was enjoying a snow\ncone today...until that\nfateful bite. BRAINFREEZE!\nNow I have a headache."
    }
  },
  {
    "label": "13",
    "attribute": "",
    "locale": {
      "EUde": "Weißt du noch? Wenn du\nfrüher nicht einschlafen\nkonntest, hast du immer\nschrecklich geweint.",
      "EUen": "Do you remember when\nyou couldn't sleep when\nyou were little? You would\ncry helplessly all night.",
      "EUes": "¿Te acuerdas de tooodo lo\nque llorabas cuando eras\nun bebé? No dejabas\ndormir a los vecinos.",
      "EUfr": "Tu te souviens enfant\nquand tu n'arrivais pas à\ndormir? Tu criais toute la\nnuit désespérément.",
      "EUit": "Ti ricordi quando non\nriuscivi a dormire la \nnotte? Poi crollavi\nfra le mie braccia.",
      "JPja": "あのころは\nたいへんだったわ　おぼえてる？\nよなきむずかりかんのむし\nで、ねむれなかった　あなた",
      "KRko": "그때 그 시절 생각나니？\n시끄럽게 울어대던 \n벌레 탓에\n잠을 못 자던 그때 말이야",
      "USen": "Do you remember when\nyou couldn't sleep when\nyou were little? You would\ncry helplessly all night."
    }
  },
  {
    "label": "14",
    "attribute": "",
    "locale": {
      "EUde": "Ich höre ein Windspiel von\nweit weg, bin ganz\nalleine... Genau richtig\nfür ein Nickerchen.",
      "EUen": "I hear a wind chime off\nin the distance. I'm all\nalone. What a perfect\nafternoon for a nap.",
      "EUes": "Oigo un carillón agitado\npor el viento. Estoy sola.\nEs una tarde perfecta\npara una siesta.",
      "EUfr": "J'entends le vent dans les\nbranches. Je suis seule.\nQuel après-midi parfait\npour un petit somme.",
      "EUit": "Sento il vento che soffia\nlontano. Sono sola.\nChe pomeriggio perfetto\nper un pisolino.",
      "JPja": "ふうりんの\nおとがとおくで\nひびいてる\nだあれもいない　おひるねびより",
      "KRko": "저 멀리서 들려오는\n풍경 소리\n아무도 없는\n완벽한 낮잠 시간",
      "USen": "I hear a wind chime off\nin the distance. I'm all\nalone. What a perfect\nafternoon for a nap."
    }
  },
  {
    "label": "15",
    "attribute": "",
    "locale": {
      "EUde": "Weißt du noch, wie ich\nmich über den Badeanzug\ngefreut habe? Ich hatte\nihn kein einziges Mal an.",
      "EUen": "Remember how excited I\nwas about that bathing\nsuit? Well, I never wore\nit. Not even once.",
      "EUes": "¿Recuerdas lo contenta\nque estaba con mi nuevo\nbiquini? Pues no me lo he\npuesto ni una sola vez.",
      "EUfr": "Tu te souviens du maillot\nde bain dont je t'avais \nparlé? Eh bien, je ne l'ai\njamais porté. C'est fou!",
      "EUit": "Ti ricordi quanto ero\ncontenta per quel\ncostume? Beh, non\nl'ho mai usato.",
      "JPja": "だいたんな\nみずぎをかったは\nよいけれど\nけっきょくいちども　きれずじまい",
      "KRko": "대담한 수영복\n산 것까진 좋았는데\n결국 한 번도 못 입은\n슬픈 수영복",
      "USen": "Remember how excited I\nwas about that bathing\nsuit? Well, I never wore\nit. Not even once."
    }
  },
  {
    "label": "16",
    "attribute": "",
    "locale": {
      "EUde": "Gestern war ein Konzert:\nFrösche sangen, Insekten\nam Schlagzeug und dein\nVater schnarchte im Bass.",
      "EUen": "There's a jam session\ntonight with frogs and\nyour snoring dad on bass,\nand bugs on percussion.",
      "EUes": "Esta noche tenemos jam\nsession: los grillos y las\nranas acompañando los\nronquidos de tu padre.",
      "EUfr": "Il y a un concert ce soir\navec des grenouilles \net les ronflements de ton\npère en guise de basse.",
      "EUit": "Stanotte c'è un concerto\ncon le rane, tuo padre\nche russa al basso e gli\ninsetti alla batteria.",
      "JPja": "ジャムセッション\nカエルのこえに\nむしのこえ\nだれかのいびきが　かさなりあう",
      "KRko": "즉흥 연주 시～작！\n개구리 울음소리\n벌레 울음소리\n누군가의 코 고는 소리",
      "USen": "There's a jam session\ntonight with frogs and\nyour snoring dad on bass,\nand bugs on percussion."
    }
  },
  {
    "label": "17",
    "attribute": "",
    "locale": {
      "EUde": "Wenn ich nachts zum\nHimmel schaue, erinnere\nich mich, wie sehr du\ndas Feuerwerk mochtest.",
      "EUen": "Our night-blooming cereus\nflowers in the warm\nsummer night, like an\nexplosion of fireworks!",
      "EUes": "Adoro la dama de noche\ncuando se abre... ¡es como\nuna explosión de color!\n¡Como fuegos artificiales!",
      "EUfr": "Nos fleurs qui éclosent\ndans la douceur de la nuit\nsont comme autant de\nfeux d'artifice!",
      "EUit": "Il nostro cereus fiorisce\nnelle calde notti d'estate,\ncome un'esplosione di\nfuochi d'artificio!",
      "JPja": "Ｆｉｒｅ　Ｆｌｏｗｅｒ\nなつのよぞらに\nさくおはな\nかあさんすきなの　うちあげはなび",
      "KRko": "Ｆｉｒｅ　Ｆｌｏｗｅｒ\n여름밤에 피는 꽃\n엄마가 좋아하는\n불꽃놀이",
      "USen": "Our night-blooming cereus\nflowers in the warm\nsummer night, like an\nexplosion of fireworks!"
    }
  },
  {
    "label": "18",
    "attribute": "",
    "locale": {
      "EUde": "Der Sturm hat meinen\nRegenschirm ruiniert. Je\nmehr ich kämpfte, um so\nnasser wurde ich.",
      "EUen": "The storm pummeled my\numbrella. The more I tried\nto fight it, the wetter I\ngot.",
      "EUes": "La tormenta de ayer me\nrompió el paraguas. ¡Y\nmira que peleé, pero solo\nconseguí mojarme más!",
      "EUfr": "Le vent a retourné mon\nparapluie. Plus j'essayais\nde le redresser, plus \nj'étais mouillée.",
      "EUit": "La tempesta ha catturato\nil mio ombrello. Più\ncercavo di lottare,\npiù mi bagnavo.",
      "JPja": "たいふうに\nカサをとばされ\nないように\nすればするほど　ふくはズブぬれ",
      "KRko": "태풍에\n우산이 날아가지 않도록\n노력하면 할수록\n쫄딱 젖는 옷",
      "USen": "The storm pummeled my\numbrella. The more I tried\nto fight it, the wetter I\ngot."
    }
  },
  {
    "label": "19",
    "attribute": "",
    "locale": {
      "EUde": "Neulich habe ich ein\nLagerfeuer gerochen.\nDer Herbst kommt.",
      "EUen": "The other day I smelled\nsmoke from a neighbor's\nfireplace. Time to get out\nthe sweaters. Fall's here.",
      "EUes": "Ayer el vecino encendió la\nchimenea. Es hora de\nsacar la ropa de abrigo.\nHa llegado el otoño.",
      "EUfr": "L'autre jour, le voisin a\nbrûlé des feuilles mortes.\nIl est temps de sortir les\npulls. C'est l'automne.",
      "EUit": "L'altro giorno è uscito\ndel fumo dal camino del\nvicino. È ora di tirare\nfuori i maglioni.",
      "JPja": "きのうから\nかおりはじめた　キンモクセイ\nながそで　ださなきゃ\nいまはもう　あき",
      "KRko": "어제부터 \n새로운 향기가 폴～폴～\n긴팔 옷을 꺼내야겠어\n벌써 계절은 가을이거든",
      "USen": "The other day I smelled\nsmoke from a neighbor's\nfireplace. Time to get out\nthe sweaters. Fall's here."
    }
  },
  {
    "label": "20",
    "attribute": "",
    "locale": {
      "EUde": "Der Sommer ist vorbei,\nes wird kühler. Ich bin\nauf nassen Blättern\nausgerutscht. Pech.",
      "EUen": "Summer is over and it's\ngetting chilly. I slipped\non some wet leaves today.\nIt was unfortunate.",
      "EUes": "Se ha acabado el verano.\nEmpieza a hacer frío. Hoy\nhe resbalado sobre unas\nhojas mojadas.",
      "EUfr": "L'été est fini et le froid\narrive. Aujourd'hui, j'ai\nglissé sur des feuilles\nhumides. Pas de chance!",
      "EUit": "L'estate è finita e inizia\na fare freddo. Oggi sono\nscivolata su alcune foglie\nbagnate. Che sfortuna.",
      "JPja": "なつすぎて\nだいぶすずしく\nなりました\nくちずさむのは　どんぐりのうた",
      "KRko": "여름이 너무 무르익은 탓인지\n날이 많이 선선해졌어\n나도 모르게 흥얼거리게 되는\n도토리의 노래",
      "USen": "Summer is over and it's\ngetting chilly. I slipped\non some wet leaves today.\nIt was unfortunate."
    }
  },
  {
    "label": "21",
    "attribute": "",
    "locale": {
      "EUde": "Ich habe diesen Edelstein\ngefunden und musste an\ndich denken. Einen schönen\nHerbst und alles Liebe.",
      "EUen": "I found this fall-themed\ngem and thought of you.\nHappy fall! Don't forget\nto bundle up!",
      "EUes": "Te he comprado una joya\nde otoño que me hizo\npensar en ti. ¡Feliz otoño,\ncariño! ¡Abrígate bien!",
      "EUfr": "J'ai trouvé ce joyau\nd'automne et j'ai pensé à\ntoi. Vive l'automne! Pense\nà ramasser les feuilles!",
      "EUit": "Ho trovato questa gemma\nautunnale e ti ho pensato.\nBuon autunno! Ricordati\ndi coprirti!",
      "JPja": "ひろいたて\nあきの　ジュエリー\nとどけます",
      "KRko": "지금 막 주웠어\n가을의 보석을\n너에게 줄게",
      "USen": "I found this fall-themed\ngem and thought of you.\nHappy fall! Don't forget\nto bundle up!"
    }
  },
  {
    "label": "22",
    "attribute": "",
    "locale": {
      "EUde": "Kürbisse und Äpfel sind\ngut, aber mein Lieblings-\nessen ist immer noch\nfrischer Lachs!",
      "EUen": "Pumpkins and apples are\ngood, but my favorite\nsigns of fall are fresh\nsteelhead and salmon!",
      "EUes": "Las castañas me gustan,\npero lo que más me gusta\ndel otoño es que se puede\ncomer salmón ahumado.",
      "EUfr": "J'aime les potirons et les\npommes, mais en automne\nce que je préfère c'est \nla truite et le saumon!",
      "EUit": "Le zucche e le mele sono\nbuone, ma il mio segno\nfavorito dell'autunno sono\ni salmoni!",
      "JPja": "あきとうらい\nナスもいいけど\nさかなもね\nいまがしゅんなの　サンマがうまい",
      "KRko": "가을이 왔어！\n가지도 좋지만\n생선도 좋아\n특히 지금은 꽁치가 딱이야",
      "USen": "Pumpkins and apples are\ngood, but my favorite\nsigns of fall are fresh\nsteelhead and salmon!"
    }
  },
  {
    "label": "23",
    "attribute": "",
    "locale": {
      "EUde": "Feurige Farben beginnen\nihren jährlichen Streifzug,\nbegleitet von stürmischen\nWinden.",
      "EUen": "Fiery colors begin their\nyearly conquest of the\nhills, propelled by the\nautumn winds.",
      "EUes": "Las llamaradas del otoño\ncomienzan su conquista\ndel monte, impulsadas\npor los vientos otoñales.",
      "EUfr": "Portées par le vent,\nles couleurs ardentes de\nl'automne prennent\npossession des collines.",
      "EUit": "I colori accesi iniziano la\nloro conquista delle\ncolline, spinti dai\nventi autunnali.",
      "JPja": "しきさいの\nじゅもん　ささやく\nあきかぜが\nことしもきぎを　そめていきます",
      "KRko": "가을색 주문을 외우는\n가을바람이\n올해도 어김없이\n나무들을 물들이는구나",
      "USen": "Fiery colors begin their\nyearly conquest of the\nhills, propelled by the\nautumn winds."
    }
  },
  {
    "label": "24",
    "attribute": "",
    "locale": {
      "EUde": "Ich weiß noch, wie du mit\ndeinem Vater am\nLagerfeuer heißen Kakao\ngetrunken hast.",
      "EUen": "I remember drinking hot\ncocoa with you and your\ndad by the fireplace\naround the holidays.",
      "EUes": "Recuerdo que tu padre, tú\ny yo bebíamos chocolate\ncaliente en la cocina en\népoca de vacaciones.",
      "EUfr": "Je me rappelle le chocolat\nchaud que nous buvions\ntous les trois autour de\nla cheminée en vacances.",
      "EUit": "Ricordo che bevevo\ncioccolata calda mentre\ntu e tuo padre giocavate\nvicino al camino.",
      "JPja": "としのせは\nこたつでリンゴ\nとうさんと\nあなたにしあわせ　おすそわけ",
      "KRko": "연말에는 역시\n온돌방이랑 사과야！\n이 행복을 너와\n너네 아빠에게도 나눠줄게",
      "USen": "I remember drinking hot\ncocoa with you and your\ndad by the fireplace\naround the holidays."
    }
  },
  {
    "label": "25",
    "attribute": "",
    "locale": {
      "EUde": "Ich habe dein Hemd beim\nAufräumen gefunden. Ich\nwollte es anziehen,\naber es war zu klein.",
      "EUen": "I found your shirt while I\nwas getting some winter\nstuff out. I tried it on,\nbut couldn't breathe.",
      "EUes": "Encontré esto mientras\nsacaba la ropa de\ninvierno. Me lo probé,\npero no podía respirar.",
      "EUfr": "J'ai trouvé ta chemise\nen rangeant des affaires.\nJe l'ai essayée, mais je \nne pouvais pas respirer.",
      "EUit": "Ho trovato questo vestito\nmentre tiravo fuori i\ncapi invernali. L'ho\nprovato, ma non mi stava.",
      "JPja": "ころもがえ\nあなたの　ふくが\nでてきたの\nふざけてきてみた　いきができない",
      "KRko": "옷장에서 옷을 꺼냈어\n니 옷이 나오더구나\n장난끼가 발동해서 입어 봤어\n그랬더니 숨을 못 쉬겠어",
      "USen": "I found your shirt while I\nwas getting some winter\nstuff out. I tried it on,\nbut couldn't breathe."
    }
  },
  {
    "label": "26",
    "attribute": "",
    "locale": {
      "EUde": "Was gibt es Schöneres,\nals einen kalten\nWintermorgen zu\nverschlafen?",
      "EUen": "Is there anything better\nthan sleeping in on a cold\nwinter morning? I don't\nthink so.",
      "EUes": "¿Hay algo mejor que\nquedarse en la cama\nen una fría mañana de\ninvierno? Lo dudo.",
      "EUfr": "Qu'y a-t-il de mieux que\nde dormir par un froid\nmatin d'hiver? Je ne sais\npas.",
      "EUit": "Che c'è di meglio che\nstare sotto le coperte\nin un freddo mattino\nd'inverno? Niente, penso.",
      "JPja": "ふゆのあさ\nにどねの　おふとん\nキモチイイこと",
      "KRko": "내가 제일 좋아하는 건\n한 번 깼다가\n다시 자는 잠이랑 이불",
      "USen": "Is there anything better\nthan sleeping in on a cold\nwinter morning? I don't\nthink so."
    }
  },
  {
    "label": "27",
    "attribute": "",
    "locale": {
      "EUde": "Es ist so kalt draußen,\nman mag gar nicht\nrausgehen. Heute gibt es\nwieder nur Reste.",
      "EUen": "It's so cold outside that\nit's hard to go out...\nI guess we'll be having\nleftovers again today.",
      "EUes": "Hace tanto frío fuera que\ncuesta salir... Creo que\nhoy también comeremos\nsobras.",
      "EUfr": "Il fait si froid dehors\nqu'on a du mal à sortir...\nIl va falloir manger\nles restes.",
      "EUit": "Fa così freddo fuori che\nè difficile uscire...\nMi sa che mi toccherà di\nnuovo mangiare avanzi.",
      "JPja": "せんたくもの\nほすのがツライ　このさむさ\nしょうがないわね\nきょうもへやぼし",
      "KRko": "빨래 널기도 힘든 추위\n어쩔 수 없다\n오늘도 방 안에서 말려야지",
      "USen": "It's so cold outside that\nit's hard to go out...\nI guess we'll be having\nleftovers again today."
    }
  },
  {
    "label": "28",
    "attribute": "",
    "locale": {
      "EUde": "Ich nenne deinen Vater\nBettschnecke. Sobald er\ndrin ist, kriegt man ihn\nkaum wieder raus.",
      "EUen": "I call your dad the bed\nsnail. As soon as he gets\nin, it's almost impossible\nto get him out.",
      "EUes": "A tu padre le cuesta\nhorrores salir de la cama.\nPor eso he empezado a\nllamarle \"lapa\".",
      "EUfr": "J'ai surnommé ton père\nla grosse marmotte. Une\nfois couché, impossible\nde le faire sortir du lit.",
      "EUit": "Tuo padre è una lumaca da\nletto. Una volta sotto le\ncoperte, è impossibile\nfarlo uscire.",
      "JPja": "コタツムリ\nわたしをそうよぶ\nとうさんも\nコタツにはいると　もうでられない",
      "KRko": "이불달팽이\n나를 이렇게 부르는\n너네 아빠도\n이불에서 나오질 않는구나",
      "USen": "I call your dad the bed\nsnail. As soon as he gets\nin, it's almost impossible\nto get him out."
    }
  },
  {
    "label": "29",
    "attribute": "",
    "locale": {
      "EUde": "Ich habe eines meiner\nHemden zu heiß gewaschen.\nJetzt trägt es dein\nalter Teddybär.",
      "EUen": "I accidentally put one of\nmy sweaters in the dryer\nand it shrunk. Now your\nold teddy bear wears it.",
      "EUes": "El otro día metí uno de\nmis jerséis en la\nsecadora. Encogió y\nse lo regalé a tu osito.",
      "EUfr": "J'ai mis un de mes pulls\ndans le sèche-linge. C'est\nton ours en peluche\nqui le porte maintenant.",
      "EUit": "Per sbaglio ho lavato un\nmio maglione in lavatrice,\nora è così piccolo che lo\nindossa il tuo orsetto.",
      "JPja": "セーターを\nつい　かんそうきに　いれちゃったすっかり　ちぢんで\nぬいぐるみのふく",
      "KRko": "나도 모르게 스웨터를\n건조기에 넣어 버렸어\n쪼글쪼글 줄어들어서\n인형 옷이 됐지 뭐야",
      "USen": "I accidentally put one of\nmy sweaters in the dryer\nand it shrunk. Now your\nold teddy bear wears it."
    }
  }
]