[
  {
    "label": "00",
    "attribute": "",
    "locale": {
      "EUde": "{{gender m=\"Dieser\" f=\"Diese\" n=\"Dieses\"}} {{ignoreArticle}}{{string index=\"1\"}} \nkühlt das Essen im Nu ab!\nVielen Dank nochmal, dass\ndu mich gemacht hast!",
      "EUen": "This {{ignoreArticle}}{{string index=\"1\"}} \nwill cool off food in no\ntime! Thanks again for\nmaking me!",
      "EUes": "¡Esta {{ignoreArticle}}{{string index=\"1\"}}\nte enfría la comida en\nuna nevada! ¡Gracias de\nnuevo por crearme!",
      "EUfr": "{{string index=\"1\"}}  permet\nde garder la nourriture\nau frais! Merci encore\nde m'avoir fait!",
      "EUit": "Quest{{gender m=\"o\" f=\"a\" n=\"\"}} {{ignoreArticle}}{{string index=\"1\"}} \nraffredda i cibi in un\nattimo! Grazie per\navermi creato!",
      "JPja": "どんなものでも　すぐひやす\n{{string index=\"1\"}}を\nあげるダス！　オラをかっこよく\nつくってくれた　おれいズラ！",
      "KRko": "뭐든지 금방 식혀 버리는\n{{string index=\"1\"}}{{fun_0B arg=\"0x0200\"}}\n받아 주실랑가！ 절 멋지게\n만들어 주신 보답이어라",
      "USen": "This {{string index=\"1\"}} \nwill cool off food in no\ntime! Thanks again for\nmaking me!"
    }
  },
  {
    "label": "01",
    "attribute": "",
    "locale": {
      "EUde": "{{gender m=\"Dieser\" f=\"Diese\" n=\"Dieses\"}} {{ignoreArticle}}{{string index=\"1\"}} \nkühlt selbst die heißesten\nSpeisen. Besonders geeig-\nnet für scharfes Essen!",
      "EUen": "This {{ignoreArticle}}{{string index=\"1\"}} \nwill cool down even the\nhottest dishes. It's great\nfor spicy food!",
      "EUes": "Esta {{ignoreArticle}}{{string index=\"1\"}}\nes genial para enfriar la\ncomida. ¡Es ideal para los\nplatos picantes!",
      "EUfr": "Cette {{ignoreArticle}}{{string index=\"1\"}} \nrefroidira les plats les\nplus chauds. Idéal pour \ntout ce qui est épicé!",
      "EUit": "Il {{ignoreArticle}}{{string index=\"1\"}} \nraffredda anche i cibi\npiù caldi! Perfetto\nper i cibi piccanti!",
      "JPja": "このうえで　しょくじをすると\nアツイりょうりも　すぐひえる\n{{string index=\"1\"}}を\nプレゼント！　ンン、べんり・・・",
      "KRko": "뜨거운 요리도\n금방 식혀 주는\n{{string index=\"1\"}}{{fun_0B arg=\"0x0200\"}}\n드리겠어라！ 훗 편리하지라",
      "USen": "This {{string index=\"1\"}} \nwill cool down even the\nhottest dishes. It's great\nfor spicy food!"
    }
  },
  {
    "label": "02",
    "attribute": "",
    "locale": {
      "EUde": "Als Dank für meine Er-\nschaffung schenke ich dir\n{{gender m=\"diesen\" f=\"diese\" n=\"dieses\"}} {{ignoreArticle}}{{string index=\"1\"}},\nfür den kühlen Schlaf!",
      "EUen": "As thanks for making me,\nhere's a present! This\n{{ignoreArticle}}{{string index=\"1\"}} makes\nsleeping cool and comfy!",
      "EUes": "¡Tengo algo para ti, por\nhaberme creado! ¡En esta\n{{ignoreArticle}}{{string index=\"1\"}}\ndormirás como un tronco!",
      "EUfr": "Pour te remercier de\nm'avoir fait, ce cadeau!\n{{string index=\"1\"}}\npour dormir au frais!",
      "EUit": "Come ringraziamento per\navermi creato, ecco il\n{{ignoreArticle}}{{string index=\"1\"}}! Per\ndormire bene e al fresco!",
      "JPja": "つくってくれた　おれいに\nひんやりとした　ねむりにつける\n{{string index=\"1\"}}を\nあげるズラ！　きもちいいダス",
      "KRko": "만들어 주신 보답으로\n서늘하게 잠들 수 있는\n{{string index=\"1\"}}{{fun_0B arg=\"0x0200\"}}\n드리겠어라！ 기분 좋아브러",
      "USen": "As thanks for making me,\nhere's a present! This\n{{string index=\"1\"}} makes\nsleeping cool and comfy!"
    }
  },
  {
    "label": "03",
    "attribute": "",
    "locale": {
      "EUde": "Als Wertschätzung schenke\nich dir {{gender m=\"diesen\" f=\"diese\" n=\"dieses\"}}\n{{string index=\"1\"}}! {{gender m=\"Er\" f=\"Sie\" n=\"Es\"}}\nist klein und süß, wie ich!",
      "EUen": "To show my appreciation,\nI want to give you this\n{{ignoreArticle}}{{string index=\"1\"}}! It's\nshort and cute. Like me!",
      "EUes": "Quiero darte las gracias\nde nuevo con esta\n{{ignoreArticle}}{{string index=\"1\"}}.\n¡Te recordará a mí!",
      "EUfr": "En signe de gratitude,\nje veux te donner\n{{string index=\"1\"}}! Petite\net jolie. Comme moi!",
      "EUit": "Per ringraziarti,\nvoglio darti la\n{{string index=\"1\"}}! È\npiccola e carina come me!",
      "JPja": "つくってくれた　おれいのシルシに{{string index=\"1\"}}を\nあげるダス！　あんていかんは\nオラとおなじく　ばつぐんズラよ",
      "KRko": "만들어 주신 답례로\n{{string index=\"1\"}}{{fun_0B arg=\"0x0200\"}}\n드리겠어라！ 안정감은 저랑\n똑같이 끝내 준당게요",
      "USen": "To show my appreciation,\nI want to give you this\n{{string index=\"1\"}}! It's\nshort and cute. Like me!"
    }
  },
  {
    "label": "04",
    "attribute": "",
    "locale": {
      "EUde": "Danke dir vielmals...\n{{gender m=\"Dieser\" f=\"Diese\" n=\"Dieses\"}} {{ignoreArticle}}{{string index=\"1\"}}\nschenkt an kalten Winter-\ntagen 'nen Hauch Komfort.",
      "EUen": "Thanks for creating me...\nThis {{ignoreArticle}}{{string index=\"1\"}}\nshould give you comfort\non a cold winter's night.",
      "EUes": "Gracias por crearme...\nEsta {{ignoreArticle}}{{string index=\"1\"}}\ncrea un buen ambiente en\nlas noches de nieve.",
      "EUfr": "Merci de m'avoir créé...\n{{fun_0B}} {{string index=\"1\"}}\nt'apportera le confort\npour les nuits d'hiver.",
      "EUit": "Grazie per avermi creato!\nQuest{{gender m=\"o\" f=\"a\" n=\"\"}} {{ignoreArticle}}{{string index=\"1\"}}\ndovrebbe consolarti nelle\nfredde notti invernali.",
      "JPja": "オラを　つくってくれたおれいに\nさみしいココロに\nほのかな　あかりをともす、\n{{string index=\"1\"}}をあげるズラ",
      "KRko": "절 만들어주신 답례로\n외로운 마음을\n밝혀 줄 {{string index=\"1\"}}{{fun_0B arg=\"0x0200\"}}\n드리겠어라",
      "USen": "Thanks for creating me...\nThis {{string index=\"1\"}}\nshould give you comfort\non a cold winter's night."
    }
  },
  {
    "label": "05",
    "attribute": "",
    "locale": {
      "EUde": "{{gender m=\"Mein werter Erschaffer\" f=\"Meine werte Erschafferin\"}}!\nKuriere deinen Muskelkater\nauf {{gender m=\"diesem\" f=\"dieser\" n=\"diesem\"}}\n{{ignoreArticle}}{{string index=\"1\"}}!",
      "EUen": "All hail my creator! In\nthanks, I will soothe your\naching muscles with this\n{{ignoreArticle}}{{string index=\"1\"}}!",
      "EUes": "Quiero agradecerte que me\ncrearas regalándote este\nglacial {{ignoreArticle}}{{string index=\"1\"}} que\nte ayudará a descansar.",
      "EUfr": "Gloire à toi! Pour te\nremercier je te donne\nce{{ignoreArticle}} {{string index=\"1\"}}!\nRepose-toi bien!",
      "EUit": "Salute a chi mi ha creato.\nAllieterò le tue stanche\nmembra con questo\n{{ignoreArticle}}{{string index=\"1\"}}!",
      "JPja": "オラを　つくってくれたおれいに\nこの　{{string index=\"1\"}}を\nあげるダス！　ひんやりしてるからかたこりも　かいしょうされるズラ",
      "KRko": "절 만들어 주신 답례로\n이 {{string index=\"1\"}}{{fun_0B arg=\"0x0200\"}}\n드리겠어라！ 서～늘해서\n뻐근한 어깨에 효과 있당게요",
      "USen": "All hail my creator! In\nthanks, I will soothe your\naching muscles with this\n{{string index=\"1\"}}!"
    }
  },
  {
    "label": "06",
    "attribute": "",
    "locale": {
      "EUde": "Bin ich froh zu leben! Auf\n{{gender m=\"diesem\" f=\"dieser\" n=\"diesem\"}} {{ignoreArticle}}{{string index=\"1\"}}\nkannst du deine Lieblings-\nwintersportarten sehen!",
      "EUen": "I'm glad you made me! Use\nthis {{ignoreArticle}}{{string index=\"1\"}}\nto watch your favorite\nsnowboarding events!",
      "EUes": "Gracias por crearme. Esta\n{{ignoreArticle}}{{string index=\"1\"}} es\n¡para que veas los\ndeportes de invierno!",
      "EUfr": "Je suis si content! Tiens\n{{string index=\"1\"}}\npour regarder tes \némissions de surf!",
      "EUit": "Sono felice che tu mi\nabbia creato. Usa\nquesta {{ignoreArticle}}{{string index=\"1\"}}\nquando non puoi uscire!",
      "JPja": "つくってくれて　かんげきダス\nこの　{{string index=\"1\"}}で\nスノボのばんぐみでも　ながめて\nクールなきぶんに　ひたってズラ！",
      "KRko": "만들어 주셔서 감격했어라\n{{string index=\"1\"}}{{fun_0B arg=\"0x0700\"}}\n보드전문채널이라도 보믄서\n시원한 기분을 만끽하시랑게",
      "USen": "I'm glad you made me! Use\nthis {{string index=\"1\"}}\nto watch your favorite\nsnowboarding events!"
    }
  },
  {
    "label": "07",
    "attribute": "",
    "locale": {
      "EUde": "In {{gender m=\"diesem\" f=\"dieser\" n=\"diesem\"}} wunderbaren\n{{ignoreArticle}}{{string index=\"1\"}} kannst\ndu deine Winterkleidung\naufbewahren! Danke!",
      "EUen": "This {{ignoreArticle}}{{string index=\"1\"}} is\ngreat for storing scarfs,\nsweaters, or any other\nwintery items! Thanks!",
      "EUes": "Esta {{ignoreArticle}}{{string index=\"1\"}}\nes ideal para guardar\nguantes, bufandas... ¡tu\nropa de invierno, vaya!",
      "EUfr": "{{string index=\"1\"}}, c'est\nidéale pour ranger\nles écharpes et autres\nvêtements d'hiver! Merci!",
      "EUit": "Questo {{ignoreArticle}}{{string index=\"1\"}}\nè perfetto per conservare\nmaglioni e giacche per\nl'inverno. Grazie!",
      "JPja": "オラの　かんしゃのきもち、\nしゅうのうに　うってつけの\n{{string index=\"1\"}}を\nおくるダス！　ひえひえズラ",
      "KRko": "제 감사의 마음을 담아\n수납하기 딱 좋은\n{{string index=\"1\"}}{{fun_0B arg=\"0x0200\"}}\n드리겠어라！ ｃｏｏｌ하지라",
      "USen": "This {{string index=\"1\"}} is\ngreat for storing scarfs,\nsweaters, or any other\nwintery items! Thanks!"
    }
  },
  {
    "label": "08",
    "attribute": "",
    "locale": {
      "EUde": "Du hast dir bei mir viel\nMühe gegeben! Als Dank\nnimm bitte {{gender m=\"diesen\" f=\"diese\" n=\"dieses\"}}\n{{ignoreArticle}}{{string index=\"1\"}}!",
      "EUen": "You did a good job with\nme! I'm so happy! Take\nthis {{ignoreArticle}}{{string index=\"1\"}}\nas a token of my thanks!",
      "EUes": "¡Me has dejado estupendo!\nQuiero darte las gracias y\neste {{ignoreArticle}}{{string index=\"1\"}}.\n¡Seguro que te viene bien!",
      "EUfr": "Tu m'as réussi! Je suis si\ncontent! Voici\n{{string index=\"1\"}}\nen remerciement!",
      "EUit": "Hai fatto un ottimo\nlavoro con me. Prendi\nquesto {{string index=\"1\"}}\ncome ringraziamento!",
      "JPja": "めんどうくさがらず　ていねいに\nしあげてくれたおれいに\n{{string index=\"1\"}}を\nあげるダス！　だいじにしてズラ",
      "KRko": "정성스럽게\n절 완성해 주신 답례로\n{{string index=\"1\"}}{{fun_0B arg=\"0x0200\"}}\n보내겠어라！ 잘 쓰더라고",
      "USen": "You did a good job with\nme! I'm so happy! Take\nthis {{string index=\"1\"}}\nas a token of my thanks!"
    }
  },
  {
    "label": "09",
    "attribute": "",
    "locale": {
      "EUde": "{{gender m=\"Dieser\" f=\"Diese\" n=\"Dieses\"}} {{ignoreArticle}}{{string index=\"1\"}}\nist für dich, {{gender m=\"mein\" f=\"meine\"}}\n{{gender m=\"Erschaffer\" f=\"Erschafferin\"}}! Ich hoffe,\ndas Design gefällt dir.",
      "EUen": "This {{ignoreArticle}}{{string index=\"1\"}} is\nfor you, my creator! It's\na pretty popular design,\nfrom what I hear!",
      "EUes": "¡Este {{ignoreArticle}}{{string index=\"1\"}}\nes para ti, artista! Es un\nmodelo muy popular, por\nlo que me han dicho.",
      "EUfr": "{{capitalizeLetter}}{{fun_0B}}{{string index=\"1\"}} \nest pour toi! C'est à la\nmode, à ce qu'on dit!\nMerci!",
      "EUit": "Questo {{ignoreArticle}}{{string index=\"1\"}}\nè per te che mi hai\ncreato! Un orologio\nmolto di moda!",
      "JPja": "オラを　つくってくれたキミに\nこの　{{string index=\"1\"}}を\nあげるダス！　このデザインには\nちょっと　じしんあるズラよ",
      "KRko": "절 만들어주신 당신께\n이 {{string index=\"1\"}}{{fun_0B arg=\"0x0200\"}}\n드리겠어라！ 이 디자인에는\n좀 자신있당게",
      "USen": "This {{string index=\"1\"}} is\nfor you, my creator! It's\na pretty popular design,\nfrom what I hear!"
    }
  },
  {
    "label": "10",
    "attribute": "",
    "locale": {
      "EUde": "{{gender m=\"Diesen\" f=\"Diese\" n=\"Dieses\"}} {{ignoreArticle}}{{string index=\"1\"}}\nhabe ich selbst für dich\ngewebt! Nur zu, nimm {{gender m=\"ihn\" f=\"sie\" n=\"es\"}}!\nNochmals danke für alles!",
      "EUen": "I spent all night weaving\nthis {{ignoreArticle}}{{string index=\"1\"}}.\nDon't be shy! Take it! And\nthanks for making me!",
      "EUes": "Pasé la noche haciéndote\nesta {{ignoreArticle}}{{string index=\"1\"}}.\n¡Acéptala, por favor! ¡Y\ngracias por crearme!",
      "EUfr": "Toute la nuit j'ai tissé\n{{string index=\"1\"}}.\nAllez, pas de manières!\nPrends-le! Merci encore!",
      "EUit": "Ho passato tutta la notte\na fare questo\n{{ignoreArticle}}{{string index=\"1\"}}.\nPrendi, è per te!",
      "JPja": "オラが　よなべしてあんだ\nこの　{{string index=\"1\"}}を\nあげるズラ！　つくってくれた\nおれいだから　えんりょするなダス",
      "KRko": "제가 밤 새워 만든\n이 {{string index=\"1\"}}{{fun_0B arg=\"0x0200\"}}\n드리겠어라！ 만들어 주신\n답례니까 사양말구 받더라고",
      "USen": "I spent all night weaving\nthis {{string index=\"1\"}}.\nDon't be shy! Take it! And\nthanks for making me!"
    }
  },
  {
    "label": "11",
    "attribute": "",
    "locale": {
      "EUde": "{{gender m=\"Dieser\" f=\"Diese\" n=\"Dieses\"}} {{ignoreArticle}}{{string index=\"1\"}}\nist mein ganzer Stolz! {{gender m=\"Er\" f=\"Sie\" n=\"Es\"}}\nbringt dir die Freuden des\nWinters nach Hause!",
      "EUen": "This {{ignoreArticle}}{{string index=\"1\"}} is\nmy pride and joy! It will\nbring the joy of winter\nright into your home!",
      "EUes": "Esta {{ignoreArticle}}{{string index=\"1\"}}\nes mi orgullo, la hice yo.\n¡Llevará la alegría del\ninvierno a tu casa!",
      "EUfr": "{{string index=\"1\"}}\nremplit de joie la\ndemeure la plus\nmodeste! Merci!",
      "EUit": "Questo {{ignoreArticle}}{{string index=\"1\"}}\nè il mio orgoglio, la mia\ngioia! Porterà la serenità\ninvernale a casa tua!",
      "JPja": "オラの　かいしんさく\n{{string index=\"1\"}}を\nあげるダス！　ゆきのふるきぶんをへやのなかでも　あじわえるズラ",
      "KRko": "제 야심작！\n{{string index=\"1\"}}{{fun_0B arg=\"0x0200\"}}\n드리겠어라！ 눈 내리는\n기분을 방 안에서 만끽하시라",
      "USen": "This {{string index=\"1\"}} is\nmy pride and joy! It will\nbring the joy of winter\nright into your home!"
    }
  },
  {
    "label": "12",
    "attribute": "",
    "locale": {
      "EUde": "Juhuuu! Das Lichterfest\nist meine Lieblingsfeier.\nHier hast du etwas, um es\ngebührend zu feiern!",
      "EUen": "Hoorah! Bright Nights is\nmy favorite time of year.\nHere's a little something\nto celebrate it!",
      "EUes": "¡Vivaaa! Las Noches con\nChispa son las mejores\ndel año. ¡Aquí tienes\nalgo para celebrarlas!",
      "EUfr": "Hourra! Les nuits phare\nc'est le moment de\nl'année que je préfère!\nTiens pour te remercier!",
      "EUit": "Urrah! Le Notti bianche\nsono il mio periodo\npreferito dell'anno.\nPrendi, per festeggiare.",
      "JPja": "オラに　よくにた\nミニミニサイズの　{{string index=\"1\"}}を\nあげるダス！　どこにおいてても\nとけてなくなったりは　しないズラ",
      "KRko": "즐거운 눈꽃축제를 맞아\n선물을 드리겠어라\n별건 아니지만\n눈꽃축제니께 넘어가 주소",
      "USen": "Hoorah! Bright Nights is\nmy favorite time of year.\nHere's a little something\nto celebrate it!"
    }
  },
  {
    "label": "13",
    "attribute": "",
    "locale": {
      "EUde": "Das Lichterfest ist wie\nfür mich geschaffen!\nSchenkt man sich da was?\nEgal, du bekommst etwas.",
      "EUen": "Bright Nights is my kind\nof festival! I don't know\nif I need to give gifts,\nbut here's one anyway.",
      "EUes": "¡Las Noches con Chispa\nson mis favoritas del año!\nNo sé si se suelen dar\nregalos, pero ahí va uno.",
      "EUfr": "Les nuits phare sont le\nfestival à ne pas rater!\nTiens, voici un cadeau\npour te remercier.",
      "EUit": "Le Notti bianche sono la\nfesta che fa per me! Non\nso se devo fare regali,\nma eccotene uno.",
      "JPja": "",
      "KRko": "",
      "USen": "Bright Nights is my kind\nof festival! I don't know\nif I need to give gifts,\nbut here's one anyway."
    }
  },
  {
    "label": "14",
    "attribute": "",
    "locale": {
      "EUde": "Dieses Geschenk macht\ndein Lichterfest zum\nLICHTSPEKTAKEL! Viel Spaß\nund alles Gute!",
      "EUen": "This present should make\nyour Bright Nights even\nBRIGHTER! Please enjoy\nwith my compliments!",
      "EUes": "¡Este regalo debería hacer\ntus Noches con Chispa más\nchisposas todavía!\n¡Disfrútalo!",
      "EUfr": "Ce cadeau devrait rendre\ntes nuits phare encore\nplus belles! Avec mes \ncompliments!",
      "EUit": "Questo regalo renderà\nle tue Notti bianche più\nBRILLANTI! Divertiti\nanche per me!",
      "JPja": "",
      "KRko": "",
      "USen": "This present should make\nyour Bright Nights even\nBRIGHTER! Please enjoy\nwith my compliments!"
    }
  }
]