[
  {
    "label": "0",
    "attribute": "",
    "locale": {
      "EUde": "Prost Neujahr! Ich werde\ndieses Jahr alle meine\nguten Vorsätze einhalten.\nUnd was ist mit dir?",
      "EUen": "Happy New Year! I'm gonna\njust be me this year. You\nshould try that, too! It\nwould be an improvement!",
      "EUes": "He decidido que este año\nvoy a ser más \"yo\". Y tú\ndeberías hacer lo mismo.\n¡Sería una gran mejora!",
      "EUfr": "Bonne année! Cette année,\nj'ai décidé d'être\nmoi-même. Fais comme\nmoi! T'as rien à perdre!",
      "EUit": "Buon anno! Quest'anno\nsarò me stessa. Anche tu\ndovresti provarci! Sarebbe\nun passo avanti!",
      "JPja": "ＨＡＰＰＹ　ＮＥＷ　ＹＥＡＲ！\nあたしは　ことしも　あたしで\nありつづけるのみ！　おたくも\nてきとうに　がんばりなさいね！",
      "KRko": "ＨＡＰＰＹ　ＮＥＷ　ＹＥＡＲ！\n난 올해도 내 안에 넘쳐나는\n매력으로 승부할 거야！ \n당신도 한번 노력해 봐！",
      "USen": "Happy New Year! I'm gonna\njust be me this year. You\nshould try that, too! It\nwould be an improvement!"
    }
  },
  {
    "label": "1",
    "attribute": "",
    "locale": {
      "EUde": "Prost Neujahr! Dieses\nJahr bin ich originell!\nLaut Ms. Nintendique ist\ndas jetzt total in.",
      "EUen": "Happy New Year! I'm gonna\nbe an original this year!\nMs. Nintendique said that\nwas the in thing to do.",
      "EUes": "¡Feliz Año Nuevo! ¡Este año\nvoy a ser original! En\nMiss Nintendique dicen que\nes lo que se lleva.",
      "EUfr": "Bonne année! Cette année\nje mise sur l'originalité!\nMadame Nintendo dit que\nça va faire fureur.",
      "EUit": "Buon anno! Quest'anno\nsarò originale!\nLo consiglia\nDonna Nintendique.",
      "JPja": "あけまして　おめでとう！\nことしから　なにかあたらしいコトはじめようかしら？　びぼうは\nないめんから　みがかないとダメよ",
      "KRko": "새해 복 많이 받아！\n올해는 뭐든지 새로운 일에\n도전해 볼까봐！ 미모는\n내면부터 가꿔야 하거든",
      "USen": "Happy New Year! I'm gonna\nbe an original this year!\nMs. Nintendique said that\nwas the in thing to do."
    }
  },
  {
    "label": "2",
    "attribute": "",
    "locale": {
      "EUde": "Prost Neujahr! Mein Freund\nist beschäftigt, also\nschreibe ich lieber dir.\nSeufz... die Liebe.",
      "EUen": "Happy New Year! I guess\nI'll spend time with you,\nsince my boyfriend is all\nbusy. Sigh...love is hard!",
      "EUes": "Mi novio dice que este año\nva a estar muy ocupado,\nasí que tendré que pasar\nmucho más tiempo contigo.",
      "EUfr": "Bonne année! Je vais\nt'accorder plus de temps,\npuisque mon copain est si\noccupé. C'est dur l'amour!",
      "EUit": "Buon anno! Penso che\npasserò del tempo con te,\nvisto che il mio fidanzato\nha da fare. Sigh...",
      "JPja": "カレは　しんねんからしごとだし\nことしもズルズルいくのかな・・・おかげでまた　おたくと\nすごすじかんが　ふえそうだわ！",
      "KRko": "남친은 연초부터 일하러 갔고\n올해도 달라진 게 없어…\n덕분에 또 당신이랑 보내는\n시간이 늘 것 같은데？",
      "USen": "Happy New Year! I guess\nI'll spend time with you,\nsince my boyfriend is all\nbusy. Sigh...love is hard!"
    }
  }
]