[
  {
    "label": "00",
    "attribute": "0x0000000003000000",
    "locale": {
      "EUde": "{{fun_09}}{{fun_09}}{{resetReaction}}Hey, {{reaction type=\"Curiosity\"}}weißt du, wann \n{{color id=\"6\"}}Tom Nook{{color id=\"0\"}} Geburtstag hat?{{fun_09}}",
      "EUen": "{{fun_09}}{{fun_09}}{{resetReaction}}Hey, {{reaction type=\"Curiosity\"}}do you know when \n{{color id=\"6\"}}Tom Nook{{color id=\"0\"}}'s birthday is?{{fun_09}}",
      "EUes": "{{fun_09}}{{fun_09}}{{resetReaction}}Eh, {{reaction type=\"Curiosity\"}}¿sabes cuándo es el\ncumple de {{color id=\"6\"}}Tom Nook{{color id=\"0\"}}?{{fun_09}}",
      "EUfr": "{{fun_09}}{{fun_09}}{{resetReaction}}Eh, {{reaction type=\"Curiosity\"}}tu sais quand a lieu\nl'anniversaire de {{color id=\"6\"}}Tom Nook{{color id=\"0\"}}?{{fun_09}}",
      "EUit": "{{fun_09}}{{fun_09}}{{resetReaction}}Ehi, {{reaction type=\"Curiosity\"}}sai quand'è il\ncompleanno di {{color id=\"6\"}}Tom Nook{{color id=\"0\"}}?{{fun_09}}",
      "JPja": "{{fun_09}}{{fun_09}}{{resetReaction}}ねぇねぇ、{{pause frames=\"5\"}}\n{{reaction type=\"Curiosity\"}}{{color id=\"6\"}}たぬきち{{color id=\"0\"}}ちゃんの\nたんじょう{{kanjiReplace charNum=\"1\" value=\"び\"}}日って　いつだっけ？{{fun_09}}",
      "KRko": "{{fun_09}}{{fun_09}}{{resetReaction}}있잖아，{{pause frames=\"5\"}}\n{{reaction type=\"Curiosity\"}}{{color id=\"6\"}}너굴{{color id=\"0\"}} 아저씨의\n생일이 언제더라？{{fun_09}}",
      "USen": "{{fun_09}}{{fun_09}}{{resetReaction}}Hey, {{reaction type=\"Curiosity\"}}do you know when \n{{color id=\"6\"}}Tom Nook{{color id=\"0\"}}'s birthday is?{{fun_09}}"
    }
  },
  {
    "label": "01",
    "attribute": "0x000000000C000000",
    "locale": {
      "EUde": "{{fun_09}}{{fun_09}}{{fun_09}}{{reaction type=\"Sadness\"}}Ahhhh{{pause frames=\"3\"}}.{{pause frames=\"3\"}}.{{pause frames=\"3\"}}.{{pause frames=\"3\"}} Ich hab Hunger!\n{{pause frames=\"5\"}}{{capitalizeLetter}}{{string value=\"Catchphrase\"}}!{{fun_09}}",
      "EUen": "{{fun_09}}{{fun_09}}{{fun_09}}{{reaction type=\"Sadness\"}}Ehhhh{{pause frames=\"3\"}}.{{pause frames=\"3\"}}.{{pause frames=\"3\"}}.{{pause frames=\"3\"}} So hungry!\n{{pause frames=\"5\"}}{{capitalizeLetter}}{{string value=\"Catchphrase\"}}!{{fun_09}}",
      "EUes": "{{fun_09}}{{fun_09}}{{fun_09}}{{reaction type=\"Sadness\"}}Oooooh{{pause frames=\"3\"}}.{{pause frames=\"3\"}}.{{pause frames=\"3\"}}.{{pause frames=\"3\"}} ¡Qué hambre!\n{{pause frames=\"5\"}}¡{{capitalizeLetter}}{{string value=\"Catchphrase\"}}!{{fun_09}}",
      "EUfr": "{{fun_09}}{{fun_09}}{{fun_09}}{{reaction type=\"Sadness\"}}Ehhhh{{pause frames=\"3\"}}.{{pause frames=\"3\"}}.{{pause frames=\"3\"}}.{{pause frames=\"3\"}} J'ai faim!\n{{pause frames=\"5\"}}{{capitalizeLetter}}{{string value=\"Catchphrase\"}}!{{fun_09}}",
      "EUit": "{{fun_09}}{{fun_09}}{{fun_09}}{{reaction type=\"Sadness\"}}Ehhhh{{pause frames=\"3\"}}.{{pause frames=\"3\"}}.{{pause frames=\"3\"}}.{{pause frames=\"3\"}} Che fame!\n{{pause frames=\"5\"}}{{capitalizeLetter}}{{string value=\"Catchphrase\"}}!{{fun_09}}",
      "JPja": "{{fun_09}}{{fun_09}}{{fun_09}}{{reaction type=\"Sadness\"}}あー{{pause frames=\"3\"}}・{{pause frames=\"3\"}}・{{pause frames=\"3\"}}・{{pause frames=\"3\"}}　おなかすいたー！\n{{pause frames=\"5\"}}{{string value=\"Catchphrase\"}}！{{fun_09}}",
      "KRko": "{{fun_09}}{{fun_09}}{{fun_09}}{{reaction type=\"Sadness\"}}아{{pause frames=\"3\"}}・{{pause frames=\"3\"}}・{{pause frames=\"3\"}}・{{pause frames=\"3\"}} 배고파아～！\n{{pause frames=\"5\"}}{{string value=\"Catchphrase\"}}！{{fun_09}}",
      "USen": "{{fun_09}}{{fun_09}}{{fun_09}}{{reaction type=\"Sadness\"}}Ehhhh{{pause frames=\"3\"}}.{{pause frames=\"3\"}}.{{pause frames=\"3\"}}.{{pause frames=\"3\"}} So hungry!\n{{pause frames=\"5\"}}{{capitalizeLetter}}{{string value=\"Catchphrase\"}}!{{fun_09}}"
    }
  },
  {
    "label": "02",
    "attribute": "0x0000000013000000",
    "locale": {
      "EUde": "{{fun_09}}{{fun_09}}{{fun_01}}{{pause frames=\"5\"}}{{fun_01}}{{reaction type=\"Amazed\"}}Oh, {{pause frames=\"5\"}}na so was!{{pause frames=\"10\"}} {{reaction type=\"Happiness\"}}Gerade haben\nwir über dich gesprochen,\n{{string value=\"PlayerNickname\"}}{{pause frames=\"5\"}}.{{pause frames=\"5\"}}.{{pause frames=\"5\"}}.{{pause frames=\"5\"}}\n{{fun_09}}{{reaction type=\"Glee\"}}{{capitalizeLetter}}{{color id=\"6\"}}{{string index=\"1\"}}{{color id=\"0\"}}, jetzt ist\ndeine Chance, etwas zu\nsagen! {{pause frames=\"5\"}}{{capitalizeLetter}}{{string value=\"Catchphrase\"}}!{{fun_09}}",
      "EUen": "{{fun_09}}{{fun_09}}{{fun_01}}{{pause frames=\"5\"}}{{fun_01}}{{reaction type=\"Amazed\"}}Oh, {{pause frames=\"5\"}}no way!{{pause frames=\"10\"}}\n{{reaction type=\"Happiness\"}}Hey, speaking of\n{{string value=\"PlayerNickname\"}}{{pause frames=\"5\"}}.{{pause frames=\"5\"}}.{{pause frames=\"5\"}}.{{pause frames=\"5\"}}\n{{fun_09}}{{reaction type=\"Glee\"}}{{capitalizeLetter}}{{color id=\"6\"}}{{string index=\"1\"}}{{color id=\"0\"}}, this is your\nchance to say something,\n{{pause frames=\"5\"}}{{string value=\"Catchphrase\"}}!{{fun_09}}",
      "EUes": "{{fun_09}}{{fun_09}}{{fun_01}}{{pause frames=\"5\"}}{{fun_01}}{{reaction type=\"Amazed\"}}¡Vaya, {{pause frames=\"5\"}}no puede ser!{{pause frames=\"10\"}} {{reaction type=\"Happiness\"}}Ahí va,\nmira quién tenemos aquí,\n{{string value=\"PlayerNickname\"}}{{pause frames=\"5\"}}.{{pause frames=\"5\"}}.{{pause frames=\"5\"}}.{{pause frames=\"5\"}}\n{{fun_09}}{{reaction type=\"Glee\"}}¡{{capitalizeLetter}}{{color id=\"6\"}}{{string index=\"1\"}}{{color id=\"0\"}}, ahora es el\nmomento de que se lo\ndigas, {{pause frames=\"5\"}}{{string value=\"Catchphrase\"}}!{{fun_09}}",
      "EUfr": "{{fun_09}}{{fun_09}}{{fun_01}}{{pause frames=\"5\"}}{{fun_01}}{{reaction type=\"Amazed\"}}Oh! {{pause frames=\"5\"}}Pas croyable!{{pause frames=\"10\"}}\n{{reaction type=\"Happiness\"}}D'ailleurs en parlant\nde {{string value=\"PlayerNickname\"}}{{pause frames=\"5\"}}.{{pause frames=\"5\"}}.{{pause frames=\"5\"}}.{{pause frames=\"5\"}}\n{{fun_09}}{{reaction type=\"Glee\"}}{{capitalizeLetter}}{{color id=\"6\"}}{{string index=\"1\"}}{{color id=\"0\"}}, c'est\nl'occasion de lui dire ce que\ntu as à dire, {{pause frames=\"5\"}}{{string value=\"Catchphrase\"}}!{{fun_09}}",
      "EUit": "{{fun_09}}{{fun_09}}{{fun_01}}{{pause frames=\"5\"}}{{fun_01}}{{reaction type=\"Amazed\"}}Oh, {{pause frames=\"5\"}}neanche per sogno!{{pause frames=\"10\"}}\n{{reaction type=\"Happiness\"}}Ehi, a proposito di\n{{string value=\"PlayerNickname\"}}{{pause frames=\"5\"}}.{{pause frames=\"5\"}}.{{pause frames=\"5\"}}.{{pause frames=\"5\"}}\n{{fun_09}}{{reaction type=\"Glee\"}}{{capitalizeLetter}}{{color id=\"6\"}}{{string index=\"1\"}}{{color id=\"0\"}}, è la tua\noccasione di dire qualcosa,\n{{pause frames=\"5\"}}{{string value=\"Catchphrase\"}}!{{fun_09}}",
      "JPja": "{{fun_09}}{{fun_09}}{{fun_01}}{{pause frames=\"5\"}}{{fun_01}}{{reaction type=\"Amazed\"}}あっ、{{pause frames=\"5\"}}ホラ！{{pause frames=\"10\"}}\n{{reaction type=\"Happiness\"}}ウワサをすれば\n{{string value=\"PlayerNickname\"}}ちゃんだよ！\n{{fun_09}}{{reaction type=\"Glee\"}}{{color id=\"6\"}}{{string index=\"1\"}}{{color id=\"0\"}}ちゃん、{{pause frames=\"5\"}}\n{{kanjiReplace charNum=\"1\" value=\"いま\"}}今がチャンス！　{{pause frames=\"5\"}}{{string value=\"Catchphrase\"}}！{{fun_09}}",
      "KRko": "{{fun_09}}{{fun_09}}{{fun_01}}{{pause frames=\"5\"}}{{fun_01}}{{reaction type=\"Amazed\"}}어머， {{pause frames=\"5\"}}이게 누구야！{{pause frames=\"10\"}}\n{{reaction type=\"Happiness\"}}호랑이도 제말하면 온다더니\n{{string value=\"PlayerNickname\"}}{{fun_0B arg=\"0x0500\"}}잖아！\n{{fun_09}}{{reaction type=\"Glee\"}}{{color id=\"6\"}}{{string index=\"1\"}}{{color id=\"0\"}}{{fun_0B arg=\"0x0400\"}}， {{pause frames=\"5\"}}\n지금이야！ {{pause frames=\"5\"}}{{string value=\"Catchphrase\"}}！{{fun_09}}",
      "USen": "{{fun_09}}{{fun_09}}{{fun_01}}{{pause frames=\"5\"}}{{fun_01}}{{reaction type=\"Amazed\"}}Oh, {{pause frames=\"5\"}}no way!{{pause frames=\"10\"}}\n{{reaction type=\"Happiness\"}}Hey, speaking of\n{{string value=\"PlayerNickname\"}}{{pause frames=\"5\"}}.{{pause frames=\"5\"}}.{{pause frames=\"5\"}}.{{pause frames=\"5\"}}\n{{fun_09}}{{reaction type=\"Glee\"}}{{capitalizeLetter}}{{color id=\"6\"}}{{string index=\"1\"}}{{color id=\"0\"}}, this is your\nchance to say something,\n{{pause frames=\"5\"}}{{string value=\"Catchphrase\"}}!{{fun_09}}"
    }
  },
  {
    "label": "03",
    "attribute": "0x0000000004000000",
    "locale": {
      "EUde": "{{resetReaction}}{{fun_09}}{{fun_09}}{{fun_09}}Am 28.,\n{{pause frames=\"5\"}}{{string value=\"Catchphrase\"}}.{{fun_09}}",
      "EUen": "{{resetReaction}}{{fun_09}}{{fun_09}}{{fun_09}}It's on the 28th,\n{{pause frames=\"5\"}}{{string value=\"Catchphrase\"}}.{{fun_09}}",
      "EUes": "{{resetReaction}}{{fun_09}}{{fun_09}}{{fun_09}}Es el día 28, {{pause frames=\"5\"}}{{string value=\"Catchphrase\"}}.{{fun_09}}",
      "EUfr": "{{resetReaction}}{{fun_09}}{{fun_09}}{{fun_09}}C'est le 28,\n{{pause frames=\"5\"}}{{string value=\"Catchphrase\"}}.{{fun_09}}",
      "EUit": "{{resetReaction}}{{fun_09}}{{fun_09}}{{fun_09}}È il 28,\n{{pause frames=\"5\"}}{{string value=\"Catchphrase\"}}.{{fun_09}}",
      "JPja": "{{resetReaction}}{{fun_09}}{{fun_09}}{{fun_09}}{{kanjiReplace charNum=\"2\" value=\"こんげつ\"}}今月の２８{{kanjiReplace charNum=\"1\" value=\"にち\"}}日だよぉ～、\n{{pause frames=\"5\"}}{{string value=\"Catchphrase\"}}{{fun_09}}",
      "KRko": "{{resetReaction}}{{fun_09}}{{fun_09}}{{fun_09}}이번 달 ２８일이야～，\n{{pause frames=\"5\"}}{{string value=\"Catchphrase\"}}{{fun_09}}",
      "USen": "{{resetReaction}}{{fun_09}}{{fun_09}}{{fun_09}}It's on the 28th,\n{{pause frames=\"5\"}}{{string value=\"Catchphrase\"}}.{{fun_09}}"
    }
  },
  {
    "label": "04",
    "attribute": "0x0000000005000000",
    "locale": {
      "EUde": "{{fun_09}}{{fun_09}}{{fun_09}}{{reaction type=\"Amazed\"}}Ach, {{pause frames=\"5\"}}echt? {{pause frames=\"5\"}}Diesen Monat?{{pause frames=\"20\"}}\n{{reaction type=\"Happiness\"}}Danke, {{color id=\"6\"}}{{pause frames=\"5\"}}{{string index=\"1\"}}{{color id=\"0\"}}!{{fun_09}}",
      "EUen": "{{fun_09}}{{fun_09}}{{fun_09}}{{reaction type=\"Amazed\"}}Ohhh, {{pause frames=\"5\"}}really? {{pause frames=\"5\"}}This month?{{pause frames=\"20\"}}\n{{reaction type=\"Happiness\"}}Thanks, {{color id=\"6\"}}{{pause frames=\"5\"}}{{string index=\"1\"}}{{color id=\"0\"}}!{{fun_09}}",
      "EUes": "{{fun_09}}{{fun_09}}{{fun_09}}{{reaction type=\"Amazed\"}}No me digas, {{pause frames=\"5\"}}¿en serio?{{pause frames=\"5\"}} ¿De\neste mes?{{pause frames=\"20\"}} {{reaction type=\"Happiness\"}}¡Gracias,\n{{color id=\"6\"}}{{pause frames=\"5\"}}{{string index=\"1\"}}{{color id=\"0\"}}!{{fun_09}}",
      "EUfr": "{{fun_09}}{{fun_09}}{{fun_09}}{{reaction type=\"Amazed\"}}Ohhh, {{pause frames=\"5\"}}vraiment? {{pause frames=\"5\"}}Ce mois-ci?{{pause frames=\"20\"}}\n{{reaction type=\"Happiness\"}}Merci, {{color id=\"6\"}}{{pause frames=\"5\"}}{{string index=\"1\"}}{{color id=\"0\"}}!{{fun_09}}",
      "EUit": "{{fun_09}}{{fun_09}}{{fun_09}}{{reaction type=\"Amazed\"}}Ohhh, {{pause frames=\"5\"}}davvero? {{pause frames=\"5\"}}Di questo\nmese?{{pause frames=\"20\"}} {{reaction type=\"Happiness\"}}Grazie, {{color id=\"6\"}}{{pause frames=\"5\"}}{{string index=\"1\"}}{{color id=\"0\"}}!{{fun_09}}",
      "JPja": "{{fun_09}}{{fun_09}}{{fun_09}}{{reaction type=\"Amazed\"}}あっ、{{pause frames=\"5\"}}そうなんだ！{{pause frames=\"20\"}}\n{{reaction type=\"Happiness\"}}ありがとね、{{color id=\"6\"}}{{pause frames=\"5\"}}{{string index=\"1\"}}{{color id=\"0\"}}ちゃん！{{fun_09}}",
      "KRko": "{{fun_09}}{{fun_09}}{{fun_09}}{{reaction type=\"Amazed\"}}앗， {{pause frames=\"5\"}}그렇구나！{{pause frames=\"20\"}}\n{{reaction type=\"Happiness\"}}고마워， {{color id=\"6\"}}{{pause frames=\"5\"}}{{string index=\"1\"}}{{color id=\"0\"}}{{fun_0B arg=\"0x0400\"}}！{{fun_09}}",
      "USen": "{{fun_09}}{{fun_09}}{{fun_09}}{{reaction type=\"Amazed\"}}Ohhh, {{pause frames=\"5\"}}really? {{pause frames=\"5\"}}This month?{{pause frames=\"20\"}}\n{{reaction type=\"Happiness\"}}Thanks, {{color id=\"6\"}}{{pause frames=\"5\"}}{{string index=\"1\"}}{{color id=\"0\"}}!{{fun_09}}"
    }
  },
  {
    "label": "05",
    "attribute": "0x0000000006000000",
    "locale": {
      "EUde": "{{resetReaction}}{{fun_09}}{{fun_09}}{{fun_09}}{{reaction type=\"Happiness\"}}Am gleichen Tag erscheint\nmeine Lieblingszeitschrift:{{pause frames=\"5\"}}\n{{reaction type=\"Love\"}}{{color id=\"2\"}}Chillen und Relaxen{{color id=\"0\"}}!{{pause frames=\"5\"}}\nEin moderner Ratgeber für\nden relaxten Lebensstil.\n{{capitalizeLetter}}{{string value=\"Catchphrase\"}}!{{fun_09}}",
      "EUen": "{{resetReaction}}{{fun_09}}{{fun_09}}{{fun_09}}{{reaction type=\"Happiness\"}}That's the day my favorite\nmagazine gets delivered.{{pause frames=\"5\"}}\n{{reaction type=\"Love\"}}{{color id=\"2\"}}Chillin' Magazine{{color id=\"0\"}}!{{pause frames=\"5\"}}\nIt's a modern guide to the\nchillin' lifestyle,\n{{string value=\"Catchphrase\"}}!{{fun_09}}",
      "EUes": "{{resetReaction}}{{fun_09}}{{fun_09}}{{fun_09}}{{reaction type=\"Happiness\"}}Es el día en el que me llega\nmi revista favorita.{{pause frames=\"5\"}}\n{{reaction type=\"Love\"}}¡La revista {{color id=\"2\"}}Siesta{{color id=\"0\"}}!{{pause frames=\"5\"}}\n¡Es la guía moderna para\nun estilo de vida relajado,\n{{string value=\"Catchphrase\"}}!{{fun_09}}",
      "EUfr": "{{resetReaction}}{{fun_09}}{{fun_09}}{{fun_09}}{{reaction type=\"Happiness\"}}C'est aujourd'hui que mon\nmagazine préféré sort en\nlibrairie:{{pause frames=\"5\"}} {{reaction type=\"Love\"}}{{color id=\"2\"}}Zen magazine{{color id=\"0\"}}!{{pause frames=\"5\"}}\nC'est le guide chic et choc\npour mener une vie\ndécontractée, {{string value=\"Catchphrase\"}}!{{fun_09}}",
      "EUit": "{{resetReaction}}{{fun_09}}{{fun_09}}{{fun_09}}{{reaction type=\"Happiness\"}}È il giorno di consegna della\nmia rivista preferita.{{pause frames=\"5\"}}\n{{reaction type=\"Love\"}}{{color id=\"2\"}}Rilassiamoci{{color id=\"0\"}}!{{pause frames=\"5\"}}\nÈ una guida moderna allo\nstile di vita rilassato,\n{{string value=\"Catchphrase\"}}!{{fun_09}}",
      "JPja": "{{resetReaction}}{{fun_09}}{{fun_09}}{{fun_09}}{{reaction type=\"Happiness\"}}{{kanjiReplace charNum=\"2\" value=\"こんげつ\"}}今月の　２８{{kanjiReplace charNum=\"1\" value=\"にち\"}}日は\nボクが　すっごく\n{{kanjiReplace charNum=\"1\" value=\"たの\"}}楽しみにしてる、\n{{reaction type=\"Love\"}}てつどうざっしの\nはつばい{{kanjiReplace charNum=\"1\" value=\"び\"}}日！　{{pause frames=\"5\"}}{{string value=\"Catchphrase\"}}！{{fun_09}}",
      "KRko": "{{resetReaction}}{{fun_09}}{{fun_09}}{{fun_09}}{{reaction type=\"Happiness\"}}이번 달 ２８일은\n내가 너무 너무\n기다리고 있는\n{{reaction type=\"Love\"}}철도 잡지\n발매일이야～！ {{pause frames=\"5\"}}{{string value=\"Catchphrase\"}}！{{fun_09}}",
      "USen": "{{resetReaction}}{{fun_09}}{{fun_09}}{{fun_09}}{{reaction type=\"Happiness\"}}That's the day my favorite\nmagazine gets delivered.{{pause frames=\"5\"}}\n{{reaction type=\"Love\"}}{{color id=\"2\"}}Chillin' Magazine{{color id=\"0\"}}!{{pause frames=\"5\"}}\nIt's a modern guide to the\nchillin' lifestyle,\n{{string value=\"Catchphrase\"}}!{{fun_09}}"
    }
  },
  {
    "label": "06",
    "attribute": "0x00000000FF000000",
    "locale": {
      "EUde": "{{reaction type=\"Happiness\"}}{{fun_09}}{{fun_09}}{{fun_09}}{{resetReaction}}.{{pause frames=\"5\"}}.{{pause frames=\"5\"}}.{{pause frames=\"5\"}} Hä? {{reaction type=\"Intense\"}}{{color id=\"2\"}}Chillen und Relaxen{{color id=\"0\"}}?{{pause frames=\"10\"}}\n{{reaction type=\"Worry\"}}Ich wollte doch nur {{color id=\"6\"}}Tom\nNooks{{color id=\"0\"}} Geburtstag wissen!{{pause frames=\"20\"}}\n{{fun_09}}{{fun_09}}{{fun_09}}{{fun_09}}Hey {{string value=\"PlayerNickname\"}}, \n{{reaction type=\"Curiosity\"}}weißt du es?{{fun_09}}{{fun_02 arg=\"0x080A\"}}\nNatürlich!\nKeine Ahnung...",
      "EUen": "{{reaction type=\"Happiness\"}}{{fun_09}}{{fun_09}}{{fun_09}}{{resetReaction}}.{{pause frames=\"5\"}}.{{pause frames=\"5\"}}.{{pause frames=\"5\"}}Huh?! {{reaction type=\"Intense\"}}{{color id=\"2\"}}Chillin' Magazine{{color id=\"0\"}}?!{{pause frames=\"10\"}}\n{{reaction type=\"Worry\"}}All I wanted to know was\n{{color id=\"6\"}}Tom Nook{{color id=\"0\"}}'s birthday!{{pause frames=\"20\"}}\n{{fun_09}}{{fun_09}}{{fun_09}}{{fun_09}}Hey {{string value=\"PlayerNickname\"}}, \n{{reaction type=\"Curiosity\"}}do you know when it is?{{fun_09}}{{fun_02 arg=\"0x080A\"}}\nOf course!\nNo clue...",
      "EUes": "{{reaction type=\"Happiness\"}}{{fun_09}}{{fun_09}}{{fun_09}}{{resetReaction}}Mm.{{pause frames=\"5\"}}.{{pause frames=\"5\"}}.{{pause frames=\"5\"}} ¡¿Eh?! {{reaction type=\"Intense\"}}¡¿La revista\n{{color id=\"2\"}}Siesta{{color id=\"0\"}}?!{{pause frames=\"10\"}} {{reaction type=\"Worry\"}}¡Te preguntaba por\nel cumple de {{color id=\"6\"}}Tom Nook{{color id=\"0\"}}!{{pause frames=\"20\"}}\n{{fun_09}}{{fun_09}}{{fun_09}}{{fun_09}}Eh, {{string value=\"PlayerNickname\"}}, {{reaction type=\"Curiosity\"}}¿tú sabes\ncuándo es?{{fun_09}}{{fun_02 arg=\"0x080A\"}}\n¡Pues claro!\nNi idea...",
      "EUfr": "{{reaction type=\"Happiness\"}}{{fun_09}}{{fun_09}}{{fun_09}}{{resetReaction}}.{{pause frames=\"5\"}}.{{pause frames=\"5\"}}.{{pause frames=\"5\"}} Hein?! {{reaction type=\"Intense\"}}{{color id=\"2\"}}Zen magazine{{color id=\"0\"}}?!{{pause frames=\"10\"}} {{reaction type=\"Worry\"}}Je\nvoulais juste connaître la\ndate d'anniversaire de {{color id=\"6\"}}Nook{{color id=\"0\"}}!{{pause frames=\"20\"}}\n{{fun_09}}{{fun_09}}{{fun_09}}{{fun_09}}Eh, {{string value=\"PlayerNickname\"}}!\n{{reaction type=\"Curiosity\"}}Tu la connais?{{fun_09}}{{fun_02 arg=\"0x080A\"}}\nBien sûr!\nAucune idée...",
      "EUit": "{{reaction type=\"Happiness\"}}{{fun_09}}{{fun_09}}{{fun_09}}{{resetReaction}}.{{pause frames=\"5\"}}.{{pause frames=\"5\"}}.{{pause frames=\"5\"}} Uh?! {{reaction type=\"Intense\"}}{{color id=\"2\"}}Rilassiamoci{{color id=\"0\"}}?!{{pause frames=\"10\"}}\n{{reaction type=\"Worry\"}}Volevo solo sapere quand'è\nil compleanno di {{color id=\"6\"}}Tom Nook{{color id=\"0\"}}!{{pause frames=\"20\"}}\n{{fun_09}}{{fun_09}}{{fun_09}}{{fun_09}}Ehi, {{string value=\"PlayerNickname\"}}, \n{{reaction type=\"Curiosity\"}}sai quand'è?{{fun_09}}{{fun_02 arg=\"0x080A\"}}\nMa certo!\nPer niente...",
      "JPja": "{{reaction type=\"Happiness\"}}{{fun_09}}{{fun_09}}{{fun_09}}{{resetReaction}}・{{pause frames=\"5\"}}・{{pause frames=\"5\"}}・{{pause frames=\"5\"}}って　{{reaction type=\"Intense\"}}そんなコト{{pause frames=\"10\"}}\nだれが　{{kanjiReplace charNum=\"1\" value=\"き\"}}聞いたのよー？！\n{{pause frames=\"5\"}}{{string value=\"Catchphrase\"}}？！\n{{reaction type=\"Worry\"}}アタイが　{{kanjiReplace charNum=\"1\" value=\"き\"}}聞いたのは\n{{color id=\"6\"}}たぬきち{{color id=\"0\"}}ちゃんの　たんじょう{{kanjiReplace charNum=\"1\" value=\"び\"}}日！{{pause frames=\"20\"}}\nまったくもー！\n{{fun_09}}{{fun_09}}{{fun_09}}{{fun_09}}{{string value=\"PlayerNickname\"}}ちゃんは\n{{reaction type=\"Curiosity\"}}{{kanjiReplace charNum=\"1\" value=\"し\"}}知ってたりする？{{fun_09}}{{fun_02 arg=\"0x080A\"}}\n{{kanjiReplace charNum=\"1\" value=\"し\"}}知ってるよ！\n{{kanjiReplace charNum=\"1\" value=\"し\"}}知らない・・・",
      "KRko": "{{reaction type=\"Happiness\"}}{{fun_09}}{{fun_09}}{{fun_09}}{{resetReaction}}・{{pause frames=\"5\"}}・{{pause frames=\"5\"}}・{{pause frames=\"5\"}}뭐？ {{reaction type=\"Intense\"}}누가 {{pause frames=\"10\"}}\n그런 거 물어봤어ー？！\n{{pause frames=\"5\"}}{{string value=\"Catchphrase\"}}？！\n{{reaction type=\"Worry\"}}내가 물어본 건\n{{color id=\"6\"}}너굴 {{color id=\"0\"}}아저씨의 생일이야！{{pause frames=\"20\"}}\n내가 못 살아ー！\n{{fun_09}}{{fun_09}}{{fun_09}}{{fun_09}}{{string value=\"PlayerNickname\"}}{{fun_0B arg=\"0x0100\"}}\n{{reaction type=\"Curiosity\"}}혹시 알고 있어？ {{fun_09}}{{fun_02 arg=\"0x080A\"}}\n알고 있어！\n몰라・・・",
      "USen": "{{reaction type=\"Happiness\"}}{{fun_09}}{{fun_09}}{{fun_09}}{{resetReaction}}.{{pause frames=\"5\"}}.{{pause frames=\"5\"}}.{{pause frames=\"5\"}}Huh?! {{reaction type=\"Intense\"}}{{color id=\"2\"}}Chillin' Magazine{{color id=\"0\"}}?!{{pause frames=\"10\"}}\n{{reaction type=\"Worry\"}}All I wanted to know was\n{{color id=\"6\"}}Tom Nook{{color id=\"0\"}}'s birthday!{{pause frames=\"20\"}}\n{{fun_09}}{{fun_09}}{{fun_09}}{{fun_09}}Hey {{string value=\"PlayerNickname\"}}, \n{{reaction type=\"Curiosity\"}}do you know when it is?{{fun_09}}{{fun_02 arg=\"0x080A\"}}\nOf course!\nNo clue..."
    }
  },
  {
    "label": "07",
    "attribute": "0x0000000008000000",
    "locale": {
      "EUde": "",
      "EUen": "",
      "EUes": "",
      "EUfr": "",
      "EUit": "",
      "JPja": "",
      "KRko": "",
      "USen": ""
    }
  },
  {
    "label": "08",
    "attribute": "0x0000000009000000",
    "locale": {
      "EUde": "{{resetReaction}}{{fun_09}}{{fun_09}}{{fun_09}}{{fun_09}}{{fun_09}}{{reaction type=\"Amazed\"}}Wow! {{string value=\"PlayerNickname\"}}! Wer hätte\ngedacht, dass du so\ngewissenhaft bist?\n{{reaction type=\"Worry\"}}Ich wünschte, mein Bruder\nwäre wie du, {{string value=\"PlayerNickname\"}}{{pause frames=\"5\"}}.{{pause frames=\"5\"}}.{{pause frames=\"5\"}}.{{pause frames=\"5\"}}\n{{reaction type=\"Sorrow\"}}Schnüff{{pause frames=\"5\"}}.{{pause frames=\"5\"}}.{{pause frames=\"5\"}}.{{pause frames=\"5\"}}{{fun_09}}",
      "EUen": "{{resetReaction}}{{fun_09}}{{fun_09}}{{fun_09}}{{fun_09}}{{fun_09}}{{reaction type=\"Amazed\"}}Wow, {{string value=\"PlayerNickname\"}}! Who knew\nyou cared so much?\n\n{{reaction type=\"Worry\"}}I wish my brother was\nlike you, {{string value=\"PlayerNickname\"}}{{pause frames=\"5\"}}.{{pause frames=\"5\"}}.{{pause frames=\"5\"}}.{{pause frames=\"5\"}}\n{{reaction type=\"Sorrow\"}}Sniff{{pause frames=\"5\"}}.{{pause frames=\"5\"}}.{{pause frames=\"5\"}}.{{pause frames=\"5\"}}{{fun_09}}",
      "EUes": "{{resetReaction}}{{fun_09}}{{fun_09}}{{fun_09}}{{fun_09}}{{fun_09}}{{reaction type=\"Amazed\"}}¡Guau, {{string value=\"PlayerNickname\"}}! ¿Quién\nlo diría? ¡Lo sabes!\n\n{{reaction type=\"Worry\"}}Ojalá mi hermano fuera\ncomo tú, {{string value=\"PlayerNickname\"}}{{pause frames=\"5\"}}.{{pause frames=\"5\"}}.{{pause frames=\"5\"}}.{{pause frames=\"5\"}} {{reaction type=\"Sorrow\"}}Bua,\nbuaaa{{pause frames=\"5\"}}.{{pause frames=\"5\"}}.{{pause frames=\"5\"}}.{{pause frames=\"5\"}}{{fun_09}}",
      "EUfr": "{{resetReaction}}{{fun_09}}{{fun_09}}{{fun_09}}{{fun_09}}{{fun_09}}{{reaction type=\"Amazed\"}}Ouah, {{string value=\"PlayerNickname\"}}! Qui\naurait pu se douter que tu\nétais si prévenant{{gender m=\"\" f=\"e\"}}!\n{{reaction type=\"Worry\"}}J'aimerais que mon frère\nte ressemble, {{string value=\"PlayerNickname\"}}{{pause frames=\"5\"}}.{{pause frames=\"5\"}}.{{pause frames=\"5\"}}.{{pause frames=\"5\"}}\n{{reaction type=\"Sorrow\"}}Sniff{{pause frames=\"5\"}}.{{pause frames=\"5\"}}.{{pause frames=\"5\"}}.{{pause frames=\"5\"}}{{fun_09}}",
      "EUit": "{{resetReaction}}{{fun_09}}{{fun_09}}{{fun_09}}{{fun_09}}{{fun_09}}{{reaction type=\"Amazed\"}}Wow, {{string value=\"PlayerNickname\"}}! Chi si\nsarebbe aspettato una tale\npremura da parte tua...\n{{reaction type=\"Worry\"}}Vorrei che mio fratello\nfosse come te,\n{{string value=\"PlayerNickname\"}}{{pause frames=\"5\"}}.{{pause frames=\"5\"}}.{{pause frames=\"5\"}}.{{pause frames=\"5\"}} {{reaction type=\"Sorrow\"}}Sniff{{pause frames=\"5\"}}.{{pause frames=\"5\"}}.{{pause frames=\"5\"}}.{{pause frames=\"5\"}}{{fun_09}}",
      "JPja": "{{resetReaction}}{{fun_09}}{{fun_09}}{{fun_09}}{{fun_09}}{{fun_09}}{{reaction type=\"Amazed\"}}わぁ～、{{string value=\"PlayerNickname\"}}くんって\n{{kanjiReplace charNum=\"1\" value=\"み\"}}見かけによらず\nマメなんだねぇ～！\n{{reaction type=\"Worry\"}}ボクにも\n{{string value=\"PlayerNickname\"}}くんみたいな\n{{kanjiReplace charNum=\"2\" value=\"きょうだい\"}}兄弟が　いれば{{pause frames=\"5\"}}・{{pause frames=\"5\"}}・{{pause frames=\"5\"}}・{{pause frames=\"5\"}}\n{{reaction type=\"Sorrow\"}}うえぇ{{pause frames=\"3\"}}ぇ{{pause frames=\"3\"}}ぇ{{pause frames=\"3\"}}ぇ{{pause frames=\"3\"}}ーん{{fun_09}}",
      "KRko": "{{resetReaction}}{{fun_09}}{{fun_09}}{{fun_09}}{{fun_09}}{{fun_09}}{{reaction type=\"Amazed\"}}와～ {{string value=\"PlayerNickname\"}}{{fun_0B arg=\"0x0100\"}}\n겉보기완 달리\n꼼꼼하구나～！\n{{reaction type=\"Worry\"}}나도\n{{string value=\"PlayerNickname\"}} 같은\n형제가 있었더라면{{pause frames=\"5\"}}・{{pause frames=\"5\"}}・{{pause frames=\"5\"}}・{{pause frames=\"5\"}}\n{{reaction type=\"Sorrow\"}}우{{pause frames=\"3\"}}와{{pause frames=\"3\"}}와{{pause frames=\"3\"}}아{{pause frames=\"3\"}}앙{{fun_09}}",
      "USen": "{{resetReaction}}{{fun_09}}{{fun_09}}{{fun_09}}{{fun_09}}{{fun_09}}{{reaction type=\"Amazed\"}}Wow, {{string value=\"PlayerNickname\"}}! Who knew\nyou cared so much?\n\n{{reaction type=\"Worry\"}}I wish my brother was\nlike you, {{string value=\"PlayerNickname\"}}{{pause frames=\"5\"}}.{{pause frames=\"5\"}}.{{pause frames=\"5\"}}.{{pause frames=\"5\"}}\n{{reaction type=\"Sorrow\"}}Sniff{{pause frames=\"5\"}}.{{pause frames=\"5\"}}.{{pause frames=\"5\"}}.{{pause frames=\"5\"}}{{fun_09}}"
    }
  },
  {
    "label": "09",
    "attribute": "0x00000000FE000000",
    "locale": {
      "EUde": "{{fun_09}}{{fun_09}}{{reaction type=\"Amazed\"}}Hey, {{color id=\"6\"}}{{pause frames=\"5\"}}{{string index=\"1\"}}{{color id=\"0\"}}!{{pause frames=\"20\"}}\n{{reaction type=\"Distress\"}}Nicht weinen! {{pause frames=\"5\"}}{{capitalizeLetter}}{{string value=\"Catchphrase\"}}!{{fun_03 arg=\"0x01\"}}{{fun_09}}{{fun_03 arg=\"0x01\"}}",
      "EUen": "{{fun_09}}{{fun_09}}{{reaction type=\"Amazed\"}}Hey, {{color id=\"6\"}}{{pause frames=\"5\"}}{{string index=\"1\"}}{{color id=\"0\"}}!{{pause frames=\"20\"}}\n{{reaction type=\"Distress\"}}Don't cry, {{pause frames=\"5\"}}{{string value=\"Catchphrase\"}}!{{fun_03 arg=\"0x01\"}}{{fun_09}}{{fun_03 arg=\"0x01\"}}",
      "EUes": "{{fun_09}}{{fun_09}}{{reaction type=\"Amazed\"}}¡Eh, {{color id=\"6\"}}{{pause frames=\"5\"}}{{string index=\"1\"}}{{color id=\"0\"}}!{{pause frames=\"20\"}} {{reaction type=\"Distress\"}}¡No llores,\n{{pause frames=\"5\"}}{{string value=\"Catchphrase\"}}!{{fun_03 arg=\"0x01\"}}{{fun_09}}{{fun_03 arg=\"0x01\"}}",
      "EUfr": "{{fun_09}}{{fun_09}}{{reaction type=\"Amazed\"}}Eh, {{color id=\"6\"}}{{pause frames=\"5\"}}{{string index=\"1\"}}{{color id=\"0\"}}!{{pause frames=\"20\"}}\n{{reaction type=\"Distress\"}}Ne pleure pas, {{pause frames=\"5\"}}{{string value=\"Catchphrase\"}}!{{fun_03 arg=\"0x01\"}}{{fun_09}}{{fun_03 arg=\"0x01\"}}",
      "EUit": "{{fun_09}}{{fun_09}}{{reaction type=\"Amazed\"}}Ehi, {{color id=\"6\"}}{{pause frames=\"5\"}}{{string index=\"1\"}}{{color id=\"0\"}}!{{pause frames=\"20\"}}\n{{reaction type=\"Distress\"}}Non piangere, {{pause frames=\"5\"}}{{string value=\"Catchphrase\"}}!{{fun_03 arg=\"0x01\"}}{{fun_09}}{{fun_03 arg=\"0x01\"}}",
      "JPja": "{{fun_09}}{{fun_09}}{{reaction type=\"Amazed\"}}ちょっと、{{color id=\"6\"}}{{pause frames=\"5\"}}{{string index=\"1\"}}{{color id=\"0\"}}ちゃん！{{pause frames=\"20\"}}\n{{reaction type=\"Distress\"}}{{kanjiReplace charNum=\"1\" value=\"な\"}}泣かないでよー！　{{pause frames=\"5\"}}{{string value=\"Catchphrase\"}}！{{fun_03 arg=\"0x01\"}}{{fun_09}}{{fun_03 arg=\"0x01\"}}",
      "KRko": "{{fun_09}}{{fun_09}}{{reaction type=\"Amazed\"}}얘는 참， {{color id=\"6\"}}{{pause frames=\"5\"}}{{string index=\"1\"}}{{color id=\"0\"}}{{fun_0B arg=\"0x0400\"}}！ {{pause frames=\"20\"}}\n{{reaction type=\"Distress\"}}울지마ー！ {{pause frames=\"5\"}}{{string value=\"Catchphrase\"}}！ {{fun_03 arg=\"0x0100\"}}{{fun_09}}{{fun_03 arg=\"0x0100\"}}",
      "USen": "{{fun_09}}{{fun_09}}{{reaction type=\"Amazed\"}}Hey, {{color id=\"6\"}}{{pause frames=\"5\"}}{{string index=\"1\"}}{{color id=\"0\"}}!{{pause frames=\"20\"}}\n{{reaction type=\"Distress\"}}Don't cry, {{pause frames=\"5\"}}{{string value=\"Catchphrase\"}}!{{fun_03 arg=\"0x01\"}}{{fun_09}}{{fun_03 arg=\"0x01\"}}"
    }
  },
  {
    "label": "10",
    "attribute": "0x000000000B000000",
    "locale": {
      "EUde": "{{resetReaction}}{{fun_09}}{{fun_09}}{{fun_09}}{{reaction type=\"Amazed\"}}Waaaaas?!?{{pause frames=\"10\"}} Schäm dich,\n{{string value=\"PlayerNickname\"}}! Das ist echt\nschwach! {{pause frames=\"5\"}}{{capitalizeLetter}}{{string value=\"Catchphrase\"}}! {{reaction type=\"Happiness\"}}Buh!{{fun_09}}",
      "EUen": "{{resetReaction}}{{fun_09}}{{fun_09}}{{fun_09}}{{reaction type=\"Amazed\"}}Whaaaat?!{{pause frames=\"10\"}} Shame on you,\n{{string value=\"PlayerNickname\"}}! That's totally\nweak, {{pause frames=\"5\"}}{{string value=\"Catchphrase\"}}! {{reaction type=\"Happiness\"}}Boooooo!{{fun_09}}",
      "EUes": "{{resetReaction}}{{fun_09}}{{fun_09}}{{fun_09}}{{reaction type=\"Amazed\"}}¿Que qué?{{pause frames=\"10\"}} ¡Mal, {{string value=\"PlayerNickname\"}}!\n¡No has hecho los deberes,\n{{pause frames=\"5\"}}{{string value=\"Catchphrase\"}}! {{reaction type=\"Happiness\"}}¡Buuuuuh!{{fun_09}}",
      "EUfr": "{{resetReaction}}{{fun_09}}{{fun_09}}{{fun_09}}{{reaction type=\"Amazed\"}}Quoi?!{{pause frames=\"10\"}} Tu n'as pas honte,\n{{string value=\"PlayerNickname\"}}! C'est vraiment\nnul, {{pause frames=\"5\"}}{{string value=\"Catchphrase\"}}! {{reaction type=\"Happiness\"}}Ouuuuuuh!{{fun_09}}",
      "EUit": "{{resetReaction}}{{fun_09}}{{fun_09}}{{fun_09}}{{reaction type=\"Amazed\"}}Cooosa?!{{pause frames=\"10\"}} Vergognati,\n{{string value=\"PlayerNickname\"}}! Che tristezza,\n{{pause frames=\"5\"}}{{string value=\"Catchphrase\"}}! {{reaction type=\"Happiness\"}}Buuuuuh!{{fun_09}}",
      "JPja": "{{resetReaction}}{{fun_09}}{{fun_09}}{{fun_09}}{{reaction type=\"Amazed\"}}わぁ～っ！{{pause frames=\"10\"}}　{{string value=\"PlayerNickname\"}}くん\n{{kanjiReplace charNum=\"1\" value=\"し\"}}知らないのぉ～？\n\n{{reaction type=\"Happiness\"}}プププ！{{pause frames=\"10\"}}\nキミらしくないなぁ～{{pause frames=\"5\"}}\nダメダメだよぉ～、{{pause frames=\"5\"}}{{string value=\"Catchphrase\"}}{{fun_09}}",
      "KRko": "{{resetReaction}}{{fun_09}}{{fun_09}}{{fun_09}}{{reaction type=\"Amazed\"}}와～앗！ {{pause frames=\"10\"}}{{string value=\"PlayerNickname\"}}도\n몰라아～？\n\n{{reaction type=\"Happiness\"}}땡～！ {{pause frames=\"10\"}}\n너 답지 않아아～{{pause frames=\"5\"}}\n그럼 안돼애～， {{pause frames=\"5\"}}{{string value=\"Catchphrase\"}}{{fun_09}}",
      "USen": "{{resetReaction}}{{fun_09}}{{fun_09}}{{fun_09}}{{reaction type=\"Amazed\"}}Whaaaat?!{{pause frames=\"10\"}} Shame on you,\n{{string value=\"PlayerNickname\"}}! That's totally\nweak, {{pause frames=\"5\"}}{{string value=\"Catchphrase\"}}! {{reaction type=\"Happiness\"}}Boooooo!{{fun_09}}"
    }
  },
  {
    "label": "11",
    "attribute": "0x00000000FE000000",
    "locale": {
      "EUde": "{{fun_09}}{{fun_09}}{{fun_09}}{{fun_09}}.{{pause frames=\"5\"}}.{{pause frames=\"5\"}}.{{pause frames=\"5\"}} Na ja, {{pause frames=\"5\"}}{{reaction type=\"Resignation\"}}es wäre vielleicht\nauch nicht richtig von mir,\nes zu sagen{{pause frames=\"5\"}}.{{pause frames=\"5\"}}.{{pause frames=\"5\"}}.{{pause frames=\"5\"}}",
      "EUen": "{{fun_09}}{{fun_09}}{{fun_09}}{{fun_09}}.{{pause frames=\"5\"}}.{{pause frames=\"5\"}}.{{pause frames=\"5\"}}Well, {{pause frames=\"5\"}}{{reaction type=\"Resignation\"}}it's not really my\nplace to say it{{pause frames=\"5\"}}.{{pause frames=\"5\"}}.{{pause frames=\"5\"}}.{{pause frames=\"5\"}}",
      "EUes": "{{fun_09}}{{fun_09}}{{fun_09}}{{fun_09}}Mm.{{pause frames=\"5\"}}.{{pause frames=\"5\"}}.{{pause frames=\"5\"}} Bueno, {{pause frames=\"5\"}}{{reaction type=\"Resignation\"}}no creo que\nseas el más adecuado para\ndecir eso{{pause frames=\"5\"}}.{{pause frames=\"5\"}}.{{pause frames=\"5\"}}.{{pause frames=\"5\"}}",
      "EUfr": "{{fun_09}}{{fun_09}}{{fun_09}}{{fun_09}}.{{pause frames=\"5\"}}.{{pause frames=\"5\"}}.{{pause frames=\"5\"}} Bien, {{pause frames=\"5\"}}{{reaction type=\"Resignation\"}}ce n'est pas\nvraiment à moi de le dire{{pause frames=\"5\"}}.{{pause frames=\"5\"}}.{{pause frames=\"5\"}}.{{pause frames=\"5\"}}",
      "EUit": " {{fun_09}}{{fun_09}}{{fun_09}}{{fun_09}}.{{pause frames=\"5\"}}.{{pause frames=\"5\"}}.{{pause frames=\"5\"}} Beh, {{pause frames=\"5\"}}{{reaction type=\"Resignation\"}}non dovrei essere\nio a dirlo{{pause frames=\"5\"}}.{{pause frames=\"5\"}}.{{pause frames=\"5\"}}.{{pause frames=\"5\"}}",
      "JPja": "{{fun_09}}{{fun_09}}{{fun_09}}{{fun_09}}・{{pause frames=\"5\"}}・{{pause frames=\"5\"}}・{{pause frames=\"5\"}}って、{{pause frames=\"5\"}}\n{{reaction type=\"Resignation\"}}アンタが　{{kanjiReplace charNum=\"1\" value=\"い\"}}言うコトじゃ\nないけどね{{pause frames=\"5\"}}・{{pause frames=\"5\"}}・{{pause frames=\"5\"}}・{{pause frames=\"5\"}}{{string value=\"Catchphrase\"}}",
      "KRko": "{{fun_09}}{{fun_09}}{{fun_09}}{{fun_09}}・{{pause frames=\"5\"}}・{{pause frames=\"5\"}}・{{pause frames=\"5\"}}{{pause frames=\"5\"}}\n{{reaction type=\"Resignation\"}}네가 할 말은\n아니지{{pause frames=\"5\"}}・{{pause frames=\"5\"}}・{{pause frames=\"5\"}}・{{pause frames=\"5\"}}{{string value=\"Catchphrase\"}}",
      "USen": "{{fun_09}}{{fun_09}}{{fun_09}}{{fun_09}}.{{pause frames=\"5\"}}.{{pause frames=\"5\"}}.{{pause frames=\"5\"}}Well, {{pause frames=\"5\"}}{{reaction type=\"Resignation\"}}it's not really my\nplace to say it{{pause frames=\"5\"}}.{{pause frames=\"5\"}}.{{pause frames=\"5\"}}.{{pause frames=\"5\"}}"
    }
  },
  {
    "label": "12",
    "attribute": "0x000000000D000000",
    "locale": {
      "EUde": "{{fun_09}}{{fun_09}}{{fun_09}}{{reaction type=\"Distress\"}}Ich auch, {{pause frames=\"10\"}}{{string value=\"Catchphrase\"}}.\n\n\n{{fun_09}}{{resetReaction}}{{fun_09}}{{reaction type=\"Amazed\"}}Hey! {{reaction type=\"Curiosity\"}}Sind Bananen eigentlich\nnur ein Snack? Oder sind\nsie eine richtige Mahlzeit?{{fun_09}}",
      "EUen": "{{fun_09}}{{fun_09}}{{fun_09}}{{reaction type=\"Distress\"}}Me too, {{pause frames=\"10\"}}{{string value=\"Catchphrase\"}}.\n\n\n{{fun_09}}{{resetReaction}}{{fun_09}}{{reaction type=\"Amazed\"}}Hey! {{reaction type=\"Curiosity\"}}Do you think bananas\ncount as just a snack?\nOr is it a whole meal?{{fun_09}}",
      "EUes": "{{fun_09}}{{fun_09}}{{fun_09}}{{reaction type=\"Distress\"}}Yo estoy igual, {{pause frames=\"10\"}}{{string value=\"Catchphrase\"}}.\n\n\n{{fun_09}}{{resetReaction}}{{fun_09}}{{reaction type=\"Amazed\"}}¡Eh! {{reaction type=\"Curiosity\"}}¿Tú crees que los\nplátanos podrían pasar por\naperitivo? ¿O no?{{fun_09}}",
      "EUfr": "{{fun_09}}{{fun_09}}{{fun_09}}{{reaction type=\"Distress\"}}Moi aussi, {{pause frames=\"10\"}}{{string value=\"Catchphrase\"}}.\n{{fun_09}}{{resetReaction}}{{fun_09}}{{reaction type=\"Amazed\"}}Hé! {{reaction type=\"Curiosity\"}}Tu crois que les\nbananes sont un en-cas?\nOu c'est un plat\nà part entière?{{fun_09}}",
      "EUit": "{{fun_09}}{{fun_09}}{{fun_09}}{{reaction type=\"Distress\"}}Anch'io, {{pause frames=\"10\"}}{{string value=\"Catchphrase\"}}.\n\n\n{{fun_09}}{{resetReaction}}{{fun_09}}{{reaction type=\"Amazed\"}}Ehi! {{reaction type=\"Curiosity\"}}Pensi che le banane\ncontino come merendine?\nO sono un pasto intero?{{fun_09}}",
      "JPja": "{{fun_09}}{{fun_09}}{{fun_09}}{{reaction type=\"Distress\"}}ボクもぉ～、{{pause frames=\"10\"}}{{string value=\"Catchphrase\"}}\n\n\n{{fun_09}}{{resetReaction}}{{fun_09}}{{reaction type=\"Amazed\"}}ねぇ、{{pause frames=\"5\"}}そういえば{{pause frames=\"5\"}}・{{pause frames=\"5\"}}・{{pause frames=\"10\"}}・{{pause frames=\"20\"}}\n{{reaction type=\"Curiosity\"}}バナナって　おやつに\n{{kanjiReplace charNum=\"1\" value=\"はい\"}}入るのかなぁ～？　{{pause frames=\"5\"}}{{string value=\"Catchphrase\"}}？{{fun_09}}",
      "KRko": "{{fun_09}}{{fun_09}}{{fun_09}}{{reaction type=\"Distress\"}}나두～， {{pause frames=\"10\"}}{{string value=\"Catchphrase\"}}\n\n\n{{fun_09}}{{resetReaction}}{{fun_09}}{{reaction type=\"Amazed\"}}근데， {{pause frames=\"5\"}}그러고 보니{{pause frames=\"5\"}}・{{pause frames=\"5\"}}・{{pause frames=\"10\"}}・{{pause frames=\"20\"}}\n{{reaction type=\"Curiosity\"}}바나나는 간식 종류에\n들어가아～？ {{pause frames=\"5\"}}{{string value=\"Catchphrase\"}}？ {{fun_09}}",
      "USen": "{{fun_09}}{{fun_09}}{{fun_09}}{{reaction type=\"Distress\"}}Me too, {{pause frames=\"10\"}}{{string value=\"Catchphrase\"}}.\n\n\n{{fun_09}}{{resetReaction}}{{fun_09}}{{reaction type=\"Amazed\"}}Hey! {{reaction type=\"Curiosity\"}}Do you think bananas\ncount as just a snack?\nOr is it a whole meal?{{fun_09}}"
    }
  },
  {
    "label": "13",
    "attribute": "0x00000000FF000000",
    "locale": {
      "EUde": "{{resetReaction}}{{fun_09}}{{fun_09}}{{fun_09}}{{resetReaction}}Du stellst die\nmerkwürdigsten Fragen{{pause frames=\"5\"}}.{{pause frames=\"5\"}}.{{pause frames=\"5\"}}.\n{{fun_09}}{{fun_09}}{{fun_09}}{{fun_09}}{{resetReaction}}Hey {{string value=\"PlayerNickname\"}}, wie denkst\ndu darüber, {{pause frames=\"5\"}}{{string value=\"Catchphrase\"}}?{{fun_09}}{{fun_02 arg=\"0x0F11\"}}\nSnack!\nMahlzeit!",
      "EUen": "{{resetReaction}}{{fun_09}}{{fun_09}}{{fun_09}}{{resetReaction}}You always ask the\nweirdest questions{{pause frames=\"5\"}}.{{pause frames=\"5\"}}.{{pause frames=\"5\"}}.\n{{fun_09}}{{fun_09}}{{fun_09}}{{fun_09}}{{resetReaction}}Hey {{capitalizeLetter}}{{string value=\"PlayerNickname\"}}, what do\nyou think, {{pause frames=\"5\"}}{{string value=\"Catchphrase\"}}?{{fun_09}}{{fun_02 arg=\"0x0F11\"}}\nSnack!\nMeal!",
      "EUes": "{{resetReaction}}{{fun_09}}{{fun_09}}{{fun_09}}{{resetReaction}}Tú y tus preguntas\ndelirantes{{pause frames=\"5\"}}.{{pause frames=\"5\"}}.{{pause frames=\"5\"}}.\n\n{{fun_09}}{{fun_09}}{{fun_09}}{{fun_09}}{{resetReaction}}Eh, {{string value=\"PlayerNickname\"}}, ¿qué opinas\ntú, {{pause frames=\"5\"}}{{string value=\"Catchphrase\"}}?{{fun_09}}{{fun_02 arg=\"0x0F11\"}}\n¡Aperitivo!\n¡Comida!",
      "EUfr": "{{resetReaction}}{{fun_09}}{{fun_09}}{{fun_09}}{{resetReaction}}Tu poses toujours des\nquestions étranges{{pause frames=\"5\"}}.{{pause frames=\"5\"}}.{{pause frames=\"5\"}}.\n{{fun_09}}{{fun_09}}{{fun_09}}{{fun_09}}{{resetReaction}}Eh{{capitalizeLetter}} {{string value=\"PlayerNickname\"}}, tu penses\nà quoi, {{pause frames=\"5\"}}{{string value=\"Catchphrase\"}}?{{fun_09}}{{fun_02 arg=\"0x0F11\"}}\nA grignoter!\nA manger!",
      "EUit": "{{resetReaction}}{{fun_09}}{{fun_09}}{{fun_09}}{{resetReaction}}Fai sempre le domande\npiù strampalate{{pause frames=\"5\"}}.{{pause frames=\"5\"}}.{{pause frames=\"5\"}}.\n{{fun_09}}{{fun_09}}{{fun_09}}{{fun_09}}{{resetReaction}}Ehi, {{capitalizeLetter}}{{string value=\"PlayerNickname\"}}, che cosa\nne pensi, {{pause frames=\"5\"}}{{string value=\"Catchphrase\"}}?{{fun_09}}{{fun_02 arg=\"0x0F11\"}}\nMerendina!\nPasto!",
      "JPja": "{{resetReaction}}{{fun_09}}{{fun_09}}{{fun_09}}{{resetReaction}}アンタって\n{{kanjiReplace charNum=\"2\" value=\"あいか\"}}相変わらず　ビミョーなトコ\nついてくるね{{pause frames=\"5\"}}・{{pause frames=\"5\"}}・{{pause frames=\"5\"}}・\n{{fun_09}}{{fun_09}}{{fun_09}}{{fun_09}}{{resetReaction}}{{string value=\"PlayerNickname\"}}ちゃんは\nどう{{kanjiReplace charNum=\"1\" value=\"おも\"}}思う？　{{pause frames=\"5\"}}{{string value=\"Catchphrase\"}}？{{fun_09}}{{fun_02 arg=\"0x0F11\"}}\nおやつ\nおかず",
      "KRko": "{{resetReaction}}{{fun_09}}{{fun_09}}{{fun_09}}{{resetReaction}}넌\n언제나 대답하기 곤란한\n질문만 한다니까{{pause frames=\"5\"}}・{{pause frames=\"5\"}}・{{pause frames=\"5\"}}・\n{{fun_09}}{{fun_09}}{{fun_09}}{{fun_09}}{{resetReaction}}{{string value=\"PlayerNickname\"}}의 생각은\n어때？ {{pause frames=\"5\"}}{{string value=\"Catchphrase\"}}？ {{fun_09}}{{fun_02 arg=\"0x0F11\"}}\n간식\n반찬",
      "USen": "{{resetReaction}}{{fun_09}}{{fun_09}}{{fun_09}}{{resetReaction}}You always ask the\nweirdest questions{{pause frames=\"5\"}}.{{pause frames=\"5\"}}.{{pause frames=\"5\"}}.\n{{fun_09}}{{fun_09}}{{fun_09}}{{fun_09}}{{resetReaction}}Hey {{capitalizeLetter}}{{string value=\"PlayerNickname\"}}, what do\nyou think, {{pause frames=\"5\"}}{{string value=\"Catchphrase\"}}?{{fun_09}}{{fun_02 arg=\"0x0F11\"}}\nSnack!\nMeal!"
    }
  },
  {
    "label": "14",
    "attribute": "0x000000000F000000",
    "locale": {
      "EUde": "",
      "EUen": "",
      "EUes": "",
      "EUfr": "",
      "EUit": "",
      "JPja": "",
      "KRko": "",
      "USen": ""
    }
  },
  {
    "label": "15",
    "attribute": "0x0000000010000000",
    "locale": {
      "EUde": "{{fun_09}}{{fun_09}}{{fun_09}}{{fun_09}}{{fun_09}}{{reaction type=\"Worry\"}}Waaaaaas?!?{{pause frames=\"20\"}} Aber {{pause frames=\"5\"}}mein\nVater isst sehr gerne\nBananen als Hauptmahlzeit!\nDenk mal darüber nach!\nDein Gehirn wird dabei\nheißlaufen!{{fun_09}}",
      "EUen": "{{fun_09}}{{fun_09}}{{fun_09}}{{fun_09}}{{fun_09}}{{reaction type=\"Worry\"}}Whaaaaaat?!{{pause frames=\"20\"}} But {{pause frames=\"5\"}}my dad\nlikes to eat a banana\nduring his meal!\nThink on that for a while.\nIt'll melt your brain!{{fun_09}}",
      "EUes": "{{fun_09}}{{fun_09}}{{fun_09}}{{fun_09}}{{fun_09}}{{reaction type=\"Worry\"}}¡¿Quéeeeee?!{{pause frames=\"20\"}} ¡Pero {{pause frames=\"5\"}}si a mi\npadre le gusta comer\nplátanos durante la comida!\nA ver si te crees que\nsomos todos como tú.{{fun_09}}",
      "EUfr": "{{fun_09}}{{fun_09}}{{fun_09}}{{fun_09}}{{fun_09}}{{reaction type=\"Worry\"}}Quoi?!{{pause frames=\"20\"}} Mais{{pause frames=\"5\"}} mon père\nadore manger des bananes\npendant les repas!\nRéfléchis un peu. Si ça ne\nte fait pas\nfondre le cerveau!{{fun_09}}",
      "EUit": "{{fun_09}}{{fun_09}}{{fun_09}}{{fun_09}}{{fun_09}}{{reaction type=\"Worry\"}}Cooosa?!{{pause frames=\"20\"}} Ma {{pause frames=\"5\"}}al mio papà\npiace mangiare una banana\ndurante il suo pasto!\nPensaci per un momento.\nTi si fonderà il cervello!{{fun_09}}",
      "JPja": "{{fun_09}}{{fun_09}}{{fun_09}}{{fun_09}}{{fun_09}}{{reaction type=\"Worry\"}}ええぇ～～～！？{{pause frames=\"20\"}}\nでも、{{pause frames=\"5\"}}お{{kanjiReplace charNum=\"1\" value=\"とう\"}}父さんは\nバナナを　おかずにしてたよぉ～？{{fun_09}}",
      "KRko": "{{fun_09}}{{fun_09}}{{fun_09}}{{fun_09}}{{fun_09}}{{reaction type=\"Worry\"}}뭐어～～～！？{{pause frames=\"20\"}}\n어， {{pause frames=\"5\"}}울 아빠는\n바나나가 반찬이라 했는데～？{{fun_09}}",
      "USen": "{{fun_09}}{{fun_09}}{{fun_09}}{{fun_09}}{{fun_09}}{{reaction type=\"Worry\"}}Whaaaaaat?!{{pause frames=\"20\"}} But {{pause frames=\"5\"}}my dad\nlikes to eat a banana\nduring his meal!\nThink on that for a while.\nIt'll melt your brain!{{fun_09}}"
    }
  },
  {
    "label": "16",
    "attribute": "0x00000000FE000000",
    "locale": {
      "EUde": "{{fun_09}}{{fun_09}}{{fun_09}}{{fun_09}}{{capitalizeLetter}}{{color id=\"6\"}}{{string index=\"1\"}}{{color id=\"0\"}}, du kommst\noffenbar aus schwierigen\nVerhältnissen{{pause frames=\"5\"}}.{{pause frames=\"5\"}}.{{pause frames=\"5\"}}.{{pause frames=\"5\"}} {{capitalizeLetter}}{{string value=\"Catchphrase\"}}.",
      "EUen": "{{fun_09}}{{fun_09}}{{fun_09}}{{fun_09}}{{capitalizeLetter}}{{color id=\"6\"}}{{string index=\"1\"}}{{color id=\"0\"}},\nyour family seems really\nmessed up{{pause frames=\"5\"}}.{{pause frames=\"5\"}}.{{pause frames=\"5\"}}.{{pause frames=\"5\"}}{{string value=\"Catchphrase\"}}.",
      "EUes": "{{fun_09}}{{fun_09}}{{fun_09}}{{fun_09}}{{capitalizeLetter}}{{color id=\"6\"}}{{string index=\"1\"}}{{color id=\"0\"}}, para mí que tu\nfamilia tiene un problema\ngrave{{pause frames=\"5\"}}.{{pause frames=\"5\"}}.{{pause frames=\"5\"}}.{{pause frames=\"5\"}} {{capitalizeLetter}}{{string value=\"Catchphrase\"}}.",
      "EUfr": "{{fun_09}}{{fun_09}}{{fun_09}}{{fun_09}}{{capitalizeLetter}}{{color id=\"6\"}}{{string index=\"1\"}}{{color id=\"0\"}}, on dirait que\nta famille a de sacrés\nproblèmes{{pause frames=\"5\"}}.{{pause frames=\"5\"}}.{{pause frames=\"5\"}}.{{pause frames=\"5\"}} {{string value=\"Catchphrase\"}}.",
      "EUit": "{{fun_09}}{{fun_09}}{{fun_09}}{{fun_09}}{{capitalizeLetter}}{{color id=\"6\"}}{{string index=\"1\"}}{{color id=\"0\"}},\nla tua famiglia sembra\ncosì strana{{pause frames=\"5\"}}.{{pause frames=\"5\"}}.{{pause frames=\"5\"}}.{{pause frames=\"5\"}} {{string value=\"Catchphrase\"}}.",
      "JPja": "{{fun_09}}{{fun_09}}{{fun_09}}{{fun_09}}{{color id=\"6\"}}{{string index=\"1\"}}{{color id=\"0\"}}ちゃんの\n{{kanjiReplace charNum=\"2\" value=\"かてい\"}}家庭かんきょうって\n{{reaction type=\"Worry\"}}フクザツそうだね・{{pause frames=\"5\"}}・{{pause frames=\"5\"}}・{{pause frames=\"5\"}}{{string value=\"Catchphrase\"}}",
      "KRko": "{{fun_09}}{{fun_09}}{{fun_09}}{{fun_09}}{{color id=\"6\"}}{{string index=\"1\"}}{{color id=\"0\"}}네\n가정 환경은 왠지\n{{reaction type=\"Worry\"}}복잡해 보여・{{pause frames=\"5\"}}・{{pause frames=\"5\"}}・{{pause frames=\"5\"}}{{string value=\"Catchphrase\"}}",
      "USen": "{{fun_09}}{{fun_09}}{{fun_09}}{{fun_09}}{{capitalizeLetter}}{{color id=\"6\"}}{{string index=\"1\"}}{{color id=\"0\"}},\nyour family seems really\nmessed up{{pause frames=\"5\"}}.{{pause frames=\"5\"}}.{{pause frames=\"5\"}}.{{pause frames=\"5\"}}{{string value=\"Catchphrase\"}}."
    }
  },
  {
    "label": "17",
    "attribute": "0x0000000012000000",
    "locale": {
      "EUde": "{{fun_09}}{{fun_09}}{{fun_09}}{{fun_09}}{{fun_09}}{{reaction type=\"Happiness\"}}Klar sind Bananen eine\nrichtige Mahlzeit!{{pressButton}} {{reaction type=\"Love\"}}Lecker...\nwie zu Hause bei Mama{{pause frames=\"5\"}}.{{pause frames=\"5\"}}.{{pause frames=\"5\"}}.{{pause frames=\"5\"}}{{fun_09}}",
      "EUen": "{{fun_09}}{{fun_09}}{{fun_09}}{{fun_09}}{{fun_09}}{{reaction type=\"Happiness\"}}I think they're a meal, too!{{pressButton}}\n{{reaction type=\"Love\"}}Bananas remind me of my\nmom's home cooking{{pause frames=\"5\"}}.{{pause frames=\"5\"}}.{{pause frames=\"5\"}}.{{pause frames=\"5\"}}{{fun_09}}",
      "EUes": "{{fun_09}}{{fun_09}}{{fun_09}}{{fun_09}}{{fun_09}}{{reaction type=\"Happiness\"}}¡Piensas igual que yo!{{pressButton}}\n{{reaction type=\"Love\"}}Los plátanos me recuerdan\na los guisos de mamá{{pause frames=\"5\"}}.{{pause frames=\"5\"}}.{{pause frames=\"5\"}}.{{pause frames=\"5\"}}{{fun_09}}",
      "EUfr": "{{fun_09}}{{fun_09}}{{fun_09}}{{fun_09}}{{fun_09}}{{reaction type=\"Happiness\"}}On en mange à tout moment!\n{{pressButton}}{{reaction type=\"Love\"}}Ça me fait penser à la\ncuisine de ma maman{{pause frames=\"5\"}}.{{pause frames=\"5\"}}.{{pause frames=\"5\"}}.{{pause frames=\"5\"}}{{fun_09}}",
      "EUit": "{{fun_09}}{{fun_09}}{{fun_09}}{{fun_09}}{{fun_09}}{{reaction type=\"Happiness\"}}Anche secondo me sono un\npasto!{{pressButton}} {{reaction type=\"Love\"}}Le banane mi\nricordano la cucina di\nmia mamma{{pause frames=\"5\"}}.{{pause frames=\"5\"}}.{{pause frames=\"5\"}}.{{pause frames=\"5\"}}{{fun_09}}",
      "JPja": "{{fun_09}}{{fun_09}}{{fun_09}}{{fun_09}}{{fun_09}}{{reaction type=\"Happiness\"}}ボクも　おかずだと{{kanjiReplace charNum=\"1\" value=\"おも\"}}思うよぉ～{{pressButton}}\n{{reaction type=\"Love\"}}だって　お{{kanjiReplace charNum=\"1\" value=\"かあ\"}}母さんのあじが\nするもの{{pause frames=\"5\"}}・{{pause frames=\"5\"}}・{{pause frames=\"5\"}}・{{fun_09}}",
      "KRko": "{{fun_09}}{{fun_09}}{{fun_09}}{{fun_09}}{{fun_09}}{{reaction type=\"Happiness\"}}나도 반찬이라고 생각해～{{pressButton}}\n{{reaction type=\"Love\"}}왜냐면 엄마의 손맛이\n느껴지거든{{pause frames=\"5\"}}・{{pause frames=\"5\"}}・{{pause frames=\"5\"}}・{{fun_09}}",
      "USen": "{{fun_09}}{{fun_09}}{{fun_09}}{{fun_09}}{{fun_09}}{{reaction type=\"Happiness\"}}I think they're a meal, too!{{pressButton}}\n{{reaction type=\"Love\"}}Bananas remind me of my\nmom's home cooking{{pause frames=\"5\"}}.{{pause frames=\"5\"}}.{{pause frames=\"5\"}}.{{pause frames=\"5\"}}{{fun_09}}"
    }
  },
  {
    "label": "18",
    "attribute": "0x00000000FE000000",
    "locale": {
      "EUde": "{{fun_09}}{{fun_09}}{{fun_09}}{{fun_09}}Was?!?{{pause frames=\"10\"}} {{reaction type=\"Curiosity\"}}Was kocht die\ndenn?!?{{pause frames=\"5\"}} {{reaction type=\"Distress\"}}Ich bin richtig\nneugierig. {{pause frames=\"5\"}}{{capitalizeLetter}}{{string value=\"Catchphrase\"}}!",
      "EUen": "{{fun_09}}{{fun_09}}{{fun_09}}{{fun_09}}What?!{{pause frames=\"10\"}} {{reaction type=\"Curiosity\"}}What kind of stuff\ndoes she cook?!{{pause frames=\"5\"}} {{reaction type=\"Distress\"}}I'm so\ncurious, {{pause frames=\"5\"}}{{string value=\"Catchphrase\"}}!",
      "EUes": "{{fun_09}}{{fun_09}}{{fun_09}}{{fun_09}}¡¿Qué?!{{pause frames=\"10\"}} {{reaction type=\"Curiosity\"}}¡¿Qué tipo de comida\ncocina?!{{pause frames=\"5\"}} {{reaction type=\"Distress\"}}¡Me muero de\ncuriosidad, {{pause frames=\"5\"}}{{string value=\"Catchphrase\"}}!",
      "EUfr": "{{fun_09}}{{fun_09}}{{fun_09}}{{fun_09}}Quoi?!{{pause frames=\"10\"}} {{reaction type=\"Curiosity\"}}Qu'est-ce qu'elle fait\nà manger?!{{pause frames=\"5\"}} {{reaction type=\"Distress\"}}Je suis trop\ncurieuse, {{pause frames=\"5\"}}{{string value=\"Catchphrase\"}}!",
      "EUit": "{{fun_09}}{{fun_09}}{{fun_09}}{{fun_09}}Cosa?!{{pause frames=\"10\"}} {{reaction type=\"Curiosity\"}}Che cosa cucina?\n{{reaction type=\"Distress\"}}Muoio dalla curiosità,\n{{pause frames=\"5\"}}{{string value=\"Catchphrase\"}}!",
      "JPja": "{{fun_09}}{{fun_09}}{{fun_09}}{{fun_09}}ええーっ！{{pause frames=\"10\"}}\nアンタんちの　しょくたく、{{pause frames=\"5\"}}\n{{reaction type=\"Curiosity\"}}どーなってんの？！\n{{reaction type=\"Distress\"}}アタイ、{{pause frames=\"5\"}}\nキョーミしんしんだよー！\n{{pause frames=\"5\"}}{{string value=\"Catchphrase\"}}！",
      "KRko": "{{fun_09}}{{fun_09}}{{fun_09}}{{fun_09}}뭐라구！ {{pause frames=\"10\"}}\n니네집에선{{pause frames=\"5\"}}\n{{reaction type=\"Curiosity\"}}대체 어떤 음식을 먹어？！\n{{reaction type=\"Distress\"}}나{{pause frames=\"5\"}}\n너무너무 궁금해！\n{{pause frames=\"5\"}}{{string value=\"Catchphrase\"}}！",
      "USen": "{{fun_09}}{{fun_09}}{{fun_09}}{{fun_09}}What?!{{pause frames=\"10\"}} {{reaction type=\"Curiosity\"}}What kind of stuff\ndoes she cook?!{{pause frames=\"5\"}} {{reaction type=\"Distress\"}}I'm so\ncurious, {{pause frames=\"5\"}}{{string value=\"Catchphrase\"}}!"
    }
  },
  {
    "label": "19",
    "attribute": "0x0000000014000000",
    "locale": {
      "EUde": "{{fun_09}}{{fun_09}}{{fun_09}}{{fun_09}}{{resetReaction}}{{fun_09}}Etwas sagen? {{pause frames=\"5\"}}Ähm{{pause frames=\"5\"}}.{{pause frames=\"5\"}}.{{pause frames=\"5\"}}.\nWas soll ich {{string value=\"PlayerNickname\"}}\ndenn sagen{{pause frames=\"5\"}}.{{pause frames=\"5\"}}.{{pause frames=\"5\"}}.{{fun_09}}",
      "EUen": "{{fun_09}}{{fun_09}}{{fun_09}}{{fun_09}}{{resetReaction}}{{fun_09}}Say something? {{pause frames=\"5\"}}Err{{pause frames=\"5\"}}.{{pause frames=\"5\"}}.{{pause frames=\"5\"}}.\nI didn't have anything to\ntell {{string value=\"PlayerNickname\"}}{{pause frames=\"5\"}}.{{pause frames=\"5\"}}.{{pause frames=\"5\"}}.{{fun_09}}",
      "EUes": "{{fun_09}}{{fun_09}}{{fun_09}}{{fun_09}}{{resetReaction}}{{fun_09}}¿Que se lo diga? {{pause frames=\"5\"}}Este{{pause frames=\"5\"}}.{{pause frames=\"5\"}}.{{pause frames=\"5\"}}.\nNo tengo nada que decirle\na {{string value=\"PlayerNickname\"}}{{pause frames=\"5\"}}.{{pause frames=\"5\"}}.{{pause frames=\"5\"}}.{{fun_09}}",
      "EUfr": "{{fun_09}}{{fun_09}}{{fun_09}}{{fun_09}}{{resetReaction}}{{fun_09}}Pardon? {{pause frames=\"5\"}}Heu{{pause frames=\"5\"}}.{{pause frames=\"5\"}}.{{pause frames=\"5\"}}.\nJe n'avais rien à dire à\n{{string value=\"PlayerNickname\"}}{{pause frames=\"5\"}}.{{pause frames=\"5\"}}.{{pause frames=\"5\"}}.{{fun_09}}",
      "EUit": "{{fun_09}}{{fun_09}}{{fun_09}}{{fun_09}}{{resetReaction}}{{fun_09}}Dire qualcosa? {{pause frames=\"5\"}}Ehm{{pause frames=\"5\"}}.{{pause frames=\"5\"}}.{{pause frames=\"5\"}}.\nNon ho niente da dire\na {{string value=\"PlayerNickname\"}}{{pause frames=\"5\"}}.{{pause frames=\"5\"}}.{{pause frames=\"5\"}}.{{fun_09}}",
      "JPja": "{{fun_09}}{{fun_09}}{{fun_09}}{{fun_09}}{{resetReaction}}{{fun_09}}{{string value=\"PlayerNickname\"}}くーん、{{pause frames=\"5\"}}\nボクねぇ、{{pause frames=\"5\"}}あのねぇ{{pause frames=\"5\"}}・{{pause frames=\"5\"}}・{{pause frames=\"5\"}}・{{pause frames=\"5\"}}\n{{reaction type=\"Distress\"}}じつは　キミのコトがぁ{{pause frames=\"5\"}}・{{pause frames=\"5\"}}・{{pause frames=\"5\"}}・{{fun_09}}",
      "KRko": "{{fun_09}}{{fun_09}}{{fun_09}}{{fun_09}}{{resetReaction}}{{fun_09}}{{string value=\"PlayerNickname\"}}{{fun_0B arg=\"0x0400\"}}{{pause frames=\"5\"}}\n나 말야， {{pause frames=\"5\"}}있잖아{{pause frames=\"5\"}}・{{pause frames=\"5\"}}・{{pause frames=\"5\"}}・{{pause frames=\"5\"}}\n{{reaction type=\"Distress\"}}사실은 네가{{pause frames=\"5\"}}・{{pause frames=\"5\"}}・{{pause frames=\"5\"}}・{{fun_09}}",
      "USen": "{{fun_09}}{{fun_09}}{{fun_09}}{{fun_09}}{{resetReaction}}{{fun_09}}Say something? {{pause frames=\"5\"}}Err{{pause frames=\"5\"}}.{{pause frames=\"5\"}}.{{pause frames=\"5\"}}.\nI didn't have anything to\ntell {{string value=\"PlayerNickname\"}}{{pause frames=\"5\"}}.{{pause frames=\"5\"}}.{{pause frames=\"5\"}}.{{fun_09}}"
    }
  },
  {
    "label": "20",
    "attribute": "0x0000000015000000",
    "locale": {
      "EUde": "{{reaction type=\"Worry\"}}{{fun_09}}{{fun_09}}{{fun_09}}{{fun_09}}{{reaction type=\"Intense\"}}Bist du sicher, dass du\n{{string value=\"PlayerNickname\"}} nichts zu sagen\nhast? {{capitalizeLetter}}{{string value=\"Catchphrase\"}}?{{fun_09}}",
      "EUen": "{{reaction type=\"Worry\"}}{{fun_09}}{{fun_09}}{{fun_09}}{{fun_09}}{{reaction type=\"Intense\"}}Are you SURE you don't have\nanything to tell\n{{string value=\"PlayerNickname\"}}, {{string value=\"Catchphrase\"}}?{{fun_09}}",
      "EUes": "{{reaction type=\"Worry\"}}{{fun_09}}{{fun_09}}{{fun_09}}{{fun_09}}{{reaction type=\"Intense\"}}¿Estás seguro de que no le\ntienes que decir nada a\n{{string value=\"PlayerNickname\"}}, {{string value=\"Catchphrase\"}}?{{fun_09}}",
      "EUfr": "{{reaction type=\"Worry\"}}{{fun_09}}{{fun_09}}{{fun_09}}{{fun_09}}{{reaction type=\"Intense\"}}Tu es SUR{{gender m=\"\" f=\"E\"}} que tu n'as\nrien à dire à\n{{string value=\"PlayerNickname\"}}, {{string value=\"Catchphrase\"}}?{{fun_09}}",
      "EUit": "{{reaction type=\"Worry\"}}{{fun_09}}{{fun_09}}{{fun_09}}{{fun_09}}{{reaction type=\"Intense\"}}Non hai PROPRIO niente da\ndire a {{string value=\"PlayerNickname\"}},\n{{string value=\"Catchphrase\"}}?{{fun_09}}",
      "JPja": "{{reaction type=\"Worry\"}}{{fun_09}}{{fun_09}}{{fun_09}}{{fun_09}}{{reaction type=\"Glee\"}}キャッ！！{{pause frames=\"10\"}}　ハズカシー！！\n{{pause frames=\"5\"}}{{string value=\"Catchphrase\"}}！！{{fun_09}}",
      "KRko": "{{reaction type=\"Worry\"}}{{fun_09}}{{fun_09}}{{fun_09}}{{fun_09}}{{reaction type=\"Glee\"}}꺄악！！ {{pause frames=\"10\"}}몰라몰라ー！！\n{{pause frames=\"5\"}}{{string value=\"Catchphrase\"}}！！{{fun_09}}",
      "USen": "{{reaction type=\"Worry\"}}{{fun_09}}{{fun_09}}{{fun_09}}{{fun_09}}{{reaction type=\"Intense\"}}Are you SURE you don't have\nanything to tell\n{{string value=\"PlayerNickname\"}}, {{string value=\"Catchphrase\"}}?{{fun_09}}"
    }
  },
  {
    "label": "21",
    "attribute": "0x00000000FE000000",
    "locale": {
      "EUde": "{{fun_09}}{{fun_09}}{{fun_09}}{{resetReaction}}{{fun_09}}.{{pause frames=\"5\"}}.{{pause frames=\"5\"}}.{{pause frames=\"20\"}}{{reaction type=\"ColdChill\"}}Was soll ich {{string value=\"PlayerNickname\"}}\ndenn gestehen{{pause frames=\"5\"}}.{{pause frames=\"5\"}}.{{pause frames=\"5\"}}. äh, ich\nmeine, sagen?{{pause frames=\"5\"}}{{fun_03 arg=\"0x01\"}}",
      "EUen": "{{fun_09}}{{fun_09}}{{fun_09}}{{resetReaction}}{{fun_09}}.{{pause frames=\"5\"}}.{{pause frames=\"5\"}}.{{pause frames=\"20\"}}{{reaction type=\"ColdChill\"}}I don't have anything\nto admit to{{pause frames=\"5\"}}.{{pause frames=\"5\"}}.{{pause frames=\"5\"}}.errr, I mean\nsay to {{string value=\"PlayerNickname\"}}.{{pause frames=\"5\"}}{{fun_03 arg=\"0x01\"}}",
      "EUes": "{{fun_09}}{{fun_09}}{{fun_09}}{{resetReaction}}{{fun_09}}Mm.{{pause frames=\"5\"}}.{{pause frames=\"5\"}}.{{pause frames=\"20\"}}{{reaction type=\"ColdChill\"}} No tengo nada\nde qué disculparme{{pause frames=\"5\"}}.{{pause frames=\"5\"}}.{{pause frames=\"5\"}}. Estee,\nque decirle a {{string value=\"PlayerNickname\"}}.{{pause frames=\"5\"}}{{fun_03 arg=\"0x01\"}}",
      "EUfr": "{{fun_09}}{{fun_09}}{{fun_09}}{{resetReaction}}{{fun_09}}.{{pause frames=\"5\"}}.{{pause frames=\"5\"}}.{{pause frames=\"20\"}}{{reaction type=\"ColdChill\"}} Je n'ai rien à avouer\nà{{pause frames=\"5\"}}.{{pause frames=\"5\"}}.{{pause frames=\"5\"}}. euh, à dire\nà {{string value=\"PlayerNickname\"}}.{{pause frames=\"5\"}}{{fun_03 arg=\"0x01\"}}",
      "EUit": "{{fun_09}}{{fun_09}}{{fun_09}}{{resetReaction}}{{fun_09}}.{{pause frames=\"5\"}}.{{pause frames=\"5\"}}.{{pause frames=\"20\"}}{{reaction type=\"ColdChill\"}} Non devo confessare\nniente{{pause frames=\"5\"}}.{{pause frames=\"5\"}}.{{pause frames=\"5\"}}. ehm, scusa,\ndire niente a {{string value=\"PlayerNickname\"}}.{{pause frames=\"5\"}}{{fun_03 arg=\"0x01\"}}",
      "JPja": "{{fun_09}}{{fun_09}}{{fun_09}}{{resetReaction}}{{fun_09}}・{{pause frames=\"5\"}}・{{pause frames=\"5\"}}・{{pause frames=\"20\"}}{{reaction type=\"ColdChill\"}}ボク　まだ\n{{kanjiReplace charNum=\"1\" value=\"なん\"}}何にも{{kanjiReplace charNum=\"1\" value=\"い\"}}言ってないよぉ～、\n{{pause frames=\"5\"}}{{string value=\"Catchphrase\"}}{{fun_03 arg=\"0x01\"}}",
      "KRko": "{{fun_09}}{{fun_09}}{{fun_09}}{{resetReaction}}{{fun_09}}・{{pause frames=\"5\"}}・{{pause frames=\"5\"}}・{{pause frames=\"20\"}}{{reaction type=\"ColdChill\"}}나 아직\n아무 말도 안했는데～， \n{{pause frames=\"5\"}}{{string value=\"Catchphrase\"}}{{fun_03 arg=\"0x0100\"}}",
      "USen": "{{fun_09}}{{fun_09}}{{fun_09}}{{resetReaction}}{{fun_09}}.{{pause frames=\"5\"}}.{{pause frames=\"5\"}}.{{pause frames=\"20\"}}{{reaction type=\"ColdChill\"}}I don't have anything\nto admit to{{pause frames=\"5\"}}.{{pause frames=\"5\"}}.{{pause frames=\"5\"}}.errr, I mean\nsay to {{string value=\"PlayerNickname\"}}.{{pause frames=\"5\"}}{{fun_03 arg=\"0x01\"}}"
    }
  }
]