[
  {
    "label": "0",
    "attribute": "0x00000000FF000000",
    "locale": {
      "EUde": "{{reaction type=\"Amazed\"}}Hör mal, {{string value=\"PlayerNickname\"}}!{{pause frames=\"15\"}}{{resetReaction}}\n{{string value=\"GossipVillager3\"}} war neulich\nbei mir...\n{{reaction type=\"Intense\"}}...und meinte, mein Haus sei\nINADÄQUAT!{{pause frames=\"20\"}} {{reaction type=\"Thought\"}}Aber ich weiß\nnicht, was das bedeutet{{pause frames=\"5\"}}.{{pause frames=\"5\"}}.{{pause frames=\"5\"}}.\n{{resetReaction}}Na gut, ich glaube nicht\njedem dahergelaufenen Tier!\n{{pause frames=\"5\"}}.{{pause frames=\"5\"}}.{{pause frames=\"5\"}}.{{pause frames=\"5\"}}Wäre ja auch dumm!\n{{reaction type=\"Worry\"}}Darf ich mir mal ansehen,\nwie du so wohnst?{{pause frames=\"10\"}} Damit\nich einen Vergleich habe?",
      "EUen": "{{reaction type=\"Amazed\"}}Listen, {{string value=\"PlayerNickname\"}}!{{pause frames=\"15\"}} {{resetReaction}}The\nother day, someone named\n{{string value=\"GossipVillager3\"}} showed up...\n{{reaction type=\"Intense\"}}...and said that my house\nwas uncouth!{{pause frames=\"20\"}} {{reaction type=\"Thought\"}}Now, I don't\nknow what that means{{pause frames=\"5\"}}.{{pause frames=\"5\"}}.{{pause frames=\"5\"}}.\n{{resetReaction}}But I'm not so dumb as to\nbelieve the words of some\nrandom animal! {{pause frames=\"5\"}}.{{pause frames=\"5\"}}.{{pause frames=\"5\"}}.{{pause frames=\"5\"}}Right?\n{{reaction type=\"Worry\"}}Look, do you mind if I come\nover and check your place\nout?{{pause frames=\"10\"}} Just for reference?",
      "EUes": "{{reaction type=\"Amazed\"}}¡Escucha, {{string value=\"PlayerNickname\"}}!{{pause frames=\"15\"}} {{resetReaction}}El\notro día conocí a alguien.\n{{capitalizeLetter}}{{string value=\"GossipVillager3\"}} se llamaba...\n{{reaction type=\"Intense\"}}¡Y dijo que mi casa era\nprocaz!{{pause frames=\"20\"}} {{reaction type=\"Thought\"}}Vete tú a saber lo\nque significa{{pause frames=\"5\"}}.{{pause frames=\"5\"}}.{{pause frames=\"5\"}}.\n{{resetReaction}}¡Bueno, y qué más da lo que\npiense un animal cualquiera!\nMm{{pause frames=\"5\"}}.{{pause frames=\"5\"}}.{{pause frames=\"5\"}}.{{pause frames=\"5\"}} ¿No crees?\n{{reaction type=\"Worry\"}}Oye, ¿podemos quedar un día\npara que vea tu casa?{{pause frames=\"10\"}}\nNecesito inspiración.",
      "EUfr": "{{reaction type=\"Amazed\"}}Ecoute, {{string value=\"PlayerNickname\"}}!{{pause frames=\"15\"}} {{resetReaction}}L'autre\njour, quelqu'un appelé\n{{string value=\"GossipVillager3\"}} a débarqué...\n{{reaction type=\"Intense\"}}... et m'a dit que ma maison\nétait ignoble!{{pause frames=\"20\"}} {{reaction type=\"Thought\"}}Je ne sais\npas si c'est vrai, mais{{pause frames=\"5\"}}.{{pause frames=\"5\"}}.{{pause frames=\"5\"}}.\n{{resetReaction}}je suis pas assez bête pour\ncroire ce que raconte le\npremier animal venu{{pause frames=\"5\"}}.{{pause frames=\"5\"}}.{{pause frames=\"5\"}}.{{pause frames=\"5\"}} Non?\n{{reaction type=\"Worry\"}}Ecoute, ça te dérange si je\npasse chez toi pour voir\ncomment c'est?{{pause frames=\"10\"}} En vitesse!",
      "EUit": "{{reaction type=\"Amazed\"}}Senti un po', {{string value=\"PlayerNickname\"}}!{{pause frames=\"15\"}}\n{{resetReaction}}L'altro giorno {{string value=\"GossipVillager3\"}}\nmi ha detto...\n{{reaction type=\"Intense\"}}... che ho una casa\nordinaria!{{pause frames=\"20\"}} {{reaction type=\"Thought\"}}Non capisco cosa\nintendesse dire{{pause frames=\"5\"}}.{{pause frames=\"5\"}}.{{pause frames=\"5\"}}.\n{{resetReaction}}Ma di certo non sono così\nstupido da crederci! {{pause frames=\"5\"}}.{{pause frames=\"5\"}}.{{pause frames=\"5\"}}.{{pause frames=\"5\"}}\nTi pare?\n{{reaction type=\"Worry\"}}Senti, ti spiace se passo a\nvedere casa tua?{{pause frames=\"10\"}} Così,\na titolo informativo?",
      "JPja": "{{reaction type=\"Amazed\"}}{{kanjiReplace charNum=\"1\" value=\"き\"}}聞いてくれよ、{{string value=\"PlayerNickname\"}}！{{pause frames=\"20\"}}\n{{resetReaction}}{{string value=\"GossipVillager3\"}}のヤツが\nこないだよぉ、\n{{reaction type=\"Intense\"}}オレの{{kanjiReplace charNum=\"2\" value=\"へや\"}}部屋を{{pause frames=\"5\"}}\nヤボったいなんて\nぬかしやがったんだ！\n{{resetReaction}}アイツの{{kanjiReplace charNum=\"1\" value=\"い\"}}言うコト\nまに　{{kanjiReplace charNum=\"1\" value=\"う\"}}受ける{{kanjiReplace charNum=\"1\" value=\"ほど\"}}程、{{pause frames=\"5\"}}\nオレぁ　ガキじゃねぇつもりだが、\n{{reaction type=\"Worry\"}}{{kanjiReplace charNum=\"2\" value=\"さんこう\"}}参考に　ちょっくら\nおめぇの　{{kanjiReplace charNum=\"2\" value=\"へや\"}}部屋を\n{{kanjiReplace charNum=\"1\" value=\"み\"}}見せてくれねぇか？　{{pause frames=\"5\"}}{{string value=\"Catchphrase\"}}？",
      "KRko": "{{reaction type=\"Amazed\"}}들어봐， {{string value=\"PlayerNickname\"}}！{{pause frames=\"20\"}}\n{{resetReaction}}{{string value=\"GossipVillager3\"}} 녀석이\n얼마 전에\n{{reaction type=\"Intense\"}}우리 집을{{pause frames=\"5\"}}\n촌스럽다고\n말하고 갔다구！\n{{resetReaction}}그 녀석이 말하는 걸\n진심으로 받아들일 정도로{{pause frames=\"5\"}}\n소심하진 않지만\n{{reaction type=\"Worry\"}}그래도 참고 삼아\n니네 집 한 번 보여 주면\n안 되겠냐？ {{pause frames=\"5\"}}{{string value=\"Catchphrase\"}}？",
      "USen": "{{reaction type=\"Amazed\"}}Listen, {{string value=\"PlayerNickname\"}}!{{pause frames=\"15\"}} {{resetReaction}}The\nother day, someone named\n{{string value=\"GossipVillager3\"}} showed up...\n{{reaction type=\"Intense\"}}...and said that my house\nwas uncouth!{{pause frames=\"20\"}} {{reaction type=\"Thought\"}}Now, I don't\nknow what that means{{pause frames=\"5\"}}.{{pause frames=\"5\"}}.{{pause frames=\"5\"}}.\n{{resetReaction}}But I'm not so dumb as to\nbelieve the words of some\nrandom animal! {{pause frames=\"5\"}}.{{pause frames=\"5\"}}.{{pause frames=\"5\"}}.{{pause frames=\"5\"}}Right?\n{{reaction type=\"Worry\"}}Look, do you mind if I come\nover and check your place\nout?{{pause frames=\"10\"}} Just for reference?"
    }
  },
  {
    "label": "1",
    "attribute": "0x00000000FF000000",
    "locale": {
      "EUde": "{{reaction type=\"Heartbreak\"}}Manchmal, {{pause frames=\"5\"}}wenn ich so zu\nHause sitze,{{pause frames=\"10\"}} sehne ich mich\nnach neuen Perspektiven{{pause frames=\"3\"}}.{{pause frames=\"3\"}}.{{pause frames=\"3\"}}.\n{{reaction type=\"Intense\"}}{{capitalizeLetter}}{{string value=\"PlayerNickname\"}}! {{pause frames=\"5\"}}Ich muss\nwissen, wie andere leben,\n{{pause frames=\"5\"}}{{string value=\"Catchphrase\"}}!\nAlso, ich darf dich doch\nsicher besuchen kommen?\n\n{{reaction type=\"Worry\"}}Ich habe auch verdient, mit\nFreunden zusammen zu sein{{pause frames=\"5\"}}!{{pause frames=\"20\"}}\nBitte, {{pause frames=\"5\"}}{{string value=\"Catchphrase\"}}...",
      "EUen": "{{reaction type=\"Heartbreak\"}}Lately, {{pause frames=\"5\"}}when I'm sitting at\nmy pad, I get kinda lonely\nfor other perspectives{{pause frames=\"3\"}}.{{pause frames=\"3\"}}.{{pause frames=\"3\"}}.\n{{reaction type=\"Intense\"}}{{capitalizeLetter}}{{string value=\"PlayerNickname\"}}! {{pause frames=\"5\"}}I gotta see\nhow the other half lives,\n{{pause frames=\"5\"}}{{string value=\"Catchphrase\"}}!\nSo let me come over to\nyour place! All right?\n\n{{reaction type=\"Worry\"}}I deserve to hang out with\nfriends, too{{pause frames=\"5\"}}...{{pause frames=\"20\"}} Please,\n{{pause frames=\"5\"}}{{string value=\"Catchphrase\"}}!",
      "EUes": "{{reaction type=\"Heartbreak\"}}Últimamente, {{pause frames=\"5\"}}me siento a\nsolas en casa y noto que no\nfluye la inspiración{{pause frames=\"3\"}}.{{pause frames=\"3\"}}.{{pause frames=\"3\"}}.\n{{reaction type=\"Intense\"}}¡{{capitalizeLetter}}{{string value=\"PlayerNickname\"}}! {{pause frames=\"5\"}}¡Necesito ver\ncómo viven los demás,\n{{pause frames=\"5\"}}{{string value=\"Catchphrase\"}}!\n¡Deja que vea tu casa!\n¿Te parece bien?\n\n{{reaction type=\"Worry\"}}Yo también me merezco\npasar un rato con amigos{{pause frames=\"5\"}}...{{pause frames=\"20\"}}\n¡Por favor, {{pause frames=\"5\"}}{{string value=\"Catchphrase\"}}!",
      "EUfr": "{{reaction type=\"Heartbreak\"}}Depuis quelques temps,{{pause frames=\"5\"}}\nquand je suis chez moi, j'ai\nenvie de voir ailleurs{{pause frames=\"3\"}}.{{pause frames=\"3\"}}.{{pause frames=\"3\"}}.\n{{reaction type=\"Intense\"}}{{capitalizeLetter}}{{string value=\"PlayerNickname\"}}! {{pause frames=\"5\"}}Je dois\ndécouvrir ce qui se passe\nchez les autres!\nEt si je m'invitais chez\ntoi! D'accord?\n\n{{reaction type=\"Worry\"}}Moi aussi, j'ai envie de voir\ndes gens{{pause frames=\"5\"}}...{{pause frames=\"20\"}} S'il te plaît,\n{{pause frames=\"5\"}}{{string value=\"Catchphrase\"}}!",
      "EUit": "{{reaction type=\"Heartbreak\"}}Ultimamente, {{pause frames=\"5\"}}quando me ne\nsto solo in casa, penso che\nvorrei avere compagnia{{pause frames=\"3\"}}.{{pause frames=\"3\"}}.{{pause frames=\"3\"}}.\n{{reaction type=\"Intense\"}}{{capitalizeLetter}}{{string value=\"PlayerNickname\"}}! {{pause frames=\"5\"}}Devo vedere\ncome vivono gli altri,\n{{pause frames=\"5\"}}{{string value=\"Catchphrase\"}}!\nPosso venirti a trovare,\neh?\n\n{{reaction type=\"Worry\"}}{{pause frames=\"5\"}}Anche a me piacerebbe\navere degli amici...{{pause frames=\"20\"}} Per\nfavore, {{pause frames=\"5\"}}{{string value=\"Catchphrase\"}}!",
      "JPja": "{{reaction type=\"Heartbreak\"}}{{kanjiReplace charNum=\"2\" value=\"さいきん\"}}最近{{pause frames=\"5\"}}　{{kanjiReplace charNum=\"2\" value=\"へや\"}}部屋に\n{{kanjiReplace charNum=\"2\" value=\"ひとり\"}}一人でいると\n{{kanjiReplace charNum=\"1\" value=\"ひと\"}}人{{kanjiReplace charNum=\"1\" value=\"こい\"}}恋しくってよぉ{{pause frames=\"3\"}}・{{pause frames=\"3\"}}・{{pause frames=\"3\"}}・\n{{reaction type=\"Intense\"}}だから　{{string value=\"PlayerNickname\"}}、\n{{pause frames=\"5\"}}{{kanjiReplace charNum=\"2\" value=\"ごしょう\"}}後生だ！　{{pause frames=\"5\"}}{{string value=\"Catchphrase\"}}！\n\nおめぇんトコに\n{{kanjiReplace charNum=\"1\" value=\"あそ\"}}遊びに　{{kanjiReplace charNum=\"1\" value=\"い\"}}行かせてくれ！\n\n{{reaction type=\"Distress\"}}たまには　オレだって\n{{kanjiReplace charNum=\"2\" value=\"なかま\"}}仲間と　バカやりてぇんだ！{{pause frames=\"20\"}}\nたのむ、{{pause frames=\"5\"}}{{string value=\"Catchphrase\"}}！",
      "KRko": "{{reaction type=\"Heartbreak\"}}요즘 {{pause frames=\"5\"}}집에\n혼자 있으면\n너무 외로워서{{pause frames=\"3\"}}.{{pause frames=\"3\"}}.{{pause frames=\"3\"}}.\n{{reaction type=\"Intense\"}}그니까 {{string value=\"PlayerNickname\"}}，\n{{pause frames=\"5\"}}친구야！ {{pause frames=\"5\"}}{{string value=\"Catchphrase\"}}！\n\n니네 집에\n놀러 가면 안 되겠냐！\n\n{{reaction type=\"Distress\"}}나도 가끔은\n친구하고 어울리고 싶다구！{{pause frames=\"20\"}}\n부탁한다， {{pause frames=\"5\"}}{{string value=\"Catchphrase\"}}！",
      "USen": "{{reaction type=\"Heartbreak\"}}Lately, {{pause frames=\"5\"}}when I'm sitting at\nmy pad, I get kinda lonely\nfor other perspectives{{pause frames=\"3\"}}.{{pause frames=\"3\"}}.{{pause frames=\"3\"}}.\n{{reaction type=\"Intense\"}}{{capitalizeLetter}}{{string value=\"PlayerNickname\"}}! {{pause frames=\"5\"}}I gotta see\nhow the other half lives,\n{{pause frames=\"5\"}}{{string value=\"Catchphrase\"}}!\nSo let me come over to\nyour place! All right?\n\n{{reaction type=\"Worry\"}}I deserve to hang out with\nfriends, too{{pause frames=\"5\"}}...{{pause frames=\"20\"}} Please,\n{{pause frames=\"5\"}}{{string value=\"Catchphrase\"}}!"
    }
  },
  {
    "label": "2",
    "attribute": "0x00000000FF000000",
    "locale": {
      "EUde": "{{resetReaction}}Ich würde wahnsinnig\ngerne mal bei dir vorbei-\nkommen.{{pause frames=\"5\"}} Geht das klar?\nIch mache ganz bestimmt\nkeine Umstände.{{pause frames=\"15\"}} {{reaction type=\"Curiosity\"}}Also,{{pause frames=\"5\"}}\nwas meinst du, {{pause frames=\"5\"}}{{string value=\"Catchphrase\"}}?",
      "EUen": "{{resetReaction}}So I just wanna go over to\nyour place to hang out for\na bit.{{pause frames=\"5\"}} Is that cool?\nIt's not like it's gonna\ncost you anything!{{pause frames=\"15\"}} {{reaction type=\"Curiosity\"}}So,{{pause frames=\"5\"}}\nwhaddaya say, {{pause frames=\"5\"}}{{string value=\"Catchphrase\"}}?",
      "EUes": "{{resetReaction}}Me gustaría pasarme por\ntu casa para echarle un\nvistazo.{{pause frames=\"5\"}} ¿Te parece?\n¡No te voy a cobrar, si es\nlo que imaginas!{{pause frames=\"15\"}} {{reaction type=\"Curiosity\"}}Así que,{{pause frames=\"5\"}}\n¿qué me dices, {{pause frames=\"5\"}}{{string value=\"Catchphrase\"}}?",
      "EUfr": "{{resetReaction}}Je vais passer un moment\nchez toi pour voir comment\nça se passe.{{pause frames=\"5\"}} T'es d'accord?\nÇa ne te coûtera\nstrictement rien!{{pause frames=\"15\"}} {{reaction type=\"Curiosity\"}}Alors,{{pause frames=\"5\"}}\nt'en dis quoi, {{pause frames=\"5\"}}{{string value=\"Catchphrase\"}}?",
      "EUit": "{{resetReaction}}Mi piacerebbe venire a casa\ntua e stare lì per un po'.{{pause frames=\"5\"}}\nPosso?\nDai, cosa ti costa?!{{pause frames=\"15\"}} \n{{reaction type=\"Curiosity\"}}Allora,{{pause frames=\"5\"}} che ne dici,\n{{pause frames=\"5\"}}{{string value=\"Catchphrase\"}}?",
      "JPja": "{{resetReaction}}オレよぉ、{{pause frames=\"5\"}}どうしても\nおめぇの{{kanjiReplace charNum=\"2\" value=\"へや\"}}部屋に\n{{kanjiReplace charNum=\"1\" value=\"あそ\"}}遊びに　{{kanjiReplace charNum=\"1\" value=\"い\"}}行きてぇんだよな\nへるもんじゃ　ねぇんだし\n{{reaction type=\"Curiosity\"}}なっ？{{pause frames=\"5\"}}　なっ？{{pause frames=\"5\"}}\nいいだろ、{{pause frames=\"5\"}}{{string value=\"Catchphrase\"}}？",
      "KRko": "{{resetReaction}}나 말야， {{pause frames=\"5\"}}꼭 한 번\n니네 집에\n놀러 가고 싶어\n닳는 것도 아닌데\n{{reaction type=\"Curiosity\"}}괜찮지？{{pause frames=\"5\"}} 그치？{{pause frames=\"5\"}}\n가두 되지， {{pause frames=\"5\"}}{{string value=\"Catchphrase\"}}？",
      "USen": "{{resetReaction}}So I just wanna go over to\nyour place to hang out for\na bit.{{pause frames=\"5\"}} Is that cool?\nIt's not like it's gonna\ncost you anything!{{pause frames=\"15\"}} {{reaction type=\"Curiosity\"}}So,{{pause frames=\"5\"}}\nwhaddaya say, {{pause frames=\"5\"}}{{string value=\"Catchphrase\"}}?"
    }
  }
]