[
  {
    "label": "0",
    "attribute": "0x00000000FE000000",
    "locale": {
      "EUde": "{{reaction type=\"Happiness\"}}Du hast einen gut bei mir,{{pause frames=\"5\"}}\n{{string value=\"PlayerNickname\"}}! {{pause frames=\"5\"}}{{capitalizeLetter}}{{string value=\"Catchphrase\"}}!",
      "EUen": "{{reaction type=\"Happiness\"}}I owe you one,{{pause frames=\"5\"}}\n{{string value=\"PlayerNickname\"}}! {{pause frames=\"5\"}}{{capitalizeLetter}}{{string value=\"Catchphrase\"}}!",
      "EUes": "{{reaction type=\"Happiness\"}}¡Te debo una,{{pause frames=\"5\"}} {{string value=\"PlayerNickname\"}}!\n{{pause frames=\"5\"}}¡{{capitalizeLetter}}{{string value=\"Catchphrase\"}}!",
      "EUfr": "{{reaction type=\"Happiness\"}}Je te remercie,{{pause frames=\"5\"}}\n{{string value=\"PlayerNickname\"}}! {{pause frames=\"5\"}}{{capitalizeLetter}}{{string value=\"Catchphrase\"}}!",
      "EUit": "{{reaction type=\"Happiness\"}}Ti devo un favore,{{pause frames=\"5\"}}\n{{string value=\"PlayerNickname\"}}! {{pause frames=\"5\"}}{{capitalizeLetter}}{{string value=\"Catchphrase\"}}!",
      "JPja": "{{reaction type=\"Happiness\"}}おんに　{{kanjiReplace charNum=\"1\" value=\"き\"}}着るぜ、{{pause frames=\"5\"}}\n{{string value=\"PlayerNickname\"}}！　{{pause frames=\"5\"}}{{string value=\"Catchphrase\"}}！",
      "KRko": "{{reaction type=\"Happiness\"}}이 은혜는 잊지 않으마，{{pause frames=\"5\"}}\n{{string value=\"PlayerNickname\"}}！ {{pause frames=\"5\"}}{{string value=\"Catchphrase\"}}！\n",
      "USen": "{{reaction type=\"Happiness\"}}I owe you one,{{pause frames=\"5\"}}\n{{string value=\"PlayerNickname\"}}! {{pause frames=\"5\"}}{{capitalizeLetter}}{{string value=\"Catchphrase\"}}!"
    }
  },
  {
    "label": "1",
    "attribute": "0x00000000FE000000",
    "locale": {
      "EUde": "{{reaction type=\"Happiness\"}}Hey{{pause frames=\"5\"}}.{{pause frames=\"5\"}}.{{pause frames=\"5\"}}.{{pause frames=\"5\"}} Das war echt nett\nvon dir, {{pause frames=\"5\"}}{{string value=\"Catchphrase\"}}!",
      "EUen": "{{reaction type=\"Happiness\"}}Hey{{pause frames=\"5\"}}.{{pause frames=\"5\"}}.{{pause frames=\"5\"}}.{{pause frames=\"5\"}} That was kinda cool \nof you, {{pause frames=\"5\"}}{{string value=\"Catchphrase\"}}!",
      "EUes": "{{reaction type=\"Happiness\"}}Hey{{pause frames=\"5\"}}.{{pause frames=\"5\"}}.{{pause frames=\"5\"}}.{{pause frames=\"5\"}} ¡Se agradece,\n{{pause frames=\"5\"}}{{string value=\"Catchphrase\"}}!",
      "EUfr": "{{reaction type=\"Happiness\"}}Hé{{pause frames=\"5\"}}.{{pause frames=\"5\"}}.{{pause frames=\"5\"}}.{{pause frames=\"5\"}} C'était sympa de ta\npart, {{pause frames=\"5\"}}{{string value=\"Catchphrase\"}}!",
      "EUit": "{{reaction type=\"Happiness\"}}Ehi{{pause frames=\"5\"}}.{{pause frames=\"5\"}}.{{pause frames=\"5\"}}.{{pause frames=\"5\"}} Mi congratulo con te,\n{{pause frames=\"5\"}}{{string value=\"Catchphrase\"}}!",
      "JPja": "{{reaction type=\"Happiness\"}}また　{{kanjiReplace charNum=\"1\" value=\"なに\"}}何かの　おりには\nたのんだぜ、{{pause frames=\"5\"}}{{string value=\"Catchphrase\"}}！",
      "KRko": "{{reaction type=\"Happiness\"}}또 무슨 일 있으면\n부탁한다， {{pause frames=\"5\"}}{{string value=\"Catchphrase\"}}！\n",
      "USen": "{{reaction type=\"Happiness\"}}Hey{{pause frames=\"5\"}}.{{pause frames=\"5\"}}.{{pause frames=\"5\"}}.{{pause frames=\"5\"}} That was kinda cool \nof you, {{pause frames=\"5\"}}{{string value=\"Catchphrase\"}}!"
    }
  },
  {
    "label": "2",
    "attribute": "0x00000000FE000000",
    "locale": {
      "EUde": "{{resetReaction}}Dieses Fossil wird bei mir\nzu Hause sicher prima\naussehen, {{pause frames=\"5\"}}{{string value=\"Catchphrase\"}}!",
      "EUen": "{{resetReaction}}This fossil is gonna look\ngreat back at my pad. Come\ncheck it out, {{pause frames=\"5\"}}{{string value=\"Catchphrase\"}}!",
      "EUes": "{{resetReaction}}Este fósil quedará de\nmaravilla en mi casa.\n¡Ya lo verás, {{pause frames=\"5\"}}{{string value=\"Catchphrase\"}}!",
      "EUfr": "{{resetReaction}}Ce fossile fera super bien\nchez moi. Viens voir quand\ntu veux, {{pause frames=\"5\"}}{{string value=\"Catchphrase\"}}!",
      "EUit": "{{resetReaction}}Questo fossile farà un\nfigurone in casa mia. Poi\nvieni a vederlo, {{pause frames=\"5\"}}{{string value=\"Catchphrase\"}}!",
      "JPja": "{{resetReaction}}{{kanjiReplace charNum=\"2\" value=\"かせき\"}}化石は　{{kanjiReplace charNum=\"2\" value=\"へや\"}}部屋に　かざっとくから\n{{kanjiReplace charNum=\"2\" value=\"こんど\"}}今度　うちに、{{pause frames=\"15\"}}\n{{kanjiReplace charNum=\"1\" value=\"み\"}}見に{{kanjiReplace charNum=\"1\" value=\"き\"}}来てくれよな、{{pause frames=\"5\"}}{{string value=\"Catchphrase\"}}！",
      "KRko": "{{resetReaction}}화석은 집에 장식해 둘 테니\n다음 번에 우리 집에{{pause frames=\"15\"}}\n보러 와라， {{pause frames=\"5\"}}{{string value=\"Catchphrase\"}}！",
      "USen": "{{resetReaction}}This fossil is gonna look\ngreat back at my pad. Come\ncheck it out, {{pause frames=\"5\"}}{{string value=\"Catchphrase\"}}!"
    }
  }
]