[
  {
    "label": "0",
    "attribute": "0x00000000FE000000",
    "locale": {
      "EUde": "{{reaction type=\"Intense\"}}Hey, {{string value=\"PlayerNickname\"}}!{{pause frames=\"20\"}} Es ist\nverrückt, aber heute bin\nich gut gelaunt.\nDas {{color id=\"2\"}}{{string index=\"0\"}}-\nSet{{color id=\"0\"}} werde ich nie aufgeben.\nSo viel steht fest!\n{{reaction type=\"Worry\"}}Unvollständige Fossilien\nsind doch irgendwie traurig,\n{{pause frames=\"5\"}}{{string value=\"Catchphrase\"}}!\nDu wärst doch auch traurig,\nwenn dein Körper nicht ganz\nvollständig wäre!",
      "EUen": "{{reaction type=\"Intense\"}}Hey, {{string value=\"PlayerNickname\"}}!{{pause frames=\"20\"}} I know\nit's crazy, but I'm actually\nin a good mood today.\nAnd I'm never going to give\nup on completing my\n{{color id=\"2\"}}{{string index=\"0\"}} {{color id=\"0\"}}set.\n{{reaction type=\"Worry\"}}Fossils look so sad when\nthey're incomplete,\n{{pause frames=\"5\"}}{{string value=\"Catchphrase\"}}!\nOf course, I'd also be sad\nif I were missing entire\nsections of my body.",
      "EUes": "{{reaction type=\"Intense\"}}¡Hey, {{string value=\"PlayerNickname\"}}!{{pause frames=\"20\"}} Ya sé que\nno lo parece, pero hoy me\nencuentro de buen humor.\n¡Nunca abandonaré\nla búsqueda del\n{{color id=\"2\"}}{{string index=\"0\"}}{{color id=\"0\"}}.\n{{reaction type=\"Worry\"}}¡Me dan tanta pena\nlos fósiles inacabados,\n{{pause frames=\"5\"}}{{string value=\"Catchphrase\"}}!\nImagínate que te falta\nalguna parte de tu cuerpo.\nDebe de ser muy triste.",
      "EUfr": "{{reaction type=\"Intense\"}}Eh, {{string value=\"PlayerNickname\"}}!{{pause frames=\"20\"}} Je sais que\nc'est dingue, mais je suis\nde bon poil aujourd'hui.\nEt je ferai tout mon\npossible pour terminer mon\n{{color id=\"2\"}}{{string index=\"0\"}}{{color id=\"0\"}}.\n{{reaction type=\"Worry\"}}Les fossiles incomplets ne\nsont pas très beaux,\n{{pause frames=\"5\"}}{{string value=\"Catchphrase\"}}!\nJe ne serais sûrement pas\nbeau s'il me manquait un\nbras ou une jambe.",
      "EUit": "{{reaction type=\"Intense\"}}Ehi, {{string value=\"PlayerNickname\"}}!{{pause frames=\"20\"}} Non so\nperché, ma oggi sono di\nottimo umore.\nE non smetterò mai di\nraccogliere i pezzi per\ncompletare il mio fossile di\n{{ignoreArticle}}{{color id=\"2\"}}{{string index=\"0\"}}{{color id=\"0\"}}.\n{{reaction type=\"Worry\"}}I fossili incompleti sono\ncosì tristi, {{pause frames=\"5\"}}{{string value=\"Catchphrase\"}}!\nBeh, li capisco, sarei triste\nanch'io se al mio corpo\nmancasse qualche pezzo...",
      "JPja": "{{reaction type=\"Intense\"}}{{string value=\"PlayerNickname\"}}！{{pause frames=\"20\"}}\nオレはやるぜ、{{pause frames=\"5\"}}{{string value=\"Catchphrase\"}}\n\nなんとしても\nあの　{{color id=\"2\"}}{{string index=\"0\"}}{{color id=\"0\"}}の\n{{kanjiReplace charNum=\"2\" value=\"かせき\"}}化石{{pause frames=\"3\"}}・{{pause frames=\"3\"}}・{{pause frames=\"3\"}}・{{pause frames=\"3\"}}{{kanjiReplace charNum=\"2\" value=\"かんせい\"}}完成させてやる！\n{{reaction type=\"Worry\"}}あのままじゃ\n{{kanjiReplace charNum=\"2\" value=\"かせき\"}}化石も　カワイソーだし、\n\n{{reaction type=\"Intense\"}}{{kanjiReplace charNum=\"1\" value=\"なに\"}}何より、オレの　コケンにも\nかかわるからな、{{pause frames=\"5\"}}{{string value=\"Catchphrase\"}}！",
      "KRko": "{{reaction type=\"Intense\"}}{{string value=\"PlayerNickname\"}}！{{pause frames=\"20\"}}\n난 해낼 거야， {{pause frames=\"5\"}}{{string value=\"Catchphrase\"}}\n\n무슨 수를 써서라도\n그 {{color id=\"2\"}}{{string index=\"0\"}}{{color id=\"0\"}}의\n화석{{pause frames=\"3\"}}・{{pause frames=\"3\"}}・{{pause frames=\"3\"}}・{{pause frames=\"3\"}} 완성시킬 거닷！\n{{reaction type=\"Worry\"}}이대로라면\n화석도 불쌍하고\n\n{{reaction type=\"Intense\"}}무엇보다 나의 명예가\n실추될 거라구！ {{pause frames=\"5\"}}{{string value=\"Catchphrase\"}}",
      "USen": "{{reaction type=\"Intense\"}}Hey, {{string value=\"PlayerNickname\"}}!{{pause frames=\"20\"}} I know\nit's crazy, but I'm actually\nin a good mood today.\nAnd I'm never going to give\nup on completing my\n{{color id=\"2\"}}{{string index=\"0\"}} {{color id=\"0\"}}set.\n{{reaction type=\"Worry\"}}Fossils look so sad when\nthey're incomplete,\n{{pause frames=\"5\"}}{{string value=\"Catchphrase\"}}!\nOf course, I'd also be sad\nif I were missing entire\nsections of my body."
    }
  },
  {
    "label": "1",
    "attribute": "0x00000000FE000000",
    "locale": {
      "EUde": "{{resetReaction}}{{string value=\"GossipVillager2\"}}, diese Dumpf-\nnase, meinte, ich würde es\nsowieso nicht schaffen!\n{{reaction type=\"Intense\"}}Aber eines Tages wird mein\n{{color id=\"2\"}}{{string index=\"0\"}}-Set{{color id=\"0\"}}\nhier stehen!\n{{reaction type=\"Laughter\"}}Gua ha ha ha!{{pause frames=\"15\"}}\nDie halten mich für blöde,\n{{pause frames=\"5\"}}{{string value=\"Catchphrase\"}}!\n{{reaction type=\"Intense\"}}Aber die haben ja keine\nAhnung, was ich alles kann{{pause frames=\"15\"}}{{resetReaction}}.{{pause frames=\"5\"}}.{{pause frames=\"5\"}}.{{pause frames=\"5\"}}\n{{reaction type=\"Happiness\"}}Oder, {{pause frames=\"5\"}}{{string value=\"Catchphrase\"}}?!?",
      "EUen": "{{resetReaction}}That jerk {{string value=\"GossipVillager2\"}} told\nme I wasn't up to the task!\n\n{{reaction type=\"Intense\"}}But I'll show everyone and \ncomplete my glorious\n{{color id=\"2\"}}{{string index=\"0\"}}{{color id=\"0\"}} set!\n{{reaction type=\"Laughter\"}}War har har har!{{pause frames=\"15\"}}\nThey think I'm a chump,\n{{pause frames=\"5\"}}{{string value=\"Catchphrase\"}}!\n{{reaction type=\"Intense\"}}But they have no idea who\nthey're dealing with{{pause frames=\"15\"}}{{resetReaction}}.{{pause frames=\"5\"}}.{{pause frames=\"5\"}}.{{pause frames=\"5\"}}{{reaction type=\"Happiness\"}}and\nstuff, {{pause frames=\"5\"}}{{string value=\"Catchphrase\"}}!",
      "EUes": "{{resetReaction}}¡{{string value=\"GossipVillager2\"}} me dijo que no\nservía para esto! ¡Imbécil!\n\n{{reaction type=\"Intense\"}}¡Todos serán testigos!\n¡Encontraré el\n{{color id=\"2\"}}{{string index=\"0\"}}{{color id=\"0\"}}!\n{{reaction type=\"Laughter\"}}¡Muar, jar, jar, jar!{{pause frames=\"15\"}}\n¡Creen que soy un inútil,\n{{pause frames=\"5\"}}{{string value=\"Catchphrase\"}}!\n{{reaction type=\"Intense\"}}¡Pero no tienen ni idea de\ncon quién se meten{{pause frames=\"15\"}}{{resetReaction}}.{{pause frames=\"5\"}}.{{pause frames=\"5\"}}.{{pause frames=\"5\"}}{{reaction type=\"Happiness\"}} y\ntodo eso, {{pause frames=\"5\"}}{{string value=\"Catchphrase\"}}!",
      "EUfr": "{{resetReaction}}{{capitalizeLetter}}{{string value=\"GossipVillager2\"}} a dit que je\nn'étais pas à la hauteur!\nQuelle crapule!\n{{reaction type=\"Intense\"}}Je montrerai à tout le\nmonde que je peux terminer\nmon {{color id=\"2\"}}{{string index=\"0\"}}{{color id=\"0\"}}!\n{{reaction type=\"Laughter\"}}Ha ha ha ha!{{pause frames=\"15\"}} Ils pensent\nque je suis idiot,\n{{pause frames=\"5\"}}{{string value=\"Catchphrase\"}}!\n{{reaction type=\"Intense\"}}Ils ne savent pas à qui ils\nont affaire{{pause frames=\"15\"}}{{resetReaction}}.{{pause frames=\"5\"}}.{{pause frames=\"5\"}}.{{pause frames=\"5\"}}{{reaction type=\"Happiness\"}} ils verront\nbien, {{pause frames=\"5\"}}{{string value=\"Catchphrase\"}}!",
      "EUit": "{{resetReaction}}Quell'idiota di {{string value=\"GossipVillager2\"}}\nmi ha detto che non potevo\nfarcela!\n{{reaction type=\"Intense\"}}Ma gliela farò vedere,\nriuscirò a completare il mio\n{{ignoreArticle}}{{color id=\"2\"}}{{string index=\"0\"}}{{color id=\"0\"}}!\n{{reaction type=\"Laughter\"}}Ah ah ah ah!{{pause frames=\"15\"}}\nMi considerano uno stupido,\n{{pause frames=\"5\"}}{{string value=\"Catchphrase\"}}!\n{{reaction type=\"Intense\"}}Ma non sanno con chi hanno\na che fare{{pause frames=\"15\"}}{{resetReaction}}.{{pause frames=\"5\"}}.{{pause frames=\"5\"}}.{{pause frames=\"5\"}} {{reaction type=\"Happiness\"}}chi vivrà\nvedrà, {{pause frames=\"5\"}}{{string value=\"Catchphrase\"}}!",
      "JPja": "{{resetReaction}}イヤミな　{{string value=\"GossipVillager2\"}}には\n{{kanjiReplace charNum=\"2\" value=\"むり\"}}無理だと　{{kanjiReplace charNum=\"1\" value=\"い\"}}言われたが{{pause frames=\"5\"}}・{{pause frames=\"5\"}}・{{pause frames=\"5\"}}・\n\n{{reaction type=\"Intense\"}}オレは　なんとかして{{pause frames=\"5\"}}\n{{color id=\"2\"}}{{string index=\"0\"}}{{color id=\"0\"}}の{{kanjiReplace charNum=\"2\" value=\"かせき\"}}化石を\n{{kanjiReplace charNum=\"2\" value=\"かんせい\"}}完成させてぇんだ、{{pause frames=\"5\"}}{{string value=\"Catchphrase\"}}\n{{reaction type=\"Agreement\"}}ヘヘッ、{{pause frames=\"15\"}}\nオレを　なめんじゃねぇぜ、\n{{pause frames=\"5\"}}{{string value=\"Catchphrase\"}}！\n{{reaction type=\"Intense\"}}こちとら{{pause frames=\"5\"}}\nきっすいの　{{kanjiReplace charNum=\"2\" value=\"かせき\"}}化石っ{{kanjiReplace charNum=\"1\" value=\"こ\"}}子、{{pause frames=\"15\"}}\nジュラ{{kanjiReplace charNum=\"1\" value=\"き\"}}紀の　{{kanjiReplace charNum=\"1\" value=\"う\"}}生まれよ！\n{{resetReaction}}・{{pause frames=\"5\"}}・{{pause frames=\"5\"}}・{{pause frames=\"5\"}}{{reaction type=\"Happiness\"}}なーんてな、{{pause frames=\"5\"}}{{string value=\"Catchphrase\"}}！",
      "KRko": "{{resetReaction}}못된 녀석 {{string value=\"GossipVillager2\"}}{{fun_0B arg=\"0x0100\"}}\n힘들 거라고 했지만{{pause frames=\"5\"}}・{{pause frames=\"5\"}}・{{pause frames=\"5\"}}・\n\n{{reaction type=\"Intense\"}}난 반드시{{pause frames=\"5\"}}\n{{color id=\"2\"}}{{string index=\"0\"}} {{color id=\"0\"}}화석을\n다 찾고 말겠어， {{pause frames=\"5\"}}{{string value=\"Catchphrase\"}}\n{{reaction type=\"Agreement\"}}헤헷，{{pause frames=\"15\"}}\n날 무시하면 큰 코 다칠걸，\n{{pause frames=\"5\"}}{{string value=\"Catchphrase\"}}！\n{{reaction type=\"Intense\"}}나는야{{pause frames=\"5\"}}\n진정한 화석 남자{{pause frames=\"15\"}}\n쥐라기 태생이라구！\n{{resetReaction}}・{{pause frames=\"5\"}}・{{pause frames=\"5\"}}・{{pause frames=\"5\"}}{{reaction type=\"Happiness\"}}농담이야， {{pause frames=\"5\"}}{{string value=\"Catchphrase\"}}",
      "USen": "{{resetReaction}}That jerk {{string value=\"GossipVillager2\"}} told\nme I wasn't up to the task!\n\n{{reaction type=\"Intense\"}}But I'll show everyone and \ncomplete my glorious\n{{color id=\"2\"}}{{string index=\"0\"}}{{color id=\"0\"}} set!\n{{reaction type=\"Laughter\"}}War har har har!{{pause frames=\"15\"}}\nThey think I'm a chump,\n{{pause frames=\"5\"}}{{string value=\"Catchphrase\"}}!\n{{reaction type=\"Intense\"}}But they have no idea who\nthey're dealing with{{pause frames=\"15\"}}{{resetReaction}}.{{pause frames=\"5\"}}.{{pause frames=\"5\"}}.{{pause frames=\"5\"}}{{reaction type=\"Happiness\"}}and\nstuff, {{pause frames=\"5\"}}{{string value=\"Catchphrase\"}}!"
    }
  },
  {
    "label": "2",
    "attribute": "0x00000000FE000000",
    "locale": {
      "EUde": "{{reaction type=\"Intense\"}}Die Jugend von heute{{pause frames=\"3\"}}.{{pause frames=\"3\"}}.{{pause frames=\"3\"}}.{{pause frames=\"5\"}}\nhat einfach keinen Mumm!{{pause frames=\"5\"}}\nWo bleibt die {{pause frames=\"5\"}}LEIDENSCHAFT!?!\n{{resetReaction}}.{{pause frames=\"3\"}}.{{pause frames=\"3\"}}.{{pause frames=\"3\"}}Man muss den Kindern\nbeibringen, dass Engagement\neine tolle Sache ist!{{pause frames=\"5\"}} \nAber denen ist ja alles\negal{{pause frames=\"5\"}}.{{pause frames=\"5\"}}.{{pause frames=\"5\"}}.{{pause frames=\"5\"}} Es fehlen aber auch\ndie richtigen Vorbilder!\n{{resetReaction}}Aber du kannst ja von\nmir lernen, {{string value=\"PlayerNickname\"}}!\n{{capitalizeLetter}}{{pause frames=\"5\"}}{{string value=\"Catchphrase\"}}!\n{{reaction type=\"Agreement\"}}Jetzt zum Beispiel{{pause frames=\"5\"}}\narbeite ich an meinem\n{{color id=\"2\"}}{{string index=\"0\"}}-Set{{color id=\"0\"}}!\n{{reaction type=\"Resignation\"}}Du merkst schon{{pause frames=\"3\"}}.{{pause frames=\"3\"}}.{{pause frames=\"3\"}}.{{pause frames=\"3\"}}\n{{reaction type=\"Intense\"}}Ich engagiere mich für\ndieses blöde Ding!",
      "EUen": "{{reaction type=\"Intense\"}}Kids these days{{pause frames=\"3\"}}.{{pause frames=\"3\"}}.{{pause frames=\"3\"}}.{{pause frames=\"5\"}}\nThey don't have any drive!{{pause frames=\"5\"}}\nWhere's the {{pause frames=\"5\"}}PASSION?!\n{{resetReaction}}.{{pause frames=\"3\"}}.{{pause frames=\"3\"}}.{{pause frames=\"3\"}}Someone needs to teach\nkids why it's cool to get\nworked up about somethin'!{{pause frames=\"5\"}} \nKids probably don't care\nmuch 'cause no cool adults\nshow 'em how to be intense!\n{{resetReaction}}So, watch and learn from\nthe master, {{string value=\"PlayerNickname\"}}!\n{{capitalizeLetter}}{{pause frames=\"5\"}}{{string value=\"Catchphrase\"}}!\n{{reaction type=\"Agreement\"}}Right now, I'm{{pause frames=\"5\"}}\nworking on completing my\n{{color id=\"2\"}}{{string index=\"0\"}}{{color id=\"0\"}} set!\n{{reaction type=\"Resignation\"}}As you can see{{pause frames=\"3\"}}.{{pause frames=\"3\"}}.{{pause frames=\"3\"}}.{{pause frames=\"3\"}}\n{{reaction type=\"Intense\"}}I'm pretty fanatical about\nfinishing this beast!",
      "EUes": "{{reaction type=\"Intense\"}}Los niños de hoy en día{{pause frames=\"3\"}}.{{pause frames=\"3\"}}.{{pause frames=\"3\"}}.{{pause frames=\"5\"}}\n¡No tienen motivación!{{pause frames=\"5\"}}\n¡¿Dónde está {{pause frames=\"5\"}}la pasión?!\n{{resetReaction}}Mm.{{pause frames=\"3\"}}.{{pause frames=\"3\"}}.{{pause frames=\"3\"}} ¡Alguien tiene que\nenseñarles a buscar\naficiones!{{pause frames=\"5\"}} \n¡No tienen interés porque\nningún mayor los ha iniciado\nen nada en la vida!\n{{resetReaction}}¡Pues mira y aprende del\nexperto, {{string value=\"PlayerNickname\"}}!\n¡{{pause frames=\"5\"}}{{capitalizeLetter}}{{string value=\"Catchphrase\"}}!\n{{reaction type=\"Agreement\"}}¡Ahora {{pause frames=\"5\"}}estoy buscando un\n{{color id=\"2\"}}{{string index=\"0\"}}{{color id=\"0\"}}!\n\n{{reaction type=\"Resignation\"}}Como puedes ver{{pause frames=\"3\"}}.{{pause frames=\"3\"}}.{{pause frames=\"3\"}}.{{pause frames=\"3\"}}\n{{reaction type=\"Intense\"}}¡estoy entusiasmado con\nla idea de completarlo!",
      "EUfr": "{{reaction type=\"Intense\"}}Les jeunes de nos jours{{pause frames=\"3\"}}.{{pause frames=\"3\"}}.{{pause frames=\"3\"}}.{{pause frames=\"5\"}}\nRien ne les motive!{{pause frames=\"5\"}}\nPlus aucune {{pause frames=\"5\"}}PASSION?!\n{{resetReaction}}.{{pause frames=\"3\"}}.{{pause frames=\"3\"}}.{{pause frames=\"3\"}} Il faut leur apprendre\npourquoi c'est bien d'avoir\ndes passions!{{pause frames=\"5\"}} \nIls s'en moquent parce que\npersonne ne leur a appris\ncomment vivre avec fougue!\n{{resetReaction}}Ecoute-moi bien et\nprends-en de la graine,\n{{string value=\"PlayerNickname\"}}! {{capitalizeLetter}}{{pause frames=\"5\"}}{{string value=\"Catchphrase\"}}!\n{{reaction type=\"Agreement\"}}En ce moment,{{pause frames=\"5\"}}\nje travaille à terminer mon\n{{color id=\"2\"}}{{string index=\"0\"}}{{color id=\"0\"}}!\n{{reaction type=\"Resignation\"}}Comme tu peux le voir{{pause frames=\"3\"}}.{{pause frames=\"3\"}}.{{pause frames=\"3\"}}.{{pause frames=\"3\"}}\n{{reaction type=\"Intense\"}}je me donne à fond pour\nterminer cette bestiole!",
      "EUit": "{{reaction type=\"Intense\"}}I giovani d'oggi{{pause frames=\"3\"}}.{{pause frames=\"3\"}}.{{pause frames=\"3\"}}.{{pause frames=\"5\"}}\nsono senza motivazione!{{pause frames=\"5\"}}\nDov'è la {{pause frames=\"5\"}}PASSIONE?!\n{{resetReaction}}.{{pause frames=\"3\"}}.{{pause frames=\"3\"}}.{{pause frames=\"3\"}} Qualcuno dovrebbe\ninsegnare loro che è bello\nemozionarsi per qualcosa!{{pause frames=\"5\"}}\nForse i giovani sono demo-\ntivati perché non hanno\nl'esempio di qualche adulto\ntosto! {{resetReaction}}Quindi, guarda e\nimpara dal maestro,\n{{string value=\"PlayerNickname\"}}! {{capitalizeLetter}}{{pause frames=\"5\"}}{{string value=\"Catchphrase\"}}!\n{{reaction type=\"Agreement\"}}Sto tentando di{{pause frames=\"5\"}}\ncompletare il mio fossile di\n{{ignoreArticle}}{{color id=\"2\"}}{{string index=\"0\"}}{{color id=\"0\"}}!\n{{reaction type=\"Resignation\"}}Come puoi vedere{{pause frames=\"3\"}}.{{pause frames=\"3\"}}.{{pause frames=\"3\"}}.{{pause frames=\"3\"}} {{reaction type=\"Intense\"}}sono\nun tipo piuttosto motivato,\neh!",
      "JPja": "{{reaction type=\"Intense\"}}{{kanjiReplace charNum=\"2\" value=\"さいきん\"}}最近の　わかものは\nなにかと　{{kanjiReplace charNum=\"1\" value=\"さ\"}}冷めてて、{{pause frames=\"5\"}}\nアツくなるってコトを　しらねぇ\n{{resetReaction}}・{{pause frames=\"3\"}}・{{pause frames=\"3\"}}・{{pause frames=\"3\"}}なーんて　{{kanjiReplace charNum=\"2\" value=\"せけん\"}}世間じゃ{{pause frames=\"5\"}}\nよく　{{kanjiReplace charNum=\"1\" value=\"い\"}}言われてるけどよぉ\n\nそいつぁ　{{kanjiReplace charNum=\"1\" value=\"なに\"}}何かに　アツくなれる{{pause frames=\"5\"}}\n{{reaction type=\"Intense\"}}かっこいいオトナが　いねぇコトに\n{{kanjiReplace charNum=\"2\" value=\"もんだい\"}}問題アリだろ！　{{pause frames=\"5\"}}{{string value=\"Catchphrase\"}}！\n{{resetReaction}}だから　{{string value=\"PlayerNickname\"}}、{{pause frames=\"15\"}}\nオレを{{kanjiReplace charNum=\"1\" value=\"み\"}}見やがれ！　{{pause frames=\"5\"}}{{string value=\"Catchphrase\"}}！\n\n{{reaction type=\"Agreement\"}}オレは　{{kanjiReplace charNum=\"1\" value=\"いま\"}}今、{{pause frames=\"5\"}}\n{{color id=\"2\"}}{{string index=\"0\"}}{{color id=\"0\"}}の{{kanjiReplace charNum=\"2\" value=\"かせき\"}}化石を\n{{kanjiReplace charNum=\"2\" value=\"かんせい\"}}完成させるのに　{{kanjiReplace charNum=\"2\" value=\"むちゅう\"}}夢中だ！\n{{reaction type=\"Resignation\"}}ヘヘッ{{pause frames=\"3\"}}・{{pause frames=\"3\"}}・{{pause frames=\"3\"}}・{{pause frames=\"3\"}}\nオレも　オトナ{{kanjiReplace charNum=\"1\" value=\"げ\"}}気ねぇ\nヤローだぜ、{{pause frames=\"5\"}}{{string value=\"Catchphrase\"}}",
      "KRko": "{{reaction type=\"Intense\"}}요즘 젊은이들은\n모든 면에서 냉정하고{{pause frames=\"5\"}}\n열정이란 게 없다며\n{{resetReaction}}・{{pause frames=\"3\"}}・{{pause frames=\"3\"}}・{{pause frames=\"3\"}}세상에선{{pause frames=\"5\"}}\n안 좋게 평가하지만\n\n사실 무언가에 열정을 불태우는{{pause frames=\"5\"}}\n{{reaction type=\"Intense\"}}멋진 어른이 주변에 없다는 게\n문제잖아！ {{pause frames=\"5\"}}{{string value=\"Catchphrase\"}}！\n{{resetReaction}}그니까 {{string value=\"PlayerNickname\"}}，{{pause frames=\"15\"}}\n날 보라구！ {{pause frames=\"5\"}}{{string value=\"Catchphrase\"}}！\n\n{{reaction type=\"Agreement\"}}난 지금{{pause frames=\"5\"}}\n{{color id=\"2\"}}{{string index=\"0\"}} {{color id=\"0\"}}화석 완성\n프로젝트에 푹 빠져 있어！\n{{reaction type=\"Resignation\"}}헤헷{{pause frames=\"3\"}}・{{pause frames=\"3\"}}・{{pause frames=\"3\"}}・{{pause frames=\"3\"}}\n이런， 나도 참 어른스럽지\n못한 놈이군， {{pause frames=\"5\"}}{{string value=\"Catchphrase\"}}",
      "USen": "{{reaction type=\"Intense\"}}Kids these days{{pause frames=\"3\"}}.{{pause frames=\"3\"}}.{{pause frames=\"3\"}}.{{pause frames=\"5\"}}\nThey don't have any drive!{{pause frames=\"5\"}}\nWhere's the {{pause frames=\"5\"}}PASSION?!\n{{resetReaction}}.{{pause frames=\"3\"}}.{{pause frames=\"3\"}}.{{pause frames=\"3\"}}Someone needs to teach\nkids why it's cool to get\nworked up about somethin'!{{pause frames=\"5\"}} \nKids probably don't care\nmuch 'cause no cool adults\nshow 'em how to be intense!\n{{resetReaction}}So, watch and learn from\nthe master, {{string value=\"PlayerNickname\"}}!\n{{capitalizeLetter}}{{pause frames=\"5\"}}{{string value=\"Catchphrase\"}}!\n{{reaction type=\"Agreement\"}}Right now, I'm{{pause frames=\"5\"}}\nworking on completing my\n{{color id=\"2\"}}{{string index=\"0\"}}{{color id=\"0\"}} set!\n{{reaction type=\"Resignation\"}}As you can see{{pause frames=\"3\"}}.{{pause frames=\"3\"}}.{{pause frames=\"3\"}}.{{pause frames=\"3\"}}\n{{reaction type=\"Intense\"}}I'm pretty fanatical about\nfinishing this beast!"
    }
  }
]