[
  {
    "label": "0",
    "attribute": "0x000A0000FF000000",
    "locale": {
      "EUde": "{{reaction type=\"Amazed\"}}Du hast mir ein\n{{ignoreArticle}}{{itemName index=\"0\"}}-\nFossil besorgt!?!\n{{reaction type=\"Happiness\"}}Hey, danke! Du bist ja\ngar nicht so schlecht, wie\nich dachte{{pause frames=\"5\"}}.{{pause frames=\"5\"}}.{{pause frames=\"5\"}}.",
      "EUen": "{{reaction type=\"Amazed\"}}What's this!? {{pause frames=\"5\"}}You found me\n{{itemName index=\"0\"}}\nfossil?!\n{{reaction type=\"Happiness\"}}Thanks. You're not half as\nbad as I thought{{pause frames=\"5\"}}.{{pause frames=\"5\"}}.{{pause frames=\"5\"}}.",
      "EUes": "{{reaction type=\"Amazed\"}}¡¿Me has traído {{gender m=\"un\" f=\"una\" n=\"\"}}\n{{ignoreArticle}}{{itemName index=\"0\"}}?!\n\n{{reaction type=\"Happiness\"}}Gracias. No eres tan mala\npersona como pensaba{{pause frames=\"5\"}}.{{pause frames=\"5\"}}.{{pause frames=\"5\"}}.",
      "EUfr": "{{reaction type=\"Amazed\"}}Tu as trouvé\n{{itemName index=\"0\"}}?!\n{{reaction type=\"Happiness\"}}Merci, tu n'es pas aussi\nmauvais{{gender m=\"\" f=\"e\"}} que ce que\nj'imaginais{{pause frames=\"5\"}}.{{pause frames=\"5\"}}.{{pause frames=\"5\"}}.",
      "EUit": "{{reaction type=\"Amazed\"}}Mi hai trovato\n{{itemName index=\"0\"}}\nfossile?!\n{{reaction type=\"Happiness\"}}Grazie, in fondo non sei\ncosì male come credevo{{pause frames=\"5\"}}.{{pause frames=\"5\"}}.{{pause frames=\"5\"}}.",
      "JPja": "{{reaction type=\"Amazed\"}}あっ！　おめぇ、\n{{itemName index=\"0\"}}を\nさがしてきて　くれたのか？！\n{{reaction type=\"Happiness\"}}こいつぁ　{{kanjiReplace charNum=\"1\" value=\"たす\"}}助かるぜぇ！\nぜひとも　{{kanjiReplace charNum=\"1\" value=\"れい\"}}礼を\nしなくっちゃな{{pause frames=\"5\"}}・{{pause frames=\"5\"}}・{{pause frames=\"5\"}}・",
      "KRko": "{{reaction type=\"Amazed\"}}앗！ 너 이 자식\n{{itemName index=\"0\"}}{{fun_0B arg=\"0x0200\"}}\n찾아다 주었구나？！\n{{reaction type=\"Happiness\"}}우와 진짜 고맙다！\n이거 참 꼭 답례를\n해야겠는걸{{pause frames=\"5\"}}・{{pause frames=\"5\"}}・{{pause frames=\"5\"}}・",
      "USen": "{{reaction type=\"Amazed\"}}What's this!? {{pause frames=\"5\"}}You found me\n{{itemName index=\"0\"}}\nfossil?!\n{{reaction type=\"Happiness\"}}Thanks. You're not half as\nbad as I thought{{pause frames=\"5\"}}.{{pause frames=\"5\"}}.{{pause frames=\"5\"}}."
    }
  },
  {
    "label": "1",
    "attribute": "0x000A0000FF000000",
    "locale": {
      "EUde": "{{reaction type=\"Amazed\"}}Moment... Was...? Dieses\n{{ignoreArticle}}{{itemName index=\"0\"}}-\nFossil ist für mich?{{resetReaction}}\n.{{pause frames=\"5\"}}.{{pause frames=\"5\"}}.{{pause frames=\"5\"}}Danke!\n\n\n{{reaction type=\"Sorrow\"}}Das beweist, dass es\ndoch noch nette Menschen\nauf der Welt gibt{{pause frames=\"5\"}}.{{pause frames=\"5\"}}.{{pause frames=\"5\"}}.{{pause frames=\"5\"}}\n{{reaction type=\"Happiness\"}}Hey, ich schulde dir einen\nGefallen, {{pause frames=\"5\"}}{{string value=\"Catchphrase\"}}.",
      "EUen": "{{reaction type=\"Amazed\"}}Huh? Wait, what? This\n{{ignoreArticle}}{{itemName index=\"0\"}}\nfossil is for me?{{pressButton}}{{resetReaction}}{{pause frames=\"5\"}} .{{pause frames=\"5\"}}.{{pause frames=\"5\"}}.{{pause frames=\"5\"}}Thanks!\n{{reaction type=\"Sorrow\"}}This just shows that people\ncan actually be nice to you\na few times in your life{{pause frames=\"5\"}}.{{pause frames=\"5\"}}.{{pause frames=\"5\"}}.{{pause frames=\"5\"}}\n{{reaction type=\"Happiness\"}}Just for this, I gotta do \nsomething cool for you,\n{{pause frames=\"5\"}}{{string value=\"Catchphrase\"}}.",
      "EUes": "{{reaction type=\"Amazed\"}}¿Eh? Espera, ¿qué? ¿Que\n{{gender m=\"este\" f=\"esta\" n=\"\"}} {{ignoreArticle}}{{itemName index=\"0\"}}\nes para mí?{{pressButton}}{{resetReaction}}{{pause frames=\"5\"}} Mm.{{pause frames=\"5\"}}.{{pause frames=\"5\"}}.{{pause frames=\"5\"}} ¡Gracias!\n{{reaction type=\"Sorrow\"}}Esta es la prueba de que la\ngente hace cosas buenas\nalguna vez en la vida{{pause frames=\"5\"}}.{{pause frames=\"5\"}}.{{pause frames=\"5\"}}.{{pause frames=\"5\"}}\n{{reaction type=\"Happiness\"}}Mereces que te devuelva\nel favor, {{pause frames=\"5\"}}{{string value=\"Catchphrase\"}}.",
      "EUfr": "{{reaction type=\"Amazed\"}}Hein! De quoi? Ce fossile\nest pour moi?\n{{capitalizeLetter}}{{itemName index=\"0\"}}{{resetReaction}}!\nMerci!\n{{reaction type=\"Sorrow\"}}Cela montre bien que les\ngens peuvent être gentils\nde temps en temps{{pause frames=\"5\"}}.{{pause frames=\"5\"}}.{{pause frames=\"5\"}}.{{pause frames=\"5\"}}\n{{reaction type=\"Happiness\"}}Pour te remercier, je dois\nfaire un truc sympa,\n{{pause frames=\"5\"}}{{string value=\"Catchphrase\"}}.",
      "EUit": "{{reaction type=\"Amazed\"}}Uh? Aspetta, cosa? Quest{{gender m=\"o\" f=\"a\" n=\"\"}}\n{{ignoreArticle}}{{itemName index=\"0\"}}\nfossile è per me?{{pressButton}}{{resetReaction}} Grazie!\n{{reaction type=\"Sorrow\"}}Questa è la dimostrazione\nche a volte nella vita trovi\ndella gente gentile{{pause frames=\"5\"}}.{{pause frames=\"5\"}}.{{pause frames=\"5\"}}.{{pause frames=\"5\"}}\n{{reaction type=\"Happiness\"}}In cambio, voglio fare\nqualcosa di carino per te,\n{{pause frames=\"5\"}}{{string value=\"Catchphrase\"}}.",
      "JPja": "{{reaction type=\"Amazed\"}}この　{{itemName index=\"0\"}}を\nオレのために？！{{pressButton}}\n{{resetReaction}}{{pause frames=\"5\"}}・{{pause frames=\"5\"}}・{{pause frames=\"5\"}}・{{pause frames=\"5\"}}ありがとよ！\n{{reaction type=\"Sorrow\"}}{{kanjiReplace charNum=\"1\" value=\"い\"}}生きてりゃ{{pause frames=\"5\"}}\nイイ{{kanjiReplace charNum=\"1\" value=\"こと\"}}事の　１つや２つ{{pause frames=\"5\"}}\nあるもんだな、{{pause frames=\"5\"}}{{string value=\"Catchphrase\"}}\n{{reaction type=\"Happiness\"}}とりあえず　おめぇには\nお{{kanjiReplace charNum=\"1\" value=\"れい\"}}礼をしなくちゃ　なるめぇ",
      "KRko": "{{reaction type=\"Amazed\"}}{{itemName index=\"0\"}}{{fun_0B arg=\"0x0200\"}}\n날 위해？！{{pressButton}}\n{{resetReaction}}{{pause frames=\"5\"}}・{{pause frames=\"5\"}}・{{pause frames=\"5\"}}・{{pause frames=\"5\"}}고맙다！\n{{reaction type=\"Sorrow\"}}참 이거{{pause frames=\"5\"}}오래 살다 보니{{pause frames=\"5\"}}\n이렇게 좋은 일도{{pause frames=\"5\"}}\n생기는 구나， {{pause frames=\"5\"}}{{string value=\"Catchphrase\"}}\n{{reaction type=\"Happiness\"}}암튼 너한테는\n답례를 하도록 하마， 자식！",
      "USen": "{{reaction type=\"Amazed\"}}Huh? Wait, what? This\n{{ignoreArticle}}{{itemName index=\"0\"}}\nfossil is for me?{{pressButton}}{{resetReaction}}{{pause frames=\"5\"}} .{{pause frames=\"5\"}}.{{pause frames=\"5\"}}.{{pause frames=\"5\"}}Thanks!\n{{reaction type=\"Sorrow\"}}This just shows that people\ncan actually be nice to you\na few times in your life{{pause frames=\"5\"}}.{{pause frames=\"5\"}}.{{pause frames=\"5\"}}.{{pause frames=\"5\"}}\n{{reaction type=\"Happiness\"}}Just for this, I gotta do \nsomething cool for you,\n{{pause frames=\"5\"}}{{string value=\"Catchphrase\"}}."
    }
  },
  {
    "label": "2",
    "attribute": "0x000A0000FF000000",
    "locale": {
      "EUde": "{{reaction type=\"Amazed\"}}Wow{{pause frames=\"5\"}}.{{pause frames=\"5\"}}.{{pause frames=\"5\"}}.{{pause frames=\"10\"}} Du gibst mir ein\n{{ignoreArticle}}{{itemName index=\"0\"}}-\nFossil!?! Im Ernst?\n{{reaction type=\"Worry\"}}Ich meine{{pause frames=\"5\"}}.{{pause frames=\"5\"}}.{{pause frames=\"5\"}}.{{pause frames=\"10\"}} Wow!{{pause frames=\"15\"}}\n{{reaction type=\"Sorrow\"}}Du bist echt in\nOrdnung, {{pause frames=\"5\"}}{{string value=\"Catchphrase\"}}!\n{{reaction type=\"Happiness\"}}Da muss ich dir aber auch\nirgendwas Tolles mitgeben,\n{{pause frames=\"5\"}}{{string value=\"Catchphrase\"}}!",
      "EUen": "{{reaction type=\"Amazed\"}}Whoa{{pause frames=\"5\"}}.{{pause frames=\"5\"}}.{{pause frames=\"5\"}}.{{pause frames=\"10\"}} You're giving me\n{{itemName index=\"0\"}}?\nSeriously?!\n{{reaction type=\"Worry\"}}I mean{{pause frames=\"5\"}}.{{pause frames=\"5\"}}.{{pause frames=\"5\"}}.{{pause frames=\"10\"}}wow.{{pause frames=\"15\"}} {{reaction type=\"Sorrow\"}}You're not\nbad, kid. Anyone ever tell\nyou that, {{pause frames=\"5\"}}{{string value=\"Catchphrase\"}}?\n{{reaction type=\"Happiness\"}}There's no way I can let\nyou leave without some cool\nloot, {{pause frames=\"5\"}}{{string value=\"Catchphrase\"}}!",
      "EUes": "{{reaction type=\"Amazed\"}}Rayos{{pause frames=\"5\"}}.{{pause frames=\"5\"}}.{{pause frames=\"5\"}}.{{pause frames=\"10\"}} ¿Me has traído {{gender m=\"un\" f=\"una\" n=\"\"}}\n{{ignoreArticle}}{{itemName index=\"0\"}}?\n¡¿En serio, para mí?!\n{{reaction type=\"Worry\"}}Este{{pause frames=\"5\"}}.{{pause frames=\"5\"}}.{{pause frames=\"5\"}}.{{pause frames=\"10\"}} guau.{{pause frames=\"15\"}} {{reaction type=\"Sorrow\"}}No eres tan\nmal{{gender m=\"\" f=\"a\"}} colega. ¿Te lo habían\ndicho antes, {{pause frames=\"5\"}}{{string value=\"Catchphrase\"}}?\n{{reaction type=\"Happiness\"}}¡Tú no te vas de aquí\nsin una recompensa,\n{{pause frames=\"5\"}}{{string value=\"Catchphrase\"}}!",
      "EUfr": "{{reaction type=\"Amazed\"}}Waouh{{pause frames=\"5\"}}.{{pause frames=\"5\"}}.{{pause frames=\"5\"}}.{{pause frames=\"10\"}} C'est pour moi?\n{{capitalizeLetter}}{{itemName index=\"0\"}}?!\n{{reaction type=\"Worry\"}}Alors{{pause frames=\"5\"}}.{{pause frames=\"5\"}}.{{pause frames=\"5\"}}.{{pause frames=\"10\"}} {{reaction type=\"Sorrow\"}}tu es sympa au\nfond. Personne ne te l'a\njamais dit, {{pause frames=\"5\"}}{{string value=\"Catchphrase\"}}?\n{{reaction type=\"Happiness\"}}Je ne vais pas te laisser\npartir sans quelque chose\nde cool, {{pause frames=\"5\"}}{{string value=\"Catchphrase\"}}!",
      "EUit": "{{reaction type=\"Amazed\"}}Whoa{{pause frames=\"5\"}}.{{pause frames=\"5\"}}.{{pause frames=\"5\"}}.{{pause frames=\"10\"}} Mi stai regalando\n{{itemName index=\"0\"}}\nfossile? Sul serio?!\n{{reaction type=\"Worry\"}}Cioè{{pause frames=\"5\"}}.{{pause frames=\"5\"}}.{{pause frames=\"5\"}}.{{pause frames=\"10\"}} wow.{{pause frames=\"15\"}} {{reaction type=\"Sorrow\"}}Non sei tanto\nmale, ragazz{{gender m=\"o\" f=\"a\"}}. Te l'hanno\nmai detto, {{pause frames=\"5\"}}{{string value=\"Catchphrase\"}}?\n{{reaction type=\"Happiness\"}}Non te ne puoi andare prima\nche ti abbia dato qualcosa\nin cambio, {{pause frames=\"5\"}}{{string value=\"Catchphrase\"}}!",
      "JPja": "{{reaction type=\"Amazed\"}}なっ{{pause frames=\"5\"}}・{{pause frames=\"5\"}}・{{pause frames=\"5\"}}・{{pause frames=\"10\"}}\nこの　{{itemName index=\"0\"}}を\nくれるってのか？！\n{{reaction type=\"Worry\"}}かーっ！{{pause frames=\"15\"}}\n{{reaction type=\"Sorrow\"}}おめぇも　イキな{{kanjiReplace charNum=\"2\" value=\"まね\"}}真似\nしてくれるぜ！\n{{reaction type=\"Happiness\"}}だったら　オレも\nただで　おめぇを{{kanjiReplace charNum=\"1\" value=\"かえ\"}}帰すワケには\nいかねぇや！　{{pause frames=\"5\"}}{{string value=\"Catchphrase\"}}！",
      "KRko": "{{reaction type=\"Amazed\"}}헉{{pause frames=\"5\"}}・{{pause frames=\"5\"}}・{{pause frames=\"5\"}}・{{pause frames=\"10\"}}\n이 {{itemName index=\"0\"}}\n주는 게냐？！\n{{reaction type=\"Worry\"}}으헉！{{pause frames=\"15\"}}\n{{reaction type=\"Sorrow\"}}너도 의외로 사람\n감동시키는구낫！\n{{reaction type=\"Happiness\"}}그렇다면 나도\n널 그냥 돌려보낼 수야\n없지！ {{pause frames=\"5\"}}{{string value=\"Catchphrase\"}}！",
      "USen": "{{reaction type=\"Amazed\"}}Whoa{{pause frames=\"5\"}}.{{pause frames=\"5\"}}.{{pause frames=\"5\"}}.{{pause frames=\"10\"}} You're giving me\n{{itemName index=\"0\"}}?\nSeriously?!\n{{reaction type=\"Worry\"}}I mean{{pause frames=\"5\"}}.{{pause frames=\"5\"}}.{{pause frames=\"5\"}}.{{pause frames=\"10\"}}wow.{{pause frames=\"15\"}} {{reaction type=\"Sorrow\"}}You're not\nbad, kid. Anyone ever tell\nyou that, {{pause frames=\"5\"}}{{string value=\"Catchphrase\"}}?\n{{reaction type=\"Happiness\"}}There's no way I can let\nyou leave without some cool\nloot, {{pause frames=\"5\"}}{{string value=\"Catchphrase\"}}!"
    }
  }
]