[
  {
    "label": "0",
    "attribute": "0x00000000FF000000",
    "locale": {
      "EUde": "{{resetReaction}}Das kommt jetzt vielleicht\nplötzlich, {{string value=\"PlayerNickname\"}}, aber\nich muss dich mal fragen...\nHast du schon mal von {{gender m=\"dem\" f=\"der\" n=\"dem\"}}\n{{ignoreArticle}}{{itemName index=\"0\"}}\ngehört?{{pause frames=\"5\"}}\nIch brauche nämlich {{gender m=\"einen\" f=\"eine\" n=\"eins\"}}.\n{{pause frames=\"5\"}}Dringend.\n\nUnd ich kann mich nur\nmit einem kleinen Wett-\nkampf motivieren...\nAlso, willst du versuchen,\nvor mir {{reaction type=\"Curiosity\"}}{{gender m=\"einen\" f=\"eine\" n=\"eins\"}}\nzu fangen?",
      "EUen": "{{resetReaction}}This might seem a bit\nsudden, {{string value=\"PlayerNickname\"}}, but\nI've got a question...\nHave you heard of the\n{{ignoreArticle}}{{itemName index=\"0\"}}?{{pause frames=\"5\"}}\nBecause I need one. {{pause frames=\"5\"}}Badly.\nAnd I'm thinking the only\nway I can get motivated is\nwith a little challenge.\nSo here's the deal. Want\nto see if you can catch\none {{reaction type=\"Curiosity\"}}before me?",
      "EUes": "{{resetReaction}}A lo mejor esto te coge de\nsorpresa, {{string value=\"PlayerNickname\"}}, pero\ntengo una pregunta...\n¿Sabes lo que es\n{{itemName index=\"0\"}}?{{pause frames=\"5\"}}\nEs que necesito un{{gender m=\"o\" f=\"a\" n=\"\"}}. {{pause frames=\"5\"}}Mucho.\nY estaba pensando que solo\nme puedo motivar si me\nenfrento a un desafío.\nAsí que te propongo una\ncosa: ¡a ver quién pesca\nun{{gender m=\"o\" f=\"a\" n=\"\"}} primero! {{reaction type=\"Curiosity\"}}¿Vale?",
      "EUfr": "{{resetReaction}}Ça peut sembler soudain,\n{{string value=\"PlayerNickname\"}}, mais j'ai une\nquestion...\nAs-tu entendu parler\nd'{{itemName index=\"0\"}}?{{pause frames=\"5\"}}\nParce qu'il m'en faut un{{gender m=\"\" f=\"e\" n=\"\"}}.\n{{pause frames=\"5\"}}A tout prix. Et le seul\nmoyen d'en avoir, c'est\nde faire un petit défi.\nVoilà ce que je propose. Tu\nveux voir si tu arrives à\nen pêcher un{{gender m=\"\" f=\"e\" n=\"\"}}{{reaction type=\"Curiosity\"}} avant moi?",
      "EUit": "{{resetReaction}}So di coglierti di sorpresa,\n{{string value=\"PlayerNickname\"}}, ma ho una\ndomanda da farti...\nHai mai visto\n{{itemName index=\"0\"}}?{{pause frames=\"5\"}}\nPerché me ne serve {{gender m=\"uno\" f=\"una\" n=\"\"}}. {{pause frames=\"5\"}}Sì!\nPer trovare la motivazione\nper pescarne un{{gender m=\"o\" f=\"a\" n=\"\"}} mi serve\nuna bella gara!\nEcco il piano. Chi ne pesca\nun{{gender m=\"o\" f=\"a\" n=\"\"}} per prim{{gender m=\"o\" f=\"a\"}}, vince!\n{{reaction type=\"Curiosity\"}}Ci stai?",
      "JPja": "{{resetReaction}}とつぜんで\nもうしわけありませんけれど\n{{string value=\"PlayerNickname\"}}さん、\n{{itemName index=\"0\"}}は{{pause frames=\"10\"}}\nご{{kanjiReplace charNum=\"2\" value=\"ぞんじ\"}}存知ですよね、{{pause frames=\"5\"}}{{string value=\"Catchphrase\"}}？\n\n{{reaction type=\"Curiosity\"}}どちらが{{kanjiReplace charNum=\"1\" value=\"さき\"}}先に　{{kanjiReplace charNum=\"1\" value=\"つか\"}}捕まえられるか\n{{kanjiReplace charNum=\"2\" value=\"しょうぶ\"}}勝負してみませんか？",
      "KRko": "{{resetReaction}}갑자기 이런 말씀 드려서\n죄송한데요\n{{string value=\"PlayerNickname\"}}님！\n{{itemName index=\"0\"}}{{pause frames=\"10\"}}\n알고 계시죠， {{pause frames=\"5\"}}{{string value=\"Catchphrase\"}}？\n\n{{reaction type=\"Curiosity\"}}누가 먼저 잡는지\n시합해 보지 않으시겠어요？",
      "USen": "{{resetReaction}}This might seem a bit\nsudden, {{string value=\"PlayerNickname\"}}, but\nI've got a question...\nHave you heard of the\n{{ignoreArticle}}{{itemName index=\"0\"}}?{{pause frames=\"5\"}}\nBecause I need one. {{pause frames=\"5\"}}Badly.\nAnd I'm thinking the only\nway I can get motivated is\nwith a little challenge.\nSo here's the deal. Want\nto see if you can catch\none {{reaction type=\"Curiosity\"}}before me?"
    }
  },
  {
    "label": "1",
    "attribute": "0x00000000FF000000",
    "locale": {
      "EUde": "{{resetReaction}}Diese Saison erwische\nich sicher kiloweise\n{{ignoreArticle}}{{itemName index=\"0\"}}.\nWenn du {{gender m=\"keinen\" f=\"keine\" n=\"keins\"}} fängst,\n{{reaction type=\"Happiness\"}}kannst du dich kaum\nals Angler bezeichnen!\n{{resetReaction}}Pass auf, {{string value=\"PlayerNickname\"}}!\nWir wollen sehen, wer\nzuerst {{gender m=\"einen\" f=\"eine\" n=\"eins\"}} fangen kann!",
      "EUen": "{{resetReaction}}This is the perfect season\nfor catching a TON of\n{{ignoreArticle}}{{itemName index=\"0\"}}.\nIf you can't catch one,\nwhy, {{reaction type=\"Happiness\"}}you can hardly call\nyourself a real fisher!\n{{resetReaction}}Let's test your dedication,\n{{string value=\"PlayerNickname\"}}! Let's see who\ncan catch one first!",
      "EUes": "{{resetReaction}}Estamos en la época\nperfecta para la pesca de\n{{fun_0B}}{{itemName index=\"0\"}}.\nSi no consigues un{{gender m=\"o\" f=\"a\" n=\"\"}},\n{{reaction type=\"Happiness\"}}¡no te mereces llevar\nuna caña al hombro!\n{{resetReaction}}¡A ver qué tal se te da\nesto, {{string value=\"PlayerNickname\"}}! ¡A ver\nquién pesca un{{gender m=\"o\" f=\"a\" n=\"\"}} antes!",
      "EUfr": "{{resetReaction}}C'est la saison parfaite\npour pêcher\n{{fun_0B}}{{itemName index=\"0\"}}.\nSi tu en attrapes un{{gender m=\"\" f=\"e\" n=\"\"}},\ntu {{reaction type=\"Happiness\"}}pourras dire que tu\nsais pêcher!\n{{resetReaction}}Testons ton niveau,\n{{string value=\"PlayerNickname\"}}! Voyons qui en\nattrapera un{{gender m=\"\" f=\"e\" n=\"\"}} en premier!",
      "EUit": "{{resetReaction}}Questa è la stagione\nperfetta per pescare\n{{fun_0B}}{{itemName index=\"0\"}}.\nSe non riesci a pescarne\nun{{gender m=\"o\" f=\"a\" n=\"\"}}, {{reaction type=\"Happiness\"}}non sei altro\nche una povera schiappa!\n{{resetReaction}}Vediamo quanto ci sai fare,\n{{string value=\"PlayerNickname\"}}! Vediamo chi è\n{{gender m=\"il\" f=\"la\"}} migliore tra noi due!",
      "JPja": "{{resetReaction}}このきせつ、\n{{itemName index=\"0\"}}を\nねらわないのは、\n{{reaction type=\"Happiness\"}}{{kanjiReplace charNum=\"1\" value=\"つ\"}}釣り{{kanjiReplace charNum=\"1\" value=\"ず\"}}好きとは　{{kanjiReplace charNum=\"1\" value=\"よ\"}}呼べませんよね\n{{string value=\"PlayerNickname\"}}さん？　{{pause frames=\"5\"}}{{string value=\"Catchphrase\"}}？\n\n{{resetReaction}}どちらが　{{kanjiReplace charNum=\"1\" value=\"さき\"}}先に\n{{kanjiReplace charNum=\"1\" value=\"つ\"}}釣り{{kanjiReplace charNum=\"1\" value=\"あ\"}}上げられるか\n{{reaction type=\"Curiosity\"}}きょうそうして　みませんか？",
      "KRko": "{{resetReaction}}이 계절에\n{{itemName index=\"0\"}}{{fun_0B arg=\"0x0200\"}}\n잡지 않는다면\n{{reaction type=\"Happiness\"}}낚시 매니아가 아니에요\n{{string value=\"PlayerNickname\"}}님！ {{pause frames=\"5\"}}{{string value=\"Catchphrase\"}}\n\n{{resetReaction}}누가 먼저\n잡을지\n{{reaction type=\"Curiosity\"}}저랑 대결해 봐요！！",
      "USen": "{{resetReaction}}This is the perfect season\nfor catching a TON of\n{{ignoreArticle}}{{itemName index=\"0\"}}.\nIf you can't catch one,\nwhy, {{reaction type=\"Happiness\"}}you can hardly call\nyourself a real fisher!\n{{resetReaction}}Let's test your dedication,\n{{string value=\"PlayerNickname\"}}! Let's see who\ncan catch one first!"
    }
  },
  {
    "label": "2",
    "attribute": "0x00000000FF000000",
    "locale": {
      "EUde": "{{resetReaction}}Die Leute sagen immer,\nFisch ist gut für das\nGehirn, {{pause frames=\"5\"}}{{string value=\"Catchphrase\"}}.\n{{reaction type=\"Thought\"}}Wirklich jeder Fisch?{{pause frames=\"5\"}}\nIch meine, zum Beispiel auch\n{{reaction type=\"Curiosity\"}}{{itemName index=\"0\"}}?\n{{resetReaction}}Ich glaube, ich sollte mir\neinen Vorrat anlegen...\n{{reaction type=\"Mischief\"}}für schlechte Tage eben.\n{{reaction type=\"Inspiration\"}}Ich habe eine Idee!{{pause frames=\"15\"}}\n{{resetReaction}}Wenn wir beide welche\nfangen...\nverdoppelt sich mein\nVorrat!\n\n{{reaction type=\"Happiness\"}}Lass uns doch einen Wett-\nkampf machen, {{string value=\"PlayerNickname\"}}.\n{{pause frames=\"5\"}}Ich fange {{gender m=\"einen\" f=\"eine\" n=\"eins\"}} vor dir!",
      "EUen": "{{resetReaction}}People are always saying\nfish is supposed to be a\nbrain food, {{pause frames=\"5\"}}{{string value=\"Catchphrase\"}}.\n{{reaction type=\"Thought\"}}Does that go for all fish?{{pause frames=\"5\"}}\nLike, would it work if I ate\n{{reaction type=\"Curiosity\"}}{{itemName index=\"0\"}}?\n{{resetReaction}}I feel like I ought to stock\nup on them. You know, {{reaction type=\"Mischief\"}}for\nwhen I'm having a down day.\n{{reaction type=\"Inspiration\"}}I've got an idea!{{pause frames=\"15\"}}{{resetReaction}} If you\nand I both try to catch\nthem, I'll double my stock!\n{{reaction type=\"Happiness\"}}Let's make a contest out\nof it, {{string value=\"PlayerNickname\"}}. {{pause frames=\"5\"}}I'll bet\nI can catch one before you!",
      "EUes": "{{resetReaction}}Los adultos dicen que el\npescado es bueno para el\ncerebro, {{pause frames=\"5\"}}{{string value=\"Catchphrase\"}}.\n{{reaction type=\"Thought\"}}¿Todos los pescados lo son?{{pause frames=\"5\"}}\n¿También si me como\n{{reaction type=\"Curiosity\"}}{{itemName index=\"0\"}}?\n{{resetReaction}}Tendría que tener un{{gender m=\"os\" f=\"as\" n=\"\"}}\ncuant{{gender m=\"os\" f=\"as\" n=\"\"}} en casa. Ya sabes,\n{{reaction type=\"Mischief\"}}para los días tontos y eso.\n{{reaction type=\"Inspiration\"}}¡Tengo una idea!{{pause frames=\"15\"}}{{resetReaction}}\n¡Si l{{gender m=\"os\" f=\"as\" n=\"\"}} pescamos junt{{gender m=\"os\" f=\"as\"}},\ntendré más para guardar!\n{{reaction type=\"Happiness\"}}Hagámoslo como una\ncompetición, {{string value=\"PlayerNickname\"}}.\n{{pause frames=\"5\"}}¡Qué te juegas que te gano!",
      "EUfr": "{{resetReaction}}Les gens disent que manger\ndu poisson c'est bon pour le\ncerveau, {{pause frames=\"5\"}}{{string value=\"Catchphrase\"}}.\n{{reaction type=\"Thought\"}}Tous les poissons?{{pause frames=\"5\"}} Ça\nmarcherait si je mangeais\n{{reaction type=\"Curiosity\"}}{{itemName index=\"0\"}}?\n{{resetReaction}}Je devrais en stocker. Tu\nsais, {{reaction type=\"Mischief\"}}pour en avoir quand\nje me sens faible.\n{{reaction type=\"Inspiration\"}}J'ai une idée!{{pause frames=\"15\"}}{{resetReaction}} Si toi et moi\non en pêchait, j'en aurais\nle double!\n{{reaction type=\"Happiness\"}}Faisons un concours,\n{{string value=\"PlayerNickname\"}}. {{pause frames=\"5\"}}Je parie que\nj'en pêcherai un{{gender m=\"\" f=\"e\" n=\"\"}} avant toi!",
      "EUit": "{{resetReaction}}Si dice che mangiare pesce\nfaccia diventare\nintelligenti,{{pause frames=\"5\"}} {{string value=\"Catchphrase\"}}.\n{{reaction type=\"Thought\"}}Ma tutti i pesci?{{pause frames=\"5\"}}\nTipo, vale anche se mangio\n{{reaction type=\"Curiosity\"}}{{itemName index=\"0\"}}?\n{{resetReaction}}Se è così, devo farne\nscorta. Sai, {{reaction type=\"Mischief\"}}non si è\nmai troppo intelligenti!\n{{reaction type=\"Inspiration\"}}Ho un'idea!{{pause frames=\"15\"}}{{resetReaction}} Se anche tu\nmi aiuti nella pesca, potrò\nraddoppiare le mie scorte!\n{{reaction type=\"Happiness\"}}Facciamo una gara,\n{{string value=\"PlayerNickname\"}}. {{pause frames=\"5\"}}Scommetto\nche io sono più veloce!",
      "JPja": "{{resetReaction}}サカナを{{kanjiReplace charNum=\"1\" value=\"た\"}}食べると\n{{kanjiReplace charNum=\"1\" value=\"あたま\"}}頭が{{kanjiReplace charNum=\"1\" value=\"よ\"}}良くなると\nいいますが、{{string value=\"PlayerNickname\"}}さん\n{{reaction type=\"Curiosity\"}}だったら　{{itemName index=\"0\"}}は\nどうなんでしょう？\n\n{{reaction type=\"Love\"}}お{{kanjiReplace charNum=\"2\" value=\"へや\"}}部屋に　{{kanjiReplace charNum=\"1\" value=\"すい\"}}水そうがあるだけで\n{{kanjiReplace charNum=\"2\" value=\"こうか\"}}効果が　ありそうな\n{{kanjiReplace charNum=\"1\" value=\"き\"}}気がしてきちゃいます{{pause frames=\"5\"}}・{{pause frames=\"5\"}}・{{pause frames=\"5\"}}・\n{{reaction type=\"Inspiration\"}}{{kanjiReplace charNum=\"1\" value=\"き\"}}決めました！{{pause frames=\"15\"}}\n{{resetReaction}}{{itemName index=\"0\"}}{{kanjiReplace charNum=\"1\" value=\"つ\"}}釣りが\n{{kanjiReplace charNum=\"1\" value=\"いま\"}}今から　わたしのテーマです\n{{reaction type=\"Happiness\"}}{{string value=\"PlayerNickname\"}}さん、{{pause frames=\"15\"}}\nどちらが{{kanjiReplace charNum=\"1\" value=\"さき\"}}先に　{{kanjiReplace charNum=\"1\" value=\"つ\"}}釣り{{kanjiReplace charNum=\"1\" value=\"あ\"}}上げられるか\nくらべっこしましょう、{{pause frames=\"5\"}}{{string value=\"Catchphrase\"}}",
      "KRko": "{{resetReaction}}생선을 많이 먹으면\n머리가 좋아진다고들\n하잖아요， {{string value=\"PlayerNickname\"}}님！\n{{reaction type=\"Curiosity\"}}{{itemName index=\"0\"}}{{fun_0B arg=\"0x0100\"}}\n어떨까요？\n\n{{reaction type=\"Love\"}}방 안에 어항만 있어도\n머리가 좋아질 것 같은\n기분이 들어요{{pause frames=\"5\"}}・{{pause frames=\"5\"}}・{{pause frames=\"5\"}}・\n{{reaction type=\"Inspiration\"}}결정했어요！{{pause frames=\"15\"}}\n{{resetReaction}}{{itemName index=\"0\"}}{{fun_0B arg=\"0x0300\"}}\n오늘부터 제 낚시 테마예요\n{{reaction type=\"Happiness\"}}{{string value=\"PlayerNickname\"}}님！{{pause frames=\"15\"}}\n누가 먼저 잡을지\n시합해 봐요， {{pause frames=\"5\"}}{{string value=\"Catchphrase\"}}",
      "USen": "{{resetReaction}}People are always saying\nfish is supposed to be a\nbrain food, {{pause frames=\"5\"}}{{string value=\"Catchphrase\"}}.\n{{reaction type=\"Thought\"}}Does that go for all fish?{{pause frames=\"5\"}}\nLike, would it work if I ate\n{{reaction type=\"Curiosity\"}}{{itemName index=\"0\"}}?\n{{resetReaction}}I feel like I ought to stock\nup on them. You know, {{reaction type=\"Mischief\"}}for\nwhen I'm having a down day.\n{{reaction type=\"Inspiration\"}}I've got an idea!{{pause frames=\"15\"}}{{resetReaction}} If you\nand I both try to catch\nthem, I'll double my stock!\n{{reaction type=\"Happiness\"}}Let's make a contest out\nof it, {{string value=\"PlayerNickname\"}}. {{pause frames=\"5\"}}I'll bet\nI can catch one before you!"
    }
  }
]