[
  {
    "label": "00",
    "attribute": "0x0000000003000000",
    "locale": {
      "EUde": "{{fun_09}}{{fun_09}}{{reaction type=\"Happiness\"}}Wir sollten uns zusammentun\nund das EXTREMSTE\nBaseballteam werden!{{fun_09}}",
      "EUen": "{{fun_09}}{{fun_09}}{{reaction type=\"Happiness\"}}We should get together and\nform the most EXTREME\ncroquet team ever!{{fun_09}}",
      "EUes": "{{fun_09}}{{fun_09}}{{reaction type=\"Happiness\"}}¡Deberíamos montar un\nequipo de crocket X-tremo!{{fun_09}}",
      "EUfr": "{{fun_09}}{{fun_09}}{{reaction type=\"Happiness\"}}On devrait former l'équipe\nde croquet la plus\nREDOUTABLE du monde!{{fun_09}}",
      "EUit": "{{fun_09}}{{fun_09}}{{reaction type=\"Happiness\"}}Dovremmo unirci e formare\nla più GRANDE squadra di\ncroquet del mondo!{{fun_09}}",
      "JPja": "{{fun_09}}{{fun_09}}{{reaction type=\"Happiness\"}}おいらと　おまえで\nサッカーの　ドリームチーム\nつくろうぜー！　{{pause frames=\"5\"}}{{string value=\"Catchphrase\"}}！{{fun_09}}",
      "KRko": "{{fun_09}}{{fun_09}}{{reaction type=\"Happiness\"}}너 나랑\n축구 드림 팀을 만들자ー！\n{{pause frames=\"5\"}}{{string value=\"Catchphrase\"}}！{{fun_09}}",
      "USen": "{{fun_09}}{{fun_09}}{{reaction type=\"Happiness\"}}We should get together and\nform the most EXTREME\ncroquet team ever!{{fun_09}}"
    }
  },
  {
    "label": "01",
    "attribute": "0x00000000FF000000",
    "locale": {
      "EUde": "{{fun_09}}{{fun_09}}{{fun_09}}{{fun_09}}Jawoll, {{pause frames=\"5\"}}{{string value=\"PlayerNickname\"}}!{{pause frames=\"10\"}} Du\nkommst genau richtig,\nKumpel!\nWir wollten gerade unser\nWrestlingtraining beginnen,\n{{pause frames=\"5\"}}{{string value=\"Catchphrase\"}}!\nDu wirst unser\nSparringspartner sein,\n{{reaction type=\"Curiosity\"}}stimmts?{{fun_02 arg=\"0x060A\"}}\nKlingt lustig.\nIhr spinnt ja.\n{{fun_09}}",
      "EUen": "{{fun_09}}{{fun_09}}{{fun_09}}{{fun_09}}Yo, {{pause frames=\"5\"}}{{string value=\"PlayerNickname\"}}!{{pause frames=\"10\"}} You came\nat just the right time,\ndude!\nWe were just about to\nstart our pro wrasslin'\nworkout, {{pause frames=\"5\"}}{{string value=\"Catchphrase\"}}!\nYou're gonna be our\nsparring partner, {{reaction type=\"Curiosity\"}}right?{{fun_02 arg=\"0x060A\"}}\nSounds fun.\nYou're insane.\n{{fun_09}}",
      "EUes": "{{fun_09}}{{fun_09}}{{fun_09}}{{fun_09}}¡Hola, {{pause frames=\"5\"}}{{string value=\"PlayerNickname\"}}!{{pause frames=\"10\"}} Llegas\njusto a tiempo.\n\nÍbamos a comenzar con el\nentrenamiento de lucha\nlibre, {{pause frames=\"5\"}}¡{{string value=\"Catchphrase\"}}!\nTú harás de saco,{{reaction type=\"Curiosity\"}} ¿de\nacuerdo?{{fun_02 arg=\"0x060A\"}}\nParece divertido\n¿Estás loco?\n{{fun_09}}",
      "EUfr": "{{fun_09}}{{fun_09}}{{fun_09}}{{fun_09}}Yo, {{pause frames=\"5\"}}{{string value=\"PlayerNickname\"}}!{{pause frames=\"10\"}} Tu arrives\npile-poil au bon moment!\n\nOn allait commencer notre\nentraînement de catch,\n{{pause frames=\"5\"}}{{string value=\"Catchphrase\"}}!\nTu seras notre partenaire,\n{{reaction type=\"Curiosity\"}}d'accord?{{fun_02 arg=\"0x060A\"}}\nÇa a l'air sympa.\nÇa va pas, non?\n{{fun_09}}",
      "EUit": "{{fun_09}}{{fun_09}}{{fun_09}}{{fun_09}}Ehi, {{pause frames=\"5\"}}{{string value=\"PlayerNickname\"}}!{{pause frames=\"10\"}} Arrivi\nproprio al momento giusto!\n\nStavamo per iniziare il\nnostro allenamento da\nprofessionisti, {{pause frames=\"5\"}}{{string value=\"Catchphrase\"}}!\nTu ci farai da sparring\npartner, {{reaction type=\"Curiosity\"}}vero?{{fun_02 arg=\"0x060A\"}}\nSembra divertente.\nSì, credici.\n{{fun_09}}",
      "JPja": "{{fun_09}}{{fun_09}}{{fun_09}}{{fun_09}}あっ、{{pause frames=\"5\"}}{{string value=\"PlayerNickname\"}}！{{pause frames=\"10\"}}\nいいトコロに　{{kanjiReplace charNum=\"1\" value=\"き\"}}来てくれた！\n\nおいらたち　{{kanjiReplace charNum=\"1\" value=\"いま\"}}今から、\n{{kanjiReplace charNum=\"1\" value=\"く\"}}組みたいそうするトコなんだけど、\n\nピラミッドの　テッペン\n{{reaction type=\"Curiosity\"}}やってくんない？　{{pause frames=\"5\"}}{{string value=\"Catchphrase\"}}？{{fun_02 arg=\"0x060A\"}}\nやるやる！\n{{kanjiReplace charNum=\"1\" value=\"いま\"}}今はちょっと\n{{fun_09}}",
      "KRko": "{{fun_09}}{{fun_09}}{{fun_09}}{{fun_09}}앗， {{pause frames=\"5\"}}{{string value=\"PlayerNickname\"}}！{{pause frames=\"10\"}}\n때마침 잘 왔어！\n\n우리 지금부터\n인간 피라미드를 쌓으려고 하는데\n\n니가 피라미드 꼭대기에\n{{reaction type=\"Curiosity\"}}올라가지 않을래？ {{pause frames=\"5\"}}{{string value=\"Catchphrase\"}}{{fun_02 arg=\"0x060A\"}}\n할래 할래！\n지금은 좀\n{{fun_09}}",
      "USen": "{{fun_09}}{{fun_09}}{{fun_09}}{{fun_09}}Yo, {{pause frames=\"5\"}}{{string value=\"PlayerNickname\"}}!{{pause frames=\"10\"}} You came\nat just the right time,\ndude!\nWe were just about to\nstart our pro wrasslin'\nworkout, {{pause frames=\"5\"}}{{string value=\"Catchphrase\"}}!\nYou're gonna be our\nsparring partner, {{reaction type=\"Curiosity\"}}right?{{fun_02 arg=\"0x060A\"}}\nSounds fun.\nYou're insane.\n{{fun_09}}"
    }
  },
  {
    "label": "02",
    "attribute": "0x000000000D000000",
    "locale": {
      "EUde": "{{fun_09}}{{fun_09}}{{reaction type=\"Happiness\"}}Hey, {{color id=\"6\"}}{{pause frames=\"5\"}}{{string index=\"1\"}}{{color id=\"0\"}}!{{pause frames=\"10\"}} {{reaction type=\"Glee\"}}Schau\nmal, wie definiert dieser\nBizeps ist, {{pause frames=\"5\"}}{{string value=\"Catchphrase\"}}!{{pause frames=\"5\"}}\nAtemberaubend, stimmts?{{reaction type=\"Happiness\"}}{{fun_09}}",
      "EUen": "{{fun_09}}{{fun_09}}{{reaction type=\"Happiness\"}}Yo, {{color id=\"6\"}}{{pause frames=\"5\"}}{{string index=\"1\"}}{{color id=\"0\"}}!{{pause frames=\"10\"}} {{reaction type=\"Glee\"}}Check out\nthe definition on these\nbeefy biceps, {{pause frames=\"5\"}}{{string value=\"Catchphrase\"}}!{{pause frames=\"5\"}}\nBreathtaking, right?{{reaction type=\"Happiness\"}}{{fun_09}}",
      "EUes": "{{fun_09}}{{fun_09}}{{reaction type=\"Happiness\"}}¡Eoo, {{color id=\"6\"}}{{pause frames=\"5\"}}{{string index=\"1\"}}{{color id=\"0\"}}!{{pause frames=\"10\"}} {{reaction type=\"Glee\"}}¡Mira los\npedazo bíceps que gasto,\n{{pause frames=\"5\"}}{{string value=\"Catchphrase\"}}!{{pause frames=\"5\"}}\n¿No son increíbles?{{reaction type=\"Happiness\"}}{{fun_09}}",
      "EUfr": "{{fun_09}}{{fun_09}}{{reaction type=\"Happiness\"}}Yo, {{color id=\"6\"}}{{pause frames=\"5\"}}{{string index=\"1\"}}{{color id=\"0\"}}!{{pause frames=\"10\"}} {{reaction type=\"Glee\"}}Regarde\ncomme mes biceps sont bien\ndessinés, {{pause frames=\"5\"}}{{string value=\"Catchphrase\"}}!{{pause frames=\"5\"}}\nA couper le souffle, non?{{reaction type=\"Happiness\"}}{{fun_09}}",
      "EUit": "{{fun_09}}{{fun_09}}{{reaction type=\"Happiness\"}}Ehi, {{color id=\"6\"}}{{pause frames=\"5\"}}{{string index=\"1\"}}{{color id=\"0\"}}!{{pause frames=\"10\"}} {{reaction type=\"Glee\"}}Guarda\ncome sono scolpiti questi\nbicipiti, {{pause frames=\"5\"}}{{string value=\"Catchphrase\"}}!{{pause frames=\"5\"}}\nDa togliere il fiato, eh?{{reaction type=\"Happiness\"}}{{fun_09}}",
      "JPja": "{{fun_09}}{{fun_09}}{{reaction type=\"Happiness\"}}{{kanjiReplace charNum=\"1\" value=\"み\"}}見ろよ、{{color id=\"6\"}}{{pause frames=\"5\"}}{{string index=\"1\"}}ー{{color id=\"0\"}}！{{pause frames=\"10\"}}\n{{reaction type=\"Glee\"}}この　ウデのキンニク、{{pause frames=\"5\"}}\nスッゲーだろー！　{{pause frames=\"5\"}}{{string value=\"Catchphrase\"}}！{{reaction type=\"Happiness\"}}{{fun_09}}",
      "KRko": "{{fun_09}}{{fun_09}}{{reaction type=\"Happiness\"}}야， {{color id=\"6\"}}{{pause frames=\"5\"}}{{string index=\"1\"}}ー{{color id=\"0\"}}！{{pause frames=\"10\"}}\n{{reaction type=\"Glee\"}}내 팔 근육{{pause frames=\"5\"}}\n멋지지 않냐ー！ {{pause frames=\"5\"}}{{string value=\"Catchphrase\"}}！{{reaction type=\"Happiness\"}}{{fun_09}}",
      "USen": "{{fun_09}}{{fun_09}}{{reaction type=\"Happiness\"}}Yo, {{color id=\"6\"}}{{pause frames=\"5\"}}{{string index=\"1\"}}{{color id=\"0\"}}!{{pause frames=\"10\"}} {{reaction type=\"Glee\"}}Check out\nthe definition on these\nbeefy biceps, {{pause frames=\"5\"}}{{string value=\"Catchphrase\"}}!{{pause frames=\"5\"}}\nBreathtaking, right?{{reaction type=\"Happiness\"}}{{fun_09}}"
    }
  },
  {
    "label": "03",
    "attribute": "0x0000000004000000",
    "locale": {
      "EUde": "{{fun_09}}{{fun_09}}{{fun_09}}{{reaction type=\"Happiness\"}}Kumpel, ich weiß nicht, wie\ndu das gemacht hast,\n\naber ich habe GERADE EBEN\ndas Gleiche gedacht!\n\n{{reaction type=\"Intense\"}}O.K., zuerst müssen wir mit\nHandkantenschlägen ein paar\nBäume fällen, als Schläger!{{pause frames=\"5\"}}\n{{resetReaction}}.{{pause frames=\"5\"}}.{{pause frames=\"5\"}}.{{pause frames=\"5\"}}Moment!\n{{reaction type=\"Curiosity\"}}Was nehmen wir denn als\nBall, {{pause frames=\"5\"}}{{string value=\"Catchphrase\"}}?{{fun_09}}",
      "EUen": "{{fun_09}}{{fun_09}}{{fun_09}}{{reaction type=\"Happiness\"}}Bro, I don't know how you\ndid that, {{pause frames=\"5\"}}but I was JUST\nthinking the same thing!\n{{reaction type=\"Intense\"}}OK, let's go judo chop some\ntrees down and use 'em for\nmallets!{{pause frames=\"5\"}}\n{{resetReaction}}.{{pause frames=\"5\"}}.{{pause frames=\"5\"}}.{{pause frames=\"5\"}}Wait a sec!\n{{reaction type=\"Curiosity\"}}What can we use for a\nball, {{pause frames=\"5\"}}{{string value=\"Catchphrase\"}}?{{fun_09}}",
      "EUes": "{{fun_09}}{{fun_09}}{{fun_09}}{{reaction type=\"Happiness\"}}Colega, ¡vaya coincidencia!{{pause frames=\"5\"}}\n¡Estaba pensando justo lo\nmismo que tú!\n{{reaction type=\"Intense\"}}¡Vamos a talar un par de\nárboles y usarlos como\nmazos!{{pause frames=\"5\"}}\n{{resetReaction}}Un segundo.{{pause frames=\"5\"}}.{{pause frames=\"5\"}}.{{pause frames=\"5\"}} {{reaction type=\"Curiosity\"}}¿Qué podemos\nusar como bola,\n{{pause frames=\"5\"}}{{string value=\"Catchphrase\"}}?{{fun_09}}",
      "EUfr": "{{fun_09}}{{fun_09}}{{fun_09}}{{reaction type=\"Happiness\"}}Je sais pas comment t'as\nfait, {{pause frames=\"5\"}}mais je pensais\nEXACTEMENT à la même chose!\n{{reaction type=\"Intense\"}}Bon, allons abattre des\narbres pour nous faire\ndes crosses!{{pause frames=\"5\"}}\n{{resetReaction}}.{{pause frames=\"5\"}}.{{pause frames=\"5\"}}.{{pause frames=\"5\"}} Attends! {{reaction type=\"Curiosity\"}}Qu'est-ce qui\nva nous servir de boule,\n{{pause frames=\"5\"}}{{string value=\"Catchphrase\"}}?{{fun_09}}",
      "EUit": "{{fun_09}}{{fun_09}}{{fun_09}}{{reaction type=\"Happiness\"}}Fratello, non so come hai\nfatto, {{pause frames=\"5\"}}ma stavo pensando\nPROPRIO a quello!\n{{reaction type=\"Intense\"}}OK, andiamo ad abbattere\nalberi a colpi di karate e\nusiamoli come mazze!{{pause frames=\"5\"}}\n{{resetReaction}}.{{pause frames=\"5\"}}.{{pause frames=\"5\"}}.{{pause frames=\"5\"}} Un attimo!\n{{reaction type=\"Curiosity\"}}Cosa potremmo usare come\npalla, {{pause frames=\"5\"}}{{string value=\"Catchphrase\"}}?{{fun_09}}",
      "JPja": "{{fun_09}}{{fun_09}}{{fun_09}}{{reaction type=\"Happiness\"}}おいらも　たった{{kanjiReplace charNum=\"1\" value=\"いま\"}}今\nそれを　{{kanjiReplace charNum=\"1\" value=\"かんが\"}}考えてたトコだよ！\n{{pause frames=\"5\"}}{{string value=\"Catchphrase\"}}！\n{{reaction type=\"Intense\"}}じゃ　{{kanjiReplace charNum=\"2\" value=\"さっそく\"}}早速、{{pause frames=\"5\"}}\nてきみかたに　{{kanjiReplace charNum=\"1\" value=\"わ\"}}分かれて\nキーパーの　れんしゅうだ！\n{{resetReaction}}・{{pause frames=\"5\"}}・{{pause frames=\"5\"}}・{{pause frames=\"5\"}}でも　それだと\n{{reaction type=\"Curiosity\"}}だれが　こうげきすればいいんだ？\n{{pause frames=\"5\"}}{{string value=\"Catchphrase\"}}？{{fun_09}}",
      "KRko": "{{fun_09}}{{fun_09}}{{fun_09}}{{reaction type=\"Happiness\"}}나도 지금 막\n그 생각을 하던 참이었어！\n{{pause frames=\"5\"}}{{string value=\"Catchphrase\"}}！\n{{reaction type=\"Intense\"}}그럼 당장{{pause frames=\"5\"}}\n두 팀으로 나눠서\n수비 연습을 해 보자！\n{{resetReaction}}・{{pause frames=\"5\"}}・{{pause frames=\"5\"}}・{{pause frames=\"5\"}}하지만 그럼\n{{reaction type=\"Curiosity\"}}누가 공격을 하지？\n{{pause frames=\"5\"}}{{string value=\"Catchphrase\"}}？{{fun_09}}",
      "USen": "{{fun_09}}{{fun_09}}{{fun_09}}{{reaction type=\"Happiness\"}}Bro, I don't know how you\ndid that, {{pause frames=\"5\"}}but I was JUST\nthinking the same thing!\n{{reaction type=\"Intense\"}}OK, let's go judo chop some\ntrees down and use 'em for\nmallets!{{pause frames=\"5\"}}\n{{resetReaction}}.{{pause frames=\"5\"}}.{{pause frames=\"5\"}}.{{pause frames=\"5\"}}Wait a sec!\n{{reaction type=\"Curiosity\"}}What can we use for a\nball, {{pause frames=\"5\"}}{{string value=\"Catchphrase\"}}?{{fun_09}}"
    }
  },
  {
    "label": "04",
    "attribute": "0x0000000005000000",
    "locale": {
      "EUde": "{{resetReaction}}{{fun_09}}{{fun_09}}{{fun_09}}{{reaction type=\"Happiness\"}}Oh, ich habe neulich am\nStrand einige Felsbrocken \nentdeckt, {{pause frames=\"5\"}}{{string value=\"Catchphrase\"}}.\n{{reaction type=\"Intense\"}}Die wären genau richtig!{{pause frames=\"5\"}}\n{{reaction type=\"Aggravation\"}}Ich bin ganz aufgedreht!{{fun_09}}",
      "EUen": "{{resetReaction}}{{fun_09}}{{fun_09}}{{fun_09}}{{reaction type=\"Happiness\"}}Oh, I found some boulders\nsitting on the beach the\nother day, {{pause frames=\"5\"}}{{string value=\"Catchphrase\"}}.\n{{reaction type=\"Intense\"}}We should use those, dude!{{pause frames=\"5\"}}\n{{reaction type=\"Aggravation\"}}I'm totally psyched!{{fun_09}}",
      "EUes": "{{resetReaction}}{{fun_09}}{{fun_09}}{{fun_09}}{{reaction type=\"Happiness\"}}¿Sabéis? El otro día en la\nplaya vi una piedra más\ngrande que yo, {{pause frames=\"5\"}}{{string value=\"Catchphrase\"}}.\n{{reaction type=\"Intense\"}}¡Usémosla!{{pause frames=\"5\"}} {{reaction type=\"Aggravation\"}}¡Va a ser genial!{{fun_09}}",
      "EUfr": "{{resetReaction}}{{fun_09}}{{fun_09}}{{fun_09}}{{reaction type=\"Happiness\"}}Oh, j'ai trouvé des cailloux\nsur la plage l'autre jour,\n{{pause frames=\"5\"}}{{string value=\"Catchphrase\"}}.\n{{reaction type=\"Intense\"}}On devrait les utiliser!{{pause frames=\"5\"}}\n{{reaction type=\"Aggravation\"}}Je suis à fond, là!{{fun_09}}",
      "EUit": "{{resetReaction}}{{fun_09}}{{fun_09}}{{fun_09}}{{reaction type=\"Happiness\"}}Oh, ho trovato dei massi\nsulla spiaggia l'altro\ngiorno, {{pause frames=\"5\"}}{{string value=\"Catchphrase\"}}.\n{{reaction type=\"Intense\"}}Usiamo quelli, amico!{{pause frames=\"5\"}}\n{{reaction type=\"Aggravation\"}}Non sto nella pelle!{{fun_09}}",
      "JPja": "{{resetReaction}}{{fun_09}}{{fun_09}}{{fun_09}}{{reaction type=\"Annoyed\"}}キーパーが　タイマンで\n{{kanjiReplace charNum=\"2\" value=\"しょうぶ\"}}勝負すりゃイイだろー！\n{{pause frames=\"5\"}}{{string value=\"Catchphrase\"}}！\n{{reaction type=\"Intense\"}}ドリブル！{{pause frames=\"10\"}}　パス！{{pause frames=\"10\"}}　ワンツー！{{pressButton}}\nで、{{pause frames=\"5\"}}ワンツーから　{{kanjiReplace charNum=\"1\" value=\"みぎ\"}}右フック！{{pressButton}}\n{{reaction type=\"Aggravation\"}}うおー！{{pause frames=\"10\"}}　もえてきたー！{{fun_09}}",
      "KRko": "{{resetReaction}}{{fun_09}}{{fun_09}}{{fun_09}}{{reaction type=\"Annoyed\"}}수비수 대 수비수로\n시합하면 되잖아ー！\n{{pause frames=\"5\"}}{{string value=\"Catchphrase\"}}！\n{{reaction type=\"Intense\"}}드리블！{{pause frames=\"10\"}} 패스！{{pause frames=\"10\"}} 원투ー！{{pressButton}}\n한 번 더， {{pause frames=\"5\"}}원투ー 오른쪽 훅！{{pressButton}}\n{{reaction type=\"Aggravation\"}}우오ー！{{pause frames=\"10\"}} 달아오른다ー！{{fun_09}}",
      "USen": "{{resetReaction}}{{fun_09}}{{fun_09}}{{fun_09}}{{reaction type=\"Happiness\"}}Oh, I found some boulders\nsitting on the beach the\nother day, {{pause frames=\"5\"}}{{string value=\"Catchphrase\"}}.\n{{reaction type=\"Intense\"}}We should use those, dude!{{pause frames=\"5\"}}\n{{reaction type=\"Aggravation\"}}I'm totally psyched!{{fun_09}}"
    }
  },
  {
    "label": "05",
    "attribute": "0x00000000FE000000",
    "locale": {
      "EUde": "{{reaction type=\"Intense\"}}{{fun_09}}{{fun_09}}{{fun_09}}{{reaction type=\"Joy\"}}KUMPEL! {{pause frames=\"5\"}}Wir werden VOLL auf\nder Titelseite von\n\"Der Extremsportler\" sein!{{fun_03 arg=\"0x01\"}}{{fun_09}}{{fun_03 arg=\"0x01\"}}",
      "EUen": "{{reaction type=\"Intense\"}}{{fun_09}}{{fun_09}}{{fun_09}}{{reaction type=\"Joy\"}}BRO! {{pause frames=\"5\"}}We are SO gonna be\non the cover of Extreme\nLawn Sports Monthly!{{fun_03 arg=\"0x01\"}}{{fun_09}}{{fun_03 arg=\"0x01\"}}",
      "EUes": "{{reaction type=\"Intense\"}}{{fun_09}}{{fun_09}}{{fun_09}}{{reaction type=\"Joy\"}}¡Vamos a copar las portadas\nde todas las revistas de\ndeportes x-tremos!{{fun_03 arg=\"0x01\"}}{{fun_09}}{{fun_03 arg=\"0x01\"}}",
      "EUfr": "{{reaction type=\"Intense\"}}{{fun_09}}{{fun_09}}{{fun_09}}{{reaction type=\"Joy\"}}COPAIN! {{pause frames=\"5\"}}On fera sûrement la\ncouverture de Sports sur\ngazon magazine!{{fun_03 arg=\"0x01\"}}{{fun_09}}{{fun_03 arg=\"0x01\"}}",
      "EUit": "{{reaction type=\"Intense\"}}{{fun_09}}{{fun_09}}{{fun_09}}{{reaction type=\"Joy\"}}FRATELLO! {{pause frames=\"5\"}}Saremo TROPPO\nsulla copertina di Sport\nestremi su prato!{{fun_03 arg=\"0x01\"}}{{fun_09}}{{fun_03 arg=\"0x01\"}}",
      "JPja": "{{reaction type=\"Intense\"}}{{fun_09}}{{fun_09}}{{fun_09}}{{reaction type=\"Amazed\"}}それも　そうだなー！{{pressButton}}\n{{reaction type=\"Glee\"}}よーし、{{pause frames=\"5\"}}それじゃ　おいらも\nイメトレだー！　{{pause frames=\"5\"}}{{string value=\"Catchphrase\"}}！{{fun_03 arg=\"0x01\"}}{{fun_09}}{{fun_03 arg=\"0x01\"}}",
      "KRko": "{{reaction type=\"Intense\"}}{{fun_09}}{{fun_09}}{{fun_09}}{{reaction type=\"Amazed\"}}나도 그래ー！{{pressButton}}\n{{reaction type=\"Glee\"}}그럼 나도 {{pause frames=\"5\"}}이미지 트레이닝을\n시작해야겠다ー！ {{pause frames=\"5\"}}{{string value=\"Catchphrase\"}}！{{fun_03 arg=\"0x0100\"}}{{fun_09}}{{fun_03 arg=\"0x0100\"}}",
      "USen": "{{reaction type=\"Intense\"}}{{fun_09}}{{fun_09}}{{fun_09}}{{reaction type=\"Joy\"}}BRO! {{pause frames=\"5\"}}We are SO gonna be\non the cover of Extreme\nLawn Sports Monthly!{{fun_03 arg=\"0x01\"}}{{fun_09}}{{fun_03 arg=\"0x01\"}}"
    }
  },
  {
    "label": "06",
    "attribute": "0x0000000007000000",
    "locale": {
      "EUde": "{{resetReaction}}{{fun_09}}{{fun_09}}{{fun_09}}{{reaction type=\"Surprise\"}}WOW, WOW, WOW! Augenblick\nmal, {{color id=\"6\"}}{{pause frames=\"5\"}}{{string index=\"0\"}}{{color id=\"0\"}}!{{pause frames=\"10\"}}\n\n{{fun_09}}{{fun_09}}Ich weiß gar nicht, ob\n{{string value=\"PlayerNickname\"}} so etwas\naushält,{{color id=\"6\"}}{{pause frames=\"5\"}} {{color id=\"0\"}}{{string value=\"Catchphrase\"}}.{{fun_09}}",
      "EUen": "{{resetReaction}}{{fun_09}}{{fun_09}}{{fun_09}}{{reaction type=\"Surprise\"}}WHOA, WHOA, WHOA! Hold up\nthere, {{color id=\"6\"}}{{pause frames=\"5\"}}{{string index=\"0\"}}{{color id=\"0\"}}!{{pause frames=\"10\"}}\n\n{{fun_09}}{{fun_09}}I don't know if {{string value=\"PlayerNickname\"}}\nis up to takin' that kind\nof punishment,{{color id=\"6\"}}{{pause frames=\"5\"}} {{color id=\"0\"}}{{string value=\"Catchphrase\"}}.{{fun_09}}",
      "EUes": "{{resetReaction}}{{fun_09}}{{fun_09}}{{fun_09}}{{reaction type=\"Surprise\"}}¡Tranquilidad! ¡Tampoco nos\npasemos, {{color id=\"6\"}}{{pause frames=\"5\"}}{{string index=\"0\"}}{{color id=\"0\"}}!{{pause frames=\"10\"}}\n\n{{fun_09}}{{fun_09}}No sé yo si {{string value=\"PlayerNickname\"}}\npodrá aguantar una sesión a\nnuestro nivel,{{pause frames=\"5\"}} {{string value=\"Catchphrase\"}}.{{fun_09}}",
      "EUfr": "{{resetReaction}}{{fun_09}}{{fun_09}}{{fun_09}}{{reaction type=\"Surprise\"}}WAOUH, WAOUH, WAOUH!\nAttends un peu,\n{{color id=\"6\"}}{{pause frames=\"5\"}}{{string index=\"0\"}}{{color id=\"0\"}}!{{pause frames=\"10\"}}\n{{fun_09}}{{fun_09}}Je ne sais pas si\n{{string value=\"PlayerNickname\"}} a envie de\nsubir ça,{{color id=\"6\"}}{{pause frames=\"5\"}} {{color id=\"0\"}}{{string value=\"Catchphrase\"}}.{{fun_09}}",
      "EUit": "{{resetReaction}}{{fun_09}}{{fun_09}}{{fun_09}}{{reaction type=\"Surprise\"}}WHOA, WHOA, WHOA! Fermo lì,\n{{color id=\"6\"}}{{pause frames=\"5\"}}{{string index=\"0\"}}{{color id=\"0\"}}!{{pause frames=\"10\"}}\n\n{{fun_09}}{{fun_09}}Non penso che {{string value=\"PlayerNickname\"}}\npossa reggere un tratta-\nmento simile,{{color id=\"6\"}}{{pause frames=\"5\"}} {{color id=\"0\"}}{{string value=\"Catchphrase\"}}.{{fun_09}}",
      "JPja": "{{resetReaction}}{{fun_09}}{{fun_09}}{{fun_09}}{{reaction type=\"Surprise\"}}{{kanjiReplace charNum=\"1\" value=\"ま\"}}待てよ、{{color id=\"6\"}}{{pause frames=\"5\"}}{{string index=\"0\"}}{{color id=\"0\"}}！{{pause frames=\"10\"}}\n{{fun_09}}{{fun_09}}{{string value=\"PlayerNickname\"}}じゃ\n{{kanjiReplace charNum=\"1\" value=\"に\"}}荷が{{kanjiReplace charNum=\"1\" value=\"おも\"}}重すぎないか？{{fun_09}}",
      "KRko": "{{resetReaction}}{{fun_09}}{{fun_09}}{{fun_09}}{{reaction type=\"Surprise\"}}잠깐만， {{color id=\"6\"}}{{pause frames=\"5\"}}{{string index=\"0\"}}{{color id=\"0\"}}！{{pause frames=\"10\"}}\n{{fun_09}}{{fun_09}}{{string value=\"PlayerNickname\"}}{{fun_0B arg=\"0x0300\"}} 하기엔\n좀 벅차지 않을까？{{fun_09}}",
      "USen": "{{resetReaction}}{{fun_09}}{{fun_09}}{{fun_09}}{{reaction type=\"Surprise\"}}WHOA, WHOA, WHOA! Hold up\nthere, {{color id=\"6\"}}{{pause frames=\"5\"}}{{string index=\"0\"}}{{color id=\"0\"}}!{{pause frames=\"10\"}}\n\n{{fun_09}}{{fun_09}}I don't know if {{string value=\"PlayerNickname\"}}\nis up to takin' that kind\nof punishment,{{color id=\"6\"}}{{pause frames=\"5\"}} {{color id=\"0\"}}{{string value=\"Catchphrase\"}}.{{fun_09}}"
    }
  },
  {
    "label": "07",
    "attribute": "0x0000000008000000",
    "locale": {
      "EUde": "{{fun_09}}{{fun_09}}{{fun_09}}{{fun_09}}Oh, Kumpel.{{pressButton}}\n{{reaction type=\"Sighing\"}}Ja. {{capitalizeLetter}}{{string value=\"PlayerNickname\"}} ist schon\nirgendwie ein Weichei.{{fun_09}}",
      "EUen": "{{fun_09}}{{fun_09}}{{fun_09}}{{fun_09}}Oh, dude.{{pressButton}}\n{{reaction type=\"Sighing\"}}Yeah. {{capitalizeLetter}}{{string value=\"PlayerNickname\"}} is kind\nof a big wimp.{{fun_09}}",
      "EUes": "{{fun_09}}{{fun_09}}{{fun_09}}{{fun_09}}Vaya, colega.{{pressButton}} {{reaction type=\"Sighing\"}}Tienes razón.\n{{capitalizeLetter}}{{string value=\"PlayerNickname\"}} es un poco\nenclenque.{{fun_09}}",
      "EUfr": "{{fun_09}}{{fun_09}}{{fun_09}}{{fun_09}}Oh, j'oubliais.{{pressButton}}\n{{reaction type=\"Sighing\"}}Ouais. {{capitalizeLetter}}{{string value=\"PlayerNickname\"}} est un\npeu une mauviette.{{fun_09}}",
      "EUit": "{{fun_09}}{{fun_09}}{{fun_09}}{{fun_09}}Oh, amico.{{pressButton}}\n{{reaction type=\"Sighing\"}}Già. {{capitalizeLetter}}{{string value=\"PlayerNickname\"}} è una\nmezza calzetta.{{fun_09}}",
      "JPja": "{{fun_09}}{{fun_09}}{{fun_09}}{{fun_09}}やっぱ　そうかー？{{pressButton}}\n{{reaction type=\"Sighing\"}}{{string value=\"PlayerNickname\"}}って\nもやしっ{{kanjiReplace charNum=\"1\" value=\"コ\"}}子だもんなー{{fun_09}}",
      "KRko": "{{fun_09}}{{fun_09}}{{fun_09}}{{fun_09}}하긴 그래ー{{pressButton}}\n{{reaction type=\"Sighing\"}}{{string value=\"PlayerNickname\"}}{{fun_0B arg=\"0x0100\"}}\n온실 속 화초처럼 컸잖아ー{{fun_09}}",
      "USen": "{{fun_09}}{{fun_09}}{{fun_09}}{{fun_09}}Oh, dude.{{pressButton}}\n{{reaction type=\"Sighing\"}}Yeah. {{capitalizeLetter}}{{string value=\"PlayerNickname\"}} is kind\nof a big wimp.{{fun_09}}"
    }
  },
  {
    "label": "08",
    "attribute": "0x0000000009000000",
    "locale": {
      "EUde": "{{fun_09}}{{fun_09}}{{fun_09}}{{fun_09}}{{reaction type=\"Worry\"}}Wenn {{string value=\"PlayerNickname\"}} sich dabei\ndas Genick bricht\noder so,\nwird man uns die Schuld\ndaran geben, {{pause frames=\"5\"}}{{string value=\"Catchphrase\"}}.{{fun_09}}",
      "EUen": "{{fun_09}}{{fun_09}}{{fun_09}}{{fun_09}}{{reaction type=\"Worry\"}}If {{string value=\"PlayerNickname\"}} got flying\ndragon-kicked in the neck\nor something.{{pause frames=\"5\"}}.{{pause frames=\"5\"}}.{{pause frames=\"5\"}}\nwe'd be the ones to get\nblamed, {{pause frames=\"5\"}}{{string value=\"Catchphrase\"}}.{{fun_09}}",
      "EUes": "{{fun_09}}{{fun_09}}{{fun_09}}{{fun_09}}{{reaction type=\"Worry\"}}Si le pasa algo a\n{{string value=\"PlayerNickname\"}} por una patada\nvoladora.{{pause frames=\"5\"}}.{{pause frames=\"5\"}}.{{pause frames=\"5\"}}\n¡Se nos cae el pelo,\n{{pause frames=\"5\"}}{{string value=\"Catchphrase\"}}!{{fun_09}}",
      "EUfr": "{{fun_09}}{{fun_09}}{{fun_09}}{{fun_09}}{{reaction type=\"Worry\"}}Si {{string value=\"PlayerNickname\"}} se prenait\nun coup de pied retourné en\npleine poire.{{pause frames=\"5\"}}.{{pause frames=\"5\"}}.{{pause frames=\"5\"}}\nCe serait nous qui serions\naccusés, {{pause frames=\"5\"}}{{string value=\"Catchphrase\"}}.{{fun_09}}",
      "EUit": "{{fun_09}}{{fun_09}}{{fun_09}}{{fun_09}}{{reaction type=\"Worry\"}}Se {{string value=\"PlayerNickname\"}} finisse al\ntappeto per un doppio\ncalcio volante.{{pause frames=\"5\"}}.{{pause frames=\"5\"}}.{{pause frames=\"5\"}}\nsarebbe tutta colpa\nnostra, {{pause frames=\"5\"}}{{string value=\"Catchphrase\"}}.{{fun_09}}",
      "JPja": "{{fun_09}}{{fun_09}}{{fun_09}}{{fun_09}}{{reaction type=\"Worry\"}}{{string value=\"PlayerNickname\"}}が　ネンザでも\nしちゃったら、{{pause frames=\"5\"}}どやされるのは\nおいらたちだよ、{{pause frames=\"5\"}}{{string value=\"Catchphrase\"}}{{fun_09}}",
      "KRko": "{{fun_09}}{{fun_09}}{{fun_09}}{{fun_09}}{{reaction type=\"Worry\"}}{{string value=\"PlayerNickname\"}}{{fun_0B arg=\"0x0300\"}}\n다치기라도 하면 {{pause frames=\"5\"}}혼나는 건\n우리라구， {{pause frames=\"5\"}}{{string value=\"Catchphrase\"}}{{fun_09}}",
      "USen": "{{fun_09}}{{fun_09}}{{fun_09}}{{fun_09}}{{reaction type=\"Worry\"}}If {{string value=\"PlayerNickname\"}} got flying\ndragon-kicked in the neck\nor something.{{pause frames=\"5\"}}.{{pause frames=\"5\"}}.{{pause frames=\"5\"}}\nwe'd be the ones to get\nblamed, {{pause frames=\"5\"}}{{string value=\"Catchphrase\"}}.{{fun_09}}"
    }
  },
  {
    "label": "09",
    "attribute": "0x00000000FE000000",
    "locale": {
      "EUde": "{{fun_09}}{{fun_09}}{{fun_09}}{{resetReaction}}Aber Kickboxen macht keinen\nSpaß ohne einen Sandsack,\näh, einen Sparringspartner!{{pause frames=\"5\"}}\n{{reaction type=\"Worry\"}}Mist! Muss ich also doch den\nganzen Tag Kokosnüsse mit\nKopfstößen öffnen!\n{{reaction type=\"Sighing\"}}Oder ich übe meinen\nwirbelnden Suplex\nan {{color id=\"6\"}}Tom Nook{{color id=\"0\"}}.",
      "EUen": "{{fun_09}}{{fun_09}}{{fun_09}}{{resetReaction}}But kickboxing isn't fun\nwithout a punching bag, uh,\nI mean, sparring partner! {{pause frames=\"5\"}}\n{{reaction type=\"Worry\"}}Dang it! Now I have to\nsettle for headbutting\ncoconuts all day!\n{{reaction type=\"Sighing\"}}Or maybe I'll go practice\nmy whirling powerbomb\ndrop on {{color id=\"6\"}}Tom Nook{{color id=\"0\"}}.",
      "EUes": "{{fun_09}}{{fun_09}}{{fun_09}}{{resetReaction}}¡Pero es que sin un saco,\nentrenar no es nada\ndivertido!{{pause frames=\"5\"}}\n{{reaction type=\"Worry\"}}¡Maldición! ¡Tendré que\nconformarme con usar\nárboles como saco!\n{{reaction type=\"Sighing\"}}¡O quizá practique mi\npatada voladora con {{color id=\"6\"}}Tom\nNook{{color id=\"0\"}}!",
      "EUfr": "{{fun_09}}{{fun_09}}{{fun_09}}{{resetReaction}}Mais le kickboxing, c'est pas\ndrôle sans punching-ball,\neuh, sans partenaire! {{pause frames=\"5\"}}\n{{reaction type=\"Worry\"}}Zut! Je vais devoir me\ncontenter de donner des\ncoups de boule à des noix\nde coco, voilà! {{reaction type=\"Sighing\"}}Ou alors, je\nvais m'entraîner à la\ntechnique du saucisson\nvolant sur {{color id=\"6\"}}Tom Nook{{color id=\"0\"}}.",
      "EUit": "{{fun_09}}{{fun_09}}{{fun_09}}{{resetReaction}}Ma il kickboxing non è\ndivertente senza punching\nball, cioè, sparring partner!{{pause frames=\"5\"}}\n{{reaction type=\"Worry\"}}Ecco! Ora dovrò acconten-\ntarmi di prendere a testate\nle noci di cocco!\n{{reaction type=\"Sighing\"}}O forse dovrei provare la\nmia picchiata esplosiva\nrotante su {{color id=\"6\"}}Tom Nook{{color id=\"0\"}}...",
      "JPja": "{{fun_09}}{{fun_09}}{{fun_09}}{{resetReaction}}かと{{kanjiReplace charNum=\"1\" value=\"い\"}}言って、{{pause frames=\"5\"}}{{kanjiReplace charNum=\"2\" value=\"ふたり\"}}二人で\nサボテンじゃ\nもり{{kanjiReplace charNum=\"1\" value=\"あ\"}}上がんないし、\n{{reaction type=\"Worry\"}}しょうがない{{pause frames=\"5\"}}・{{pause frames=\"5\"}}・{{pause frames=\"5\"}}・{{pause frames=\"5\"}}\n{{kanjiReplace charNum=\"2\" value=\"きょう\"}}今日のトコロは　{{kanjiReplace charNum=\"1\" value=\"く\"}}組みたいそう\n{{kanjiReplace charNum=\"2\" value=\"ちゅうし\"}}中止だな、{{pause frames=\"5\"}}{{string value=\"Catchphrase\"}}",
      "KRko": "{{fun_09}}{{fun_09}}{{fun_09}}{{resetReaction}}그렇다고 {{pause frames=\"5\"}}둘이서\n등 마주대고 스트레칭 하기도\n뭐하고{{pause frames=\"5\"}}・{{pause frames=\"5\"}}・{{pause frames=\"5\"}}・{{pause frames=\"5\"}}\n{{reaction type=\"Worry\"}}할 수 없다{{pause frames=\"5\"}}・{{pause frames=\"5\"}}・{{pause frames=\"5\"}}・{{pause frames=\"5\"}}\n오늘은 관두고\n다음에 같이 놀자， {{pause frames=\"5\"}}{{string value=\"Catchphrase\"}}",
      "USen": "{{fun_09}}{{fun_09}}{{fun_09}}{{resetReaction}}But kickboxing isn't fun\nwithout a punching bag, uh,\nI mean, sparring partner! {{pause frames=\"5\"}}\n{{reaction type=\"Worry\"}}Dang it! Now I have to\nsettle for headbutting\ncoconuts all day!\n{{reaction type=\"Sighing\"}}Or maybe I'll go practice\nmy whirling powerbomb\ndrop on {{color id=\"6\"}}Tom Nook{{color id=\"0\"}}."
    }
  },
  {
    "label": "10",
    "attribute": "0x000000000B000000",
    "locale": {
      "EUde": "{{resetReaction}}{{fun_09}}{{fun_09}}{{fun_09}}{{reaction type=\"Sighing\"}}Ja.{{pause frames=\"5\"}} Vielleicht übe ich\nmeinen wirbelnden Suplex\nan {{color id=\"6\"}}Tom Nook{{color id=\"0\"}}.{{fun_09}}",
      "EUen": "{{resetReaction}}{{fun_09}}{{fun_09}}{{fun_09}}{{reaction type=\"Sighing\"}}Yeah.{{pause frames=\"5\"}} Maybe I'll go practice\nmy spinning powerbomb\ndrop on {{color id=\"6\"}}Tom Nook{{color id=\"0\"}}.{{fun_09}}",
      "EUes": "{{resetReaction}}{{fun_09}}{{fun_09}}{{fun_09}}{{reaction type=\"Sighing\"}}¡O quizá practique mi\npatada voladora con {{color id=\"6\"}}Tom\nNook{{color id=\"0\"}}!{{fun_09}}",
      "EUfr": "{{resetReaction}}{{fun_09}}{{fun_09}}{{fun_09}}{{reaction type=\"Sighing\"}}Ouais.{{pause frames=\"5\"}} Peut-être que je\nvais m'entraîner à ma\ntechnique du saucisson\nvolant sur {{color id=\"6\"}}Tom Nook{{color id=\"0\"}}.{{fun_09}}",
      "EUit": "{{resetReaction}}{{fun_09}}{{fun_09}}{{fun_09}}{{reaction type=\"Sighing\"}}Già.{{pause frames=\"5\"}} Quasi quasi vado a\nprovare la mia picchiata\nesplosiva rotante su {{color id=\"6\"}}Nook{{color id=\"0\"}}.{{fun_09}}",
      "JPja": "{{resetReaction}}{{fun_09}}{{fun_09}}{{fun_09}}{{reaction type=\"Amazed\"}}ええっ、{{pause frames=\"5\"}}そうなのー？！\n{{reaction type=\"Worry\"}}{{kanjiReplace charNum=\"2\" value=\"ざんねん\"}}残念だなー、{{pause frames=\"5\"}}{{string value=\"Catchphrase\"}}！{{fun_09}}",
      "KRko": "{{resetReaction}}{{fun_09}}{{fun_09}}{{fun_09}}{{reaction type=\"Amazed\"}}뭣？ {{pause frames=\"5\"}}정말ー？！\n{{reaction type=\"Worry\"}}흐음ー {{pause frames=\"5\"}}{{string value=\"Catchphrase\"}}！{{fun_09}}",
      "USen": "{{resetReaction}}{{fun_09}}{{fun_09}}{{fun_09}}{{reaction type=\"Sighing\"}}Yeah.{{pause frames=\"5\"}} Maybe I'll go practice\nmy spinning powerbomb\ndrop on {{color id=\"6\"}}Tom Nook{{color id=\"0\"}}.{{fun_09}}"
    }
  },
  {
    "label": "11",
    "attribute": "0x000000000C000000",
    "locale": {
      "EUde": "{{fun_09}}{{fun_09}}{{fun_09}}{{reaction type=\"Thought\"}}Andererseits haben wir die\nPartnerübungen erst neulich\ngemacht{{pause frames=\"5\"}}.{{pause frames=\"5\"}}.{{pause frames=\"5\"}}.\n{{resetReaction}}{{fun_09}}Sollten wir jemand anders\nals {{string value=\"PlayerNickname\"}} suchen,\n{{pause frames=\"5\"}}{{string value=\"Catchphrase\"}}?{{fun_09}}",
      "EUen": "{{fun_09}}{{fun_09}}{{fun_09}}{{reaction type=\"Thought\"}}But then,\nwe just did the paired \nexercise the other day{{pause frames=\"5\"}}.{{pause frames=\"5\"}}.{{pause frames=\"5\"}}.\n{{resetReaction}}{{fun_09}}Should we go find someone\nother than {{string value=\"PlayerNickname\"}},\n{{pause frames=\"5\"}}{{string value=\"Catchphrase\"}}?{{fun_09}}",
      "EUes": "{{fun_09}}{{fun_09}}{{fun_09}}{{reaction type=\"Thought\"}}Aunque recuerdo que la\núltima vez no le hizo mucha\ngracia{{pause frames=\"5\"}}.{{pause frames=\"5\"}}.{{pause frames=\"5\"}}.\n{{resetReaction}}{{fun_09}}¿Deberíamos buscarnos a\nalguien que no sea\n{{string value=\"PlayerNickname\"}}, {{pause frames=\"5\"}}{{string value=\"Catchphrase\"}}?{{fun_09}}",
      "EUfr": "{{fun_09}}{{fun_09}}{{fun_09}}{{reaction type=\"Thought\"}}Mais, on n'a fait que des\nexercices à deux la\ndernière fois{{pause frames=\"5\"}}.{{pause frames=\"5\"}}.{{pause frames=\"5\"}}.\n{{resetReaction}}{{fun_09}}On devrait trouver\nquelqu'un d'autre que\n{{string value=\"PlayerNickname\"}}, {{pause frames=\"5\"}}{{string value=\"Catchphrase\"}}?{{fun_09}}",
      "EUit": "{{fun_09}}{{fun_09}}{{fun_09}}{{reaction type=\"Thought\"}}Ma ci siamo allenati insieme\nl'altro giorno{{pause frames=\"5\"}}.{{pause frames=\"5\"}}.{{pause frames=\"5\"}}.\n\n{{resetReaction}}{{fun_09}}Forse dovremmo cercare\nqualcun altro al posto di\n{{string value=\"PlayerNickname\"}}, {{pause frames=\"5\"}}{{string value=\"Catchphrase\"}}...{{fun_09}}",
      "JPja": "{{fun_09}}{{fun_09}}{{fun_09}}{{reaction type=\"Worry\"}}かと{{kanjiReplace charNum=\"1\" value=\"い\"}}言って\n{{kanjiReplace charNum=\"2\" value=\"ふたり\"}}二人{{kanjiReplace charNum=\"1\" value=\"ぐ\"}}組みのヤツは　こないだ\nやったばっかだし{{pause frames=\"5\"}}・{{pause frames=\"5\"}}・{{pause frames=\"5\"}}・\n{{fun_09}}{{string value=\"PlayerNickname\"}}{{kanjiReplace charNum=\"2\" value=\"いがい\"}}以外に\nやってくれそうなヤツ　さがす？\n{{pause frames=\"5\"}}{{string value=\"Catchphrase\"}}？{{fun_09}}",
      "KRko": "{{fun_09}}{{fun_09}}{{fun_09}}{{reaction type=\"Worry\"}}그렇다구\n저번에도 둘이 했는데\n또 둘이면 지겹잖아{{pause frames=\"5\"}}・{{pause frames=\"5\"}}・{{pause frames=\"5\"}}・\n{{fun_09}}{{string value=\"PlayerNickname\"}} 외에\n같이 할 녀석을 찾아볼까？\n{{pause frames=\"5\"}}{{string value=\"Catchphrase\"}}？{{fun_09}}",
      "USen": "{{fun_09}}{{fun_09}}{{fun_09}}{{reaction type=\"Thought\"}}But then,\nwe just did the paired \nexercise the other day{{pause frames=\"5\"}}.{{pause frames=\"5\"}}.{{pause frames=\"5\"}}.\n{{resetReaction}}{{fun_09}}Should we go find someone\nother than {{string value=\"PlayerNickname\"}},\n{{pause frames=\"5\"}}{{string value=\"Catchphrase\"}}?{{fun_09}}"
    }
  },
  {
    "label": "12",
    "attribute": "0x00000000FE000000",
    "locale": {
      "EUde": "{{fun_09}}{{fun_09}}{{fun_09}}Hmmm{{pause frames=\"10\"}}.{{pause frames=\"10\"}}.{{pause frames=\"10\"}}.{{pause frames=\"10\"}}\n{{resetReaction}}Vielleicht sollten wir das\ntun, {{pause frames=\"5\"}}{{string value=\"Catchphrase\"}}!\n{{fun_09}}{{fun_09}}{{fun_09}}{{fun_09}}{{reaction type=\"Intense\"}}Hey, {{pause frames=\"5\"}}{{color id=\"5\"}}{{string value=\"PlayerNickname\"}}{{color id=\"0\"}},{{pause frames=\"5\"}}\ndu solltest lernen, zwischen\nden Zeilen zu lesen!{{fun_03 arg=\"0x01\"}}{{fun_09}}{{fun_03 arg=\"0x01\"}}",
      "EUen": "{{fun_09}}{{fun_09}}{{fun_09}}Hmmm{{pause frames=\"10\"}}.{{pause frames=\"10\"}}.{{pause frames=\"10\"}}.{{pause frames=\"10\"}}\n{{resetReaction}}Maybe we should do that, \n{{pause frames=\"5\"}}{{string value=\"Catchphrase\"}}!\n{{fun_09}}{{fun_09}}{{fun_09}}{{fun_09}}{{reaction type=\"Intense\"}}Hey, {{pause frames=\"5\"}}{{color id=\"5\"}}{{string value=\"PlayerNickname\"}}{{color id=\"0\"}},{{pause frames=\"5\"}}\nyou should try to read\nbetween the lines more!{{fun_03 arg=\"0x01\"}}{{fun_09}}{{fun_03 arg=\"0x01\"}}",
      "EUes": "{{fun_09}}{{fun_09}}{{fun_09}}Mmm{{pause frames=\"10\"}}.{{pause frames=\"10\"}}.{{pause frames=\"10\"}}.{{pause frames=\"10\"}} {{resetReaction}}¡Quizá sea una buena\nidea, {{pause frames=\"5\"}}{{string value=\"Catchphrase\"}}!\n{{fun_09}}{{fun_09}}{{fun_09}}{{fun_09}}{{reaction type=\"Intense\"}}Bueno, {{pause frames=\"5\"}}{{color id=\"5\"}}{{string value=\"PlayerNickname\"}}{{color id=\"0\"}},{{pause frames=\"5\"}} ¡esta\nvez te has librado!{{fun_03 arg=\"0x01\"}}{{fun_09}}{{fun_03 arg=\"0x01\"}}",
      "EUfr": "{{fun_09}}{{fun_09}}{{fun_09}}Hm{{pause frames=\"10\"}}.{{pause frames=\"10\"}}.{{pause frames=\"10\"}}.{{pause frames=\"10\"}}\n{{resetReaction}}on devrait peut-être faire\nça oui, {{pause frames=\"5\"}}{{string value=\"Catchphrase\"}}!\n{{fun_09}}{{fun_09}}{{fun_09}}{{fun_09}}{{reaction type=\"Intense\"}}Hé, {{pause frames=\"5\"}}{{color id=\"5\"}}{{string value=\"PlayerNickname\"}}{{color id=\"0\"}},{{pause frames=\"5\"}}\ntu devrais apprendre à lire\nentre les lignes!{{fun_03 arg=\"0x01\"}}{{fun_09}}{{fun_03 arg=\"0x01\"}}",
      "EUit": "{{fun_09}}{{fun_09}}{{fun_09}}Mmm{{pause frames=\"10\"}}.{{pause frames=\"10\"}}.{{pause frames=\"10\"}}.{{pause frames=\"10\"}}\n{{resetReaction}}Forse hai ragione,\n{{pause frames=\"5\"}}{{string value=\"Catchphrase\"}}!\n{{fun_09}}{{fun_09}}{{fun_09}}{{fun_09}}{{reaction type=\"Intense\"}}Ehi, {{pause frames=\"5\"}}{{color id=\"5\"}}{{string value=\"PlayerNickname\"}}{{color id=\"0\"}},{{pause frames=\"5\"}}\ncerca di essere più svegli{{gender m=\"o\" f=\"a\"}}\nla prossima volta!{{fun_03 arg=\"0x01\"}}{{fun_09}}{{fun_03 arg=\"0x01\"}}",
      "JPja": "{{fun_09}}{{fun_09}}{{fun_09}}うーん{{pause frames=\"10\"}}・{{pause frames=\"10\"}}・{{pause frames=\"10\"}}・{{pause frames=\"10\"}}\n{{resetReaction}}そうするかー、{{pause frames=\"5\"}}{{string value=\"Catchphrase\"}}！\n\n{{fun_09}}{{fun_09}}{{fun_09}}{{fun_09}}{{reaction type=\"Intense\"}}なあ、{{pause frames=\"5\"}}{{color id=\"5\"}}{{string value=\"PlayerNickname\"}}ー{{color id=\"0\"}}、{{pause frames=\"5\"}}\nおまえ　もーちょっと\n{{kanjiReplace charNum=\"2\" value=\"くうき\"}}空気{{kanjiReplace charNum=\"1\" value=\"よ\"}}読んだ{{kanjiReplace charNum=\"1\" value=\"ほう\"}}方が　イイぞー！{{fun_03 arg=\"0x01\"}}{{fun_09}}{{fun_03 arg=\"0x01\"}}",
      "KRko": "{{fun_09}}{{fun_09}}{{fun_09}}우ー웅{{pause frames=\"10\"}}・{{pause frames=\"10\"}}・{{pause frames=\"10\"}}・{{pause frames=\"10\"}}\n{{resetReaction}}그 수밖에 없겠다ー {{pause frames=\"5\"}}{{string value=\"Catchphrase\"}}\n\n{{fun_09}}{{fun_09}}{{fun_09}}{{fun_09}}{{reaction type=\"Intense\"}}야， {{pause frames=\"5\"}}{{color id=\"5\"}}{{string value=\"PlayerNickname\"}}ー{{color id=\"0\"}}{{pause frames=\"5\"}}\n넌 분위기 파악 하는 법부터\n배워야겠어ー！{{fun_03 arg=\"0x0100\"}}{{fun_09}}{{fun_03 arg=\"0x0100\"}}",
      "USen": "{{fun_09}}{{fun_09}}{{fun_09}}Hmmm{{pause frames=\"10\"}}.{{pause frames=\"10\"}}.{{pause frames=\"10\"}}.{{pause frames=\"10\"}}\n{{resetReaction}}Maybe we should do that, \n{{pause frames=\"5\"}}{{string value=\"Catchphrase\"}}!\n{{fun_09}}{{fun_09}}{{fun_09}}{{fun_09}}{{reaction type=\"Intense\"}}Hey, {{pause frames=\"5\"}}{{color id=\"5\"}}{{string value=\"PlayerNickname\"}}{{color id=\"0\"}},{{pause frames=\"5\"}}\nyou should try to read\nbetween the lines more!{{fun_03 arg=\"0x01\"}}{{fun_09}}{{fun_03 arg=\"0x01\"}}"
    }
  },
  {
    "label": "13",
    "attribute": "0x000000000E000000",
    "locale": {
      "EUde": "{{fun_09}}{{fun_09}}{{fun_09}}{{reaction type=\"Annoyed\"}}Was?!?{{pause frames=\"10\"}} Das ist doch gar\nnichts, verglichen mit\ndiesem Waschbrettbauch!{{pause frames=\"10\"}}\nDarauf kann ich sogar\nOrangen auspressen!\n{{vibrateWeak}}ARRRRGGGGHH!{{reaction type=\"Intense\"}}{{fun_09}}",
      "EUen": "{{fun_09}}{{fun_09}}{{fun_09}}{{reaction type=\"Annoyed\"}}What?!{{pause frames=\"10\"}} That's nothin'\ncompared to these\nwashboard abs!{{pause frames=\"10\"}}\nWho needs a juicer when you\ncan squeeze a grapefruit\nbetween these bad boys?\n{{vibrateWeak}}HARRRRGGGG!{{reaction type=\"Intense\"}}{{fun_09}}",
      "EUes": "{{fun_09}}{{fun_09}}{{fun_09}}{{reaction type=\"Annoyed\"}}¡Eso no es nada comparado\ncon la tableta de chocolate\nque tengo por abdomen!{{pause frames=\"10\"}}\nCon estos abdominales\npuedo picar nueces, ¡colega!\n{{vibrateWeak}}¡HARRRRGGGG!{{reaction type=\"Intense\"}}{{fun_09}}",
      "EUfr": "{{fun_09}}{{fun_09}}{{fun_09}}{{reaction type=\"Annoyed\"}}Quoi?!{{pause frames=\"10\"}} C'est rien comparé\nà ces abdos en acier!{{pause frames=\"10\"}}\n\nPas besoin de\npresse-agrumes quand on\npeut presser une orange\nentre deux gros muscles!\n{{vibrateWeak}}ARRRRGGGGH!{{reaction type=\"Intense\"}}{{fun_09}}",
      "EUit": "{{fun_09}}{{fun_09}}{{fun_09}}{{reaction type=\"Annoyed\"}}Cosa?!{{pause frames=\"10\"}} Non sono niente\nin confronto a questi\naddominali d'acciaio!{{pause frames=\"10\"}}\nPensa che li uso per\nspaccare le noci!\n\n{{vibrateWeak}}RARRRRGGGG!{{reaction type=\"Intense\"}}{{fun_09}}",
      "JPja": "{{fun_09}}{{fun_09}}{{fun_09}}{{reaction type=\"Annoyed\"}}なんだとー？！{{pause frames=\"10\"}}　じゃ　おいらの\nふっきんは　どうだー？！{{pause frames=\"10\"}}\n{{kanjiReplace charNum=\"1\" value=\"オトコ\"}}男の{{kanjiReplace charNum=\"1\" value=\"なか\"}}中の{{kanjiReplace charNum=\"1\" value=\"オトコ\"}}男だろー？！{{reaction type=\"Intense\"}}{{fun_09}}",
      "KRko": "{{fun_09}}{{fun_09}}{{fun_09}}{{reaction type=\"Annoyed\"}}뭣이ー？！{{pause frames=\"10\"}} 그럼 내\n복근은 어떠냐ー？！{{pause frames=\"10\"}}\n진정한 남자의 복근이다ー！{{reaction type=\"Intense\"}}{{fun_09}}",
      "USen": "{{fun_09}}{{fun_09}}{{fun_09}}{{reaction type=\"Annoyed\"}}What?!{{pause frames=\"10\"}} That's nothin'\ncompared to these\nwashboard abs!{{pause frames=\"10\"}}\nWho needs a juicer when you\ncan squeeze a grapefruit\nbetween these bad boys?\n{{vibrateWeak}}HARRRRGGGG!{{reaction type=\"Intense\"}}{{fun_09}}"
    }
  },
  {
    "label": "14",
    "attribute": "0x000000000F000000",
    "locale": {
      "EUde": "{{fun_09}}{{fun_09}}{{fun_09}}{{reaction type=\"Annoyed\"}}Ach ja? Dafür sind meine\nSchenkel wie Baumstämme!\n{{vibrateWeak}}HAAAAAAAAARRRRFFF!{{fun_09}}",
      "EUen": "{{fun_09}}{{fun_09}}{{fun_09}}{{reaction type=\"Annoyed\"}}Oh, yeah! Well my thighs\nare like tree trunks!\n{{vibrateWeak}}WUUUUURRRFFF!{{fun_09}}",
      "EUes": "{{fun_09}}{{fun_09}}{{fun_09}}{{reaction type=\"Annoyed\"}}¿Ah, sí? ¡Pues yo tengo\nunos gemelos duros como el\ndiamante!{{vibrateWeak}} ¡WUUUUURRRFFF!{{fun_09}}",
      "EUfr": "{{fun_09}}{{fun_09}}{{fun_09}}{{reaction type=\"Annoyed\"}}Oh, ouais! Eh ben mes\ncuisses sont comme deux\ntroncs d'arbre!\n{{vibrateWeak}}WOUUUUURRRFFF!{{fun_09}}",
      "EUit": "{{fun_09}}{{fun_09}}{{fun_09}}{{reaction type=\"Annoyed\"}}Oh, sì?! Beh, le mie cosce\nsono grosse come dei\ntronchi di sequoia!\n{{vibrateWeak}}WUUUUURRRFFF!{{fun_09}}",
      "JPja": "{{fun_09}}{{fun_09}}{{fun_09}}{{reaction type=\"Annoyed\"}}おまえが　ふっきんでくるなら\nこっちは　{{kanjiReplace charNum=\"1\" value=\"フト\"}}太モモだー！{{pause frames=\"10\"}}\n{{kanjiReplace charNum=\"1\" value=\"いま\"}}今にも　はちきれそうだぞー！{{fun_09}}",
      "KRko": "{{fun_09}}{{fun_09}}{{fun_09}}{{reaction type=\"Annoyed\"}}니가 복근으로 나온다면\n난 허벅지다ー！{{pause frames=\"10\"}}\n당장이라도 터질 것 같은 근육ー！{{fun_09}}",
      "USen": "{{fun_09}}{{fun_09}}{{fun_09}}{{reaction type=\"Annoyed\"}}Oh, yeah! Well my thighs\nare like tree trunks!\n{{vibrateWeak}}WUUUUURRRFFF!{{fun_09}}"
    }
  },
  {
    "label": "15",
    "attribute": "0x0000000010000000",
    "locale": {
      "EUde": "{{fun_09}}{{fun_09}}{{fun_09}}{{reaction type=\"Aggravation\"}}Pah! Schau dir diese\nRückenmuskeln an. Besser\nals jeder Ozean.\n{{vibrateWeak}}AAAAAAARRRRGGHH!\n{{reaction type=\"Annoyed\"}}Wenn ich die anspanne, gibts\neine riesige Flutwelle!{{fun_09}}",
      "EUen": "{{fun_09}}{{fun_09}}{{fun_09}}{{reaction type=\"Aggravation\"}}Pshaw! Get a load of these\nserious back muscles! It's\nlike a rippling ocean!\n{{vibrateWeak}}BLARRRRRRRRRRGGGG!\n{{reaction type=\"Annoyed\"}}When I flex, you better\nbeware of the tidal wave!{{fun_09}}",
      "EUes": "{{fun_09}}{{fun_09}}{{fun_09}}{{reaction type=\"Aggravation\"}}¡Y yo tengo tantos músculos\nen la espalda que parece\nun desierto de dunas!\n{{reaction type=\"Annoyed\"}}Y, como el desierto...\n¡Mi avance es imparable!\n{{vibrateWeak}}¡¡BLARRRRRRRRRRGGGG!!{{fun_09}}",
      "EUfr": "{{fun_09}}{{fun_09}}{{fun_09}}{{reaction type=\"Aggravation\"}}Yaaaa! Regarde-moi ces\nmuscles dorsaux! On dirait\ndes vagues sur l'océan!\n{{vibrateWeak}}ARRRRRRRRRRGGGG!\n{{reaction type=\"Annoyed\"}}Quand je les contracte,\nattention au raz-de-marée!{{fun_09}}",
      "EUit": "{{fun_09}}{{fun_09}}{{fun_09}}{{reaction type=\"Aggravation\"}}Tze! Beccati 'sti dorsali\npulsanti! Sono come un\noceano in tempesta!\n{{vibrateWeak}}BLARRRRRRRRRRGGGG!\n{{reaction type=\"Annoyed\"}}Ora li fletto, attento\nalla mareggiata!{{fun_09}}",
      "JPja": "{{fun_09}}{{fun_09}}{{fun_09}}{{reaction type=\"Aggravation\"}}なんのなんの！{{pause frames=\"10\"}}\n{{kanjiReplace charNum=\"1\" value=\"み\"}}見ろよ、{{pause frames=\"5\"}}この　はいきん！\nこのツヤを　{{kanjiReplace charNum=\"1\" value=\"み\"}}見てるだけで{{pause frames=\"5\"}}・{{pause frames=\"5\"}}・{{pause frames=\"5\"}}・\n{{vibrateWeak}}{{reaction type=\"Annoyed\"}}ばっちこーーーい！！{{fun_09}}",
      "KRko": "{{fun_09}}{{fun_09}}{{fun_09}}{{reaction type=\"Aggravation\"}}이걸 봐라！{{pause frames=\"10\"}}\n내 {{pause frames=\"5\"}}멋진 등 근육！\n이 굴곡만 봐도{{pause frames=\"5\"}}・{{pause frames=\"5\"}}・{{pause frames=\"5\"}}・\n{{vibrateWeak}}{{reaction type=\"Annoyed\"}}다 덤벼ーーー！！{{fun_09}}",
      "USen": "{{fun_09}}{{fun_09}}{{fun_09}}{{reaction type=\"Aggravation\"}}Pshaw! Get a load of these\nserious back muscles! It's\nlike a rippling ocean!\n{{vibrateWeak}}BLARRRRRRRRRRGGGG!\n{{reaction type=\"Annoyed\"}}When I flex, you better\nbeware of the tidal wave!{{fun_09}}"
    }
  },
  {
    "label": "16",
    "attribute": "0x00000000FE000000",
    "locale": {
      "EUde": "{{fun_09}}{{fun_09}}{{fun_09}}{{resetReaction}}{{fun_09}}{{fun_09}}{{fun_09}}{{resetReaction}}{{vibrateWeak}}ARRRRRRRRRRRRGHHH!!!\n\n\nOh nein, {{pause frames=\"5\"}}{{string value=\"PlayerNickname\"}}.{{pause frames=\"5\"}} {{reaction type=\"Distress\"}}Ich\nglaube, ich habe mich\nüberdehnt!\nKumpel,{{pause frames=\"5\"}} ich mache besser\nein Päuschen.",
      "EUen": "{{fun_09}}{{fun_09}}{{fun_09}}{{resetReaction}}{{fun_09}}{{fun_09}}{{fun_09}}{{resetReaction}}{{vibrateWeak}}HARRRRRRRRRRRRG!!!\nOh, no, {{pause frames=\"5\"}}{{string value=\"PlayerNickname\"}}.{{pause frames=\"5\"}} {{reaction type=\"Distress\"}}I think\nI just pulled something.\nDude,{{pause frames=\"5\"}} I better take a\nbreather.",
      "EUes": "{{fun_09}}{{fun_09}}{{fun_09}}{{resetReaction}}{{fun_09}}{{fun_09}}{{fun_09}}{{resetReaction}}{{vibrateWeak}}¡¡¡HARRRRRRRRRRRRG!!!\nOh, no, {{pause frames=\"5\"}}{{string value=\"PlayerNickname\"}}.{{pause frames=\"5\"}} {{reaction type=\"Distress\"}}Creo\nque he tenido un tirón.\nColega,{{pause frames=\"5\"}} mejor nos relajamos\nun poco...",
      "EUfr": "{{fun_09}}{{fun_09}}{{fun_09}}{{resetReaction}}{{fun_09}}{{fun_09}}{{fun_09}}{{resetReaction}}{{vibrateWeak}}ARRRRRRRRRRRRG!!!\nOh, non, {{pause frames=\"5\"}}{{string value=\"PlayerNickname\"}}.{{pause frames=\"5\"}} {{reaction type=\"Distress\"}}Je\nme suis fait un claquage.\nBon,{{pause frames=\"5\"}} je vais faire une\npause.",
      "EUit": "{{fun_09}}{{fun_09}}{{fun_09}}{{resetReaction}}{{fun_09}}{{fun_09}}{{fun_09}}{{resetReaction}}{{vibrateWeak}}RARRRRRRRRRRRRG!!!\nOh, no, {{pause frames=\"5\"}}{{string value=\"PlayerNickname\"}}.{{pause frames=\"5\"}} {{reaction type=\"Distress\"}}Penso\ndi essermi stirato.\nWow!{{pause frames=\"5\"}} Meglio che mi\ndia una calmata.",
      "JPja": "{{fun_09}}{{fun_09}}{{fun_09}}{{resetReaction}}{{fun_09}}{{fun_09}}{{fun_09}}・{{pause frames=\"5\"}}・{{pause frames=\"5\"}}・{{pause frames=\"5\"}}{{resetReaction}}あ、{{pause frames=\"5\"}}{{string value=\"PlayerNickname\"}}{{pause frames=\"5\"}}\nいたの？　{{pause frames=\"5\"}}{{string value=\"Catchphrase\"}}？",
      "KRko": "{{fun_09}}{{fun_09}}{{fun_09}}{{resetReaction}}{{fun_09}}{{fun_09}}{{fun_09}}・{{pause frames=\"5\"}}・{{pause frames=\"5\"}}・{{pause frames=\"5\"}}{{resetReaction}}앗， {{pause frames=\"5\"}}{{string value=\"PlayerNickname\"}}{{pause frames=\"5\"}}\n언제부터 있었어？ {{pause frames=\"5\"}}{{string value=\"Catchphrase\"}}？",
      "USen": "{{fun_09}}{{fun_09}}{{fun_09}}{{resetReaction}}{{fun_09}}{{fun_09}}{{fun_09}}{{resetReaction}}{{vibrateWeak}}HARRRRRRRRRRRRG!!!\nOh, no, {{pause frames=\"5\"}}{{string value=\"PlayerNickname\"}}.{{pause frames=\"5\"}} {{reaction type=\"Distress\"}}I think\nI just pulled something.\nDude,{{pause frames=\"5\"}} I better take a\nbreather."
    }
  }
]