[
  {
    "label": "0",
    "attribute": "0x00000000FE000000",
    "locale": {
      "EUde": "{{reaction type=\"Worry\"}}Mann, {{pause frames=\"5\"}}{{string value=\"PlayerNickname\"}}!{{pause frames=\"20\"}} {{resetReaction}}Ich habe\nimmer noch keinen seltenen\nFisch, {{pause frames=\"5\"}}{{string value=\"Catchphrase\"}}.\nTu mir einen Gefallen{{pause frames=\"5\"}} und\nhalt dich etwas zurück,\nja, {{pause frames=\"5\"}}{{string value=\"Catchphrase\"}}?",
      "EUen": "{{reaction type=\"Worry\"}}Ack, {{pause frames=\"5\"}}{{string value=\"PlayerNickname\"}}!{{pause frames=\"20\"}} {{resetReaction}}I still\nhaven't caught a rare fish\nyet, {{pause frames=\"5\"}}{{string value=\"Catchphrase\"}}.\nDo a dude a favor{{pause frames=\"5\"}} and hold\nyer horses, would ya,\n{{pause frames=\"5\"}}{{string value=\"Catchphrase\"}}?",
      "EUes": "{{reaction type=\"Worry\"}}¡Aaarg, {{pause frames=\"5\"}}{{string value=\"PlayerNickname\"}}!{{pause frames=\"20\"}} {{resetReaction}}Todavía\nno ha picado ningún pez\nraro, {{pause frames=\"5\"}}{{string value=\"Catchphrase\"}}.\nA ver si nos centramos.{{pause frames=\"5\"}}\nTranquilidad, {{pause frames=\"5\"}}{{string value=\"Catchphrase\"}}.",
      "EUfr": "{{reaction type=\"Worry\"}}Nan, {{pause frames=\"5\"}}{{string value=\"PlayerNickname\"}}!{{pause frames=\"20\"}} {{resetReaction}}Je n'ai\ntoujours pas attrapé de\npoisson rare, {{pause frames=\"5\"}}{{string value=\"Catchphrase\"}}.\nSois cool{{pause frames=\"5\"}} et calme-toi\nun peu, tu veux,\n{{pause frames=\"5\"}}{{string value=\"Catchphrase\"}}?",
      "EUit": "{{reaction type=\"Worry\"}}Acc, {{pause frames=\"5\"}}{{string value=\"PlayerNickname\"}}!{{pause frames=\"20\"}} {{resetReaction}}Non ho\nancora catturato un bel\npescetto raro, {{pause frames=\"5\"}}{{string value=\"Catchphrase\"}}.\nSii comprensiv{{gender m=\"o\" f=\"a\"}},{{pause frames=\"5\"}} aspetta un\npo' prima di partire in\nquarta, {{pause frames=\"5\"}}{{string value=\"Catchphrase\"}}?",
      "JPja": "{{reaction type=\"Worry\"}}わりぃな、{{pause frames=\"5\"}}{{string value=\"PlayerNickname\"}}！{{pause frames=\"20\"}}\n{{resetReaction}}オレ、まだ　めずらしいサカナとか\n{{kanjiReplace charNum=\"1\" value=\"つ\"}}釣り{{kanjiReplace charNum=\"1\" value=\"あ\"}}上げてねぇんだよ、{{pause frames=\"5\"}}{{string value=\"Catchphrase\"}}\nでっかいオヤジの　せなか{{kanjiReplace charNum=\"1\" value=\"み\"}}見ながら{{pause frames=\"5\"}}\nもう　ちょっとばかし\n{{kanjiReplace charNum=\"1\" value=\"ま\"}}待っててくれや、{{pause frames=\"5\"}}{{string value=\"Catchphrase\"}}",
      "KRko": "{{reaction type=\"Worry\"}}미안하다， {{pause frames=\"5\"}}{{string value=\"PlayerNickname\"}}！{{pause frames=\"20\"}}\n{{resetReaction}}난 아직 희귀 물고기\n못 잡았다， {{pause frames=\"5\"}}{{string value=\"Catchphrase\"}}\n넓은 아버지의 등을 보면서{{pause frames=\"5\"}}\n조금만 더\n기다려 줘， {{pause frames=\"5\"}}{{string value=\"Catchphrase\"}}",
      "USen": "{{reaction type=\"Worry\"}}Ack, {{pause frames=\"5\"}}{{string value=\"PlayerNickname\"}}!{{pause frames=\"20\"}} {{resetReaction}}I still\nhaven't caught a rare fish\nyet, {{pause frames=\"5\"}}{{string value=\"Catchphrase\"}}.\nDo a dude a favor{{pause frames=\"5\"}} and hold\nyer horses, would ya,\n{{pause frames=\"5\"}}{{string value=\"Catchphrase\"}}?"
    }
  },
  {
    "label": "1",
    "attribute": "0x00000000FE000000",
    "locale": {
      "EUde": "{{reaction type=\"Worry\"}}Nicht alle Fische sind\ngleich, nur weil sie alle\nim Wasser schwimmen!\n{{resetReaction}}Warte mal kurz...{{pause frames=\"20\"}}\n\n\n{{reaction type=\"Worry\"}}Ich versuche mal, einen\nganz seltenen an den Haken\nzu bekommen, {{pause frames=\"5\"}}{{string value=\"Catchphrase\"}}!",
      "EUen": "{{reaction type=\"Worry\"}}Just 'cause all fish swim\nin the water doesn't make\n'em all the same, y'know!\n{{resetReaction}}Hang tight for a bit.{{pause frames=\"20\"}}\n{{reaction type=\"Worry\"}}I'm tryin' to catch a crazy\nrare one now, {{pause frames=\"5\"}}{{string value=\"Catchphrase\"}}!",
      "EUes": "{{reaction type=\"Worry\"}}¡Que todos los peces tengan\nbranquias no significa que\nsean todos iguales!\n{{resetReaction}}Ponte cómod{{gender m=\"o\" f=\"a\"}}, solo será un\nmomento.{{pause frames=\"20\"}} {{reaction type=\"Worry\"}}¡Tengo uno raro\nen el punto de mira!",
      "EUfr": "{{reaction type=\"Worry\"}}Ce n'est pas parce que les\npoissons ont tous des\nnageoires que ce sont tous\nles mêmes! {{resetReaction}}Attends voir.{{pause frames=\"20\"}}\n{{reaction type=\"Worry\"}}Je vais en attraper un\ntrès rare, {{pause frames=\"5\"}}{{string value=\"Catchphrase\"}}!",
      "EUit": "{{reaction type=\"Worry\"}}Solo perché i pesci stanno\nnell'acqua non significa che\nsiano tutti uguali!\n{{resetReaction}}Aspetta un attimo.{{pause frames=\"20\"}}\n{{reaction type=\"Worry\"}}Sto cercando di prendere un\npesce raro, {{pause frames=\"5\"}}{{string value=\"Catchphrase\"}}!",
      "JPja": "{{reaction type=\"Worry\"}}サカナっつっても\nピンからキリまで\nいるからなぁ{{pause frames=\"5\"}}・{{pause frames=\"5\"}}・{{pause frames=\"5\"}}・\n{{resetReaction}}もうしばらく　{{kanjiReplace charNum=\"1\" value=\"ま\"}}待っててくれや！{{pause frames=\"20\"}}\n{{reaction type=\"Worry\"}}これってのが　まだ\n{{kanjiReplace charNum=\"1\" value=\"つか\"}}捕まらねぇんだ、{{pause frames=\"5\"}}{{string value=\"Catchphrase\"}}",
      "KRko": "{{reaction type=\"Worry\"}}물고기라고 해도 종류가\n무궁무진하니까{{pause frames=\"5\"}}・{{pause frames=\"5\"}}・{{pause frames=\"5\"}}・\n\n{{resetReaction}}좀 더 기다려 주라！{{pause frames=\"20\"}}\n{{reaction type=\"Worry\"}}감이 팍팍 오는 놈을 아직\n못 잡았어， {{pause frames=\"5\"}}{{string value=\"Catchphrase\"}}",
      "USen": "{{reaction type=\"Worry\"}}Just 'cause all fish swim\nin the water doesn't make\n'em all the same, y'know!\n{{resetReaction}}Hang tight for a bit.{{pause frames=\"20\"}}\n{{reaction type=\"Worry\"}}I'm tryin' to catch a crazy\nrare one now, {{pause frames=\"5\"}}{{string value=\"Catchphrase\"}}!"
    }
  },
  {
    "label": "2",
    "attribute": "0x00000000FE000000",
    "locale": {
      "EUde": "{{resetReaction}}Hast du bis jetzt was\nOrdentliches gefangen,\n{{pause frames=\"5\"}}{{string value=\"Catchphrase\"}}?\n{{reaction type=\"Intense\"}}Ich jedenfalls noch nicht!{{pressButton}}\nAber pass auf!\nDAS KOMMT NOCH!",
      "EUen": "{{resetReaction}}Have you caught a fish that\nsets your soul on fire,\n{{pause frames=\"5\"}}{{string value=\"Catchphrase\"}}?\n{{reaction type=\"Intense\"}}Well, I haven't yet!{{pressButton}}\nBut hang tight, 'cause\nI WILL!",
      "EUes": "{{resetReaction}}¿Alguna vez has pescado un\npez tan raro que hayas\nnotado el tiempo detenerse?\n{{reaction type=\"Intense\"}}¡Yo todavía no!{{pressButton}}\n¡Pero no desesperes,\nestá en camino!",
      "EUfr": "{{resetReaction}}Tu as attrapé un poisson\nqui vaut son pesant de\ncacahuètes, {{pause frames=\"5\"}}{{string value=\"Catchphrase\"}}?\n{{reaction type=\"Intense\"}}Bah moi, non!{{pressButton}}\nMais t'inquiète, ça ne\ntardera pas!",
      "EUit": "{{resetReaction}}Hai preso un pesce che ti\nha fatto venire le\npalpitazioni, {{pause frames=\"5\"}}{{string value=\"Catchphrase\"}}?\n{{reaction type=\"Intense\"}}Beh, io ancora no!{{pressButton}}\nMa stai pront{{gender m=\"o\" f=\"a\"}} perché sto\nper farcela!",
      "JPja": "{{resetReaction}}おめぇ、もう\n{{kanjiReplace charNum=\"1\" value=\"こころ\"}}心ひかれる　サカナは\nとっ{{kanjiReplace charNum=\"1\" value=\"つか\"}}捕まえたのか、{{pause frames=\"5\"}}{{string value=\"Catchphrase\"}}？\n{{reaction type=\"Intense\"}}オレは　まだだ！{{pressButton}}\nだから　もうちょっとだけ\n{{kanjiReplace charNum=\"1\" value=\"ま\"}}待っててくれ・{{pause frames=\"3\"}}・{{pause frames=\"3\"}}・{{pause frames=\"3\"}}{{string value=\"Catchphrase\"}}",
      "KRko": "{{resetReaction}}너 벌써\n마음에 드는 물고기를\n잡은 거냐， {{pause frames=\"5\"}}{{string value=\"Catchphrase\"}}？\n{{reaction type=\"Intense\"}}나는 아직이라구！{{pressButton}}\n그니까 조금만 더\n기다려 줘・{{pause frames=\"3\"}}・{{pause frames=\"3\"}}・{{pause frames=\"3\"}} {{string value=\"Catchphrase\"}}",
      "USen": "{{resetReaction}}Have you caught a fish that\nsets your soul on fire,\n{{pause frames=\"5\"}}{{string value=\"Catchphrase\"}}?\n{{reaction type=\"Intense\"}}Well, I haven't yet!{{pressButton}}\nBut hang tight, 'cause\nI WILL!"
    }
  }
]