[
  {
    "label": "0",
    "attribute": "0x00000000FE000000",
    "locale": {
      "EUde": "{{reaction type=\"Laughter\"}}Dieser Fisch gibt dem Raum\nwirklich eine frischere\nAtmosphäre, {{pause frames=\"5\"}}{{string value=\"Catchphrase\"}}!",
      "EUen": "{{reaction type=\"Laughter\"}}This fish really freshens\nup the place, {{pause frames=\"5\"}}{{string value=\"Catchphrase\"}}!",
      "EUes": "{{reaction type=\"Laughter\"}}¡Este pez le da un toque\nde frescura a la casa,\n{{pause frames=\"5\"}}{{string value=\"Catchphrase\"}}!",
      "EUfr": "{{reaction type=\"Laughter\"}}Ce poisson illumine ta\nmaison, {{pause frames=\"5\"}}{{string value=\"Catchphrase\"}}!",
      "EUit": "{{reaction type=\"Laughter\"}}Questo pesce porta una\nventata di novità\nall'ambiente, {{pause frames=\"5\"}}{{string value=\"Catchphrase\"}}!",
      "JPja": "{{reaction type=\"Laughter\"}}ヘッヘッヘッ！{{pause frames=\"20\"}}\nしんせんな　サカナは\nアルファー{{kanjiReplace charNum=\"1\" value=\"は\"}}波とか　{{kanjiReplace charNum=\"1\" value=\"だ\"}}出してそうだ！",
      "KRko": "{{reaction type=\"Laughter\"}}헤헤헷！{{pause frames=\"20\"}}\n신선한 물고기한테선\n알파파가 나온대！",
      "USen": "{{reaction type=\"Laughter\"}}This fish really freshens\nup the place, {{pause frames=\"5\"}}{{string value=\"Catchphrase\"}}!"
    }
  },
  {
    "label": "1",
    "attribute": "0x00000000FE000000",
    "locale": {
      "EUde": "{{resetReaction}}Wenn ich den Fisch hier\nlasse, {{reaction type=\"Love\"}}{{pause frames=\"5\"}}wirkt mein Haus dann\nwie ein Sushirestaurant?",
      "EUen": "{{resetReaction}}If I keep this thing in my\nroom,{{reaction type=\"Love\"}}{{pause frames=\"5\"}} will it make it look\nlike a sushi restaurant?",
      "EUes": "{{resetReaction}}Con esa cosa en mi casa,{{reaction type=\"Love\"}}{{pause frames=\"5\"}}\n¿tú crees que tiene aspecto\nde restaurante de sushi?",
      "EUfr": "{{resetReaction}}Si je mets ce poisson chez\nmoi,{{reaction type=\"Love\"}}{{pause frames=\"5\"}} ma maison aura-t-elle\nl'air d'un resto de sushi?",
      "EUit": "{{resetReaction}}Se lo tengo in camera mia,{{reaction type=\"Love\"}}{{pause frames=\"5\"}}\nforse sognerò di fare\nscorpacciate di pesce?",
      "JPja": "{{resetReaction}}こいつを{{kanjiReplace charNum=\"2\" value=\"へや\"}}部屋に　すえつけりゃあ\n{{reaction type=\"Love\"}}オレの{{kanjiReplace charNum=\"2\" value=\"へや\"}}部屋、{{pause frames=\"5\"}}すし{{kanjiReplace charNum=\"1\" value=\"や\"}}屋っぽく\nなっちまうかな・{{pause frames=\"5\"}}・{{pause frames=\"5\"}}・{{pause frames=\"5\"}}{{string value=\"Catchphrase\"}}",
      "KRko": "{{resetReaction}}이걸 우리 집에 놔두면\n{{reaction type=\"Love\"}}우리 집， {{pause frames=\"5\"}}초밥 가게처럼\n보일까・{{pause frames=\"5\"}}・{{pause frames=\"5\"}}・{{pause frames=\"5\"}} {{string value=\"Catchphrase\"}}",
      "USen": "{{resetReaction}}If I keep this thing in my\nroom,{{reaction type=\"Love\"}}{{pause frames=\"5\"}} will it make it look\nlike a sushi restaurant?"
    }
  },
  {
    "label": "2",
    "attribute": "0x00000000FE000000",
    "locale": {
      "EUde": "{{reaction type=\"Love\"}}Sushi{{pause frames=\"5\"}}.{{pause frames=\"5\"}}.{{pause frames=\"5\"}}.{{pause frames=\"20\"}} {{reaction type=\"Amazed\"}}Mann!{{pause frames=\"5\"}} Das war\nknapp.{{pause frames=\"15\"}} {{reaction type=\"Distress\"}}Oh, {{string value=\"Catchphrase\"}}!",
      "EUen": "{{reaction type=\"Love\"}}Sushi{{pause frames=\"5\"}}.{{pause frames=\"5\"}}.{{pause frames=\"5\"}}.{{pause frames=\"20\"}} {{reaction type=\"Amazed\"}}Whoa!{{pause frames=\"5\"}} That was\nclose.{{pause frames=\"15\"}} {{reaction type=\"Distress\"}}Oh, {{string value=\"Catchphrase\"}}!",
      "EUes": "{{reaction type=\"Love\"}}Sushi{{pause frames=\"5\"}}.{{pause frames=\"5\"}}.{{pause frames=\"5\"}}.{{pause frames=\"20\"}} {{reaction type=\"Amazed\"}}¡Rayos!{{pause frames=\"5\"}} He estado a\npunto de...{{pause frames=\"15\"}} {{reaction type=\"Distress\"}}¡Oh, {{string value=\"Catchphrase\"}}!",
      "EUfr": "{{reaction type=\"Love\"}}Sushi{{pause frames=\"5\"}}.{{pause frames=\"5\"}}.{{pause frames=\"5\"}}.{{pause frames=\"20\"}} {{reaction type=\"Amazed\"}}Wouah!{{pause frames=\"5\"}} C'était \nmoins une.{{pause frames=\"15\"}} \n{{reaction type=\"Distress\"}}Oh, {{string value=\"Catchphrase\"}}!",
      "EUit": "{{reaction type=\"Love\"}}Mmm{{pause frames=\"5\"}}.{{pause frames=\"5\"}}.{{pause frames=\"5\"}}.{{pause frames=\"20\"}} {{reaction type=\"Amazed\"}}Pesce alla griglia!{{pause frames=\"5\"}}\nQuanto mi piace.{{pause frames=\"15\"}} \n{{reaction type=\"Distress\"}}Oh, {{string value=\"Catchphrase\"}}!",
      "JPja": "{{reaction type=\"Love\"}}さしみ{{pause frames=\"5\"}}・{{pause frames=\"5\"}}・{{pause frames=\"5\"}}・\n\n\n{{reaction type=\"Amazed\"}}おおーっ{{pause frames=\"5\"}}ととと！{{pause frames=\"15\"}}\n{{reaction type=\"Distress\"}}ヤベェ、ヤベェ{{pause frames=\"5\"}}・{{pause frames=\"5\"}}・{{pause frames=\"5\"}}・{{pause frames=\"5\"}}{{string value=\"Catchphrase\"}}！",
      "KRko": "{{reaction type=\"Love\"}}회{{pause frames=\"5\"}}・{{pause frames=\"5\"}}・{{pause frames=\"5\"}}・\n\n\n{{reaction type=\"Amazed\"}}아악 {{pause frames=\"5\"}}어이쿠！{{pause frames=\"15\"}}\n{{reaction type=\"Distress\"}}이럼 안 돼{{pause frames=\"5\"}}・{{pause frames=\"5\"}}・{{pause frames=\"5\"}}・{{pause frames=\"5\"}} {{string value=\"Catchphrase\"}}",
      "USen": "{{reaction type=\"Love\"}}Sushi{{pause frames=\"5\"}}.{{pause frames=\"5\"}}.{{pause frames=\"5\"}}.{{pause frames=\"20\"}} {{reaction type=\"Amazed\"}}Whoa!{{pause frames=\"5\"}} That was\nclose.{{pause frames=\"15\"}} {{reaction type=\"Distress\"}}Oh, {{string value=\"Catchphrase\"}}!"
    }
  }
]