[
  {
    "label": "0",
    "attribute": "0x000B0000FF000000",
    "locale": {
      "EUde": "{{reaction type=\"Worry\"}}Das macht mich echt fertig.{{pause frames=\"10\"}}\nWärst du einverstanden, \nwenn ich den Fisch behalte?\n{{resetReaction}}Natürlich nicht umsonst.\n{{capitalizeLetter}}{{itemName index=\"1\"}},\nnur für dich,{{pause frames=\"10\"}} {{string value=\"Catchphrase\"}}!",
      "EUen": "{{reaction type=\"Worry\"}}This really bugs me,{{pause frames=\"10\"}} so do\nyou mind if I keep this\nfish?\n{{resetReaction}}I'll trade you my\n{{ignoreArticle}}{{itemName index=\"1\"}}\nfor it,{{pause frames=\"10\"}} {{string value=\"Catchphrase\"}}!",
      "EUes": "{{reaction type=\"Worry\"}}No puede ser.{{pause frames=\"10\"}} ¿De verdad\nno te importa darme eso\nque has pescado?\n{{resetReaction}}¡Y te doy\n{{itemName index=\"1\"}},{{pause frames=\"10\"}}\n{{string value=\"Catchphrase\"}}!",
      "EUfr": "{{reaction type=\"Worry\"}}Puisque j'ai perdu,{{pause frames=\"10\"}} ça \nt'ennuie si je garde le\npoisson?\n{{resetReaction}}En échange, je te propose\n{{itemName index=\"1\"}},{{pause frames=\"10\"}} \n{{string value=\"Catchphrase\"}}!",
      "EUit": "{{reaction type=\"Worry\"}}Mi scoccia chiedertelo,{{pause frames=\"10\"}}\nma ti spiace se mi tengo\nquesto pesce?\n{{resetReaction}}In cambio ti darò\n{{itemName index=\"1\"}},\n{{pause frames=\"10\"}}{{string value=\"Catchphrase\"}}!",
      "JPja": "{{reaction type=\"Worry\"}}なんか　くやしいから\nこの　おサカナ、{{pause frames=\"10\"}}\nボク　もらっていい？\n{{resetReaction}}かわりに　この\n{{itemName index=\"1\"}}を\nあげるからさぁ、{{pause frames=\"10\"}}{{string value=\"Catchphrase\"}}！",
      "KRko": "{{reaction type=\"Worry\"}}나 좀 억울해～\n그래서 말인데 이 물고기{{pause frames=\"10\"}}\n내가 가질래！！\n{{resetReaction}}대신에 이\n{{itemName index=\"1\"}}{{fun_0B arg=\"0x0200\"}}\n줄께에～ {{pause frames=\"10\"}}{{string value=\"Catchphrase\"}}！",
      "USen": "{{reaction type=\"Worry\"}}This really bugs me,{{pause frames=\"10\"}} so do\nyou mind if I keep this\nfish?\n{{resetReaction}}I'll trade you my\n{{ignoreArticle}}{{itemName index=\"1\"}}\nfor it,{{pause frames=\"10\"}} {{string value=\"Catchphrase\"}}!"
    }
  },
  {
    "label": "1",
    "attribute": "0x000B0000FF000000",
    "locale": {
      "EUde": "{{reaction type=\"Agreement\"}}{{pause frames=\"5\"}}Ich muss{{pause frames=\"5\"}} die Fische mehr\nstudieren,{{pause frames=\"10\"}} {{string value=\"Catchphrase\"}}!\n\n{{resetReaction}}Hier,\n{{itemName index=\"1\"}}.\nBist du damit zufrieden?",
      "EUen": "{{reaction type=\"Agreement\"}}{{pause frames=\"5\"}}I really{{pause frames=\"5\"}} gotta study fish\nsome more,{{pause frames=\"10\"}} {{string value=\"Catchphrase\"}}!\n\n{{resetReaction}}So I'll give you my\n{{ignoreArticle}}{{itemName index=\"1\"}} if\nyou let me keep this fish.",
      "EUes": "{{reaction type=\"Agreement\"}}{{pause frames=\"5\"}}¡Debería{{pause frames=\"5\"}} estudiar los peces\nun poco más,{{pause frames=\"10\"}} {{string value=\"Catchphrase\"}}!\n\n{{resetReaction}}Si me das tu\ncaptura, te doy\n{{itemName index=\"1\"}}.",
      "EUfr": "{{reaction type=\"Agreement\"}}{{pause frames=\"5\"}}Je cherche{{pause frames=\"5\"}} à en \napprendre un peu plus sur \nce poisson,{{pause frames=\"10\"}} {{string value=\"Catchphrase\"}}!\n{{resetReaction}}Ça t'ennuierait de\nl'échanger contre\n{{itemName index=\"1\"}}?",
      "EUit": "{{reaction type=\"Agreement\"}}{{pause frames=\"5\"}}Vorrei{{pause frames=\"5\"}} studiare questo\npesce ancora un po',{{pause frames=\"10\"}}\n{{string value=\"Catchphrase\"}}!\n{{resetReaction}}Lo scambieresti con\n{{itemName index=\"1\"}}?",
      "JPja": "{{reaction type=\"Agreement\"}}{{pause frames=\"5\"}}ボク、{{pause frames=\"5\"}}この　おサカナで\nもっと　べんきょうするよぉ\n\n{{resetReaction}}かわりに　キミには\n{{itemName index=\"1\"}}をあげる！\n{{pause frames=\"10\"}}{{string value=\"Catchphrase\"}}！",
      "KRko": "{{reaction type=\"Agreement\"}}{{pause frames=\"5\"}}나 {{pause frames=\"5\"}}이 물고기로\n더 열심히 공부할께에～\n\n{{resetReaction}}그 대신 너한테는\n{{itemName index=\"1\"}}{{fun_0B arg=\"0x0200\"}}\n선물로 줄께， {{pause frames=\"10\"}}{{string value=\"Catchphrase\"}}！",
      "USen": "{{reaction type=\"Agreement\"}}{{pause frames=\"5\"}}I really{{pause frames=\"5\"}} gotta study fish\nsome more,{{pause frames=\"10\"}} {{string value=\"Catchphrase\"}}!\n\n{{resetReaction}}So I'll give you my\n{{ignoreArticle}}{{itemName index=\"1\"}} if\nyou let me keep this fish."
    }
  },
  {
    "label": "2",
    "attribute": "0x000B0000FF000000",
    "locale": {
      "EUde": "{{resetReaction}}Übrigens, als Gegenleistung\nfür diesen Fisch gebe ich{{pause frames=\"5\"}}.{{pause frames=\"5\"}}.{{pause frames=\"5\"}}.{{pressButton}}\n{{reaction type=\"Inspiration\"}}Warte! Ich weiß schon! Ja!\n{{reaction type=\"Happiness\"}}Das ist das richtige\nGeschenk für dich.\n{{capitalizeLetter}}{{itemName index=\"1\"}}.",
      "EUen": "{{resetReaction}}By the way, in exchange for\nthis fish{{pause frames=\"5\"}}.{{pause frames=\"5\"}}.{{pause frames=\"5\"}}.{{pressButton}} {{reaction type=\"Inspiration\"}}Wait! I know!\nYeah!\n{{reaction type=\"Happiness\"}}You can have my\n{{ignoreArticle}}{{itemName index=\"1\"}}!",
      "EUes": "{{resetReaction}}Por cierto, a cambio de tu\ncaptura{{pause frames=\"5\"}}.{{pause frames=\"5\"}}.{{pause frames=\"5\"}}.{{pressButton}} {{reaction type=\"Inspiration\"}}¡Espera! ¡Ya sé!\n¡Claro!\n{{reaction type=\"Happiness\"}}¡Te voy a dar...\n{{itemName index=\"1\"}}!",
      "EUfr": "{{resetReaction}}Que pourrais-je te proposer\ncontre ce poisson{{pause frames=\"5\"}}.{{pause frames=\"5\"}}.{{pause frames=\"5\"}}.{{pressButton}} {{reaction type=\"Inspiration\"}}Minute!\nMais oui! Je sais!{{reaction type=\"Happiness\"}}\nVoici...\n{{itemName index=\"1\"}}!",
      "EUit": "{{resetReaction}}A proposito, in cambio di\nquesto pesce{{pause frames=\"5\"}}.{{pause frames=\"5\"}}.{{pause frames=\"5\"}}.{{pressButton}} {{reaction type=\"Inspiration\"}}Aspetta!\nEcco! Sì!\n{{reaction type=\"Happiness\"}}Ti darò\n{{itemName index=\"1\"}}!",
      "JPja": "{{resetReaction}}ところで　おサカナ\nもらった　おれいは\n{{kanjiReplace charNum=\"1\" value=\"なに\"}}何が　いいかなぁ？\n{{pause frames=\"5\"}}・{{pause frames=\"5\"}}・{{pause frames=\"5\"}}・{{pressButton}}{{reaction type=\"Inspiration\"}}そうだ！\n{{reaction type=\"Happiness\"}}これが　いいよぉ～、{{pause frames=\"10\"}}\n{{itemName index=\"1\"}}！",
      "KRko": "{{resetReaction}}물고기를 받았으니\n나도 뭘 줘야겠네～！\n뭐가 좋을까아～？\n{{pause frames=\"5\"}}・{{pause frames=\"5\"}}・{{pause frames=\"5\"}}・{{pressButton}}{{reaction type=\"Inspiration\"}}그래！！\n{{reaction type=\"Happiness\"}}이게 좋겠다아～\n{{itemName index=\"1\"}}～！",
      "USen": "{{resetReaction}}By the way, in exchange for\nthis fish{{pause frames=\"5\"}}.{{pause frames=\"5\"}}.{{pause frames=\"5\"}}.{{pressButton}} {{reaction type=\"Inspiration\"}}Wait! I know!\nYeah!\n{{reaction type=\"Happiness\"}}You can have my\n{{ignoreArticle}}{{itemName index=\"1\"}}!"
    }
  }
]