[
  {
    "label": "0",
    "attribute": "0x00000000FF000000",
    "locale": {
      "EUde": "{{resetReaction}}Also{{pause frames=\"5\"}}.{{pause frames=\"5\"}}.{{pause frames=\"5\"}}.{{pause frames=\"5\"}} ich glaube, ich habe\nlang genug hier herumge-\nstöbert.{{pause frames=\"10\"}} Ich geh dann mal.\n{{reaction type=\"Happiness\"}}{{capitalizeLetter}}{{string value=\"PlayerNickname\"}}{{pause frames=\"5\"}}, ich habe heute\nsehr viel Spaß gehabt!{{pause frames=\"5\"}}\nDanke, {{pause frames=\"5\"}}{{string value=\"Catchphrase\"}}!",
      "EUen": "{{resetReaction}}Well{{pause frames=\"5\"}}.{{pause frames=\"5\"}}.{{pause frames=\"5\"}}.{{pause frames=\"5\"}}I guess I've spent\nenough time nosing around.{{pause frames=\"10\"}}\nI should probably get going.\n{{reaction type=\"Happiness\"}}{{capitalizeLetter}}{{string value=\"PlayerNickname\"}}{{pause frames=\"5\"}}, I had a\nreally great time today!{{pause frames=\"5\"}}\nThank you, {{pause frames=\"5\"}}{{string value=\"Catchphrase\"}}!",
      "EUes": "{{resetReaction}}Bueno{{pause frames=\"5\"}}.{{pause frames=\"5\"}}.{{pause frames=\"5\"}}.{{pause frames=\"5\"}} Diría que ya he\nperdido tiempo suficiente\ncotilleando.{{pause frames=\"10\"}} Me voy yendo.\n{{reaction type=\"Happiness\"}}{{capitalizeLetter}}{{string value=\"PlayerNickname\"}}{{pause frames=\"5\"}}, me lo pasé\ngenial hoy. {{pause frames=\"5\"}}¡Muchisísimas\ngracias, {{pause frames=\"5\"}}{{string value=\"Catchphrase\"}}!",
      "EUfr": "{{resetReaction}}Bon{{pause frames=\"5\"}}.{{pause frames=\"5\"}}.{{pause frames=\"5\"}}.{{pause frames=\"5\"}} j'ai passé assez de\ntemps à farfouiller chez \ntoi.{{pause frames=\"10\"}} Je devrais y aller.\n{{reaction type=\"Happiness\"}}{{capitalizeLetter}}{{string value=\"PlayerNickname\"}}{{pause frames=\"5\"}}, je me suis\nbien amusée aujourd'hui!{{pause frames=\"5\"}}\nMerci, {{pause frames=\"5\"}}{{string value=\"Catchphrase\"}}!",
      "EUit": "{{resetReaction}}Beh{{pause frames=\"5\"}}.{{pause frames=\"5\"}}.{{pause frames=\"5\"}}.{{pause frames=\"5\"}} credo di aver\nperso abbastanza tempo.{{pause frames=\"10\"}}\nMeglio che mi sbrighi.\n{{reaction type=\"Happiness\"}}{{capitalizeLetter}}{{string value=\"PlayerNickname\"}}{{pause frames=\"5\"}}, è stato\nbello parlare con te!{{pause frames=\"5\"}}\nGrazie, {{pause frames=\"5\"}}{{string value=\"Catchphrase\"}}!",
      "JPja": "{{resetReaction}}さて{{pause frames=\"5\"}}・{{pause frames=\"5\"}}・{{pause frames=\"5\"}}・{{pause frames=\"5\"}}\nお{{kanjiReplace charNum=\"2\" value=\"へや\"}}部屋も　まんきつしましたし、{{pause frames=\"5\"}}\nそろそろ　おいとましようかしら\n{{reaction type=\"Happiness\"}}{{string value=\"PlayerNickname\"}}さん{{pause frames=\"5\"}}\n{{kanjiReplace charNum=\"2\" value=\"きょう\"}}今日は　{{kanjiReplace charNum=\"1\" value=\"たの\"}}楽しかったです{{pause frames=\"20\"}}\nありがとうございました！",
      "KRko": "{{resetReaction}}그럼{{pause frames=\"5\"}}・{{pause frames=\"5\"}}・{{pause frames=\"5\"}}・{{pause frames=\"5\"}}\n집 구경도 실컷 했으니{{pause frames=\"5\"}}\n이제 슬슬 돌아갈게요\n{{reaction type=\"Happiness\"}}{{string value=\"PlayerNickname\"}}님！{{pause frames=\"5\"}}\n오늘 정말 즐거웠어요！{{pause frames=\"15\"}}\n고맙습니다！",
      "USen": "{{resetReaction}}Well{{pause frames=\"5\"}}.{{pause frames=\"5\"}}.{{pause frames=\"5\"}}.{{pause frames=\"5\"}}I guess I've spent\nenough time nosing around.{{pause frames=\"10\"}}\nI should probably get going.\n{{reaction type=\"Happiness\"}}{{capitalizeLetter}}{{string value=\"PlayerNickname\"}}{{pause frames=\"5\"}}, I had a\nreally great time today!{{pause frames=\"5\"}}\nThank you, {{pause frames=\"5\"}}{{string value=\"Catchphrase\"}}!"
    }
  },
  {
    "label": "1",
    "attribute": "0x00000000FF000000",
    "locale": {
      "EUde": "{{resetReaction}}{{capitalizeLetter}}{{string value=\"PlayerNickname\"}}, ich will deine\nFreundlichkeit nicht über-\nstrapazieren, {{pause frames=\"5\"}}{{string value=\"Catchphrase\"}}.\n{{reaction type=\"Delight\"}}Es ist Zeit für mich, zu\ngehen!{{pause frames=\"15\"}} {{resetReaction}}{{reaction type=\"Joy\"}}Vielen Dank für die\nEinladung, {{pause frames=\"5\"}}{{string value=\"Catchphrase\"}}!",
      "EUen": "{{resetReaction}}Well,{{pause frames=\"15\"}} {{string value=\"PlayerNickname\"}}, I don't\nwant to overstay my\nwelcome, {{pause frames=\"5\"}}{{string value=\"Catchphrase\"}}.\n{{reaction type=\"Delight\"}}Guess it's time to hit the\nroad!{{pause frames=\"15\"}} {{resetReaction}}{{reaction type=\"Joy\"}}Thanks for the grand\ntour, {{pause frames=\"5\"}}{{string value=\"Catchphrase\"}}!",
      "EUes": "{{resetReaction}}Bueno,{{pause frames=\"15\"}} {{string value=\"PlayerNickname\"}}, no\nquiero abusar, {{pause frames=\"5\"}}{{string value=\"Catchphrase\"}}.\n\n{{reaction type=\"Delight\"}}Creo que es hora de irse.{{pause frames=\"15\"}}{{resetReaction}}\n{{reaction type=\"Joy\"}}¡Gracias por este gran\ntour, {{pause frames=\"5\"}}{{string value=\"Catchphrase\"}}!",
      "EUfr": "{{resetReaction}}Bon,{{pause frames=\"15\"}} {{string value=\"PlayerNickname\"}}, je ne\nveux pas abuser de ton\nhospitalité, {{pause frames=\"5\"}}{{string value=\"Catchphrase\"}}.\n{{reaction type=\"Delight\"}}Je crois que c'est l'heure\nd'y aller!{{pause frames=\"15\"}} {{resetReaction}}{{reaction type=\"Joy\"}}Merci pour la\nvisite, {{pause frames=\"5\"}}{{string value=\"Catchphrase\"}}!",
      "EUit": "{{resetReaction}}Ah,{{pause frames=\"15\"}} {{string value=\"PlayerNickname\"}}, non voglio\napprofittare del tuo\ntempo, {{pause frames=\"5\"}}{{string value=\"Catchphrase\"}}.\n{{reaction type=\"Delight\"}}Meglio che mi dia una\nmossa!{{pause frames=\"15\"}} {{resetReaction}}{{reaction type=\"Joy\"}}Grazie della\ncompagnia, {{pause frames=\"5\"}}{{string value=\"Catchphrase\"}}!",
      "JPja": "{{resetReaction}}さて、{{pause frames=\"15\"}}\n{{string value=\"PlayerNickname\"}}さん、{{pause frames=\"5\"}}{{string value=\"Catchphrase\"}}\n\nあまり　ながいをしては\nめいわくでしょうし、{{pause frames=\"5\"}}\nそろそろ　おいとましますね\n{{reaction type=\"Happiness\"}}{{kanjiReplace charNum=\"2\" value=\"きょう\"}}今日は　どうも\nありがとうございました！\n{{pause frames=\"5\"}}{{string value=\"Catchphrase\"}}！",
      "KRko": "{{resetReaction}}그럼{{pause frames=\"15\"}}\n{{string value=\"PlayerNickname\"}}님！ {{pause frames=\"5\"}}{{string value=\"Catchphrase\"}}\n\n너무 오래 머무는 것도\n예의가 아니니{{pause frames=\"5\"}}\n이제 돌아갈게요\n{{reaction type=\"Happiness\"}}오늘 정말\n즐거웠어요！\n{{pause frames=\"5\"}}{{string value=\"Catchphrase\"}}！",
      "USen": "{{resetReaction}}Well,{{pause frames=\"15\"}} {{string value=\"PlayerNickname\"}}, I don't\nwant to overstay my\nwelcome, {{pause frames=\"5\"}}{{string value=\"Catchphrase\"}}.\n{{reaction type=\"Delight\"}}Guess it's time to hit the\nroad!{{pause frames=\"15\"}} {{resetReaction}}{{reaction type=\"Joy\"}}Thanks for the grand\ntour, {{pause frames=\"5\"}}{{string value=\"Catchphrase\"}}!"
    }
  },
  {
    "label": "2",
    "attribute": "0x00000000FF000000",
    "locale": {
      "EUde": "{{resetReaction}}Du, {{pause frames=\"5\"}}{{string value=\"PlayerNickname\"}},{{pause frames=\"10\"}} ich glaube,\nich gehe lieber,{{pause frames=\"5\"}} bevor ich\ndir zur Last falle.\n{{reaction type=\"Glee\"}}Es war ein wundervoller Tag!{{pause frames=\"10\"}}\nLade mich ruhig wieder mal\nein, {{pause frames=\"5\"}}{{string value=\"Catchphrase\"}}!",
      "EUen": "{{resetReaction}}Listen, {{pause frames=\"5\"}}{{string value=\"PlayerNickname\"}},{{pause frames=\"10\"}} I don't\nwant to be a bad guest,{{pause frames=\"5\"}} so\nI'm going to take off now.\n{{reaction type=\"Glee\"}}But I had a wonderful day!{{pause frames=\"10\"}}\nPlease invite me over\nagain, {{pause frames=\"5\"}}{{string value=\"Catchphrase\"}}!",
      "EUes": "{{resetReaction}}Oye, {{pause frames=\"5\"}}{{string value=\"PlayerNickname\"}},{{pause frames=\"10\"}} no quiero\nser una invitada pesada,{{pause frames=\"5\"}} así\nque me voy a ir yendo.\n{{reaction type=\"Glee\"}}¡Pero pasé un día genial!{{pause frames=\"10\"}}\nInvítame algún otro día,\n¿vale, {{pause frames=\"5\"}}{{string value=\"Catchphrase\"}}?",
      "EUfr": "{{resetReaction}}Ecoute, {{pause frames=\"5\"}}{{string value=\"PlayerNickname\"}},{{pause frames=\"10\"}} je ne\nveux pas te déranger,{{pause frames=\"5\"}} donc \nje vais y aller.\n{{reaction type=\"Glee\"}}Mais j'ai passé une super\njournée!{{pause frames=\"10\"}} Invite-moi quand\ntu veux, {{pause frames=\"5\"}}{{string value=\"Catchphrase\"}}!",
      "EUit": "{{resetReaction}}Senti, {{pause frames=\"5\"}}{{string value=\"PlayerNickname\"}},{{pause frames=\"10\"}} non\nvoglio approfittare della\ntua {{pause frames=\"5\"}}pazienza.\n{{reaction type=\"Glee\"}}Mi sono divertita molto!{{pause frames=\"10\"}}\nTi prego, invitami di\nnuovo, {{pause frames=\"5\"}}{{string value=\"Catchphrase\"}}!",
      "JPja": "{{resetReaction}}さて、{{pause frames=\"5\"}}{{string value=\"PlayerNickname\"}}さん{{pause frames=\"15\"}}\n\n\nながいをするのも　なんですし、{{pause frames=\"5\"}}\nそろそろ　わたし、\n{{kanjiReplace charNum=\"1\" value=\"かえ\"}}帰りますね、{{pause frames=\"5\"}}{{string value=\"Catchphrase\"}}\n{{reaction type=\"Happiness\"}}とっても　ステキな１{{kanjiReplace charNum=\"1\" value=\"にち\"}}日でした{{pause frames=\"20\"}}\nまた　{{kanjiReplace charNum=\"1\" value=\"よ\"}}呼んでください、{{pause frames=\"5\"}}{{string value=\"Catchphrase\"}}",
      "KRko": "{{resetReaction}}{{pause frames=\"5\"}}{{string value=\"PlayerNickname\"}}님！！{{pause frames=\"15\"}}\n\n\n오래 머무는 것도{{pause frames=\"5\"}}\n예의가 아닌 것 같으니 이제\n돌아갈게요！ {{pause frames=\"5\"}}{{string value=\"Catchphrase\"}}\n{{reaction type=\"Happiness\"}}너무 멋진 하루였어요{{pause frames=\"20\"}}\n또 불러 주세요！ {{pause frames=\"5\"}}{{string value=\"Catchphrase\"}}",
      "USen": "{{resetReaction}}Listen, {{pause frames=\"5\"}}{{string value=\"PlayerNickname\"}},{{pause frames=\"10\"}} I don't\nwant to be a bad guest,{{pause frames=\"5\"}} so\nI'm going to take off now.\n{{reaction type=\"Glee\"}}But I had a wonderful day!{{pause frames=\"10\"}}\nPlease invite me over\nagain, {{pause frames=\"5\"}}{{string value=\"Catchphrase\"}}!"
    }
  }
]