[
  {
    "label": "0",
    "attribute": "0x001B0000FE000000",
    "locale": {
      "EUde": "{{reaction type=\"Worry\"}}Das nächste Mal RENNST du\nlos, und zwar ohne\nzu zögern, {{pause frames=\"5\"}}{{string value=\"Catchphrase\"}}!",
      "EUen": "{{reaction type=\"Worry\"}}Next time, you best start\nHAULING the second I give\nit to you, {{pause frames=\"5\"}}{{string value=\"Catchphrase\"}}!",
      "EUes": "{{reaction type=\"Worry\"}}¡Para la próxima vez mejor\nque te pongas manos a la\nobra de inmediato!",
      "EUfr": "{{reaction type=\"Worry\"}}La prochaine fois, tu ferais\nmieux de T'ACTIVER dès que\ntu l'auras, {{pause frames=\"5\"}}{{string value=\"Catchphrase\"}}!",
      "EUit": "{{reaction type=\"Worry\"}}La prossima volta, mettiti\nsubito a CORRERE! Sacco\ndi patate, {{pause frames=\"5\"}}{{string value=\"Catchphrase\"}}!",
      "JPja": "{{reaction type=\"Worry\"}}{{kanjiReplace charNum=\"2\" value=\"こんど\"}}今度は　マッハで\nダッシュしてくれよな！\n{{pause frames=\"5\"}}{{string value=\"Catchphrase\"}}！",
      "KRko": "{{reaction type=\"Worry\"}}다음 번엔 마하의 속도로\n달려갔다 와야 돼！\n{{pause frames=\"5\"}}{{string value=\"Catchphrase\"}}！",
      "USen": "{{reaction type=\"Worry\"}}Next time, you best start\nHAULING the second I give\nit to you, {{pause frames=\"5\"}}{{string value=\"Catchphrase\"}}!"
    }
  },
  {
    "label": "1",
    "attribute": "0x001B0000FE000000",
    "locale": {
      "EUde": "{{reaction type=\"Intense\"}}Wenn du mich noch einmal\nenttäuschst, bist du\ngefeuert, {{pause frames=\"5\"}}{{string value=\"Catchphrase\"}}!{{pause frames=\"5\"}}\nUnd zwar\nvon der WELT gefeuert!",
      "EUen": "{{reaction type=\"Intense\"}}If you fail me next time,\nyou're fired, {{pause frames=\"5\"}}{{string value=\"Catchphrase\"}}!{{pause frames=\"5\"}}\nFired from the WORLD!",
      "EUes": "{{reaction type=\"Intense\"}}Como me falles de nuevo,\ndespedid{{gender m=\"o\" f=\"a\"}}, {{pause frames=\"5\"}}¡{{string value=\"Catchphrase\"}}!{{pause frames=\"5\"}}\n¡Despedid{{gender m=\"o\" f=\"a\"}} del mundo!",
      "EUfr": "{{reaction type=\"Intense\"}}C'est la porte si tu échoues\nla prochaine fois,\n{{pause frames=\"5\"}}{{string value=\"Catchphrase\"}}!{{pause frames=\"5\"}} LA PORTE!",
      "EUit": "{{reaction type=\"Intense\"}}Sgarra un'altra volta, e...\nsei LICENZIAT{{gender m=\"O\" f=\"A\"}}, {{pause frames=\"5\"}}{{string value=\"Catchphrase\"}}!{{pause frames=\"5\"}}\nLicenziat{{gender m=\"o\" f=\"a\"}} da questo mondo!",
      "JPja": "{{reaction type=\"Intense\"}}{{kanjiReplace charNum=\"1\" value=\"つぎ\"}}次　{{kanjiReplace charNum=\"2\" value=\"しっぱい\"}}失敗したら\nリストラだからなー、\n{{pause frames=\"5\"}}{{string value=\"Catchphrase\"}}！",
      "KRko": "{{reaction type=\"Intense\"}}다음에도 실패하면\n해고해 버릴 거야ー\n{{pause frames=\"5\"}}{{string value=\"Catchphrase\"}}！",
      "USen": "{{reaction type=\"Intense\"}}If you fail me next time,\nyou're fired, {{pause frames=\"5\"}}{{string value=\"Catchphrase\"}}!{{pause frames=\"5\"}}\nFired from the WORLD!"
    }
  },
  {
    "label": "2",
    "attribute": "0x001B0000FE000000",
    "locale": {
      "EUde": "{{reaction type=\"Worry\"}}Auf wen kann ich mich denn\nverlassen, wenn nicht auf\ndich, hm?{{pause frames=\"5\"}}\nAuf niemanden!{{pause frames=\"5\"}}\nDenk dran, {{pause frames=\"5\"}}{{string value=\"Catchphrase\"}}!",
      "EUen": "{{reaction type=\"Worry\"}}Who else can I count on if\nnot you, huh?{{pause frames=\"5\"}} No one!{{pause frames=\"5\"}}\nRemember it, {{pause frames=\"5\"}}{{string value=\"Catchphrase\"}}!",
      "EUes": "{{reaction type=\"Worry\"}}Tú también, ¿{{gender m=\"hijo mío\" f=\"hija mía\"}}? No\nesperaba que tú me\nfallases, {{pause frames=\"5\"}}¡{{string value=\"Catchphrase\"}}!",
      "EUfr": "{{reaction type=\"Worry\"}}Sur qui je peux compter à\npart toi?{{pause frames=\"5\"}} Personne!{{pause frames=\"5\"}}\nNe l'oublie pas, {{pause frames=\"5\"}}{{string value=\"Catchphrase\"}}!",
      "EUit": "{{reaction type=\"Worry\"}}Su chi posso contare se\nnon su di te?{{pause frames=\"5\"}} Su nessuno!{{pause frames=\"5\"}}\nRicordatelo, {{pause frames=\"5\"}}{{string value=\"Catchphrase\"}}!",
      "JPja": "{{reaction type=\"Worry\"}}おまえだけが\nたよりなんだよー、{{pause frames=\"5\"}}{{string value=\"Catchphrase\"}}",
      "KRko": "{{reaction type=\"Worry\"}}너 외에는 믿을 사람\n하나도 없어ー {{pause frames=\"5\"}}{{string value=\"Catchphrase\"}}",
      "USen": "{{reaction type=\"Worry\"}}Who else can I count on if\nnot you, huh?{{pause frames=\"5\"}} No one!{{pause frames=\"5\"}}\nRemember it, {{pause frames=\"5\"}}{{string value=\"Catchphrase\"}}!"
    }
  }
]