[
  {
    "label": "00",
    "attribute": "",
    "locale": {
      "EUde": "An \n!",
      "EUen": "To \n,",
      "EUes": "¡Hola, \n!",
      "EUfr": "A \n,",
      "EUit": "A \n!",
      "JPja": "\nへ",
      "KRko": "\n에게",
      "USen": "To \n,"
    }
  },
  {
    "label": "01",
    "attribute": "",
    "locale": {
      "EUde": "An \n!",
      "EUen": "To \n,",
      "EUes": "¡Hola, \n!",
      "EUfr": "A \n,",
      "EUit": "A \n!",
      "JPja": "\nへ",
      "KRko": "\n에게",
      "USen": "To \n,"
    }
  },
  {
    "label": "02",
    "attribute": "",
    "locale": {
      "EUde": "An \n!",
      "EUen": "To \n,",
      "EUes": "¡Hola, \n!",
      "EUfr": "A \n,",
      "EUit": "A \n!",
      "JPja": "\nへ",
      "KRko": "\n에게",
      "USen": "To \n,"
    }
  },
  {
    "label": "03",
    "attribute": "",
    "locale": {
      "EUde": "An \n!",
      "EUen": "To \n,",
      "EUes": "¡Hola, \n!",
      "EUfr": "A \n,",
      "EUit": "A \n!",
      "JPja": "\nへ",
      "KRko": "\n에게",
      "USen": "To \n,"
    }
  },
  {
    "label": "04",
    "attribute": "",
    "locale": {
      "EUde": "An \n!",
      "EUen": "To \n,",
      "EUes": "¡Hola, \n!",
      "EUfr": "A \n,",
      "EUit": "A \n!",
      "JPja": "\nへ",
      "KRko": "\n에게",
      "USen": "To \n,"
    }
  },
  {
    "label": "05",
    "attribute": "",
    "locale": {
      "EUde": "An \n!",
      "EUen": "To \n,",
      "EUes": "¡Hola, \n!",
      "EUfr": "A \n,",
      "EUit": "A \n!",
      "JPja": "\nへ",
      "KRko": "\n에게",
      "USen": "To \n,"
    }
  },
  {
    "label": "06",
    "attribute": "",
    "locale": {
      "EUde": "An \n!",
      "EUen": "To \n,",
      "EUes": "¡Hola, \n!",
      "EUfr": "A \n,",
      "EUit": "A \n!",
      "JPja": "\nへ",
      "KRko": "\n에게",
      "USen": "To \n,"
    }
  },
  {
    "label": "07",
    "attribute": "",
    "locale": {
      "EUde": "An \n!",
      "EUen": "To \n,",
      "EUes": "¡Hola, \n!",
      "EUfr": "A \n,",
      "EUit": "A \n!",
      "JPja": "\nへ",
      "KRko": "\n에게",
      "USen": "To \n,"
    }
  },
  {
    "label": "08",
    "attribute": "",
    "locale": {
      "EUde": "An \n!",
      "EUen": "To \n,",
      "EUes": "¡Hola, \n!",
      "EUfr": "A \n,",
      "EUit": "A \n!",
      "JPja": "\nへ",
      "KRko": "\n에게",
      "USen": "To \n,"
    }
  },
  {
    "label": "09",
    "attribute": "",
    "locale": {
      "EUde": "An \n!",
      "EUen": "To \n,",
      "EUes": "¡Hola, \n!",
      "EUfr": "A \n,",
      "EUit": "A \n!",
      "JPja": "\nへ",
      "KRko": "\n에게",
      "USen": "To \n,"
    }
  },
  {
    "label": "10",
    "attribute": "",
    "locale": {
      "EUde": "An \n!",
      "EUen": "To \n,",
      "EUes": "¡Hola, \n!",
      "EUfr": "A \n,",
      "EUit": "A \n!",
      "JPja": "\nへ",
      "KRko": "\n에게",
      "USen": "To \n,"
    }
  },
  {
    "label": "11",
    "attribute": "",
    "locale": {
      "EUde": "An \n!",
      "EUen": "To \n,",
      "EUes": "¡Hola, \n!",
      "EUfr": "A \n,",
      "EUit": "A \n!",
      "JPja": "\nへ",
      "KRko": "\n에게",
      "USen": "To \n,"
    }
  },
  {
    "label": "12",
    "attribute": "",
    "locale": {
      "EUde": "An \n!",
      "EUen": "To \n,",
      "EUes": "¡Hola, \n!",
      "EUfr": "A \n,",
      "EUit": "A \n!",
      "JPja": "\nへ",
      "KRko": "\n에게",
      "USen": "To \n,"
    }
  },
  {
    "label": "13",
    "attribute": "",
    "locale": {
      "EUde": "An \n!",
      "EUen": "To \n,",
      "EUes": "¡Hola, \n!",
      "EUfr": "A \n,",
      "EUit": "A \n!",
      "JPja": "\nへ",
      "KRko": "\n에게",
      "USen": "To \n,"
    }
  },
  {
    "label": "14",
    "attribute": "",
    "locale": {
      "EUde": "An \n!",
      "EUen": "To \n,",
      "EUes": "¡Hola, \n!",
      "EUfr": "A \n,",
      "EUit": "A \n!",
      "JPja": "\nへ",
      "KRko": "\n에게",
      "USen": "To \n,"
    }
  },
  {
    "label": "15",
    "attribute": "",
    "locale": {
      "EUde": "An \n!",
      "EUen": "To \n,",
      "EUes": "¡Hola, \n!",
      "EUfr": "A \n,",
      "EUit": "A \n!",
      "JPja": "\nへ",
      "KRko": "\n에게",
      "USen": "To \n,"
    }
  }
]