[
  {
    "label": "00",
    "attribute": "0x00000000FF000000",
    "locale": {
      "EUde": "{{resetReaction}}Sag mal,{{pause frames=\"10\"}}{{reaction type=\"Curiosity\"}} in welcher Richtung\n{{pause frames=\"5\"}}liegt nochmal deine Stadt?{{fun_02 arg=\"0x03040506\"}}\nWesten.\nOsten.\nSüden.\nNorden.",
      "EUen": "{{resetReaction}}Say,{{pause frames=\"10\"}}{{reaction type=\"Curiosity\"}} which direction{{pause frames=\"5\"}} is your\ntown in again?{{fun_02 arg=\"0x03040506\"}}\nWest.\nEast.\nSouth.\nUp.",
      "EUes": "{{resetReaction}}Oye,{{pause frames=\"10\"}}{{reaction type=\"Curiosity\"}} repíteme de nuevo{{pause frames=\"5\"}}\ndónde queda tu pueblo.{{fun_02 arg=\"0x03040506\"}}\nAl oeste\nAl este\nAl sur\nArriba",
      "EUfr": "{{resetReaction}}Dis,{{pause frames=\"10\"}}{{reaction type=\"Curiosity\"}} dans quelle direction{{pause frames=\"5\"}} \nse trouve ta ville, déjà?{{fun_02 arg=\"0x03040506\"}}\nOuest.\nEst.\nSud.\nEn haut.",
      "EUit": "{{resetReaction}}Senti,{{pause frames=\"10\"}}{{reaction type=\"Curiosity\"}} da che parte è{{pause frames=\"5\"}}\nla tua città?{{fun_02 arg=\"0x03040506\"}}\nOvest.\nEst.\nSud.\nSu.",
      "JPja": "{{resetReaction}}ねぇ、{{pause frames=\"10\"}}キミの{{kanjiReplace charNum=\"1\" value=\"むら\"}}村って\nどのへんに\n{{reaction type=\"Curiosity\"}}{{pause frames=\"5\"}}あるんだっけ？{{fun_02 arg=\"0x03040506\"}}\n{{kanjiReplace charNum=\"1\" value=\"にし\"}}西の{{kanjiReplace charNum=\"1\" value=\"ほう\"}}方\n{{kanjiReplace charNum=\"1\" value=\"ひがし\"}}東の{{kanjiReplace charNum=\"1\" value=\"ほう\"}}方\n{{kanjiReplace charNum=\"1\" value=\"みなみ\"}}南の{{kanjiReplace charNum=\"1\" value=\"ほう\"}}方\n{{kanjiReplace charNum=\"1\" value=\"うえ\"}}上の{{kanjiReplace charNum=\"1\" value=\"ほう\"}}方",
      "KRko": "{{resetReaction}}저기， {{pause frames=\"10\"}}너네 마을이\n어느 쪽에\n{{reaction type=\"Curiosity\"}}{{pause frames=\"5\"}}있더라？{{fun_02 arg=\"0x03040506\"}}\n서쪽\n동쪽\n남쪽\n북쪽",
      "USen": "{{resetReaction}}Say,{{pause frames=\"10\"}}{{reaction type=\"Curiosity\"}} which direction{{pause frames=\"5\"}} is your\ntown in again?{{fun_02 arg=\"0x03040506\"}}\nWest.\nEast.\nSouth.\nUp."
    }
  },
  {
    "label": "01",
    "attribute": "0x00000000FF000000",
    "locale": {
      "EUde": "{{resetReaction}}Wenn du stinkreich wärst,{{pause frames=\"10\"}}\n{{reaction type=\"Curiosity\"}}{{pause frames=\"5\"}}in welcher Art von Haus\nwürdest du wohnen?\n{{fun_06 arg=\"0x070809\"}}",
      "EUen": "{{resetReaction}}If you were stinkin' filthy\nrich,{{pause frames=\"10\"}}{{reaction type=\"Curiosity\"}}{{pause frames=\"5\"}} what kind of house\nwould you live in?\n{{fun_06 arg=\"0x070809\"}}",
      "EUes": "{{resetReaction}}Si fueras asquerosamente\nric{{gender m=\"o\" f=\"a\"}},{{pause frames=\"10\"}}{{reaction type=\"Curiosity\"}}{{pause frames=\"5\"}} ¿en qué tipo de casa\nvivirías?\n{{fun_06 arg=\"0x070809\"}}",
      "EUfr": "{{resetReaction}}Si tu étais riche à millions,{{pause frames=\"10\"}}{{reaction type=\"Curiosity\"}}{{pause frames=\"5\"}}\nquelle maison \nachèterais-tu?\n{{fun_06 arg=\"0x070809\"}}",
      "EUit": "{{resetReaction}}Se fossi ricc{{gender m=\"o\" f=\"a\"}} sfondat{{gender m=\"o\" f=\"a\"}},\n{{pause frames=\"10\"}}{{reaction type=\"Curiosity\"}}{{pause frames=\"5\"}}in che genere di casa\nvivresti?\n{{fun_06 arg=\"0x070809\"}}",
      "JPja": "{{resetReaction}}もしも　キミが\nすっごい　お{{kanjiReplace charNum=\"1\" value=\"かね\"}}金もちだったら、{{pause frames=\"10\"}}\n{{reaction type=\"Curiosity\"}}{{pause frames=\"5\"}}どんな　おうちに　すみたい？\n{{fun_06 arg=\"0x070809\"}}",
      "KRko": "{{resetReaction}}만약에 너가\n엄청난 부자라면{{pause frames=\"10\"}}\n{{reaction type=\"Curiosity\"}}{{pause frames=\"5\"}}어떤 집에서 살꺼야？\n{{fun_06 arg=\"0x07080900\"}}",
      "USen": "{{resetReaction}}If you were stinkin' filthy\nrich,{{pause frames=\"10\"}}{{reaction type=\"Curiosity\"}}{{pause frames=\"5\"}} what kind of house\nwould you live in?\n{{fun_06 arg=\"0x070809\"}}"
    }
  },
  {
    "label": "02",
    "attribute": "0x00000000FF000000",
    "locale": {
      "EUde": "{{resetReaction}}Welche Meinung hat man in\ndeiner Stadt{{pause frames=\"10\"}}{{reaction type=\"Curiosity\"}}{{pause frames=\"5\"}} über \n{{string value=\"TownName\"}}?{{fun_02 arg=\"0x0A0B0C\"}}\nGroßartig!\nGanz O.K.\nKeine Meinung...",
      "EUen": "{{resetReaction}}What does your town{{pause frames=\"10\"}}{{reaction type=\"Curiosity\"}}{{pause frames=\"5\"}} think\nof {{string value=\"TownName\"}}?{{fun_02 arg=\"0x0A0B0C\"}}\nIt's great!\nIt's OK.\nWe don't...",
      "EUes": "{{resetReaction}}¿Qué{{pause frames=\"10\"}}{{reaction type=\"Curiosity\"}}{{pause frames=\"5\"}} piensa tu pueblo de\n{{string value=\"TownName\"}}?{{fun_02 arg=\"0x0A0B0C\"}}\n¡Es genial!\nPsé...\nNo sé...",
      "EUfr": "{{resetReaction}}Qu'est-ce qu'ils pensent{{pause frames=\"10\"}}{{reaction type=\"Curiosity\"}}{{pause frames=\"5\"}} de\n{{string value=\"TownName\"}} dans ta ville?{{fun_02 arg=\"0x0A0B0C\"}}\nQue c'est bien!\nQue ça va.\nOn y pense pas.",
      "EUit": "{{resetReaction}}Che opinione hanno{{pause frames=\"10\"}}{{reaction type=\"Curiosity\"}}{{pause frames=\"5\"}} di\n{{string value=\"TownName\"}} nella tua\ncittà?{{fun_02 arg=\"0x0A0B0C\"}}\nÈ grandiosa!\nÈ carina.\nNessuna...",
      "JPja": "{{resetReaction}}キミの{{kanjiReplace charNum=\"1\" value=\"むら\"}}村では、{{pause frames=\"10\"}}\nこの　{{string value=\"TownName\"}}{{kanjiReplace charNum=\"1\" value=\"むら\"}}村の　\n{{reaction type=\"Curiosity\"}}{{pause frames=\"5\"}}ひょうばんって　どうなのぉ？{{fun_02 arg=\"0x0A0B0C\"}}\nかなりイイ！\nまあまあ\nあんまり・・・",
      "KRko": "{{resetReaction}}너네 마을 사람들은{{pause frames=\"10\"}}\n이 {{string value=\"TownName\"}} 마을을\n{{reaction type=\"Curiosity\"}}{{pause frames=\"5\"}}어떻게 생각하고 있어？？{{fun_02 arg=\"0x0A0B0C00\"}}\n꽤 좋게！！\n평범\n그저 그렇게・・・",
      "USen": "{{resetReaction}}What does your town{{pause frames=\"10\"}}{{reaction type=\"Curiosity\"}}{{pause frames=\"5\"}} think\nof {{string value=\"TownName\"}}?{{fun_02 arg=\"0x0A0B0C\"}}\nIt's great!\nIt's OK.\nWe don't..."
    }
  },
  {
    "label": "03",
    "attribute": "0x00000000FE000000",
    "locale": {
      "EUde": "{{reaction type=\"Joy\"}}Echt?{{pause frames=\"20\"}} Ich hörte, es gab mal\neinen Zug dort! War er\nrichtig cool?\n{{reaction type=\"Distress\"}}Ich sah einen Artikel über\nihn in einer alten Ausgabe \nvon {{color id=\"2\"}}Chillen und Relaxen{{color id=\"0\"}}.\n\n{{capitalizeLetter}}{{string value=\"Catchphrase\"}}!",
      "EUen": "{{reaction type=\"Joy\"}}Really?{{pause frames=\"20\"}} I heard they used\nto have a train there! Was\nit really cool?\n{{reaction type=\"Distress\"}}I saw an article on it in a\nback issue of {{color id=\"2\"}}Chillin'\nMagazine{{color id=\"0\"}}, {{string value=\"Catchphrase\"}}!",
      "EUes": "{{reaction type=\"Joy\"}}¿En serio?{{pause frames=\"20\"}} ¡Tengo entendido\nque tenéis estación de\ntren! ¿A que mola?\n{{reaction type=\"Distress\"}}¡Leí un artículo en la\nrevista {{color id=\"2\"}}Siesta{{color id=\"0\"}}, {{string value=\"Catchphrase\"}}!",
      "EUfr": "{{reaction type=\"Joy\"}}Vraiment?{{pause frames=\"20\"}} L'endroit où tout\nle monde mange des crêpes!\nC'est si bon que ça?\n{{reaction type=\"Distress\"}}J'ai lu un article\nlà-dessus dans {{color id=\"2\"}}Zen\nMagazine{{color id=\"0\"}}, {{string value=\"Catchphrase\"}}!",
      "EUit": "{{reaction type=\"Joy\"}}Davvero?{{pause frames=\"20\"}} Pare che avessero\nun treno là un tempo!\nEra bello?\n{{reaction type=\"Distress\"}}Ne parlavano su un vecchio\nnumero di {{color id=\"2\"}}Rilassiamoci{{color id=\"0\"}},\n{{string value=\"Catchphrase\"}}!",
      "JPja": "{{reaction type=\"Joy\"}}うわぁ～！{{pause frames=\"20\"}}　あそこって\nむかし、{{pause frames=\"10\"}}きかんしゃが　\n{{kanjiReplace charNum=\"1\" value=\"はし\"}}走ってたらしいよぉ～\n{{reaction type=\"Distress\"}}てつどうざっしの\nバックナンバーに\nかいてあったものぉ！　{{string value=\"Catchphrase\"}}！",
      "KRko": "{{reaction type=\"Joy\"}}우왓～！{{pause frames=\"20\"}} 거기\n예전에는 {{pause frames=\"10\"}}기관차가\n다녔었대～\n{{reaction type=\"Distress\"}}철도 잡지\n뒤쪽에\n적혀 있었어！ {{string value=\"Catchphrase\"}}！",
      "USen": "{{reaction type=\"Joy\"}}Really?{{pause frames=\"20\"}} I heard they used\nto have a train there! Was\nit really cool?\n{{reaction type=\"Distress\"}}I saw an article on it in a\nback issue of {{color id=\"2\"}}Chillin'\nMagazine{{color id=\"0\"}}, {{string value=\"Catchphrase\"}}!"
    }
  },
  {
    "label": "04",
    "attribute": "0x00000000FE000000",
    "locale": {
      "EUde": "{{reaction type=\"Agreement\"}}Oh ja. {{pause frames=\"5\"}}Das ist richtig. Es\nist eine richtig große \nStadt, nicht?{{pause frames=\"10\"}}{{resetReaction}}\n{{reaction type=\"Joy\"}}Es gibt einen Vergnügungs-\npark{{pause frames=\"10\"}} und eine Konzerthalle \nund etliche Sachen wie{{pause frames=\"5\"}}.{{pause frames=\"5\"}}.{{pause frames=\"5\"}}.\n{{reaction type=\"Curiosity\"}}Was?{{pause frames=\"20\"}} Das ist nicht derselbe\nOrt?{{pause frames=\"20\"}}{{reaction type=\"Worry\"}} Das ist seltsam,{{pause frames=\"10\"}}\n{{string value=\"Catchphrase\"}}.",
      "EUen": "{{reaction type=\"Agreement\"}}Oh, yeah. {{pause frames=\"5\"}}That's right. It's\na really big town, right?{{pause frames=\"10\"}}{{resetReaction}}\n\n{{reaction type=\"Joy\"}}There's an amusement park{{pause frames=\"10\"}}\nand a concert hall and lots\nof stuff like{{pause frames=\"5\"}}.{{pause frames=\"5\"}}.{{pause frames=\"5\"}}.\n{{reaction type=\"Curiosity\"}}What?{{pause frames=\"20\"}} That's not the same\nplace?{{pause frames=\"20\"}}{{reaction type=\"Worry\"}} That's so weird,{{pause frames=\"10\"}}\n{{string value=\"Catchphrase\"}}.",
      "EUes": "{{reaction type=\"Agreement\"}}Ah, sí. {{pause frames=\"5\"}}Eso es. Una ciudad\ngrande, ¿verdad?{{pause frames=\"10\"}}{{resetReaction}}\n\n{{reaction type=\"Joy\"}}Con parque de atracciones{{pause frames=\"10\"}}\ny sala de conciertos y\ncosas por el estilo{{pause frames=\"5\"}}.{{pause frames=\"5\"}}.{{pause frames=\"5\"}}.\n{{reaction type=\"Curiosity\"}}¿Qué?{{pause frames=\"20\"}} ¿Que no es así?{{pause frames=\"20\"}}{{reaction type=\"Worry\"}}\nQué raro,{{pause frames=\"10\"}} {{string value=\"Catchphrase\"}}.",
      "EUfr": "{{reaction type=\"Agreement\"}}Oh, oui. {{pause frames=\"5\"}}C'est vrai. \nIl y a une grande ville,\nnon?{{pause frames=\"10\"}}{{resetReaction}}\n{{reaction type=\"Joy\"}}Il y a un parc d'attraction,{{pause frames=\"10\"}}\nune salle de concert et\naussi des{{pause frames=\"5\"}}.{{pause frames=\"5\"}}.{{pause frames=\"5\"}}.\n{{reaction type=\"Curiosity\"}}Quoi?{{pause frames=\"20\"}} On ne parle pas du \nmême endroit?{{pause frames=\"20\"}}{{reaction type=\"Worry\"}} C'est\nbizarre,{{pause frames=\"10\"}} {{string value=\"Catchphrase\"}}.",
      "EUit": "{{reaction type=\"Agreement\"}}Oh, sì. {{pause frames=\"5\"}}È vero. È una città\nmolto grande, vero?{{pause frames=\"10\"}}{{resetReaction}}\n\n{{reaction type=\"Joy\"}}C'è un parco dei\ndivertimenti,{{pause frames=\"10\"}} una sala\nconcerti e poi{{pause frames=\"5\"}}.{{pause frames=\"5\"}}.{{pause frames=\"5\"}}.\n{{reaction type=\"Curiosity\"}}Cosa?{{pause frames=\"20\"}} Non è lo stesso\nposto?{{pause frames=\"20\"}}{{reaction type=\"Worry\"}} Che strano,{{pause frames=\"10\"}}\n{{string value=\"Catchphrase\"}}.",
      "JPja": "{{reaction type=\"Agreement\"}}そうそう、{{pause frames=\"5\"}}\nすっごく　{{kanjiReplace charNum=\"1\" value=\"おお\"}}大きな\n{{kanjiReplace charNum=\"1\" value=\"むら\"}}村なんだよねぇ、{{pause frames=\"10\"}}{{string value=\"Catchphrase\"}}{{resetReaction}}\n{{reaction type=\"Joy\"}}ゆうえんちとか、{{pause frames=\"10\"}}\nコンサートホールとか\nいっぱいあって{{pause frames=\"5\"}}・{{pause frames=\"5\"}}・{{pause frames=\"5\"}}・\n{{reaction type=\"Curiosity\"}}あれ？{{pause frames=\"20\"}}　ちがう？{{pause frames=\"20\"}}\n{{reaction type=\"Worry\"}}おかしいなぁ～、{{pause frames=\"10\"}}{{string value=\"Catchphrase\"}}",
      "KRko": "{{reaction type=\"Agreement\"}}맞아， 맞아！{{pause frames=\"5\"}}\n엄청나게 커다란\n마을 맞지？{{pause frames=\"10\"}} {{string value=\"Catchphrase\"}}{{resetReaction}}\n{{reaction type=\"Joy\"}}놀이동산이라든지{{pause frames=\"10\"}}\n콘서트홀이\n잔뜩 있고！！{{pause frames=\"5\"}}・{{pause frames=\"5\"}}・{{pause frames=\"5\"}}・\n{{reaction type=\"Curiosity\"}}응？{{pause frames=\"20\"}} 거기 아니야？{{pause frames=\"20\"}}\n{{reaction type=\"Worry\"}}이상하네～～ {{pause frames=\"10\"}}{{string value=\"Catchphrase\"}}～～",
      "USen": "{{reaction type=\"Agreement\"}}Oh, yeah. {{pause frames=\"5\"}}That's right. It's\na really big town, right?{{pause frames=\"10\"}}{{resetReaction}}\n\n{{reaction type=\"Joy\"}}There's an amusement park{{pause frames=\"10\"}}\nand a concert hall and lots\nof stuff like{{pause frames=\"5\"}}.{{pause frames=\"5\"}}.{{pause frames=\"5\"}}.\n{{reaction type=\"Curiosity\"}}What?{{pause frames=\"20\"}} That's not the same\nplace?{{pause frames=\"20\"}}{{reaction type=\"Worry\"}} That's so weird,{{pause frames=\"10\"}}\n{{string value=\"Catchphrase\"}}."
    }
  },
  {
    "label": "05",
    "attribute": "0x00000000FE000000",
    "locale": {
      "EUde": "{{reaction type=\"Happiness\"}}Nun, wenn sie südlich liegt,\nmuss es im Sommer sehr\nwarm sein in deiner Stadt{{pause frames=\"5\"}}.{{pause frames=\"5\"}}.{{pause frames=\"5\"}}.\n{{reaction type=\"Glee\"}}Ich möchte auch in die\nTropen fahren, {{pause frames=\"5\"}}in der Sonne\nsitzen..\nUnd {{string index=\"4\"}} \nschlürfen.",
      "EUen": "{{reaction type=\"Happiness\"}}Well, if it's down south, it\nmust get pretty warm in\nyour town{{pause frames=\"5\"}}.{{pause frames=\"5\"}}.{{pause frames=\"5\"}}.\n{{reaction type=\"Glee\"}}I want to visit someplace\ntropical{{pause frames=\"5\"}} and sit in the sun\nsipping {{string index=\"4\"}}.",
      "EUes": "{{reaction type=\"Happiness\"}}Si está al sur de aquí,\nseguro que hace mucho\ncalor en tu pueblo{{pause frames=\"5\"}}.{{pause frames=\"5\"}}.{{pause frames=\"5\"}}.\n{{reaction type=\"Glee\"}}Ya me gustaría visitarte{{pause frames=\"5\"}}\npara relajarme y disfrutar\nde {{gender m=\"un\" f=\"una\" n=\"\"}} {{ignoreArticle}}{{string index=\"4\"}}.",
      "EUfr": "{{reaction type=\"Happiness\"}}Oh là, au Sud, il doit faire \nchaud{{pause frames=\"5\"}}.{{pause frames=\"5\"}}.{{pause frames=\"5\"}}. Vous jouez à la \npétanque, c'est ça?\n{{reaction type=\"Glee\"}}J'aimerais bien partir pour\nles tropiques{{pause frames=\"5\"}} et siroter\n{{string index=\"4\"}} au soleil.",
      "EUit": "{{reaction type=\"Happiness\"}}Beh, se è a sud, dovrebbe\nfare piuttosto caldo nella\nvostra città{{pause frames=\"5\"}}.{{pause frames=\"5\"}}.{{pause frames=\"5\"}}.\n{{reaction type=\"Glee\"}}Vorrei visitare un luogo\ntropicale{{pause frames=\"5\"}} e sorseggiare\n{{string index=\"4\"}} al sole.",
      "JPja": "{{reaction type=\"Happiness\"}}{{kanjiReplace charNum=\"1\" value=\"みなみ\"}}南ってからには\nきっと　あったかい\n{{kanjiReplace charNum=\"1\" value=\"むら\"}}村なんだねぇ{{pause frames=\"5\"}}・{{pause frames=\"5\"}}・{{pause frames=\"5\"}}・\n{{reaction type=\"Glee\"}}ボクも　そういう{{kanjiReplace charNum=\"2\" value=\"とち\"}}土地で、{{pause frames=\"5\"}}\nミも　ココロも\nオープンに　なってみたいよぉ！",
      "KRko": "{{reaction type=\"Happiness\"}}남쪽이라는 걸 보니\n엄청 따뜻한\n마을이겠지？{{pause frames=\"5\"}}・{{pause frames=\"5\"}}・{{pause frames=\"5\"}}・\n{{reaction type=\"Glee\"}}나도 그런 마을에서{{pause frames=\"5\"}}\n몸도 마음도 열어 놓고\n살고 싶어！！",
      "USen": "{{reaction type=\"Happiness\"}}Well, if it's down south, it\nmust get pretty warm in\nyour town{{pause frames=\"5\"}}.{{pause frames=\"5\"}}.{{pause frames=\"5\"}}.\n{{reaction type=\"Glee\"}}I want to visit someplace\ntropical{{pause frames=\"5\"}} and sit in the sun\nsipping {{string index=\"4\"}}."
    }
  },
  {
    "label": "06",
    "attribute": "0x00000000FE000000",
    "locale": {
      "EUde": "{{reaction type=\"Agreement\"}}Ich verstehe.{{pause frames=\"10\"}} Also ist eines\ndieser blinkenden Dinger am\nHimmel dein Haus, was?{{resetReaction}}\n{{pause frames=\"5\"}}.{{pause frames=\"5\"}}.{{pause frames=\"5\"}}.{{pause frames=\"10\"}}{{reaction type=\"Inspiration\"}}{{pause frames=\"20\"}}Sekunde mal!{{pause frames=\"20\"}}{{reaction type=\"Shocked\"}}{{pause frames=\"10\"}} Bist du {{gender m=\"ein\" f=\"eine\"}}\n{{gender m=\"Außerirdischer\" f=\"Außerirdische\"}},{{pause frames=\"10\"}} {{string value=\"Catchphrase\"}}?\n{{reaction type=\"Distress\"}}Oh, wow, das ist sooo cool!\nGibst du mir ein Autogramm,\n{{pause frames=\"10\"}}{{string value=\"Catchphrase\"}}?",
      "EUen": "{{reaction type=\"Agreement\"}}I see.{{pause frames=\"10\"}} So one of those\ntwinkly things in the sky\nmust be your house, huh?{{resetReaction}}\n{{pause frames=\"5\"}}.{{pause frames=\"5\"}}.{{pause frames=\"5\"}}.{{pause frames=\"10\"}}{{reaction type=\"Inspiration\"}}{{pause frames=\"20\"}}Wait a second!{{pause frames=\"20\"}}{{reaction type=\"Shocked\"}}{{pause frames=\"10\"}} Are you an\nalien,{{pause frames=\"10\"}} {{string value=\"Catchphrase\"}}?! {{reaction type=\"Distress\"}}Oh,\nwow, this is sooooo cool!\nCan I get your autograph,\n{{pause frames=\"10\"}}{{string value=\"Catchphrase\"}}?",
      "EUes": "{{reaction type=\"Agreement\"}}Entiendo.{{pause frames=\"10\"}} Así que vives\nen una de esas cosas\nbrillantes de arriba, ¿eh?{{resetReaction}}\nMm{{pause frames=\"5\"}}.{{pause frames=\"5\"}}.{{pause frames=\"5\"}}.{{pause frames=\"10\"}}{{reaction type=\"Inspiration\"}}{{pause frames=\"20\"}} ¡Un momento!{{pause frames=\"20\"}}{{reaction type=\"Shocked\"}}{{pause frames=\"10\"}} ¡No\nserás un extraterrestre,{{pause frames=\"10\"}}\n¿verdad, {{string value=\"Catchphrase\"}}?!\n{{reaction type=\"Distress\"}}¡Guaaa, cómo moooola!\n¿Me firmas un autógrafo,\n{{pause frames=\"10\"}}{{string value=\"Catchphrase\"}}?",
      "EUfr": "{{reaction type=\"Agreement\"}}Je vois.{{pause frames=\"10\"}} Tu viens de l'une\nde ces choses brillantes\ndans le ciel?{{resetReaction}}\n{{pause frames=\"5\"}}.{{pause frames=\"5\"}}.{{pause frames=\"5\"}}.{{pause frames=\"10\"}}{{reaction type=\"Inspiration\"}}{{pause frames=\"20\"}} Une minute!{{pause frames=\"20\"}}{{reaction type=\"Shocked\"}}{{pause frames=\"10\"}} Tu es un\nalien,{{pause frames=\"10\"}} {{string value=\"Catchphrase\"}}?! {{reaction type=\"Distress\"}}Oh,\nwaouh, trooop cool!\nJe peux avoir un \nautographe, {{pause frames=\"10\"}}{{string value=\"Catchphrase\"}}?",
      "EUit": "{{reaction type=\"Agreement\"}}Capisco.{{pause frames=\"10\"}} Allora la tua casa\nè una di quelle cose allegre\nin cielo, uh?{{resetReaction}}\n{{pause frames=\"5\"}}.{{pause frames=\"5\"}}.{{pause frames=\"5\"}}.{{pause frames=\"10\"}}{{reaction type=\"Inspiration\"}}{{pause frames=\"20\"}} Aspetta un attimo!{{pause frames=\"20\"}}{{reaction type=\"Shocked\"}}{{pause frames=\"10\"}}\nSei u{{gender m=\"n alieno\" f=\"n'aliena\"}},{{pause frames=\"10\"}} {{string value=\"Catchphrase\"}}?!\n{{reaction type=\"Distress\"}}Oh, wow, figooo!\nMi faresti un autografo,\n{{pause frames=\"10\"}}{{string value=\"Catchphrase\"}}?",
      "JPja": "{{reaction type=\"Agreement\"}}そうかぁ、{{pause frames=\"10\"}}\nお{{kanjiReplace charNum=\"1\" value=\"そら\"}}空で　{{kanjiReplace charNum=\"1\" value=\"ひか\"}}光ってるのは\nきっとキミの　おうちなんだねぇ{{resetReaction}}\n{{pause frames=\"5\"}}・{{pause frames=\"5\"}}・{{pause frames=\"5\"}}・{{pause frames=\"10\"}}{{reaction type=\"Inspiration\"}}{{pause frames=\"20\"}}ってことは、{{pause frames=\"20\"}}\n{{reaction type=\"Shocked\"}}{{pause frames=\"10\"}}キミって　もしかして\nうちゅう{{kanjiReplace charNum=\"1\" value=\"じん\"}}人なのぉ？　{{pause frames=\"10\"}}{{string value=\"Catchphrase\"}}？\n{{reaction type=\"Distress\"}}うひゃ～っ！{{pause frames=\"20\"}}\nサインほしいよぉ～！　{{pause frames=\"10\"}}{{string value=\"Catchphrase\"}}！",
      "KRko": "{{reaction type=\"Agreement\"}}그렇구나～{{pause frames=\"10\"}}\n하늘에서 빛나는 건\n아마도 너네 집이겠네～{{resetReaction}}\n{{pause frames=\"5\"}}・{{pause frames=\"5\"}}・{{pause frames=\"5\"}}・{{pause frames=\"10\"}}{{reaction type=\"Inspiration\"}}{{pause frames=\"20\"}}그 말은 즉？{{pause frames=\"20\"}}\n{{reaction type=\"Shocked\"}}{{pause frames=\"10\"}}혹시 너\n우주인이야？ {{pause frames=\"10\"}}{{string value=\"Catchphrase\"}}？\n{{reaction type=\"Distress\"}}꺄아～！{{pause frames=\"20\"}}\n사인해 줘～！ {{pause frames=\"10\"}}{{string value=\"Catchphrase\"}}～！",
      "USen": "{{reaction type=\"Agreement\"}}I see.{{pause frames=\"10\"}} So one of those\ntwinkly things in the sky\nmust be your house, huh?{{resetReaction}}\n{{pause frames=\"5\"}}.{{pause frames=\"5\"}}.{{pause frames=\"5\"}}.{{pause frames=\"10\"}}{{reaction type=\"Inspiration\"}}{{pause frames=\"20\"}}Wait a second!{{pause frames=\"20\"}}{{reaction type=\"Shocked\"}}{{pause frames=\"10\"}} Are you an\nalien,{{pause frames=\"10\"}} {{string value=\"Catchphrase\"}}?! {{reaction type=\"Distress\"}}Oh,\nwow, this is sooooo cool!\nCan I get your autograph,\n{{pause frames=\"10\"}}{{string value=\"Catchphrase\"}}?"
    }
  },
  {
    "label": "07",
    "attribute": "0x00000000FE000000",
    "locale": {
      "EUde": "{{reaction type=\"Happiness\"}}Ich hätte gerne ein Haus\nmit viel Platz, wie ein\nSchloss.{{pause frames=\"5\"}} Ein Steinschloss!\n{{pause frames=\"10\"}}{{reaction type=\"Resignation\"}}{{pause frames=\"5\"}}In dunklen und stürmischen\nNächten stehe ich dann am\nFenster und...\n{{pause frames=\"10\"}}...sehe extrem mysteriös \naus.",
      "EUen": "{{reaction type=\"Happiness\"}}I'd want a big, spacious\nhouse, like a castle.{{pause frames=\"5\"}} A\ncastle made of stone!\n{{pause frames=\"10\"}}{{reaction type=\"Resignation\"}}{{pause frames=\"5\"}}Then, on dark and stormy\nnights, I can stand by the\nwindow {{pause frames=\"10\"}}and look mysterious.",
      "EUes": "{{reaction type=\"Happiness\"}}Me gustaría tener una casa\nenorme, como un castillo.{{pause frames=\"5\"}}\n¡Un castillo amurallado!\n{{pause frames=\"10\"}}{{reaction type=\"Resignation\"}}{{pause frames=\"5\"}}Así, en noches de tormenta\npodría mirar por la ventana{{pause frames=\"10\"}}\ny parecer misterioso.",
      "EUfr": "{{reaction type=\"Happiness\"}}Je voudrais une maison \nénorme et spacieuse.{{pause frames=\"5\"}} Comme\nun château en pierres!\n{{pause frames=\"10\"}}{{reaction type=\"Resignation\"}}{{pause frames=\"5\"}}Les nuits d'orage, je me\nposterais à la fenêtre {{pause frames=\"10\"}}en\nprenant un air mystérieux.",
      "EUit": "{{reaction type=\"Happiness\"}}Io vorrei una casa spaziosa\ncome un castello.{{pause frames=\"5\"}} Un\ncastello in pietra!\n{{pause frames=\"10\"}}{{reaction type=\"Resignation\"}}{{pause frames=\"5\"}}Così potrei stare vicino al\nfuoco nelle notti di tempe-\nsta{{pause frames=\"10\"}} e fare il misterioso.",
      "JPja": "{{reaction type=\"Happiness\"}}ボクは　やっぱり\nおしろみたいな　{{kanjiReplace charNum=\"1\" value=\"ひろ\"}}広～い\nおうちが　いいなぁ、{{pause frames=\"5\"}}{{string value=\"Catchphrase\"}}\n{{pause frames=\"10\"}}{{reaction type=\"Resignation\"}}{{pause frames=\"5\"}}さみしさと　\nロマンチックの　はざまで、{{pause frames=\"10\"}}\nなやましく　くらしたいのぉ",
      "KRko": "{{reaction type=\"Happiness\"}}난 역시\n성처럼 커～다란\n집이 좋아！ {{pause frames=\"5\"}}{{string value=\"Catchphrase\"}}！\n{{pause frames=\"10\"}}{{reaction type=\"Resignation\"}}{{pause frames=\"5\"}}외로움과\n로맨틱 사이에서{{pause frames=\"10\"}}\n고민하며 살고 싶어～",
      "USen": "{{reaction type=\"Happiness\"}}I'd want a big, spacious\nhouse, like a castle.{{pause frames=\"5\"}} A\ncastle made of stone!\n{{pause frames=\"10\"}}{{reaction type=\"Resignation\"}}{{pause frames=\"5\"}}Then, on dark and stormy\nnights, I can stand by the\nwindow {{pause frames=\"10\"}}and look mysterious."
    }
  },
  {
    "label": "08",
    "attribute": "0x00000000FE000000",
    "locale": {
      "EUde": "{{resetReaction}}Ich möchte in einem richtig\nlangen Haus wohnen, das wie\neine Eisenbahn geformt ist.\n{{reaction type=\"Mischief\"}}Ja, ein langes Haus,{{pause frames=\"10\"}} Tür\nneben Tür und Zimmer neben\nZimmer{{pause frames=\"5\"}}.{{pause frames=\"5\"}}.{{pause frames=\"5\"}}.{{pause frames=\"10\"}}\n{{reaction type=\"Joy\"}}Jeder Tag {{pause frames=\"5\"}}wäre wie ein\nActionfilm, {{pause frames=\"10\"}}{{string value=\"Catchphrase\"}}!",
      "EUen": "{{resetReaction}}I want to live in a really,\nreally long house, kind of\nshaped like a train.\n{{reaction type=\"Mischief\"}}Yeah, a long house where\nit's just door after door,{{pause frames=\"10\"}}\nand room after room{{pause frames=\"5\"}}.{{pause frames=\"5\"}}.{{pause frames=\"5\"}}.{{pause frames=\"10\"}}\n{{reaction type=\"Joy\"}}Then every day{{pause frames=\"5\"}} would be\nlike an action movie,\n{{pause frames=\"10\"}}{{string value=\"Catchphrase\"}}!",
      "EUes": "{{resetReaction}}Me gustaría vivir en una\ncasa alargada. Una que\ntenga forma de tren.\n{{reaction type=\"Mischief\"}}Una casa alargada con un\ngran pasillo{{pause frames=\"10\"}} lleno de\npuertas{{pause frames=\"5\"}}.{{pause frames=\"5\"}}.{{pause frames=\"5\"}}.{{pause frames=\"10\"}}\n{{reaction type=\"Joy\"}}¡Así cada día{{pause frames=\"5\"}} sería como\nun concurso de la tele!\n¿Qué puerta elijo hoy?",
      "EUfr": "{{resetReaction}}Je veux vivre dans une\nmaison très très longue, en\nforme de train.\n{{reaction type=\"Mischief\"}}Ouais, une longue maison\nconstruite en enfilade,{{pause frames=\"10\"}}\npièce après pièce{{pause frames=\"5\"}}.{{pause frames=\"5\"}}.{{pause frames=\"5\"}}.{{pause frames=\"10\"}}\n{{reaction type=\"Joy\"}}J'aurais l'impression{{pause frames=\"5\"}} de \nvivre dans un film d'action,{{pause frames=\"10\"}}\n{{string value=\"Catchphrase\"}}!",
      "EUit": "{{resetReaction}}Io vorrei vivere in una casa\nmolto lunga, come un treno\nper intenderci.\n{{reaction type=\"Mischief\"}}Già, una lunghissima\nsequenza di porte{{pause frames=\"10\"}}\ne di stanze{{pause frames=\"5\"}}.{{pause frames=\"5\"}}.{{pause frames=\"5\"}}.{{pause frames=\"10\"}}\n{{reaction type=\"Joy\"}}E ogni giorno{{pause frames=\"5\"}} sarebbe\ncome un film d'azione,\n{{pause frames=\"10\"}}{{string value=\"Catchphrase\"}}!",
      "JPja": "{{resetReaction}}ボクは　とにかく\nヨコに　{{kanjiReplace charNum=\"1\" value=\"なが\"}}長～い\nおうちに　すみたいよぉ\n{{reaction type=\"Mischief\"}}あけても　あけても{{pause frames=\"10\"}}\nおへやが　つづいてる\n{{kanjiReplace charNum=\"1\" value=\"なが\"}}長～い　おうち{{pause frames=\"5\"}}・{{pause frames=\"5\"}}・{{pause frames=\"5\"}}・{{pause frames=\"10\"}}\n{{reaction type=\"Joy\"}}じだいげきみたいで、{{pause frames=\"5\"}}\n{{kanjiReplace charNum=\"2\" value=\"まいにち\"}}毎日　ワクワクだぁ～！\n{{pause frames=\"10\"}}{{string value=\"Catchphrase\"}}！",
      "KRko": "{{resetReaction}}난 무조건\n옆으로 긴～\n집에서 살고 싶어～～\n{{reaction type=\"Mischief\"}}열고 들어가고 열고 들어가도{{pause frames=\"10\"}}\n방이 계속되는\n길～다란 집{{pause frames=\"5\"}}・{{pause frames=\"5\"}}・{{pause frames=\"5\"}}・{{pause frames=\"10\"}}\n{{reaction type=\"Joy\"}}과거로 돌아간 것 같아서{{pause frames=\"5\"}}\n매일 두근거릴지도 몰라～！！\n{{pause frames=\"10\"}}{{string value=\"Catchphrase\"}}～！！",
      "USen": "{{resetReaction}}I want to live in a really,\nreally long house, kind of\nshaped like a train.\n{{reaction type=\"Mischief\"}}Yeah, a long house where\nit's just door after door,{{pause frames=\"10\"}}\nand room after room{{pause frames=\"5\"}}.{{pause frames=\"5\"}}.{{pause frames=\"5\"}}.{{pause frames=\"10\"}}\n{{reaction type=\"Joy\"}}Then every day{{pause frames=\"5\"}} would be\nlike an action movie,\n{{pause frames=\"10\"}}{{string value=\"Catchphrase\"}}!"
    }
  },
  {
    "label": "09",
    "attribute": "0x00000000FE000000",
    "locale": {
      "EUde": "{{reaction type=\"Love\"}}{{pause frames=\"10\"}}Ich möchte in einem Leb-\nkuchenhaus wohnen,{{pause frames=\"10\"}} nur ohne\ndie schreckliche Hexe.\n{{resetReaction}}Türen,{{pause frames=\"5\"}} der Boden,{{pause frames=\"5\"}} sogar die\nMöbel wären aus Lebkuchen\nund Zuckerguss!\n{{reaction type=\"Joy\"}}Hu hu!{{pause frames=\"5\"}} Wen versuche ich zu\nveralbern?\n\nIch würde den ganzen Tag\nlang im Bett liegen und an\nmeinem Kissen knabbern!",
      "EUen": "{{reaction type=\"Love\"}}{{pause frames=\"10\"}}I want to live in a\ngingerbread house,{{pause frames=\"10\"}} only\nwithout the scary witch.\n{{resetReaction}}The doors,{{pause frames=\"5\"}} the floors,{{pause frames=\"5\"}} even\nthe furniture would be made\nof gingerbread and icing!\n{{reaction type=\"Joy\"}}Huh huh!{{pause frames=\"5\"}} Who am I kidding?\nI'd just lie in bed all day,\ngnawing on my pillow!",
      "EUes": "{{reaction type=\"Love\"}}{{pause frames=\"10\"}}Me gustaría vivir en una\ncasita de chocolate,{{pause frames=\"10\"}} solo\nque sin bruja.\n{{resetReaction}}¡Las puertas,{{pause frames=\"5\"}} el suelo{{pause frames=\"5\"}} y los\nmuebles! ¡Todo sería de\nchocolate y azúcar glas!\n{{reaction type=\"Joy\"}}¡Ja, ja!{{pause frames=\"5\"}} ¡Imagínate, me\nquedaría todo el día\nmordisqueando la almohada!",
      "EUfr": "{{reaction type=\"Love\"}}{{pause frames=\"10\"}}Je veux vivre dans une\nmaison en pain d'épice,{{pause frames=\"10\"}} mais\nsans sorcière, hein?\n{{resetReaction}}Les portes,{{pause frames=\"5\"}} les sols,{{pause frames=\"5\"}} même\nles meubles seraient en\npain d'épice!\n{{reaction type=\"Joy\"}}Oh oh!{{pause frames=\"5\"}} Tu parles!\nJe passerais ma journée au \nlit, à grignoter l'oreiller!",
      "EUit": "{{reaction type=\"Love\"}}{{pause frames=\"10\"}}Io vorrei vivere in una casa\ndi marzapane,{{pause frames=\"10\"}} ma senza\nstrega cattiva.\n{{resetReaction}}Le porte,{{pause frames=\"5\"}} il pavimento,{{pause frames=\"5\"}}\npersino i mobili sarebbero\nfatti di marzapane e glassa!\n{{reaction type=\"Joy\"}}Uh uh!{{pause frames=\"5\"}} Chi prendo in giro?\nStarei tutto il giorno a\nletto a mangiare il cuscino!",
      "JPja": "{{reaction type=\"Love\"}}{{pause frames=\"10\"}}ボクは　やっぱり\nおかしの　おうちに\nすみたいよぉ～、{{pause frames=\"10\"}}{{string value=\"Catchphrase\"}}\n{{resetReaction}}ドアも、{{pause frames=\"5\"}}ゆかも、{{pause frames=\"5\"}}{{kanjiReplace charNum=\"2\" value=\"かぐ\"}}家具も　\nぜ～んぶ　{{kanjiReplace charNum=\"1\" value=\"た\"}}食べられる\nワンダーな　おうち！\n{{reaction type=\"Joy\"}}ウフフ・{{pause frames=\"5\"}}・{{pause frames=\"5\"}}・{{pause frames=\"5\"}}\nボク、{{pause frames=\"5\"}}１{{kanjiReplace charNum=\"1\" value=\"にち\"}}日で　{{kanjiReplace charNum=\"1\" value=\"た\"}}食べつくせる　\nじしんが　あるよぉ！　{{pause frames=\"5\"}}{{string value=\"Catchphrase\"}}！",
      "KRko": "{{reaction type=\"Love\"}}{{pause frames=\"10\"}}나는 역시\n과자로 만든 집에서\n살고 싶어～ {{pause frames=\"10\"}}{{string value=\"Catchphrase\"}}～\n{{resetReaction}}문이랑 {{pause frames=\"5\"}}바닥이랑 {{pause frames=\"5\"}}가구랑\n전～부 먹을 수 있는\n원더풀한 집！！\n{{reaction type=\"Joy\"}}우후훗・{{pause frames=\"5\"}}・{{pause frames=\"5\"}}・{{pause frames=\"5\"}}\n나～ {{pause frames=\"5\"}}하루 안에 전부 먹을\n자신이 있어！ {{pause frames=\"5\"}}{{string value=\"Catchphrase\"}}！",
      "USen": "{{reaction type=\"Love\"}}{{pause frames=\"10\"}}I want to live in a\ngingerbread house,{{pause frames=\"10\"}} only\nwithout the scary witch.\n{{resetReaction}}The doors,{{pause frames=\"5\"}} the floors,{{pause frames=\"5\"}} even\nthe furniture would be made\nof gingerbread and icing!\n{{reaction type=\"Joy\"}}Huh huh!{{pause frames=\"5\"}} Who am I kidding?\nI'd just lie in bed all day,\ngnawing on my pillow!"
    }
  },
  {
    "label": "10",
    "attribute": "0x00000000FE000000",
    "locale": {
      "EUde": "{{reaction type=\"Amazed\"}}Echt?!?{{pause frames=\"20\"}} Oh.{{pause frames=\"5\"}}.{{pause frames=\"5\"}}.{{pause frames=\"5\"}} {{reaction type=\"Bashfulness\"}}Ich schätze,\nes ist, weil{{pause frames=\"10\"}} ich hier bin?\n\n{{reaction type=\"Glee\"}}Ich denke, du solltest hier\nher ziehen,{{pause frames=\"10\"}} {{string value=\"Catchphrase\"}}! Wir\nhätten so viel Spaß!",
      "EUen": "{{reaction type=\"Amazed\"}}Really?!{{pause frames=\"20\"}} Oh.{{pause frames=\"5\"}}.{{pause frames=\"5\"}}.{{pause frames=\"5\"}} {{reaction type=\"Bashfulness\"}}I guess it's\nbecause{{pause frames=\"10\"}} I'm here, isn't it?\n\n{{reaction type=\"Glee\"}}I think you should move\nhere,{{pause frames=\"10\"}} {{string value=\"Catchphrase\"}}! We'd\nhave such a blast!",
      "EUes": "{{reaction type=\"Amazed\"}}¡¿En serio?!{{pause frames=\"20\"}} Ah.{{pause frames=\"5\"}}.{{pause frames=\"5\"}}.{{pause frames=\"5\"}} {{reaction type=\"Bashfulness\"}}Supongo\nque porque{{pause frames=\"10\"}} yo vivo\nen él, ¿no?\n{{reaction type=\"Glee\"}}¿Por qué no te vienes a\nvivir aquí,{{pause frames=\"10\"}} {{string value=\"Catchphrase\"}}?\n¡Nos lo pasaremos bomba!",
      "EUfr": "{{reaction type=\"Amazed\"}}Vraiment?!{{pause frames=\"20\"}} Oh.{{pause frames=\"5\"}}.{{pause frames=\"5\"}}.{{pause frames=\"5\"}} {{reaction type=\"Bashfulness\"}}C'est\ngrâce à{{pause frames=\"10\"}} ma présence, non?\n\n{{reaction type=\"Glee\"}}Tu devrais t'installer ici,\n{{pause frames=\"10\"}}{{string value=\"Catchphrase\"}}! Ce serait\nvraiment la fête!",
      "EUit": "{{reaction type=\"Amazed\"}}Davvero?!{{pause frames=\"20\"}} Oh.{{pause frames=\"5\"}}.{{pause frames=\"5\"}}.{{pause frames=\"5\"}} {{reaction type=\"Bashfulness\"}}È perché\n{{pause frames=\"10\"}}ci sono io, non è vero?\n\n{{reaction type=\"Glee\"}}Forse dovresti trasferirti\nqui,{{pause frames=\"10\"}} {{string value=\"Catchphrase\"}}! Ci\ndivertiremmo un mondo!",
      "JPja": "{{reaction type=\"Amazed\"}}ホント！？{{pause frames=\"20\"}}\n・{{pause frames=\"5\"}}・{{pause frames=\"5\"}}・{{pause frames=\"5\"}}{{reaction type=\"Bashfulness\"}}やっぱり\n{{pause frames=\"10\"}}ボクが　いるからなぁ～\n{{reaction type=\"Glee\"}}キミも　この{{kanjiReplace charNum=\"1\" value=\"むら\"}}村に\n{{kanjiReplace charNum=\"1\" value=\"ひ\"}}引っこしてくると\nいいかもねぇ～、{{pause frames=\"10\"}}{{string value=\"Catchphrase\"}}！",
      "KRko": "{{reaction type=\"Amazed\"}}정말！？{{pause frames=\"20\"}}\n・{{pause frames=\"5\"}}・{{pause frames=\"5\"}}・{{pause frames=\"5\"}}{{reaction type=\"Bashfulness\"}}역시\n{{pause frames=\"10\"}}내가 있어서 그렇구나～\n{{reaction type=\"Glee\"}}너도 이 마을로\n이사 와～\n{{pause frames=\"10\"}}{{string value=\"Catchphrase\"}}～",
      "USen": "{{reaction type=\"Amazed\"}}Really?!{{pause frames=\"20\"}} Oh.{{pause frames=\"5\"}}.{{pause frames=\"5\"}}.{{pause frames=\"5\"}} {{reaction type=\"Bashfulness\"}}I guess it's\nbecause{{pause frames=\"10\"}} I'm here, isn't it?\n\n{{reaction type=\"Glee\"}}I think you should move\nhere,{{pause frames=\"10\"}} {{string value=\"Catchphrase\"}}! We'd\nhave such a blast!"
    }
  },
  {
    "label": "11",
    "attribute": "0x00000000FE000000",
    "locale": {
      "EUde": "{{reaction type=\"Thought\"}}{{pause frames=\"10\"}}Hm.{{pause frames=\"10\"}} Das kommt wohl daher,\ndass wir so isoliert von \nanderen Städten liegen.\n{{reaction type=\"Worry\"}}Wir müssen uns anstrengen{{pause frames=\"10\"}}, \num zu zeigen, warum diese \nStadt so toll ist...{{fun_03 arg=\"0x01\"}}",
      "EUen": "{{reaction type=\"Thought\"}}{{pause frames=\"10\"}}Hmm.{{pause frames=\"10\"}} It must be because\nwe're kind of isolated from\nother towns, huh.\n{{reaction type=\"Worry\"}}We need to do a better job{{pause frames=\"10\"}}\nshowing off what makes\nthis town so fun...{{fun_03 arg=\"0x01\"}}",
      "EUes": "{{reaction type=\"Thought\"}}{{pause frames=\"10\"}}Mmm.{{pause frames=\"10\"}} Imagino que es porque\nestamos un poco aislados.\n\n{{reaction type=\"Worry\"}}Tendremos que mejorar{{pause frames=\"10\"}}\nla imagen que damos al\nexterior...{{fun_03 arg=\"0x01\"}}",
      "EUfr": "{{reaction type=\"Thought\"}}{{pause frames=\"10\"}}Hmm.{{pause frames=\"10\"}} C'est peut-être parce\nque nous sommes\nà l'écart des autres villes.\n{{reaction type=\"Worry\"}}Nous devons tout faire{{pause frames=\"10\"}}\npour mettre en avant les\nqualités de notre ville...{{fun_03 arg=\"0x01\"}}",
      "EUit": "{{reaction type=\"Thought\"}}{{pause frames=\"10\"}}Uhm.{{pause frames=\"10\"}} Forse è perché la\nnostra città è un po'\nisolata rispetto alle altre.\n{{reaction type=\"Worry\"}}Dobbiamo impegnarci di più{{pause frames=\"10\"}}\ne far vedere a tutti quanto\nè bella la nostra città...{{fun_03 arg=\"0x01\"}}",
      "JPja": "{{reaction type=\"Thought\"}}{{pause frames=\"10\"}}う～ん、{{pause frames=\"10\"}}\nほかの{{kanjiReplace charNum=\"1\" value=\"むら\"}}村と　あんまり\nこうりゅうが　ないからねぇ\n{{reaction type=\"Worry\"}}この{{kanjiReplace charNum=\"1\" value=\"むら\"}}村の　{{kanjiReplace charNum=\"1\" value=\"たの\"}}楽しいところが{{pause frames=\"10\"}}\nおつたえ　できなくって\nざんねんだよぉ～、{{pause frames=\"10\"}}{{string value=\"Catchphrase\"}}{{fun_03 arg=\"0x01\"}}",
      "KRko": "{{reaction type=\"Thought\"}}{{pause frames=\"10\"}}우～웅{{pause frames=\"10\"}}\n다른 마을이랑은 별로\n교류가 없어서 그런가～？！\n{{reaction type=\"Worry\"}}이 마을이 얼마나 재밌는지{{pause frames=\"10\"}}\n얘기해 주지 못해서\n안타까워～ {{pause frames=\"10\"}}{{string value=\"Catchphrase\"}}～{{fun_03 arg=\"0x0100\"}}",
      "USen": "{{reaction type=\"Thought\"}}{{pause frames=\"10\"}}Hmm.{{pause frames=\"10\"}} It must be because\nwe're kind of isolated from\nother towns, huh.\n{{reaction type=\"Worry\"}}We need to do a better job{{pause frames=\"10\"}}\nshowing off what makes\nthis town so fun...{{fun_03 arg=\"0x01\"}}"
    }
  },
  {
    "label": "12",
    "attribute": "0x00000000FE000000",
    "locale": {
      "EUde": "{{reaction type=\"Shocked\"}}{{pause frames=\"20\"}}WAS?!?{{pause frames=\"20\"}} Was soll das heißen,{{pause frames=\"5\"}}\n{{string value=\"Catchphrase\"}}? Wie kann das\nsein?\n{{reaction type=\"Distress\"}}A{{pause frames=\"5\"}}-aber das ist so eine\ntolle Stadt! Du kannst nicht\nNICHT über uns nachdenken!",
      "EUen": "{{reaction type=\"Shocked\"}}{{pause frames=\"20\"}}WHAT?!{{pause frames=\"20\"}} What do you mean,{{pause frames=\"5\"}}\n{{string value=\"Catchphrase\"}}?! How can that\nbe?!\n{{reaction type=\"Distress\"}}B{{pause frames=\"5\"}}-but this is such a fun\ntown! You can't just NOT\nthink about us!",
      "EUes": "{{reaction type=\"Shocked\"}}{{pause frames=\"20\"}}¡¿QUÉ?!{{pause frames=\"20\"}} ¡¿Qué has querido\ndecir con eso,{{pause frames=\"5\"}} {{string value=\"Catchphrase\"}}?!\n¡No puede ser!\n{{reaction type=\"Distress\"}}¡C{{pause frames=\"5\"}}... con lo interesante\nque es nuestro pueblo!\n¡Cómo podéis NO opinar!",
      "EUfr": "{{reaction type=\"Shocked\"}}{{pause frames=\"20\"}}QUOI?!{{pause frames=\"20\"}} Comment ça,{{pause frames=\"5\"}}\n{{string value=\"Catchphrase\"}}?! Qu'est-ce que\ntu racontes?!\n{{reaction type=\"Distress\"}}M{{pause frames=\"5\"}}-mais on s'y amuse \ntellement! Vous devez bien\npenser à nous, des fois?!",
      "EUit": "{{reaction type=\"Shocked\"}}{{pause frames=\"20\"}}COSA?!{{pause frames=\"20\"}} Che cosa vuoi dire,{{pause frames=\"5\"}}\n{{string value=\"Catchphrase\"}}?! Com'è\npossibile?!\n{{reaction type=\"Distress\"}}M{{pause frames=\"5\"}}-ma questa città è così\ndivertente! Non potete NON\navere un'opinione su di noi!",
      "JPja": "{{reaction type=\"Shocked\"}}{{pause frames=\"20\"}}エッ！{{pause frames=\"20\"}}\nそうなの！？　{{pause frames=\"5\"}}{{string value=\"Catchphrase\"}}！？\n\n{{reaction type=\"Distress\"}}ボ、{{pause frames=\"5\"}}ボクは\n{{kanjiReplace charNum=\"1\" value=\"たの\"}}楽しい{{kanjiReplace charNum=\"1\" value=\"むら\"}}村だと\n{{kanjiReplace charNum=\"1\" value=\"おも\"}}思うけどなぁ・{{pause frames=\"5\"}}・{{pause frames=\"5\"}}・{{pause frames=\"5\"}}{{string value=\"Catchphrase\"}}",
      "KRko": "{{reaction type=\"Shocked\"}}{{pause frames=\"20\"}}어！？{{pause frames=\"20\"}}\n정말？！ {{pause frames=\"5\"}}{{string value=\"Catchphrase\"}}？！\n\n{{reaction type=\"Distress\"}}나， {{pause frames=\"5\"}}난\n재미있는 마을이라고 생각하는데\n・{{pause frames=\"5\"}}・{{pause frames=\"5\"}}・{{pause frames=\"5\"}}{{string value=\"Catchphrase\"}}！",
      "USen": "{{reaction type=\"Shocked\"}}{{pause frames=\"20\"}}WHAT?!{{pause frames=\"20\"}} What do you mean,{{pause frames=\"5\"}}\n{{string value=\"Catchphrase\"}}?! How can that\nbe?!\n{{reaction type=\"Distress\"}}B{{pause frames=\"5\"}}-but this is such a fun\ntown! You can't just NOT\nthink about us!"
    }
  }
]