[
  {
    "label": "00",
    "attribute": "0x00000000FF000000",
    "locale": {
      "EUde": "{{reaction type=\"Happiness\"}}Wenn du beim {{color id=\"8\"}}Rathaus {{color id=\"0\"}}rum-\nläufst,{{pause frames=\"10\"}} triffst du viele\ninteressante Leute.\n{{fun_06 arg=\"0x0F101112\"}}",
      "EUen": "{{reaction type=\"Happiness\"}}If you hang out by the {{color id=\"8\"}}town\nhall{{color id=\"0\"}},{{pause frames=\"10\"}} you'll see all sorts\nof interesting people.\n{{fun_06 arg=\"0x0F101112\"}}",
      "EUes": "{{reaction type=\"Happiness\"}}Si te pasas por el\n{{color id=\"8\"}}ayuntamiento{{color id=\"0\"}},{{pause frames=\"10\"}} conocerás a\ngente muy interesante.\n{{fun_06 arg=\"0x0F101112\"}}",
      "EUfr": "{{reaction type=\"Happiness\"}}Si tu te promènes près de\nla {{color id=\"8\"}}mairie{{color id=\"0\"}},{{pause frames=\"10\"}} tu croiseras des\ngens intéressants.\n{{fun_06 arg=\"0x0F101112\"}}",
      "EUit": "{{reaction type=\"Happiness\"}}In {{color id=\"8\"}}municipio{{color id=\"0\"}}{{pause frames=\"10\"}} ci va un\nsacco di gente\ninteressante.\n{{fun_06 arg=\"0x0F101112\"}}",
      "JPja": "{{color id=\"8\"}}{{reaction type=\"Happiness\"}}やくば{{color id=\"0\"}}の{{kanjiReplace charNum=\"1\" value=\"ちか\"}}近くを\nうろついてると、{{pause frames=\"10\"}}\nいろんなひとを　{{kanjiReplace charNum=\"1\" value=\"み\"}}見かけるよぉ\n{{fun_06 arg=\"0x0F101112\"}}",
      "KRko": "{{color id=\"8\"}}{{reaction type=\"Happiness\"}}마을사무소{{color id=\"0\"}} 주변을 서성거리면{{pause frames=\"10\"}}\n사람 구경 하나는\n제대로 할 수 있어～\n{{fun_06 arg=\"0x0F101112\"}}",
      "USen": "{{reaction type=\"Happiness\"}}If you hang out by the {{color id=\"8\"}}town\nhall{{color id=\"0\"}},{{pause frames=\"10\"}} you'll see all sorts\nof interesting people.\n{{fun_06 arg=\"0x0F101112\"}}"
    }
  },
  {
    "label": "01",
    "attribute": "0x00000000FF000000",
    "locale": {
      "EUde": "{{reaction type=\"Worry\"}}Ist dir aufgefallen, wie{{pause frames=\"10\"}}\nmüde {{color id=\"6\"}}Peter{{color id=\"0\"}}, der Postbote,\nin letzter Zeit ist?\n{{fun_06 arg=\"0x1314\"}}",
      "EUen": "{{reaction type=\"Worry\"}}Have you noticed how{{pause frames=\"10\"}} tired\n{{color id=\"6\"}}Pete{{color id=\"0\"}}, the mail guy, has\nseemed lately?\n{{fun_06 arg=\"0x1314\"}}",
      "EUes": "{{reaction type=\"Worry\"}}¿Te has percatado{{pause frames=\"10\"}} de lo\nestresado que anda {{color id=\"6\"}}Carturo{{color id=\"0\"}},\nel cartero?\n{{fun_06 arg=\"0x1314\"}}",
      "EUfr": "{{reaction type=\"Worry\"}}Tu ne trouves pas{{pause frames=\"10\"}}\nqu'{{color id=\"6\"}}Antoine{{color id=\"0\"}}, le postier, a\nl'air fatigué en ce moment?\n{{fun_06 arg=\"0x1314\"}}",
      "EUit": "{{reaction type=\"Worry\"}}Hai notato che aspetto{{pause frames=\"10\"}}\nstanco ha {{color id=\"6\"}}Tino{{color id=\"0\"}}, il postino,\nultimamente?\n{{fun_06 arg=\"0x1314\"}}",
      "JPja": "{{reaction type=\"Worry\"}}ゆうびんはいたつの　{{color id=\"6\"}}ぺりお{{color id=\"0\"}}くん、{{pause frames=\"10\"}}\nなんだか　さいきん\nつかれてるよねぇ～？\n{{fun_06 arg=\"0x1314\"}}",
      "KRko": "{{reaction type=\"Worry\"}}우편배달부 {{color id=\"6\"}}펠리오 {{color id=\"0\"}}아저씨{{pause frames=\"10\"}}\n요새 많이\n피곤해 보이더라～！！\n{{fun_06 arg=\"0x1314\"}}",
      "USen": "{{reaction type=\"Worry\"}}Have you noticed how{{pause frames=\"10\"}} tired\n{{color id=\"6\"}}Pete{{color id=\"0\"}}, the mail guy, has\nseemed lately?\n{{fun_06 arg=\"0x1314\"}}"
    }
  },
  {
    "label": "02",
    "attribute": "0x00000000FE000000",
    "locale": {
      "EUde": "{{reaction type=\"Happiness\"}}Diese große Recyclingtonne\nim {{color id=\"8\"}}Rathaus{{color id=\"0\"}}{{pause frames=\"5\"}} ist wie eine\ngigantische Schatztruhe.\n{{reaction type=\"Love\"}}{{pause frames=\"10\"}}Ich verknüpfe eine Menge\nErinnerungen mit diesem\nDing{{pause frames=\"5\"}}.{{pause frames=\"5\"}}.{{pause frames=\"5\"}}.{{pause frames=\"10\"}}{{string value=\"Catchphrase\"}}.",
      "EUen": "{{reaction type=\"Happiness\"}}That huge recycling bin in\nthe {{color id=\"8\"}}town hall{{color id=\"0\"}}{{pause frames=\"5\"}} is like a\ngiant treasure chest.\n{{reaction type=\"Love\"}}{{pause frames=\"10\"}}I've gotten a lot of\nmemories out of that\nthing{{pause frames=\"5\"}}.{{pause frames=\"5\"}}.{{pause frames=\"5\"}}.{{pause frames=\"10\"}}{{string value=\"Catchphrase\"}}.",
      "EUes": "{{reaction type=\"Happiness\"}}Ese contenedor de reciclado\nque hay en el {{color id=\"8\"}}ayuntamiento{{color id=\"0\"}}{{pause frames=\"5\"}}\nes como un cofre.\n{{reaction type=\"Love\"}}{{pause frames=\"10\"}}No veas la de tesoros que\nhe podido sacar de esa\ncosa{{pause frames=\"5\"}}.{{pause frames=\"5\"}}.{{pause frames=\"5\"}}.{{pause frames=\"10\"}} {{capitalizeLetter}}{{string value=\"Catchphrase\"}}.",
      "EUfr": "{{reaction type=\"Happiness\"}}Cette énorme poubelle\nà la {{color id=\"8\"}}mairie{{color id=\"0\"}}{{pause frames=\"5\"}} est\nun coffre à trésors géant.\n{{reaction type=\"Love\"}}{{pause frames=\"10\"}}J'y ai trouvé\nun bon nombre de choses\nintéressantes,{{pause frames=\"10\"}} {{string value=\"Catchphrase\"}}.",
      "EUit": "{{reaction type=\"Happiness\"}}Quel bidone dell'immondizia\nche c'è nel {{color id=\"8\"}}municipio{{color id=\"0\"}}{{pause frames=\"5\"}}\nè come un grosso forziere.\n{{reaction type=\"Love\"}}{{pause frames=\"10\"}}Ho trovato un sacco di cose\ninteressanti là dentro{{pause frames=\"5\"}}.{{pause frames=\"5\"}}.{{pause frames=\"5\"}}.\n{{pause frames=\"10\"}}{{string value=\"Catchphrase\"}}.",
      "JPja": "{{color id=\"8\"}}{{resetReaction}}やくば{{color id=\"0\"}}の　{{kanjiReplace charNum=\"1\" value=\"なか\"}}中にある\nでっかい　ゴミばこって、{{pause frames=\"5\"}}\nまるで　たからばこなんだぁ！\n{{reaction type=\"Glee\"}}{{pause frames=\"10\"}}ボクは　あそこで\nいろんな　{{kanjiReplace charNum=\"1\" value=\"おも\"}}思い{{kanjiReplace charNum=\"1\" value=\"で\"}}出を\n{{kanjiReplace charNum=\"1\" value=\"て\"}}手に{{kanjiReplace charNum=\"1\" value=\"い\"}}入れたよぉ～{{pause frames=\"5\"}}・{{pause frames=\"5\"}}・{{pause frames=\"5\"}}・{{pause frames=\"10\"}}{{string value=\"Catchphrase\"}}",
      "KRko": "{{color id=\"8\"}}{{reaction type=\"Happiness\"}}마을사무소 {{color id=\"0\"}}안에 있는\n커다란 쓰레기통 말이야{{pause frames=\"5\"}}\n완전히 보물 상자더라아～\n{{reaction type=\"Love\"}}{{pause frames=\"10\"}}난 거기서\n많은 추억을 얻었어！！\n{{pause frames=\"5\"}}・{{pause frames=\"5\"}}・{{pause frames=\"5\"}}・{{pause frames=\"10\"}}{{string value=\"Catchphrase\"}}！！",
      "USen": "{{reaction type=\"Happiness\"}}That huge recycling bin in\nthe {{color id=\"8\"}}town hall{{color id=\"0\"}}{{pause frames=\"5\"}} is like a\ngiant treasure chest.\n{{reaction type=\"Love\"}}{{pause frames=\"10\"}}I've gotten a lot of\nmemories out of that\nthing{{pause frames=\"5\"}}.{{pause frames=\"5\"}}.{{pause frames=\"5\"}}.{{pause frames=\"10\"}}{{string value=\"Catchphrase\"}}."
    }
  },
  {
    "label": "03",
    "attribute": "0x00000000FF000000",
    "locale": {
      "EUde": "{{fun_06 arg=\"0x151617\"}}",
      "EUen": "{{fun_06 arg=\"0x151617\"}}",
      "EUes": "{{fun_06 arg=\"0x151617\"}}",
      "EUfr": "{{fun_06 arg=\"0x151617\"}}",
      "EUit": "{{fun_06 arg=\"0x151617\"}}",
      "JPja": "{{fun_06 arg=\"0x151617\"}}",
      "KRko": "{{fun_06 arg=\"0x15161700\"}}",
      "USen": "{{fun_06 arg=\"0x151617\"}}"
    }
  },
  {
    "label": "04",
    "attribute": "0x00000000FF000000",
    "locale": {
      "EUde": "Hey, {{string value=\"PlayerNickname\"}}!{{pause frames=\"15\"}} {{reaction type=\"Curiosity\"}}{{pause frames=\"5\"}}Hast du\nschon {{color id=\"6\"}}Nepp {{color id=\"0\"}}und {{color id=\"6\"}}Schlepp\n{{color id=\"0\"}}getroffen? {{fun_02 arg=\"0x1819\"}}\nOh, ja!\nWen?",
      "EUen": "Hey, {{string value=\"PlayerNickname\"}}!{{pause frames=\"15\"}} {{reaction type=\"Curiosity\"}}{{pause frames=\"5\"}}Have you\never met {{color id=\"6\"}}Timmy {{color id=\"0\"}}and {{color id=\"6\"}}Tommy{{color id=\"0\"}}?\n{{fun_02 arg=\"0x1819\"}}\nOh, yeah!\nWho are they?",
      "EUes": "¡Eh, {{string value=\"PlayerNickname\"}}!{{pause frames=\"15\"}} {{reaction type=\"Curiosity\"}}{{pause frames=\"5\"}}¿Conoces a\n{{color id=\"6\"}}Tendo {{color id=\"0\"}}y {{color id=\"6\"}}Nendo{{color id=\"0\"}}?{{fun_02 arg=\"0x1819\"}}\n¡Pues claro!\n¿Quiénes son?",
      "EUfr": "Hé, {{string value=\"PlayerNickname\"}}!{{pause frames=\"15\"}} {{reaction type=\"Curiosity\"}}{{pause frames=\"5\"}}Tu as déjà\nvu {{color id=\"6\"}}Méli {{color id=\"0\"}}et {{color id=\"6\"}}Mélo{{color id=\"0\"}}?\n{{fun_02 arg=\"0x1819\"}}\nBien sûr!\nQui est-ce?",
      "EUit": "Ehi, {{string value=\"PlayerNickname\"}}!{{pause frames=\"15\"}} {{reaction type=\"Curiosity\"}}{{pause frames=\"5\"}}Conosci\n{{color id=\"6\"}}Mirco {{color id=\"0\"}}e {{color id=\"6\"}}Marco{{color id=\"0\"}}?\n{{fun_02 arg=\"0x1819\"}}\nOh, sì!\nChi sono?",
      "JPja": "ねぇ　{{string value=\"PlayerNickname\"}}くん！{{pause frames=\"15\"}}\n{{reaction type=\"Curiosity\"}}{{pause frames=\"5\"}}{{color id=\"6\"}}つぶきち{{color id=\"0\"}}くんと　{{color id=\"6\"}}まめきち{{color id=\"0\"}}くんに\n{{kanjiReplace charNum=\"1\" value=\"あ\"}}会ったコトあるぅ～？{{fun_02 arg=\"0x1819\"}}\nあるあるー！\nだれなの、それ？",
      "KRko": "저기， {{string value=\"PlayerNickname\"}}{{fun_0B arg=\"0x0400\"}}！！{{pause frames=\"15\"}}\n{{reaction type=\"Curiosity\"}}{{pause frames=\"5\"}}{{color id=\"6\"}}밤돌이{{color id=\"0\"}}랑 {{color id=\"6\"}}콩돌이{{color id=\"0\"}}\n만난 적 있어～？？{{fun_02 arg=\"0x1819\"}}\n그럼그럼～！！\n그게 누군데？？",
      "USen": "Hey, {{string value=\"PlayerNickname\"}}!{{pause frames=\"15\"}} {{reaction type=\"Curiosity\"}}{{pause frames=\"5\"}}Have you\never met {{color id=\"6\"}}Timmy {{color id=\"0\"}}and {{color id=\"6\"}}Tommy{{color id=\"0\"}}?\n{{fun_02 arg=\"0x1819\"}}\nOh, yeah!\nWho are they?"
    }
  },
  {
    "label": "05",
    "attribute": "0x00000000FE000000",
    "locale": {
      "EUde": "{{reaction type=\"Thought\"}}{{pause frames=\"10\"}}Denkst du, {{color id=\"6\"}}Tom Nook {{color id=\"0\"}}und\n{{color id=\"6\"}}Reiner{{color id=\"0\"}} sind Rivalen,\n{{pause frames=\"10\"}}{{string value=\"Catchphrase\"}}?\n{{reaction type=\"Glee\"}}Es wäre doch witzig, {{pause frames=\"10\"}}wenn\nsie zusammen einen Laden\neröffnen würden, oder?",
      "EUen": "{{reaction type=\"Thought\"}}{{pause frames=\"10\"}}So, do you think {{color id=\"6\"}}Tom Nook\n{{color id=\"0\"}}and {{color id=\"6\"}}Crazy Redd{{color id=\"0\"}} are rivals,\n{{pause frames=\"10\"}}{{string value=\"Catchphrase\"}}?\n{{reaction type=\"Glee\"}}It would be so much fun{{pause frames=\"10\"}} if\nthey opened a store\ntogether, don't you think?",
      "EUes": "{{reaction type=\"Thought\"}}{{pause frames=\"10\"}}¿Tú crees que {{color id=\"6\"}}Tom Nook {{color id=\"0\"}}y\n{{color id=\"6\"}}Ladino el Honrado{{color id=\"0\"}} se hacen\ncompetencia, {{pause frames=\"10\"}}{{string value=\"Catchphrase\"}}?\n{{reaction type=\"Glee\"}}Sería genial que{{pause frames=\"10\"}} abrieran\nuna tienda los dos juntos,\n¿no crees?",
      "EUfr": "{{reaction type=\"Thought\"}}{{pause frames=\"10\"}}Alors, tu crois que {{color id=\"6\"}}Tom \nNook {{color id=\"0\"}}et {{color id=\"6\"}}Rounard{{color id=\"0\"}} sont \nrivaux, {{pause frames=\"10\"}}{{string value=\"Catchphrase\"}}?\n{{reaction type=\"Glee\"}}Ça serait plutôt marrant{{pause frames=\"10\"}}\ns'ils ouvraient un magasin\nensemble, non?",
      "EUit": "{{reaction type=\"Thought\"}}{{pause frames=\"10\"}}Pensi che {{color id=\"6\"}}Tom Nook\n{{color id=\"0\"}}e {{color id=\"6\"}}Volpolo{{color id=\"0\"}} siano rivali,\n{{pause frames=\"10\"}}{{string value=\"Catchphrase\"}}?\n{{reaction type=\"Glee\"}}Sarebbe bellissimo{{pause frames=\"10\"}} se\naprissero un negozio\ninsieme, vero?",
      "JPja": "{{reaction type=\"Thought\"}}{{pause frames=\"10\"}}{{color id=\"6\"}}たぬきち{{color id=\"0\"}}くんと　{{color id=\"6\"}}つねきち{{color id=\"0\"}}くんって\nやっぱり　ライバルなのかなぁ～？\n{{pause frames=\"10\"}}{{string value=\"Catchphrase\"}}？\n{{reaction type=\"Glee\"}}いっしょに　お{{kanjiReplace charNum=\"1\" value=\"みせ\"}}店を\nひらいてくれたら、{{pause frames=\"10\"}}\n{{kanjiReplace charNum=\"1\" value=\"たの\"}}楽しいのにねぇ～、{{pause frames=\"10\"}}{{string value=\"Catchphrase\"}}",
      "KRko": "{{reaction type=\"Thought\"}}{{pause frames=\"10\"}}{{color id=\"6\"}}너굴 {{color id=\"0\"}}아저씨랑 {{color id=\"6\"}}여욱 {{color id=\"0\"}}아저씨는\n역시 라이벌일까아～？？\n{{pause frames=\"10\"}}{{string value=\"Catchphrase\"}}？？\n{{reaction type=\"Glee\"}}둘이 같이\n가게를 내도{{pause frames=\"10\"}}\n재밌었을 텐데～ {{pause frames=\"10\"}}{{string value=\"Catchphrase\"}}",
      "USen": "{{reaction type=\"Thought\"}}{{pause frames=\"10\"}}So, do you think {{color id=\"6\"}}Tom Nook\n{{color id=\"0\"}}and {{color id=\"6\"}}Crazy Redd{{color id=\"0\"}} are rivals,\n{{pause frames=\"10\"}}{{string value=\"Catchphrase\"}}?\n{{reaction type=\"Glee\"}}It would be so much fun{{pause frames=\"10\"}} if\nthey opened a store\ntogether, don't you think?"
    }
  },
  {
    "label": "06",
    "attribute": "0x00000000FE000000",
    "locale": {
      "EUde": "{{reaction type=\"Thought\"}}{{pause frames=\"10\"}}Also{{pause frames=\"5\"}}.{{pause frames=\"5\"}}.{{pause frames=\"5\"}}.{{pause frames=\"10\"}} wie alt, meinst du,\nist {{color id=\"6\"}}Eugen{{color id=\"0\"}}?\n\n{{resetReaction}}Die Tatsache, dass er einen\nHochschulabschluss hat...{{pause frames=\"10\"}}\n\n...könnte bedeuten, dass er\n{{pause frames=\"5\"}}immer noch jung ist{{pause frames=\"5\"}}.{{pause frames=\"5\"}}.{{pause frames=\"5\"}}. \n\n{{reaction type=\"Agreement\"}}Aber er ist auch würdevoll\nund zugeknöpft, es ist\nschwer zu sagen.\n\n{{pause frames=\"10\"}}{{capitalizeLetter}}{{string value=\"Catchphrase\"}}!{{resetReaction}}",
      "EUen": "{{reaction type=\"Thought\"}}{{pause frames=\"10\"}}So{{pause frames=\"5\"}}.{{pause frames=\"5\"}}.{{pause frames=\"5\"}}.{{pause frames=\"10\"}}just how old do you\nthink {{color id=\"6\"}}Blathers{{color id=\"0\"}} is?\n\n{{resetReaction}}The fact that he graduated\nfrom college{{pause frames=\"10\"}} means he\nshould still be{{pause frames=\"5\"}} young{{pause frames=\"5\"}}.{{pause frames=\"5\"}}.{{pause frames=\"5\"}}.\n{{reaction type=\"Agreement\"}}But he's so dignified and\nbuttoned-up, it's really\nhard to say, {{pause frames=\"10\"}}{{string value=\"Catchphrase\"}}!{{resetReaction}}",
      "EUes": "{{reaction type=\"Thought\"}}{{pause frames=\"10\"}}Mm{{pause frames=\"5\"}}.{{pause frames=\"5\"}}.{{pause frames=\"5\"}}.{{pause frames=\"10\"}} ¿Cuántos años le\nechas a {{color id=\"6\"}}Sócrates{{color id=\"0\"}}?\n\n{{resetReaction}}Si acaba de sacarse la\ncarrera,{{pause frames=\"10\"}} yo diría que es{{pause frames=\"5\"}}\njoven{{pause frames=\"5\"}}.{{pause frames=\"5\"}}.{{pause frames=\"5\"}}.\n{{reaction type=\"Agreement\"}}Pero con lo serio y\nestirado que es, ¡no sabría\ndecirlo, {{pause frames=\"10\"}}{{string value=\"Catchphrase\"}}!{{resetReaction}}",
      "EUfr": "{{reaction type=\"Thought\"}}{{pause frames=\"10\"}}Alors{{pause frames=\"5\"}}.{{pause frames=\"5\"}}.{{pause frames=\"5\"}}.{{pause frames=\"10\"}} quel âge a\n{{color id=\"6\"}}Thibou{{color id=\"0\"}} à ton avis?\n\n{{resetReaction}}Il vient juste de finir\nl'université,{{pause frames=\"10\"}} ce qui veut\ndire qu'il est{{pause frames=\"5\"}} jeune{{pause frames=\"5\"}}.{{pause frames=\"5\"}}.{{pause frames=\"5\"}}.\n{{reaction type=\"Agreement\"}}Mais il est tellement digne\net collet monté que c'est\ndur à dire, {{pause frames=\"10\"}}{{string value=\"Catchphrase\"}}!{{resetReaction}}",
      "EUit": "{{reaction type=\"Thought\"}}{{pause frames=\"10\"}}Senti{{pause frames=\"5\"}}.{{pause frames=\"5\"}}.{{pause frames=\"5\"}}.{{pause frames=\"10\"}} quanti anni pensi\nche abbia {{color id=\"6\"}}Blatero{{color id=\"0\"}}?\n\n{{resetReaction}}Visto che si è laureato{{pause frames=\"10\"}}\nda poco dovrebbe essere\nancora{{pause frames=\"5\"}} giovane{{pause frames=\"5\"}}.{{pause frames=\"5\"}}.{{pause frames=\"5\"}}.\n{{reaction type=\"Agreement\"}}Ma è così serio e\ncompito che è difficile\ndirlo, {{pause frames=\"10\"}}{{string value=\"Catchphrase\"}}!{{resetReaction}}",
      "JPja": "{{reaction type=\"Thought\"}}{{pause frames=\"10\"}}う～ん{{pause frames=\"5\"}}・{{pause frames=\"5\"}}・{{pause frames=\"5\"}}・{{pause frames=\"10\"}}\n{{color id=\"6\"}}フータ{{color id=\"0\"}}くんって\nいったい　{{kanjiReplace charNum=\"2\" value=\"なんさい\"}}何才なのかな～？\n{{resetReaction}}{{kanjiReplace charNum=\"2\" value=\"だいがく\"}}大学　{{kanjiReplace charNum=\"1\" value=\"で\"}}出たてっていうから、{{pause frames=\"10\"}}\nまだすごい{{pause frames=\"5\"}}\nわかいはずだけど{{pause frames=\"5\"}}・{{pause frames=\"5\"}}・{{pause frames=\"5\"}}・\n{{reaction type=\"Agreement\"}}{{kanjiReplace charNum=\"1\" value=\"すく\"}}少なくとも\nボクの　お{{kanjiReplace charNum=\"1\" value=\"とう\"}}父さんよりは\nカンロクあるよぉ～、{{pause frames=\"10\"}}{{string value=\"Catchphrase\"}}！{{resetReaction}}",
      "KRko": "{{reaction type=\"Thought\"}}{{pause frames=\"10\"}}우～웅{{pause frames=\"5\"}}・{{pause frames=\"5\"}}・{{pause frames=\"5\"}}・{{pause frames=\"10\"}}\n{{color id=\"6\"}}부엉 {{color id=\"0\"}}아저씨는\n대체 몇 살일까아～？？\n{{resetReaction}}대학을 갓 졸업했다니까{{pause frames=\"10\"}}\n아직은{{pause frames=\"5\"}}\n젊을 텐데에{{pause frames=\"5\"}}・{{pause frames=\"5\"}}・{{pause frames=\"5\"}}・\n{{reaction type=\"Agreement\"}}그냥 보기에는\n울 아빠보다도\n관록이 있어 보여～ {{pause frames=\"10\"}}{{string value=\"Catchphrase\"}}{{resetReaction}}",
      "USen": "{{reaction type=\"Thought\"}}{{pause frames=\"10\"}}So{{pause frames=\"5\"}}.{{pause frames=\"5\"}}.{{pause frames=\"5\"}}.{{pause frames=\"10\"}}just how old do you\nthink {{color id=\"6\"}}Blathers{{color id=\"0\"}} is?\n\n{{resetReaction}}The fact that he graduated\nfrom college{{pause frames=\"10\"}} means he\nshould still be{{pause frames=\"5\"}} young{{pause frames=\"5\"}}.{{pause frames=\"5\"}}.{{pause frames=\"5\"}}.\n{{reaction type=\"Agreement\"}}But he's so dignified and\nbuttoned-up, it's really\nhard to say, {{pause frames=\"10\"}}{{string value=\"Catchphrase\"}}!{{resetReaction}}"
    }
  },
  {
    "label": "07",
    "attribute": "0x00000000FE000000",
    "locale": {
      "EUde": "{{resetReaction}}Wenn ich ins {{color id=\"8\"}}Museum{{color id=\"0\"}} gehe,\n{{pause frames=\"10\"}}sehe ich immer {{color id=\"6\"}}Eugen{{color id=\"0\"}} und\n{{color id=\"6\"}}Eufemia{{color id=\"0\"}}{{pause frames=\"5\"}}.{{pause frames=\"5\"}}.{{pause frames=\"5\"}}. \n{{reaction type=\"Happiness\"}}Die zwei sehen sich so\nähnlich, es ist verrückt.\n\n{{reaction type=\"Fearful\"}}{{pause frames=\"10\"}}Gene können manchmal echt\n{{pause frames=\"10\"}}erschreckend sein,\n{{pause frames=\"5\"}}{{string value=\"Catchphrase\"}}.",
      "EUen": "{{resetReaction}}When I go to the {{color id=\"8\"}}museum{{color id=\"0\"}},{{pause frames=\"10\"}} I\nalways see {{color id=\"6\"}}Blathers{{color id=\"0\"}} and\n{{color id=\"6\"}}Celeste{{color id=\"0\"}}{{pause frames=\"5\"}}.{{pause frames=\"5\"}}.{{pause frames=\"5\"}}.\n{{reaction type=\"Happiness\"}}The two of them look so\nmuch alike, it's crazy.\n\n{{reaction type=\"Fearful\"}}{{pause frames=\"10\"}}Genes are really{{pause frames=\"10\"}} scary\nsometimes, {{pause frames=\"5\"}}{{string value=\"Catchphrase\"}}.",
      "EUes": "{{resetReaction}}Siempre que voy al {{color id=\"8\"}}museo{{color id=\"0\"}},{{pause frames=\"10\"}}\nme quedo pensativo con\n{{color id=\"6\"}}Sócrates{{color id=\"0\"}} y {{color id=\"6\"}}Estela{{color id=\"0\"}}{{pause frames=\"5\"}}.{{pause frames=\"5\"}}.{{pause frames=\"5\"}}.\n{{reaction type=\"Happiness\"}}Tienen un parecido\nasombroso.\n\n{{reaction type=\"Fearful\"}}{{pause frames=\"10\"}}Esto de los genes{{pause frames=\"10\"}} llega a\nser aterrador, {{pause frames=\"5\"}}{{string value=\"Catchphrase\"}}.",
      "EUfr": "{{resetReaction}}Quand je me rends au \n{{color id=\"8\"}}musée{{color id=\"0\"}},{{pause frames=\"10\"}} je croise toujours\n{{color id=\"6\"}}Thibou{{color id=\"0\"}} et {{color id=\"6\"}}Céleste{{color id=\"0\"}}{{pause frames=\"5\"}}.{{pause frames=\"5\"}}.{{pause frames=\"5\"}}.\n{{reaction type=\"Happiness\"}}Ils se ressemblent\ntellement, c'est fou.\n\n{{reaction type=\"Fearful\"}}{{pause frames=\"10\"}}Les gènes sont parfois{{pause frames=\"10\"}}\neffrayants, {{pause frames=\"5\"}}{{string value=\"Catchphrase\"}}.",
      "EUit": "{{resetReaction}}Quando vado al {{color id=\"8\"}}museo{{color id=\"0\"}},{{pause frames=\"10\"}} parlo\nsempre con {{color id=\"6\"}}Blatero{{color id=\"0\"}} e\n{{color id=\"6\"}}Celeste{{color id=\"0\"}}{{pause frames=\"5\"}}.{{pause frames=\"5\"}}.{{pause frames=\"5\"}}.\n{{reaction type=\"Happiness\"}}Si somigliano così\ntanto da far impressione.\n\n{{reaction type=\"Fearful\"}}{{pause frames=\"10\"}}Il DNA{{pause frames=\"10\"}} fa paura\na volte, {{pause frames=\"5\"}}{{string value=\"Catchphrase\"}}.",
      "JPja": "{{color id=\"8\"}}{{resetReaction}}はくぶつかん{{color id=\"0\"}}といえば、{{pause frames=\"10\"}}\n{{color id=\"6\"}}フータ{{color id=\"0\"}}くんと\n{{color id=\"6\"}}フーコ{{color id=\"0\"}}くんだけど{{pause frames=\"5\"}}・{{pause frames=\"5\"}}・{{pause frames=\"5\"}}・\n{{reaction type=\"Happiness\"}}あの{{kanjiReplace charNum=\"2\" value=\"ふたり\"}}二人、{{pause frames=\"5\"}}ホント\nそっくりだよねぇ～、{{pause frames=\"10\"}}{{string value=\"Catchphrase\"}}\n\n{{reaction type=\"Fearful\"}}{{pause frames=\"10\"}}ちの　つながりって\nホント、{{pause frames=\"10\"}}おそろしいよぉ{{pause frames=\"5\"}}・{{pause frames=\"5\"}}・{{pause frames=\"5\"}}・\n{{pause frames=\"5\"}}{{string value=\"Catchphrase\"}}",
      "KRko": "{{color id=\"8\"}}{{resetReaction}}박물관 {{color id=\"0\"}}하면{{pause frames=\"10\"}}\n{{color id=\"6\"}}부엉 {{color id=\"0\"}}아저씨랑\n{{color id=\"6\"}}부옥{{color id=\"0\"}}이가 떠올라！{{pause frames=\"5\"}}・{{pause frames=\"5\"}}・{{pause frames=\"5\"}}・\n{{reaction type=\"Happiness\"}}근데 그 두 사람{{pause frames=\"5\"}}\n정말 많이 닮았더라아～{{pause frames=\"10\"}}\n{{string value=\"Catchphrase\"}}～\n{{reaction type=\"Fearful\"}}{{pause frames=\"10\"}}피는 역시{{pause frames=\"10\"}}\n못 속여어{{pause frames=\"5\"}}・{{pause frames=\"5\"}}・{{pause frames=\"5\"}}・\n{{pause frames=\"5\"}}{{string value=\"Catchphrase\"}}！！",
      "USen": "{{resetReaction}}When I go to the {{color id=\"8\"}}museum{{color id=\"0\"}},{{pause frames=\"10\"}} I\nalways see {{color id=\"6\"}}Blathers{{color id=\"0\"}} and\n{{color id=\"6\"}}Celeste{{color id=\"0\"}}{{pause frames=\"5\"}}.{{pause frames=\"5\"}}.{{pause frames=\"5\"}}.\n{{reaction type=\"Happiness\"}}The two of them look so\nmuch alike, it's crazy.\n\n{{reaction type=\"Fearful\"}}{{pause frames=\"10\"}}Genes are really{{pause frames=\"10\"}} scary\nsometimes, {{pause frames=\"5\"}}{{string value=\"Catchphrase\"}}."
    }
  },
  {
    "label": "08",
    "attribute": "0x00000000FE000000",
    "locale": {
      "EUde": "{{reaction type=\"Worry\"}}Immer, wenn ich herkomme.{{pause frames=\"5\"}}.{{pause frames=\"5\"}}.{{pause frames=\"5\"}}\nkrieg ich Gänsehaut,\n{{pause frames=\"10\"}}{{string value=\"Catchphrase\"}}.\n{{reaction type=\"Fearful\"}}{{pause frames=\"10\"}}Bestimmt,{{pause frames=\"5\"}} weil mich die\nGeister der Fossilien rufen!",
      "EUen": "{{reaction type=\"Worry\"}}Whenever I come here.{{pause frames=\"5\"}}.{{pause frames=\"5\"}}.{{pause frames=\"5\"}}I\nalways get the chills,{{pause frames=\"10\"}}\n{{string value=\"Catchphrase\"}}.\n{{reaction type=\"Fearful\"}}{{pause frames=\"10\"}}I'm pretty sure{{pause frames=\"5\"}} it's 'cause\nthe ghosts of the fossils\nare calling me!",
      "EUes": "{{reaction type=\"Worry\"}}Siempre que vengo.{{pause frames=\"5\"}}.{{pause frames=\"5\"}}.{{pause frames=\"5\"}}\nme dan escalofríos,{{pause frames=\"10\"}}\n{{string value=\"Catchphrase\"}}.\n{{reaction type=\"Fearful\"}}{{pause frames=\"10\"}}¡Seguro que{{pause frames=\"5\"}} son los\nfantasmas de los fósiles,\nque me llaman!",
      "EUfr": "{{reaction type=\"Worry\"}}A chaque fois que je mets \nles pieds ici.{{pause frames=\"5\"}}.{{pause frames=\"5\"}}.{{pause frames=\"5\"}} \n\nun frisson me parcourt \nl'échine,{{pause frames=\"10\"}} {{string value=\"Catchphrase\"}}.\n\n{{reaction type=\"Fearful\"}}{{pause frames=\"10\"}}Je suis sûr{{pause frames=\"5\"}} que les\nfantômes des fossiles\nveulent ma peau!",
      "EUit": "{{reaction type=\"Worry\"}}Quando sono qui.{{pause frames=\"5\"}}.{{pause frames=\"5\"}}.{{pause frames=\"5\"}} mi\nvengono sempre i brividi,{{pause frames=\"10\"}}\n{{string value=\"Catchphrase\"}}.\n{{reaction type=\"Fearful\"}}{{pause frames=\"10\"}}Sono sicuro{{pause frames=\"5\"}} che sia colpa\ndei fantasmi dei fossili che\nmi chiamano!",
      "JPja": "{{reaction type=\"Worry\"}}ここらへんに　{{kanjiReplace charNum=\"1\" value=\"く\"}}来ると\nボク・{{pause frames=\"5\"}}・{{pause frames=\"5\"}}・{{pause frames=\"5\"}}いつも\nゾクゾクするんだぁ、{{pause frames=\"10\"}}{{string value=\"Catchphrase\"}}\n{{reaction type=\"Fearful\"}}{{pause frames=\"10\"}}きっと、{{pause frames=\"5\"}}\nかせきの　オバケが\nボクを　よんでるんだよぉ～！",
      "KRko": "{{reaction type=\"Worry\"}}이 근처에만 오면\n난・{{pause frames=\"5\"}}・{{pause frames=\"5\"}}・{{pause frames=\"5\"}} 항상\n뒷골이 쑤셔！ {{pause frames=\"10\"}}{{string value=\"Catchphrase\"}}\n{{reaction type=\"Fearful\"}}{{pause frames=\"10\"}}분명히{{pause frames=\"5\"}}\n화석 귀신이\n날 부르고 있나 봐아～！！",
      "USen": "{{reaction type=\"Worry\"}}Whenever I come here.{{pause frames=\"5\"}}.{{pause frames=\"5\"}}.{{pause frames=\"5\"}}I\nalways get the chills,{{pause frames=\"10\"}}\n{{string value=\"Catchphrase\"}}.\n{{reaction type=\"Fearful\"}}{{pause frames=\"10\"}}I'm pretty sure{{pause frames=\"5\"}} it's 'cause\nthe ghosts of the fossils\nare calling me!"
    }
  },
  {
    "label": "09",
    "attribute": "0x00000000FE000000",
    "locale": {
      "EUde": "{{reaction type=\"Sighing\"}}{{pause frames=\"20\"}}Um ehrlich zu sein,{{pause frames=\"10\"}} ich\nwürde gern ein Bild oder\nPoster oder so aufhängen.\nEs würde mir Spaß machen,\nmein Haus so zu dekorieren!\n\n{{pause frames=\"10\"}}{{reaction type=\"Resignation\"}}{{pause frames=\"5\"}}Aber da ständig Leute wie\ndu{{pause frames=\"5\"}} unangemeldet hier rein-\nplatzen, geht das nicht!",
      "EUen": "{{reaction type=\"Sighing\"}}{{pause frames=\"20\"}}To be honest,{{pause frames=\"10\"}} I'd love to\nhang up a picture or\nposter or something.\nIt would be a lot of fun to\ndecorate my house like\nthat!\n{{pause frames=\"10\"}}{{reaction type=\"Resignation\"}}{{pause frames=\"5\"}}But since I have people like\nyou{{pause frames=\"5\"}} showing up unannounced\nall the time, I can't!",
      "EUes": "{{reaction type=\"Sighing\"}}{{pause frames=\"20\"}}A decir verdad,{{pause frames=\"10\"}} me\nencantaría colgar una foto,\nun póster o algo así.\n¡No veas cómo quedaría de\nbonita mi casa!\n\n{{pause frames=\"10\"}}{{reaction type=\"Resignation\"}}{{pause frames=\"5\"}}¡Pero es imposible con\ngente como tú!{{pause frames=\"5\"}} ¡Podrías\navisar de que vienes!",
      "EUfr": "{{reaction type=\"Sighing\"}}{{pause frames=\"20\"}}Pour être franc,{{pause frames=\"10\"}} j'adorerais\navoir un tableau ou\nun poster.\nÇa serait génial d'en \nrecouvrir les murs de\nma maison!\n{{pause frames=\"10\"}}{{reaction type=\"Resignation\"}}{{pause frames=\"5\"}}Mais tu t'obstines{{pause frames=\"5\"}} à \ndébarquer à l'improviste...\n\nJ'ai pas une minute à moi\npour les accrocher!",
      "EUit": "{{reaction type=\"Sighing\"}}{{pause frames=\"20\"}}Sai,{{pause frames=\"10\"}} mi piacerebbe appen-\ndere un quadro o un poster\no qualcosa del genere.\nCasa mia sarebbe molto\npiù bella così!\n\n{{pause frames=\"10\"}}{{reaction type=\"Resignation\"}}{{pause frames=\"5\"}}Ma non posso{{pause frames=\"5\"}} visto che c'è\ngente come te che arriva\nnei momenti più impensabili!",
      "JPja": "{{reaction type=\"Sighing\"}}{{pause frames=\"20\"}}ホントは　ボクだって、{{pause frames=\"10\"}}\nあんなポスターとか\nこんなポスターとか、\nおへやに　はって\n{{kanjiReplace charNum=\"1\" value=\"たの\"}}楽しみたいんだけど！\n\n{{pause frames=\"10\"}}{{reaction type=\"Resignation\"}}{{pause frames=\"5\"}}キミみたいに　いきなり\nたずねてくるひとが　いるから、{{pause frames=\"5\"}}\nできないんだよねぇ{{pause frames=\"5\"}}・{{pause frames=\"5\"}}・{{pause frames=\"5\"}}・{{pause frames=\"10\"}}",
      "KRko": "{{reaction type=\"Sighing\"}}{{pause frames=\"20\"}}사실 나도{{pause frames=\"10\"}}\n이런저런\n포스터를\n방에 붙여 놓고\n싶은데 말이지～！！\n\n{{pause frames=\"10\"}}{{reaction type=\"Resignation\"}}{{pause frames=\"5\"}}너처럼 불쑥\n찾아오는 사람이 있어서{{pause frames=\"5\"}}\n할 수가 없어～！！",
      "USen": "{{reaction type=\"Sighing\"}}{{pause frames=\"20\"}}To be honest,{{pause frames=\"10\"}} I'd love to\nhang up a picture or\nposter or something.\nIt would be a lot of fun to\ndecorate my house like\nthat!\n{{pause frames=\"10\"}}{{reaction type=\"Resignation\"}}{{pause frames=\"5\"}}But since I have people like\nyou{{pause frames=\"5\"}} showing up unannounced\nall the time, I can't!"
    }
  },
  {
    "label": "10",
    "attribute": "0x00000000FE000000",
    "locale": {
      "EUde": "{{reaction type=\"Happiness\"}}Ich habe ein{{pause frames=\"5\"}} Abo des Maga-\nzins {{color id=\"2\"}}Chillen und Relaxen{{color id=\"0\"}}{{pause frames=\"5\"}}.{{pause frames=\"5\"}}.{{pause frames=\"5\"}}.\n\n{{reaction type=\"Agreement\"}}Aber alle Hefte aufzuheben,\nbraucht zu viel Platz,{{pause frames=\"5\"}} also\nschneide ich das Beste aus.{{resetReaction}}",
      "EUen": "{{reaction type=\"Happiness\"}}I have a monthly\nsubscription{{pause frames=\"5\"}} to {{color id=\"2\"}}Chillin'\nMagazine{{color id=\"0\"}}{{pause frames=\"5\"}}.{{pause frames=\"5\"}}.{{pause frames=\"5\"}}.\n{{reaction type=\"Agreement\"}}But keeping 'em all takes up\ntoo much space,{{pause frames=\"5\"}} so I just\ncut out the good pages.{{resetReaction}}",
      "EUes": "{{reaction type=\"Happiness\"}}Cada mes recibo un ejemplar{{pause frames=\"5\"}}\nde la revista {{color id=\"2\"}}Siesta{{color id=\"0\"}} y me\ngusta coleccionarlos{{pause frames=\"5\"}}.{{pause frames=\"5\"}}.{{pause frames=\"5\"}}.\n{{reaction type=\"Agreement\"}}Pero, como ocupan tanto,{{pause frames=\"5\"}}\nahora prefiero arrancar las\npáginas que me interesan.{{resetReaction}}",
      "EUfr": "{{reaction type=\"Happiness\"}}Je suis abonné\n{{pause frames=\"5\"}}à {{color id=\"2\"}}Zen Magazine{{color id=\"0\"}}{{pause frames=\"5\"}}.{{pause frames=\"5\"}}.{{pause frames=\"5\"}}.\n\n{{reaction type=\"Agreement\"}}Mais ma collection prend \ntrop de place,{{pause frames=\"5\"}} \n\nalors je me contente de\ndécouper les pages \nqui m'intéressent.{{resetReaction}}",
      "EUit": "{{reaction type=\"Happiness\"}}Ho un abbonamento mensile{{pause frames=\"5\"}}\na {{color id=\"2\"}}Rilassiamoci{{color id=\"0\"}}{{pause frames=\"5\"}}.{{pause frames=\"5\"}}.{{pause frames=\"5\"}}.\n\n{{reaction type=\"Agreement\"}}Ma conservarli tutti occupa\ntroppo spazio,{{pause frames=\"5\"}} ecco perché\ntengo solo le pagine belle.{{resetReaction}}",
      "JPja": "{{reaction type=\"Happiness\"}}ボク、{{pause frames=\"5\"}}てつどうのざっしを\n{{kanjiReplace charNum=\"2\" value=\"まいつき\"}}毎月　{{kanjiReplace charNum=\"1\" value=\"か\"}}買ってるんだけど{{pause frames=\"5\"}}・{{pause frames=\"5\"}}・{{pause frames=\"5\"}}・\n\n{{reaction type=\"Agreement\"}}かさばるから、{{pause frames=\"5\"}}\nお{{kanjiReplace charNum=\"1\" value=\"き\"}}気に{{kanjiReplace charNum=\"1\" value=\"い\"}}入りのページだけ\n{{kanjiReplace charNum=\"1\" value=\"き\"}}切りぬいて　とっておくんだぁ～{{resetReaction}}",
      "KRko": "{{reaction type=\"Happiness\"}}나， {{pause frames=\"5\"}}매달\n철도 잡지를 사는데！！{{pause frames=\"5\"}}・{{pause frames=\"5\"}}・{{pause frames=\"5\"}}・\n\n{{reaction type=\"Agreement\"}}너무 두꺼워서{{pause frames=\"5\"}}\n맘에 드는 페이지만 찢어서\n따로 보관하고 있어～{{resetReaction}}",
      "USen": "{{reaction type=\"Happiness\"}}I have a monthly\nsubscription{{pause frames=\"5\"}} to {{color id=\"2\"}}Chillin'\nMagazine{{color id=\"0\"}}{{pause frames=\"5\"}}.{{pause frames=\"5\"}}.{{pause frames=\"5\"}}.\n{{reaction type=\"Agreement\"}}But keeping 'em all takes up\ntoo much space,{{pause frames=\"5\"}} so I just\ncut out the good pages.{{resetReaction}}"
    }
  },
  {
    "label": "11",
    "attribute": "0x00000000FF000000",
    "locale": {
      "EUde": "{{fun_06 arg=\"0x1A1B\"}}",
      "EUen": "{{fun_06 arg=\"0x1A1B\"}}",
      "EUes": "{{fun_06 arg=\"0x1A1B\"}}",
      "EUfr": "{{fun_06 arg=\"0x1A1B\"}}",
      "EUit": "{{fun_06 arg=\"0x1A1B\"}}",
      "JPja": "{{fun_06 arg=\"0x1A1B\"}}",
      "KRko": "{{fun_06 arg=\"0x1A1B\"}}",
      "USen": "{{fun_06 arg=\"0x1A1B\"}}"
    }
  },
  {
    "label": "12",
    "attribute": "0x00000000FE000000",
    "locale": {
      "EUde": "{{reaction type=\"Curiosity\"}}Häh?{{pressButton}} {{reaction type=\"Worry\"}}Oh.{{pause frames=\"5\"}}.{{pause frames=\"5\"}}.{{pause frames=\"5\"}} Äh,{{pause frames=\"5\"}} {{string value=\"Catchphrase\"}}?{{pressButton}}\n{{reaction type=\"Distress\"}}Ich hab total vergessen,\nwas ich sagen wollte!",
      "EUen": "{{reaction type=\"Curiosity\"}}Huh?{{pressButton}} {{reaction type=\"Worry\"}}Oh.{{pause frames=\"5\"}}.{{pause frames=\"5\"}}.{{pause frames=\"5\"}} Uh,{{pause frames=\"5\"}} {{string value=\"Catchphrase\"}}?{{pressButton}}\n{{reaction type=\"Distress\"}}I totally forgot what I\nwas gonna say!",
      "EUes": "{{reaction type=\"Curiosity\"}}¿Mm?{{pressButton}} {{reaction type=\"Worry\"}}Oh.{{pause frames=\"5\"}}.{{pause frames=\"5\"}}.{{pause frames=\"5\"}} Mm,{{pause frames=\"5\"}} {{string value=\"Catchphrase\"}}.{{pressButton}}\n{{reaction type=\"Distress\"}}¡Se me ha olvidado lo que\niba a decir!",
      "EUfr": "{{reaction type=\"Curiosity\"}}Hein?{{pressButton}} {{reaction type=\"Worry\"}}Oh.{{pause frames=\"5\"}}.{{pause frames=\"5\"}}.{{pause frames=\"5\"}} Euh,{{pause frames=\"5\"}} \n{{string value=\"Catchphrase\"}}?{{pressButton}}{{reaction type=\"Distress\"}} J'ai oublié ce\nque je voulais te dire!",
      "EUit": "{{reaction type=\"Curiosity\"}}Uh?{{pressButton}} {{reaction type=\"Worry\"}}Oh.{{pause frames=\"5\"}}.{{pause frames=\"5\"}}.{{pause frames=\"5\"}} Uh,{{pause frames=\"5\"}} {{string value=\"Catchphrase\"}}?{{pressButton}}\n{{reaction type=\"Distress\"}}Mi sono dimenticato quello\nche volevo dire!",
      "JPja": "{{reaction type=\"Curiosity\"}}？？{{pressButton}}\n{{reaction type=\"Worry\"}}・{{pause frames=\"5\"}}・{{pause frames=\"5\"}}・{{pause frames=\"5\"}}あれぇ、{{pause frames=\"5\"}}{{string value=\"Catchphrase\"}}\n\n{{reaction type=\"Distress\"}}{{kanjiReplace charNum=\"1\" value=\"なに\"}}何を　しゃべろうとしてたか\nわすれちゃったぁ～、{{pause frames=\"10\"}}{{string value=\"Catchphrase\"}}！",
      "KRko": "{{reaction type=\"Curiosity\"}}？？{{pressButton}}\n{{reaction type=\"Worry\"}}・{{pause frames=\"5\"}}・{{pause frames=\"5\"}}・{{pause frames=\"5\"}}으응？ {{pause frames=\"5\"}}{{string value=\"Catchphrase\"}}？\n\n{{reaction type=\"Distress\"}}무슨 얘기를 하려고 했는지\n잊어버렸어～ {{pause frames=\"10\"}}{{string value=\"Catchphrase\"}}～",
      "USen": "{{reaction type=\"Curiosity\"}}Huh?{{pressButton}} {{reaction type=\"Worry\"}}Oh.{{pause frames=\"5\"}}.{{pause frames=\"5\"}}.{{pause frames=\"5\"}} Uh,{{pause frames=\"5\"}} {{string value=\"Catchphrase\"}}?{{pressButton}}\n{{reaction type=\"Distress\"}}I totally forgot what I\nwas gonna say!"
    }
  },
  {
    "label": "13",
    "attribute": "0x00000000FE000000",
    "locale": {
      "EUde": "{{reaction type=\"Happiness\"}}{{capitalizeLetter}}{{string value=\"PlayerNickname\"}}, hast du einen\nLieblingsplatz?\n\n{{reaction type=\"Intense\"}}Einen Ort, wo du ein\nSchläfchen halten kannst,\nwenn du müde bist?\n{{reaction type=\"Amazed\"}}Häh? Oh,{{pause frames=\"10\"}} ich?{{pressButton}} Nun, {{reaction type=\"Joy\"}}wenn du\nweg bist,{{pause frames=\"10\"}} döse ich manchmal\nauf deinem Fußboden!",
      "EUen": "{{reaction type=\"Happiness\"}}{{capitalizeLetter}}{{string value=\"PlayerNickname\"}}, do you have a\nfavorite place?\n\n{{reaction type=\"Intense\"}}You know, a place where you\ncan take a midday nap when\nyou're tired?\n{{reaction type=\"Amazed\"}}Huh? Oh,{{pause frames=\"10\"}} me?{{pressButton}} Well, {{reaction type=\"Joy\"}}when\nyou're out,{{pause frames=\"10\"}} sometimes I like\nto snooze on your floor!",
      "EUes": "{{reaction type=\"Happiness\"}}{{capitalizeLetter}}{{string value=\"PlayerNickname\"}}, ¿tienes algún\nlugar preferido?\n\n{{reaction type=\"Intense\"}}Ya sabes, un sitio en el que\npuedas echarte la siesta\na mediodía.\n{{reaction type=\"Amazed\"}}¿Mm? Ah,{{pause frames=\"10\"}} ¿yo?{{pressButton}} Pues {{reaction type=\"Joy\"}}¡cuando\nno estás,{{pause frames=\"10\"}} a veces me gusta\ndormirme aquí en el suelo!",
      "EUfr": "{{reaction type=\"Happiness\"}}{{capitalizeLetter}}{{string value=\"PlayerNickname\"}}, tu as un\nendroit préféré?\n\n{{reaction type=\"Intense\"}}Tu sais, un lieu où tu peux\nfaire la sieste quand tu es\n{{gender m=\"fatigué\" f=\"fatiguée\"}} l'après-midi?\n{{reaction type=\"Amazed\"}}Hein? Oh,{{pause frames=\"10\"}} moi?{{pressButton}} Eh bien, {{reaction type=\"Joy\"}}\nquand tu n'es pas là,{{pause frames=\"10\"}} je\nroupille dans ton salon!",
      "EUit": "{{reaction type=\"Happiness\"}}{{capitalizeLetter}}{{string value=\"PlayerNickname\"}}, hai un\nposto preferito?\n\n{{reaction type=\"Intense\"}}Sai, un luogo dove\nschiacciare un sonnellino\npomeridiano ogni tanto?\n{{reaction type=\"Amazed\"}}Uh? Oh,{{pause frames=\"10\"}} io?{{pressButton}} Beh, {{reaction type=\"Joy\"}}quando non\nci sei,{{pause frames=\"10\"}} a volte mi riposo\nsul tuo pavimento!",
      "JPja": "{{reaction type=\"Happiness\"}}{{string value=\"PlayerNickname\"}}くんには\nお{{kanjiReplace charNum=\"1\" value=\"き\"}}気に{{kanjiReplace charNum=\"1\" value=\"い\"}}入りの\nばしょって　あるぅ？\n{{reaction type=\"Intense\"}}つかれた{{kanjiReplace charNum=\"1\" value=\"とき\"}}時に\nおひるねとかする\n{{kanjiReplace charNum=\"2\" value=\"じぶん\"}}自分だけの　スポットだよぉ～\n{{reaction type=\"Amazed\"}}え？{{pause frames=\"10\"}}　ボク？{{pressButton}}\n{{reaction type=\"Joy\"}}ボクの　{{kanjiReplace charNum=\"2\" value=\"ばあい\"}}場合は、{{pause frames=\"10\"}}\n「じっか」かなぁ～、{{pause frames=\"10\"}}{{string value=\"Catchphrase\"}}",
      "KRko": "{{reaction type=\"Happiness\"}}{{string value=\"PlayerNickname\"}}{{fun_0B arg=\"0x0100\"}}\n특별히 맘에 드는\n장소가 있어？？\n{{reaction type=\"Intense\"}}피곤할 때\n낮잠 같은 거 잘 수 있는\n너만의 장소 말이야아～\n{{reaction type=\"Amazed\"}}뭐？{{pause frames=\"10\"}} 나？{{pressButton}}\n{{reaction type=\"Joy\"}}나는 말이지{{pause frames=\"10\"}}\n「집」이지 뭐～ {{pause frames=\"10\"}}{{string value=\"Catchphrase\"}}",
      "USen": "{{reaction type=\"Happiness\"}}{{capitalizeLetter}}{{string value=\"PlayerNickname\"}}, do you have a\nfavorite place?\n\n{{reaction type=\"Intense\"}}You know, a place where you\ncan take a midday nap when\nyou're tired?\n{{reaction type=\"Amazed\"}}Huh? Oh,{{pause frames=\"10\"}} me?{{pressButton}} Well, {{reaction type=\"Joy\"}}when\nyou're out,{{pause frames=\"10\"}} sometimes I like\nto snooze on your floor!"
    }
  },
  {
    "label": "14",
    "attribute": "0x00000000FF000000",
    "locale": {
      "EUde": "{{fun_06 arg=\"0x1C1D1E1F\"}}",
      "EUen": "{{fun_06 arg=\"0x1C1D1E1F\"}}",
      "EUes": "{{fun_06 arg=\"0x1C1D1E1F\"}}",
      "EUfr": "{{fun_06 arg=\"0x1C1D1E1F\"}}",
      "EUit": "{{fun_06 arg=\"0x1C1D1E1F\"}}",
      "JPja": "{{fun_06 arg=\"0x1C1D1E1F\"}}",
      "KRko": "{{fun_06 arg=\"0x1C1D1E1F\"}}",
      "USen": "{{fun_06 arg=\"0x1C1D1E1F\"}}"
    }
  },
  {
    "label": "15",
    "attribute": "0x00000000FE000000",
    "locale": {
      "EUde": "{{reaction type=\"Thought\"}}{{pause frames=\"10\"}}Hmm{{pause frames=\"5\"}}.{{pause frames=\"5\"}}.{{pause frames=\"5\"}}.{{pause frames=\"5\"}} Ich frage mich,\nwarum alle immer hier rum-\nhängen.\n{{reaction type=\"Distress\"}}Vielleicht gibts hier einen\ngigantischen unterirdischen\nMagneten! {{pressButton}}{{reaction type=\"Glee\"}}Wär das cool!",
      "EUen": "{{reaction type=\"Thought\"}}{{pause frames=\"10\"}}Hmm{{pause frames=\"5\"}}.{{pause frames=\"5\"}}.{{pause frames=\"5\"}}.{{pause frames=\"5\"}} I wonder why\neveryone hangs out around\nhere.\n{{reaction type=\"Distress\"}}Maybe there's, like, a\ngigantic underground\nmagnet! {{pressButton}}{{reaction type=\"Glee\"}}That'd be so cool!",
      "EUes": "{{reaction type=\"Thought\"}}{{pause frames=\"10\"}}Mmm{{pause frames=\"5\"}}.{{pause frames=\"5\"}}.{{pause frames=\"5\"}}.{{pause frames=\"5\"}} Me pregunto por qué\nvendrá todo el mundo aquí.\n\n{{reaction type=\"Distress\"}}¡Es como si hubiera un imán\ngigante aquí debajo! {{pressButton}}{{reaction type=\"Glee\"}}¡Cómo\nmolaría!",
      "EUfr": "{{reaction type=\"Thought\"}}{{pause frames=\"10\"}}Hmm{{pause frames=\"5\"}}.{{pause frames=\"5\"}}.{{pause frames=\"5\"}}.{{pause frames=\"5\"}} Je me demande\npourquoi tout le monde \ntraîne dans les parages.\n{{reaction type=\"Distress\"}}Il y a peut-être un aimant\ngéant enfoui sous terre! {{pressButton}}{{reaction type=\"Glee\"}}\nÇa serait trop cool!",
      "EUit": "{{reaction type=\"Thought\"}}{{pause frames=\"10\"}}Uhm{{pause frames=\"5\"}}.{{pause frames=\"5\"}}.{{pause frames=\"5\"}}.{{pause frames=\"5\"}} Chissà perché\nstanno tutti qui intorno.\n\n{{reaction type=\"Distress\"}}Forse c'è, ecco, un\ngigantesco magnete\nsotterraneo! {{pressButton}}{{reaction type=\"Glee\"}}Che figata!",
      "JPja": "{{reaction type=\"Thought\"}}{{pause frames=\"10\"}}もしかして、{{pause frames=\"5\"}}このへん{{pause frames=\"5\"}}・{{pause frames=\"5\"}}・{{pause frames=\"5\"}}・{{pause frames=\"5\"}}\nなんか　あるのかなぁ～？\n\n{{reaction type=\"Distress\"}}{{string value=\"TownName\"}}{{kanjiReplace charNum=\"1\" value=\"むら\"}}村の\nパワースポットだよぉ～！\n{{pause frames=\"10\"}}{{string value=\"Catchphrase\"}}！",
      "KRko": "{{reaction type=\"Thought\"}}{{pause frames=\"10\"}}혹시 {{pause frames=\"5\"}}이 주변에도{{pause frames=\"5\"}}・{{pause frames=\"5\"}}・{{pause frames=\"5\"}}・{{pause frames=\"5\"}}\n있을까～？？\n\n{{reaction type=\"Distress\"}}여긴 {{string value=\"TownName\"}} 마을의\n노른자 땅이잖아～！！\n{{pause frames=\"10\"}}{{string value=\"Catchphrase\"}}～！！",
      "USen": "{{reaction type=\"Thought\"}}{{pause frames=\"10\"}}Hmm{{pause frames=\"5\"}}.{{pause frames=\"5\"}}.{{pause frames=\"5\"}}.{{pause frames=\"5\"}} I wonder why\neveryone hangs out around\nhere.\n{{reaction type=\"Distress\"}}Maybe there's, like, a\ngigantic underground\nmagnet! {{pressButton}}{{reaction type=\"Glee\"}}That'd be so cool!"
    }
  },
  {
    "label": "16",
    "attribute": "0x00000000FE000000",
    "locale": {
      "EUde": "{{reaction type=\"Bashfulness\"}}Natürlich{{pause frames=\"10\"}} sehen einen die\nLeute komisch an, wenn man\nso ins Leere starrt.",
      "EUen": "{{reaction type=\"Bashfulness\"}}Of course,{{pause frames=\"10\"}} you'll also get a\nlot of weird looks if you\njust stand around staring.",
      "EUes": "{{reaction type=\"Bashfulness\"}}Pues claro,{{pause frames=\"10\"}} no me extraña\nque te miren mal, estando\nahí como un pasmarote.",
      "EUfr": "{{reaction type=\"Bashfulness\"}}Bon,{{pause frames=\"10\"}} si tu restes {{gender m=\"planté\" f=\"plantée\"}} \nlà à la regarder, on va\npenser que t'es zinzin.",
      "EUit": "{{reaction type=\"Bashfulness\"}}Ovviamente{{pause frames=\"10\"}} ti guarderanno\nmale se starai lì a osser-\nvare la gente.",
      "JPja": "{{reaction type=\"Bashfulness\"}}もちろん、{{pause frames=\"10\"}}\nいろんなひとに　ながめられたりも\nするんだけどねぇ～、{{pause frames=\"10\"}}{{string value=\"Catchphrase\"}}",
      "KRko": "{{reaction type=\"Bashfulness\"}}물론{{pause frames=\"10\"}} 그 사람들이\n나를 구경할 때도 있지만\n말이야， {{pause frames=\"10\"}}{{string value=\"Catchphrase\"}}",
      "USen": "{{reaction type=\"Bashfulness\"}}Of course,{{pause frames=\"10\"}} you'll also get a\nlot of weird looks if you\njust stand around staring."
    }
  },
  {
    "label": "17",
    "attribute": "0x00000000FE000000",
    "locale": {
      "EUde": "{{reaction type=\"Thought\"}}{{pause frames=\"10\"}}Ladenbesitzer,{{pause frames=\"20\"}} Künstler,{{pause frames=\"20\"}}\nWahrsager{{pause frames=\"5\"}}.{{pause frames=\"5\"}}.{{pause frames=\"5\"}}.\n\n{{reaction type=\"Agreement\"}}Jeder von ihnen ist einzig-\nartig und alle sind auf ihre\nArt cool,{{pause frames=\"10\"}}{{resetReaction}} {{string value=\"Catchphrase\"}}.\n{{reaction type=\"Bashfulness\"}}In ihren Augen{{pause frames=\"10\"}} bin ich be-\nstimmt auch ziemlich cool.",
      "EUen": "{{reaction type=\"Thought\"}}{{pause frames=\"10\"}}Shopkeepers,{{pause frames=\"20\"}} artists,{{pause frames=\"20\"}}\nfortune-tellers{{pause frames=\"5\"}}.{{pause frames=\"5\"}}.{{pause frames=\"5\"}}.\n\n{{reaction type=\"Agreement\"}}Each of them is unique in\ntheir own way. But they're\nall really cool,{{pause frames=\"10\"}}{{resetReaction}} {{string value=\"Catchphrase\"}}.\n{{reaction type=\"Bashfulness\"}}I bet in their eyes,{{pause frames=\"10\"}} I look\npretty cool, too.",
      "EUes": "{{reaction type=\"Thought\"}}{{pause frames=\"10\"}}Vendedores ambulantes,{{pause frames=\"20\"}}\nartistas,{{pause frames=\"20\"}} adivinas{{pause frames=\"5\"}}.{{pause frames=\"5\"}}.{{pause frames=\"5\"}}.\n\n{{reaction type=\"Agreement\"}}Cada uno es diferente a su\nmanera, pero molan todos\nun montón,{{pause frames=\"10\"}}{{resetReaction}} {{string value=\"Catchphrase\"}}.\n{{reaction type=\"Bashfulness\"}}Seguro que{{pause frames=\"10\"}} yo también les\ncaigo bien.",
      "EUfr": "{{reaction type=\"Thought\"}}{{pause frames=\"10\"}}Commerçants,{{pause frames=\"20\"}} artistes,{{pause frames=\"20\"}}\nvoyantes{{pause frames=\"5\"}}.{{pause frames=\"5\"}}.{{pause frames=\"5\"}}.\n\n{{reaction type=\"Agreement\"}}Chacun est unique, mais ce\nsont des gens très gentils,{{pause frames=\"10\"}}{{resetReaction}}\n{{string value=\"Catchphrase\"}}.\n{{reaction type=\"Bashfulness\"}}Je parie qu'à leurs yeux,{{pause frames=\"10\"}}\nmoi aussi, j'ai l'air super \ncool.",
      "EUit": "{{reaction type=\"Thought\"}}{{pause frames=\"10\"}}Negozianti,{{pause frames=\"20\"}} artisti,{{pause frames=\"20\"}}\nindovini{{pause frames=\"5\"}}.{{pause frames=\"5\"}}.{{pause frames=\"5\"}}.\n\n{{reaction type=\"Agreement\"}}Sono tutti particolari a\nmodo loro. Ma sono tutti\ninteressanti,{{pause frames=\"10\"}}{{resetReaction}} {{string value=\"Catchphrase\"}}.\n{{reaction type=\"Bashfulness\"}}Scommetto che anche loro{{pause frames=\"10\"}}\nmi trovano interessante.",
      "JPja": "{{reaction type=\"Thought\"}}{{pause frames=\"10\"}}お{{kanjiReplace charNum=\"1\" value=\"みせ\"}}店やさん、{{pause frames=\"20\"}}\n{{kanjiReplace charNum=\"1\" value=\"え\"}}絵かきさん、{{pause frames=\"20\"}}\nうらないしさん{{pause frames=\"5\"}}・{{pause frames=\"5\"}}・{{pause frames=\"5\"}}・\n{{reaction type=\"Agreement\"}}みんな　ひとクセも\nふたクセもあって\nカッコイイんだぁ～、{{pause frames=\"10\"}}{{resetReaction}}{{string value=\"Catchphrase\"}}\n{{reaction type=\"Bashfulness\"}}ボクも　あのひとたちの\n{{kanjiReplace charNum=\"1\" value=\"め\"}}目には、{{pause frames=\"10\"}}カッコよく\nうつってるんだろうねぇ～",
      "KRko": "{{reaction type=\"Thought\"}}{{pause frames=\"10\"}}가게 주인，{{pause frames=\"20\"}}\n화가，{{pause frames=\"20\"}}\n점쟁이{{pause frames=\"5\"}}・{{pause frames=\"5\"}}・{{pause frames=\"5\"}}・\n{{reaction type=\"Agreement\"}}다들 개성이\n장난이 아니야～\n너무 멋져～ {{pause frames=\"10\"}}{{resetReaction}}{{string value=\"Catchphrase\"}}～\n{{reaction type=\"Bashfulness\"}}나도 그 사람들 눈에는\n{{pause frames=\"10\"}}멋지게\n보이려나～？？",
      "USen": "{{reaction type=\"Thought\"}}{{pause frames=\"10\"}}Shopkeepers,{{pause frames=\"20\"}} artists,{{pause frames=\"20\"}}\nfortune-tellers{{pause frames=\"5\"}}.{{pause frames=\"5\"}}.{{pause frames=\"5\"}}.\n\n{{reaction type=\"Agreement\"}}Each of them is unique in\ntheir own way. But they're\nall really cool,{{pause frames=\"10\"}}{{resetReaction}} {{string value=\"Catchphrase\"}}.\n{{reaction type=\"Bashfulness\"}}I bet in their eyes,{{pause frames=\"10\"}} I look\npretty cool, too."
    }
  },
  {
    "label": "18",
    "attribute": "0x00000000FE000000",
    "locale": {
      "EUde": "{{reaction type=\"Amazed\"}}{{pause frames=\"10\"}}Oh!{{pressButton}}{{reaction type=\"Distress\"}} Aber natürlich kann man\nzu dieser Nachtzeit keinen\nda treffen,{{pause frames=\"5\"}} {{string value=\"Catchphrase\"}}.",
      "EUen": "{{reaction type=\"Amazed\"}}{{pause frames=\"10\"}}Oh!{{pressButton}}{{reaction type=\"Distress\"}} But of course there's\nno one to see there at this\ntime of night,{{pause frames=\"5\"}} {{string value=\"Catchphrase\"}}.",
      "EUes": "{{reaction type=\"Amazed\"}}{{pause frames=\"10\"}}¡Ah!{{pressButton}}{{reaction type=\"Distress\"}} Pero a estas horas de\nla noche no hay mucha vida\npor allí,{{pause frames=\"5\"}} {{string value=\"Catchphrase\"}}.",
      "EUfr": "{{reaction type=\"Amazed\"}}{{pause frames=\"10\"}}Oh!{{pressButton}}{{reaction type=\"Distress\"}} Bien sûr, à cette\nheure-ci, l'endroit est\ndésert,{{pause frames=\"5\"}} {{string value=\"Catchphrase\"}}.",
      "EUit": "{{reaction type=\"Amazed\"}}{{pause frames=\"10\"}}Oh!{{pressButton}}{{reaction type=\"Distress\"}} Ovviamente non c'è nes-\nsuno da vedere a quest'ora\ndella notte,{{pause frames=\"5\"}} {{string value=\"Catchphrase\"}}.",
      "JPja": "{{reaction type=\"Amazed\"}}{{pause frames=\"10\"}}あ！{{pressButton}}\n{{reaction type=\"Distress\"}}さすがに　こんな{{kanjiReplace charNum=\"2\" value=\"よなか\"}}夜中には\n{{kanjiReplace charNum=\"1\" value=\"み\"}}見かけないけどねぇ～、{{pause frames=\"5\"}}{{string value=\"Catchphrase\"}}",
      "KRko": "{{reaction type=\"Amazed\"}}{{pause frames=\"10\"}}앗！{{pressButton}}\n{{reaction type=\"Distress\"}}하지만 한밤 중은\n예외야～～ {{pause frames=\"5\"}}{{string value=\"Catchphrase\"}}～～",
      "USen": "{{reaction type=\"Amazed\"}}{{pause frames=\"10\"}}Oh!{{pressButton}}{{reaction type=\"Distress\"}} But of course there's\nno one to see there at this\ntime of night,{{pause frames=\"5\"}} {{string value=\"Catchphrase\"}}."
    }
  },
  {
    "label": "19",
    "attribute": "0x00000000FE000000",
    "locale": {
      "EUde": "{{reaction type=\"Thought\"}}{{pause frames=\"10\"}}Denkst du, das Gerücht über\ndie unerwiderte Liebe{{pause frames=\"10\"}} ist\nwahr?",
      "EUen": "{{reaction type=\"Thought\"}}{{pause frames=\"10\"}}Do you think the rumor\nabout his whole unrequited\nlove thing{{pause frames=\"10\"}} is true?",
      "EUes": "{{reaction type=\"Thought\"}}{{pause frames=\"10\"}}¿Crees que es cierto{{pause frames=\"10\"}} el\nrumor que corre sobre un\namor no correspondido?",
      "EUfr": "{{reaction type=\"Thought\"}}{{pause frames=\"10\"}}Tu crois à ces histoires\nd'{{pause frames=\"10\"}}\"amour \nnon partagé\"?",
      "EUit": "{{reaction type=\"Thought\"}}{{pause frames=\"10\"}}Pensi che sia vera{{pause frames=\"10\"}} quella\nvoce di un amore non\ncorrisposto?",
      "JPja": "{{reaction type=\"Thought\"}}{{pause frames=\"10\"}}とっても　つらい\nこいをしてるって　ウワサは、{{pause frames=\"10\"}}\nホントなのかなぁ～？",
      "KRko": "{{reaction type=\"Thought\"}}{{pause frames=\"10\"}}가슴이 찢어질 정도로 힘든\n연애 중이라던데， 그 소문이{{pause frames=\"10\"}}\n사실일까아～？？",
      "USen": "{{reaction type=\"Thought\"}}{{pause frames=\"10\"}}Do you think the rumor\nabout his whole unrequited\nlove thing{{pause frames=\"10\"}} is true?"
    }
  },
  {
    "label": "20",
    "attribute": "0x00000000FE000000",
    "locale": {
      "EUde": "{{reaction type=\"Thought\"}}Er scheint sich nicht von\nseiner Arbeit auffressen\nzu lassen.\n{{reaction type=\"Agreement\"}}Also müssen seine Sorgen\nim Privatleben zu finden\nsein,{{pause frames=\"10\"}} {{string value=\"Catchphrase\"}}.{{resetReaction}}",
      "EUen": "{{reaction type=\"Thought\"}}He doesn't seem like the\ntype to get too wrapped\nup in his work.\n{{reaction type=\"Agreement\"}}So, it must be something in\nhis private life that's\nworrying him,{{pause frames=\"10\"}} {{string value=\"Catchphrase\"}}.{{resetReaction}}",
      "EUes": "{{reaction type=\"Thought\"}}No parece que tenga un\ntrabajo muy estresante.\n\n{{reaction type=\"Agreement\"}}Así que debe de preocuparle\nalgo de su vida privada,{{pause frames=\"10\"}}\n{{string value=\"Catchphrase\"}}.{{resetReaction}}",
      "EUfr": "{{reaction type=\"Thought\"}}Il n'a pas l'air du genre à\nse tuer à la tâche.\n\n{{reaction type=\"Agreement\"}}Il a peut-être de gros \nsoucis dans sa vie privée,{{pause frames=\"10\"}} \n{{string value=\"Catchphrase\"}}.{{resetReaction}}",
      "EUit": "{{reaction type=\"Thought\"}}Non sembra il tipo che si\npreoccupa troppo del suo\nlavoro.\n{{reaction type=\"Agreement\"}}Probabilmente è la sua\nvita privata a dargli dei\npensieri,{{pause frames=\"10\"}} {{string value=\"Catchphrase\"}}.{{resetReaction}}",
      "JPja": "{{reaction type=\"Thought\"}}あんまり　しごとに\nうちこむタイプでも\nなさそうだし、\n{{reaction type=\"Agreement\"}}きっと　プライベートが\nたいへんなコトに\nなってるんだろうねぇ～、{{pause frames=\"10\"}}{{string value=\"Catchphrase\"}}{{resetReaction}}",
      "KRko": "{{reaction type=\"Thought\"}}그다지 일에\n연연해하는 사람처럼은\n안 보이던데\n{{reaction type=\"Agreement\"}}분명히 개인적으로\n힘든 일이 있었나 봐아～\n{{pause frames=\"10\"}}{{string value=\"Catchphrase\"}}～{{resetReaction}}",
      "USen": "{{reaction type=\"Thought\"}}He doesn't seem like the\ntype to get too wrapped\nup in his work.\n{{reaction type=\"Agreement\"}}So, it must be something in\nhis private life that's\nworrying him,{{pause frames=\"10\"}} {{string value=\"Catchphrase\"}}.{{resetReaction}}"
    }
  },
  {
    "label": "21",
    "attribute": "0x00000000FE000000",
    "locale": {
      "EUde": "{{reaction type=\"Worry\"}}Das bleibt unter uns{{pause frames=\"5\"}}.{{pause frames=\"5\"}}.{{pause frames=\"5\"}}.{{pressButton}}\n{{reaction type=\"Intense\"}}{{color id=\"6\"}}Tom Nooks{{color id=\"0\"}} Laden hat einen\nKeller! Und darin{{pause frames=\"5\"}}.{{pause frames=\"5\"}}.{{pause frames=\"5\"}}.\n{{reaction type=\"Distress\"}}Es soll tonnenweise {{color id=\"6\"}}Tom\nNook{{color id=\"0\"}}-Plüschtiere da unten\ngeben! {{pause frames=\"10\"}}{{capitalizeLetter}}{{string value=\"Catchphrase\"}}!\n{{reaction type=\"Thought\"}}{{pause frames=\"10\"}}{{capitalizeLetter}}{{string value=\"GossipVillager2\"}} erzählte mir\ndavon{{pause frames=\"5\"}}.{{pause frames=\"5\"}}.{{pause frames=\"5\"}}.{{pause frames=\"20\"}} Irgendwie gruselig!\n{{reaction type=\"Curiosity\"}}{{pause frames=\"5\"}}Denkst du, es ist wahr?",
      "EUen": "{{reaction type=\"Worry\"}}This is just between us{{pause frames=\"5\"}}.{{pause frames=\"5\"}}.{{pause frames=\"5\"}}.{{pressButton}}\n{{reaction type=\"Intense\"}}but {{color id=\"6\"}}Tom Nook{{color id=\"0\"}}'s shop has a\nbasement! And in it{{pause frames=\"5\"}}.{{pause frames=\"5\"}}.{{pause frames=\"5\"}}.\n{{reaction type=\"Distress\"}}There are supposedly tons\nof {{color id=\"6\"}}Tom Nook{{color id=\"0\"}} stuffed\nanimals! {{pause frames=\"10\"}}{{capitalizeLetter}}{{string value=\"Catchphrase\"}}!\n{{reaction type=\"Thought\"}}{{pause frames=\"10\"}}{{capitalizeLetter}}{{string value=\"GossipVillager2\"}} told me all\nabout it{{pause frames=\"5\"}}.{{pause frames=\"5\"}}.{{pause frames=\"5\"}}.{{pause frames=\"20\"}} Seems creepy!\n{{reaction type=\"Curiosity\"}}{{pause frames=\"5\"}}Do you think it's true?",
      "EUes": "{{reaction type=\"Worry\"}}Que quede entre nosotros{{pause frames=\"5\"}}.{{pause frames=\"5\"}}.{{pause frames=\"5\"}}.{{pressButton}}\n{{reaction type=\"Intense\"}}¡La tienda de {{color id=\"6\"}}Tom Nook\n{{color id=\"0\"}}tiene sótano! Y en él{{pause frames=\"5\"}}.{{pause frames=\"5\"}}.{{pause frames=\"5\"}}.\n{{reaction type=\"Distress\"}}¡Se dice que {{color id=\"6\"}}Tom Nook{{color id=\"0\"}} tiene\nanimales disecados!\n{{pause frames=\"10\"}}¡{{capitalizeLetter}}{{string value=\"Catchphrase\"}}!\n{{reaction type=\"Thought\"}}{{pause frames=\"10\"}}{{capitalizeLetter}}{{string value=\"GossipVillager2\"}} me lo contó{{pause frames=\"5\"}}.{{pause frames=\"5\"}}.{{pause frames=\"5\"}}.{{pause frames=\"20\"}}\n¡Qué miedo, ¿no?! {{reaction type=\"Curiosity\"}}{{pause frames=\"5\"}}¿Crees\nque se lo habrá inventado?",
      "EUfr": "{{reaction type=\"Worry\"}}Que cela reste entre nous{{pause frames=\"5\"}}.{{pause frames=\"5\"}}.{{pause frames=\"5\"}}.{{pressButton}}\n{{reaction type=\"Intense\"}}mais la boutique de {{color id=\"6\"}}Tom \nNook {{color id=\"0\"}}a une cave! Et{{pause frames=\"5\"}}.{{pause frames=\"5\"}}.{{pause frames=\"5\"}}.\n{{reaction type=\"Distress\"}}il paraît qu'elle renferme\nun tas de peluches {{color id=\"6\"}}Tom \nNook{{color id=\"0\"}}! {{pause frames=\"10\"}}{{capitalizeLetter}}{{string value=\"Catchphrase\"}}!\n{{reaction type=\"Thought\"}}{{pause frames=\"10\"}}{{capitalizeLetter}}{{string value=\"GossipVillager2\"}} m'a confié ce\nsecret{{pause frames=\"5\"}}.{{pause frames=\"5\"}}.{{pause frames=\"5\"}}.{{pause frames=\"20\"}} C'est flippant!\n{{reaction type=\"Curiosity\"}}{{pause frames=\"5\"}}Tu y crois, toi?",
      "EUit": "{{reaction type=\"Worry\"}}Che rimanga tra noi{{pause frames=\"5\"}}.{{pause frames=\"5\"}}.{{pause frames=\"5\"}}.{{pressButton}} {{reaction type=\"Intense\"}}ma\nil negozio di {{color id=\"6\"}}Tom Nook{{color id=\"0\"}} ha\nun seminterrato! Dove c'è{{pause frames=\"5\"}}.{{pause frames=\"5\"}}.{{pause frames=\"5\"}}.\n{{reaction type=\"Distress\"}}Una tonnellata di peluche a\nforma di {{color id=\"6\"}}Tom Nook{{color id=\"0\"}}! O così\npare, {{pause frames=\"10\"}}{{string value=\"Catchphrase\"}}!\n{{reaction type=\"Thought\"}}{{pause frames=\"10\"}}Me ne ha parlato\n{{capitalizeLetter}}{{string value=\"GossipVillager2\"}}{{pause frames=\"5\"}}.{{pause frames=\"5\"}}.{{pause frames=\"5\"}}.{{pause frames=\"20\"}} Che strano!\n{{reaction type=\"Curiosity\"}}{{pause frames=\"5\"}}Pensi che sia vero?",
      "JPja": "{{reaction type=\"Worry\"}}ここだけの　{{kanjiReplace charNum=\"1\" value=\"はなし\"}}話だけど{{pause frames=\"5\"}}・{{pause frames=\"5\"}}・{{pause frames=\"5\"}}・{{pressButton}}\n{{reaction type=\"Intense\"}}{{color id=\"6\"}}たぬきち{{color id=\"0\"}}くんの　お{{kanjiReplace charNum=\"1\" value=\"みせ\"}}店には\n{{kanjiReplace charNum=\"3\" value=\"ちかしつ\"}}地下室が　あってねぇ、\n{{reaction type=\"Distress\"}}いろんな　{{color id=\"6\"}}たぬきち{{color id=\"0\"}}くんの\nぬいぐるみが\nしまってあるんだってぇ！\n{{reaction type=\"Thought\"}}{{pause frames=\"10\"}}・{{pause frames=\"5\"}}・{{pause frames=\"5\"}}・{{string value=\"GossipVillager2\"}}くんに\n{{kanjiReplace charNum=\"1\" value=\"き\"}}聞いたんだけど、{{pause frames=\"20\"}}\n{{reaction type=\"Curiosity\"}}{{pause frames=\"5\"}}ホントかなぁ？　{{pause frames=\"10\"}}{{string value=\"Catchphrase\"}}？",
      "KRko": "{{reaction type=\"Worry\"}}너니까 하는 말인데{{pause frames=\"5\"}}・{{pause frames=\"5\"}}・{{pause frames=\"5\"}}・{{pressButton}}\n{{reaction type=\"Intense\"}}{{color id=\"6\"}}너굴 {{color id=\"0\"}}아저씨네 가게\n지하실에는～\n{{reaction type=\"Distress\"}}{{color id=\"6\"}}너굴 {{color id=\"0\"}}아저씨\n인형이\n잔뜩 들어있대！！\n{{reaction type=\"Thought\"}}{{pause frames=\"10\"}}・{{pause frames=\"5\"}}・{{pause frames=\"5\"}}・{{string value=\"GossipVillager2\"}}한테\n들었는데에{{pause frames=\"20\"}}\n{{reaction type=\"Curiosity\"}}{{pause frames=\"5\"}}진짤까아？？ {{pause frames=\"10\"}}{{string value=\"Catchphrase\"}}？？",
      "USen": "{{reaction type=\"Worry\"}}This is just between us{{pause frames=\"5\"}}.{{pause frames=\"5\"}}.{{pause frames=\"5\"}}.{{pressButton}}\n{{reaction type=\"Intense\"}}but {{color id=\"6\"}}Tom Nook{{color id=\"0\"}}'s shop has a\nbasement! And in it{{pause frames=\"5\"}}.{{pause frames=\"5\"}}.{{pause frames=\"5\"}}.\n{{reaction type=\"Distress\"}}There are supposedly tons\nof {{color id=\"6\"}}Tom Nook{{color id=\"0\"}} stuffed\nanimals! {{pause frames=\"10\"}}{{capitalizeLetter}}{{string value=\"Catchphrase\"}}!\n{{reaction type=\"Thought\"}}{{pause frames=\"10\"}}{{capitalizeLetter}}{{string value=\"GossipVillager2\"}} told me all\nabout it{{pause frames=\"5\"}}.{{pause frames=\"5\"}}.{{pause frames=\"5\"}}.{{pause frames=\"20\"}} Seems creepy!\n{{reaction type=\"Curiosity\"}}{{pause frames=\"5\"}}Do you think it's true?"
    }
  },
  {
    "label": "22",
    "attribute": "0x00000000FE000000",
    "locale": {
      "EUde": "{{reaction type=\"Worry\"}}Du weißt, dass {{color id=\"6\"}}Tom Nook{{color id=\"0\"}}{{pause frames=\"10\"}} dir\nüberall hin folgt, wenn du\nbei ihm einkaufst?\n{{pause frames=\"10\"}}{{reaction type=\"Resignation\"}}{{pause frames=\"5\"}}Keine Ahnung, was du dazu\nsagst, aber mich regt das\nauf, {{pause frames=\"5\"}}{{string value=\"Catchphrase\"}}!",
      "EUen": "{{reaction type=\"Worry\"}}You know how {{color id=\"6\"}}Tom Nook{{color id=\"0\"}}{{pause frames=\"10\"}}\nfollows you around when\nyou're in his shop?\n{{pause frames=\"10\"}}{{reaction type=\"Resignation\"}}{{pause frames=\"5\"}}Well, I don't know about you,\nbut it really harshes my\nmellow, {{pause frames=\"5\"}}{{string value=\"Catchphrase\"}}!",
      "EUes": "{{reaction type=\"Worry\"}}¿Sabes cómo te sigue {{color id=\"6\"}}Tom\nNook{{color id=\"0\"}}{{pause frames=\"10\"}} por su tienda?\n\n{{pause frames=\"10\"}}{{reaction type=\"Resignation\"}}{{pause frames=\"5\"}}¡Yo no sé a ti, pero a mí\nse me quitan las ganas de\ncomprar, {{pause frames=\"5\"}}{{string value=\"Catchphrase\"}}!",
      "EUfr": "{{reaction type=\"Worry\"}}Tu as vu comment {{color id=\"6\"}}Tom Nook{{color id=\"0\"}}{{pause frames=\"10\"}}\nte colle aux baskets quand\ntu es dans sa boutique?\n{{pause frames=\"10\"}}{{reaction type=\"Resignation\"}}{{pause frames=\"5\"}}Je ne sais pas pour toi, \nmais ça me casse les pieds,\n{{pause frames=\"5\"}}{{string value=\"Catchphrase\"}}!",
      "EUit": "{{reaction type=\"Worry\"}}Hai presente come {{color id=\"6\"}}Tom Nook{{color id=\"0\"}}{{pause frames=\"10\"}}\nti segue quando sei nel\nsuo negozio?\n{{pause frames=\"10\"}}{{reaction type=\"Resignation\"}}{{pause frames=\"5\"}}Beh, non so a te, ma a me\nfa venire un nervoso che\nnon ti dico, {{pause frames=\"5\"}}{{string value=\"Catchphrase\"}}!",
      "JPja": "{{reaction type=\"Worry\"}}{{color id=\"6\"}}たぬきち{{color id=\"0\"}}くんって、{{pause frames=\"10\"}}\nお{{kanjiReplace charNum=\"1\" value=\"みせ\"}}店の{{kanjiReplace charNum=\"1\" value=\"なか\"}}中にいると\nずっと　ついてくるけど、\n{{pause frames=\"10\"}}{{reaction type=\"Resignation\"}}{{pause frames=\"5\"}}アレ、{{pause frames=\"5\"}}けっこう\nめんどくさいよねぇ、{{pause frames=\"5\"}}{{string value=\"Catchphrase\"}}",
      "KRko": "{{reaction type=\"Worry\"}}{{color id=\"6\"}}너굴 {{color id=\"0\"}}아저씨 말이야！！{{pause frames=\"10\"}}\n가게에 들어가면\n계속 쫓아다니잖아～\n{{pause frames=\"10\"}}{{reaction type=\"Resignation\"}}{{pause frames=\"5\"}}그거， {{pause frames=\"5\"}}너무\n귀찮지 않니？ {{pause frames=\"5\"}}{{string value=\"Catchphrase\"}}？",
      "USen": "{{reaction type=\"Worry\"}}You know how {{color id=\"6\"}}Tom Nook{{color id=\"0\"}}{{pause frames=\"10\"}}\nfollows you around when\nyou're in his shop?\n{{pause frames=\"10\"}}{{reaction type=\"Resignation\"}}{{pause frames=\"5\"}}Well, I don't know about you,\nbut it really harshes my\nmellow, {{pause frames=\"5\"}}{{string value=\"Catchphrase\"}}!"
    }
  },
  {
    "label": "23",
    "attribute": "0x00000000FE000000",
    "locale": {
      "EUde": "{{resetReaction}}Meinst du nicht, {{color id=\"6\"}}Tom Nook\n{{color id=\"0\"}}läuft seltsam?{{pause frames=\"5\"}}\nEr.{{pause frames=\"5\"}}.{{pause frames=\"5\"}}.{{pause frames=\"5\"}} gleitet irgendwie!\n{{reaction type=\"Happiness\"}}Niemand muss beim Laufen\nso mit dem Schwanz wackeln,\n{{pause frames=\"5\"}}{{string value=\"Catchphrase\"}}.",
      "EUen": "{{resetReaction}}Don't you think {{color id=\"6\"}}Tom Nook\n{{color id=\"0\"}}has a weird way of walking?{{pause frames=\"5\"}}\nIt's like.{{pause frames=\"5\"}}.{{pause frames=\"5\"}}.{{pause frames=\"5\"}}a sashay!\n{{reaction type=\"Happiness\"}}Nobody needs to shake\ntheir tail like that when\nthey walk, {{pause frames=\"5\"}}{{string value=\"Catchphrase\"}}.",
      "EUes": "{{resetReaction}}¿No crees que {{color id=\"6\"}}Tom Nook\n{{color id=\"0\"}}camina de forma extraña?{{pause frames=\"5\"}}\nParece que.{{pause frames=\"5\"}}.{{pause frames=\"5\"}}.{{pause frames=\"5\"}} se pavonea.\n{{reaction type=\"Happiness\"}}¿A qué viene mover\ntanto la cola al andar,\n{{pause frames=\"5\"}}{{string value=\"Catchphrase\"}}?",
      "EUfr": "{{resetReaction}}Tu ne trouves pas que {{color id=\"6\"}}Tom \nNook {{color id=\"0\"}}marche bizarrement?{{pause frames=\"5\"}}\n\nComme.{{pause frames=\"5\"}}.{{pause frames=\"5\"}}.{{pause frames=\"5\"}} s'il\ndansait la samba!\n\n{{reaction type=\"Happiness\"}}A quoi ça lui sert de\nbalancer sa queue en \nmarchant, {{pause frames=\"5\"}}{{string value=\"Catchphrase\"}}?",
      "EUit": "{{resetReaction}}Non pensi che {{color id=\"6\"}}Tom Nook\n{{color id=\"0\"}}cammini in modo strano?{{pause frames=\"5\"}}\nÈ così.{{pause frames=\"5\"}}.{{pause frames=\"5\"}}.{{pause frames=\"5\"}} dinoccolato!\n{{reaction type=\"Happiness\"}}Non c'è bisogno di scuotere\nla coda in quel modo quando\nsi cammina, {{pause frames=\"5\"}}{{string value=\"Catchphrase\"}}.",
      "JPja": "{{resetReaction}}{{color id=\"6\"}}たぬきち{{color id=\"0\"}}くんの　{{kanjiReplace charNum=\"1\" value=\"ある\"}}歩き{{kanjiReplace charNum=\"1\" value=\"かた\"}}方って\nちょっと　かわってるよねぇ～、\n{{pause frames=\"5\"}}{{string value=\"Catchphrase\"}}\n{{reaction type=\"Happiness\"}}あんなに　おしりをふって\n{{kanjiReplace charNum=\"1\" value=\"ある\"}}歩くコトないのに・{{pause frames=\"5\"}}・{{pause frames=\"5\"}}・{{pause frames=\"5\"}}{{string value=\"Catchphrase\"}}",
      "KRko": "{{resetReaction}}{{color id=\"6\"}}너굴 {{color id=\"0\"}}아저씨\n진짜 특이하게 걷는거 같애～\n{{pause frames=\"5\"}}{{string value=\"Catchphrase\"}}～\n{{reaction type=\"Happiness\"}}엉덩이를 너무 실룩실룩\n거리더라아・{{pause frames=\"5\"}}・{{pause frames=\"5\"}}・{{pause frames=\"5\"}} {{string value=\"Catchphrase\"}}",
      "USen": "{{resetReaction}}Don't you think {{color id=\"6\"}}Tom Nook\n{{color id=\"0\"}}has a weird way of walking?{{pause frames=\"5\"}}\nIt's like.{{pause frames=\"5\"}}.{{pause frames=\"5\"}}.{{pause frames=\"5\"}}a sashay!\n{{reaction type=\"Happiness\"}}Nobody needs to shake\ntheir tail like that when\nthey walk, {{pause frames=\"5\"}}{{string value=\"Catchphrase\"}}."
    }
  },
  {
    "label": "24",
    "attribute": "0x00000000FE000000",
    "locale": {
      "EUde": "{{reaction type=\"Agreement\"}}Sicher wackeln die nur so\nmit dem Schwanz,{{pause frames=\"10\"}} weil sie\ndenken, es sieht süß aus.{{resetReaction}}\n{{reaction type=\"Intense\"}}Es ist nicht süß!{{pause frames=\"10\"}} Es ist nur{{pause frames=\"5\"}}\ntotal ätzend!\n\n{{pause frames=\"10\"}}Die müssen echt damit\naufhören, {{pause frames=\"5\"}}{{string value=\"Catchphrase\"}}!{{fun_03 arg=\"0x01\"}}",
      "EUen": "{{reaction type=\"Agreement\"}}I'm sure they shake their\ntails like that{{pause frames=\"10\"}} 'cause they\nthink it's cute.{{resetReaction}}\n{{reaction type=\"Intense\"}}But it's not cute!{{pause frames=\"10\"}} It's just{{pause frames=\"5\"}}\nsuper annoying! {{pause frames=\"10\"}}They really\ngotta quit it, {{pause frames=\"5\"}}{{string value=\"Catchphrase\"}}!{{fun_03 arg=\"0x01\"}}",
      "EUes": "{{reaction type=\"Agreement\"}}Seguro que mueven así la\ncola{{pause frames=\"10\"}} porque piensan que\nes bonito.{{resetReaction}}\n{{reaction type=\"Intense\"}}¡Pero no lo es!{{pause frames=\"10\"}} ¡No veas{{pause frames=\"5\"}}\ncómo molesta! {{pause frames=\"10\"}}¡Ya podrían\ndejarlo, {{pause frames=\"5\"}}{{string value=\"Catchphrase\"}}!{{fun_03 arg=\"0x01\"}}",
      "EUfr": "{{reaction type=\"Agreement\"}}Je suis sûr qu'ils trouvent\nça mignon{{pause frames=\"10\"}} de remuer\nleur queue.{{resetReaction}}\n{{reaction type=\"Intense\"}}Alors que non!{{pause frames=\"10\"}} C'est juste{{pause frames=\"5\"}}\nsuper énervant! {{pause frames=\"10\"}}Faut qu'ils \narrêtent, {{pause frames=\"5\"}}{{string value=\"Catchphrase\"}}!{{fun_03 arg=\"0x01\"}}",
      "EUit": "{{reaction type=\"Agreement\"}}Penso che scuotano la coda\nin quel modo{{pause frames=\"10\"}} perché pensano\nche sia carino.{{resetReaction}}\n{{reaction type=\"Intense\"}}Ma non lo è!{{pause frames=\"10\"}} È solo{{pause frames=\"5\"}}\nfastidioso! {{pause frames=\"10\"}}Dovrebbero\nsmetterla, {{pause frames=\"5\"}}{{string value=\"Catchphrase\"}}!{{fun_03 arg=\"0x01\"}}",
      "JPja": "{{reaction type=\"Agreement\"}}いっちょまえに\nしっぽを　フリフリさせて{{pause frames=\"10\"}}\nカワイイつもりだろうけど、{{resetReaction}}\n{{reaction type=\"Intense\"}}なんか　つい、{{pause frames=\"10\"}}\nイラついちゃう、{{pause frames=\"5\"}}ボク{{pause frames=\"5\"}}・{{pause frames=\"5\"}}・{{pause frames=\"5\"}}・\n{{pause frames=\"10\"}}{{string value=\"Catchphrase\"}}！{{fun_03 arg=\"0x01\"}}",
      "KRko": "{{reaction type=\"Agreement\"}}눈앞에서\n엉덩이를 실룩실룩거리면{{pause frames=\"10\"}}\n귀여운 줄 아는 모양인데{{resetReaction}}\n{{reaction type=\"Intense\"}}사실은 하나도{{pause frames=\"10\"}}\n안 귀엽더라， {{pause frames=\"5\"}}난{{pause frames=\"5\"}}・{{pause frames=\"5\"}}・{{pause frames=\"5\"}}・\n{{pause frames=\"10\"}}{{string value=\"Catchphrase\"}}～{{fun_03 arg=\"0x0100\"}}",
      "USen": "{{reaction type=\"Agreement\"}}I'm sure they shake their\ntails like that{{pause frames=\"10\"}} 'cause they\nthink it's cute.{{resetReaction}}\n{{reaction type=\"Intense\"}}But it's not cute!{{pause frames=\"10\"}} It's just{{pause frames=\"5\"}}\nsuper annoying! {{pause frames=\"10\"}}They really\ngotta quit it, {{pause frames=\"5\"}}{{string value=\"Catchphrase\"}}!{{fun_03 arg=\"0x01\"}}"
    }
  },
  {
    "label": "25",
    "attribute": "0x00000000FE000000",
    "locale": {
      "EUde": "{{resetReaction}}Sie helfen {{color id=\"6\"}}Tom Nook{{color id=\"0\"}} im Ge-\nschäft, wenn viel zu tun\nist,{{pause frames=\"10\"}} {{string value=\"Catchphrase\"}}.\n{{reaction type=\"Thought\"}}{{pause frames=\"10\"}}Sie sind wohl nicht ver-\nwandt{{pause frames=\"5\"}}.{{pause frames=\"5\"}}.{{pause frames=\"5\"}}.{{pause frames=\"20\"}}{{reaction type=\"Happiness\"}} sehen aber genau\nwie {{color id=\"6\"}}Tom Nook {{color id=\"0\"}}aus.",
      "EUen": "{{resetReaction}}They help {{color id=\"6\"}}Tom Nook{{color id=\"0\"}} run his\nshop when it's really busy,{{pause frames=\"10\"}}\n{{string value=\"Catchphrase\"}}.\n{{reaction type=\"Thought\"}}{{pause frames=\"10\"}}Supposedly they aren't\nrelated{{pause frames=\"5\"}}.{{pause frames=\"5\"}}.{{pause frames=\"5\"}}.{{pause frames=\"20\"}}{{reaction type=\"Happiness\"}}but they look\nexactly like {{color id=\"6\"}}Tom Nook{{color id=\"0\"}}.",
      "EUes": "{{resetReaction}}Ayudan a {{color id=\"6\"}}Tom Nook{{color id=\"0\"}} con la\ntienda cuando está muy\nocupado,{{pause frames=\"10\"}} {{string value=\"Catchphrase\"}}.\n{{reaction type=\"Thought\"}}{{pause frames=\"10\"}}Se supone que no son\nparientes{{pause frames=\"5\"}}.{{pause frames=\"5\"}}.{{pause frames=\"5\"}}.,{{pause frames=\"20\"}}{{reaction type=\"Happiness\"}} pero son un\ncalco de {{color id=\"6\"}}Tom Nook{{color id=\"0\"}}.",
      "EUfr": "{{resetReaction}}Ils aident {{color id=\"6\"}}Tom Nook{{color id=\"0\"}} à tenir\nle magasin quand il est \ntrop occupé,{{pause frames=\"10\"}} {{string value=\"Catchphrase\"}}.\n{{reaction type=\"Thought\"}}{{pause frames=\"10\"}}Apparemment, ils ne sont \npas de la même famille{{pause frames=\"5\"}}.{{pause frames=\"5\"}}.{{pause frames=\"5\"}}.{{pause frames=\"20\"}}\n\n{{reaction type=\"Happiness\"}}En tout cas, c'est le\nportrait craché du\nvieux {{color id=\"6\"}}Nook{{color id=\"0\"}}.",
      "EUit": "{{resetReaction}}Aiutano {{color id=\"6\"}}Tom Nook{{color id=\"0\"}} al negozio\nquando c'è molto da fare,{{pause frames=\"10\"}}\n{{string value=\"Catchphrase\"}}.\n{{reaction type=\"Thought\"}}{{pause frames=\"10\"}}Pare che non siano\nparenti{{pause frames=\"5\"}}.{{pause frames=\"5\"}}.{{pause frames=\"5\"}}.{{pause frames=\"20\"}}{{reaction type=\"Happiness\"}} ma sono\nidentici a {{color id=\"6\"}}Tom Nook{{color id=\"0\"}}.",
      "JPja": "{{resetReaction}}{{color id=\"6\"}}たぬきち{{color id=\"0\"}}くんの　お{{kanjiReplace charNum=\"1\" value=\"みせ\"}}店が\nいそがしくなると\nやってくるんだよぉ～、{{pause frames=\"10\"}}{{string value=\"Catchphrase\"}}\n{{reaction type=\"Thought\"}}{{pause frames=\"10\"}}ちの　つながりとかは\nないらしいんだけど{{pause frames=\"5\"}}・{{pause frames=\"5\"}}・{{pause frames=\"5\"}}・{{pause frames=\"20\"}}\n{{color id=\"6\"}}{{reaction type=\"Happiness\"}}たぬきち{{color id=\"0\"}}くんに　そっくりなんだぁ",
      "KRko": "{{resetReaction}}{{color id=\"6\"}}너굴 {{color id=\"0\"}}아저씨네 가게가\n바빠지면\n나타나～ {{pause frames=\"10\"}}{{string value=\"Catchphrase\"}}\n{{reaction type=\"Thought\"}}{{pause frames=\"10\"}}가족같이 보이진\n않지만{{pause frames=\"5\"}}・{{pause frames=\"5\"}}・{{pause frames=\"5\"}}・{{pause frames=\"20\"}}\n{{color id=\"6\"}}{{reaction type=\"Happiness\"}}너굴 {{color id=\"0\"}}아저씨랑 너무 닮았어",
      "USen": "{{resetReaction}}They help {{color id=\"6\"}}Tom Nook{{color id=\"0\"}} run his\nshop when it's really busy,{{pause frames=\"10\"}}\n{{string value=\"Catchphrase\"}}.\n{{reaction type=\"Thought\"}}{{pause frames=\"10\"}}Supposedly they aren't\nrelated{{pause frames=\"5\"}}.{{pause frames=\"5\"}}.{{pause frames=\"5\"}}.{{pause frames=\"20\"}}{{reaction type=\"Happiness\"}}but they look\nexactly like {{color id=\"6\"}}Tom Nook{{color id=\"0\"}}."
    }
  },
  {
    "label": "26",
    "attribute": "0x00000000FE000000",
    "locale": {
      "EUde": "{{reaction type=\"Annoyed\"}}{{pause frames=\"5\"}}{{capitalizeLetter}}{{string value=\"PlayerNickname\"}}!{{pause frames=\"20\"}} Das ist ein\nOrt, wo Männer sich treffen\nund wichtige...\n...männliche Dinge be-\nsprechen!\n\n{{reaction type=\"Glee\"}}{{pause frames=\"10\"}}Wie man sein Heim\nverschönert mit Blumen und\nSpitze!",
      "EUen": "{{reaction type=\"Annoyed\"}}{{pause frames=\"5\"}}{{capitalizeLetter}}{{string value=\"PlayerNickname\"}}!{{pause frames=\"20\"}} This is a place\nwhere men meet and discuss\nimportant, manly things!\nYes, manly things, like {{reaction type=\"Glee\"}}{{pause frames=\"10\"}}how\nto spruce up your space\nwith lace and flowers!",
      "EUes": "{{reaction type=\"Annoyed\"}}{{pause frames=\"5\"}}¡{{capitalizeLetter}}{{string value=\"PlayerNickname\"}}!{{pause frames=\"20\"}} ¡En este sitio\nlos hombres discuten cosas\nmuy de hombres!\nSí, cosas de hombres, como\n{{reaction type=\"Glee\"}}{{pause frames=\"10\"}}¡decidir la disposición de\nlas flores en los jardines!",
      "EUfr": "{{reaction type=\"Annoyed\"}}{{pause frames=\"5\"}}{{capitalizeLetter}}{{string value=\"PlayerNickname\"}}!{{pause frames=\"20\"}} C'est un lieu\noù les hommes se\nrassemblent!\nOn y tient des discussions\nimportantes et plutôt\nviriles.\nOuaip, viriles, genre, {{reaction type=\"Glee\"}}{{pause frames=\"10\"}}\n\"Du bon usage de la dentelle\ndans la déco' d'intérieur\"!",
      "EUit": "{{reaction type=\"Annoyed\"}}{{pause frames=\"5\"}}{{capitalizeLetter}}{{string value=\"PlayerNickname\"}}!{{pause frames=\"20\"}} È qui che noi\nuomini ci incontriamo per\nparlare di cose... da uomini!\nSì, da uomini, tipo {{reaction type=\"Glee\"}}{{pause frames=\"10\"}}come\naddobbare casa con\npizzi e fiori!",
      "JPja": "{{reaction type=\"Amazed\"}}{{pause frames=\"5\"}}{{string value=\"PlayerNickname\"}}くん！{{pause frames=\"20\"}}\n{{reaction type=\"Intense\"}}{{kanjiReplace charNum=\"2\" value=\"きょう\"}}今日は　{{kanjiReplace charNum=\"1\" value=\"おとこ\"}}男どうし{{pause frames=\"5\"}}・{{pause frames=\"5\"}}・{{pause frames=\"5\"}}・\n\n{{reaction type=\"Glee\"}}ピンクと　レースの　\nかんけいに　ついて、{{pause frames=\"10\"}}\n{{kanjiReplace charNum=\"1\" value=\"かた\"}}語り{{kanjiReplace charNum=\"1\" value=\"あ\"}}合おうじゃないかぁ～！",
      "KRko": "{{reaction type=\"Annoyed\"}}{{pause frames=\"5\"}}{{string value=\"PlayerNickname\"}}{{fun_0B arg=\"0x0400\"}}！！{{pause frames=\"20\"}}\n남자 대 남자로{{pause frames=\"5\"}}・{{pause frames=\"5\"}}・{{pause frames=\"5\"}}・\n\n{{reaction type=\"Glee\"}}핑크랑 레이스의\n관계에 대해{{pause frames=\"10\"}}\n열띠게 토론해 보자～！！",
      "USen": "{{reaction type=\"Annoyed\"}}{{pause frames=\"5\"}}{{capitalizeLetter}}{{string value=\"PlayerNickname\"}}!{{pause frames=\"20\"}} This is a place\nwhere men meet and discuss\nimportant, manly things!\nYes, manly things, like {{reaction type=\"Glee\"}}{{pause frames=\"10\"}}how\nto spruce up your space\nwith lace and flowers!"
    }
  },
  {
    "label": "27",
    "attribute": "0x00000000FE000000",
    "locale": {
      "EUde": "{{reaction type=\"Intense\"}}Unglaublich, dass du in mein\nHaus gestürzt kommst,{{pause frames=\"5\"}} ohne\nein Geschenk mitzubringen{{pause frames=\"5\"}}.{{pause frames=\"5\"}}.{{pause frames=\"5\"}}.\n{{pause frames=\"10\"}}{{reaction type=\"Resignation\"}}{{pause frames=\"5\"}}Ich sag jetzt schon,{{pause frames=\"5\"}} wenn\ndu irgendwo aneckst, ist\ndas nicht meine Schuld.\n{{pause frames=\"5\"}}{{capitalizeLetter}}{{string value=\"Catchphrase\"}}!",
      "EUen": "{{reaction type=\"Intense\"}}I can't believe you barged\ninto my house{{pause frames=\"5\"}} without even\nbringing me a gift{{pause frames=\"5\"}}.{{pause frames=\"5\"}}.{{pause frames=\"5\"}}.\n{{pause frames=\"10\"}}{{reaction type=\"Resignation\"}}{{pause frames=\"5\"}}I'm telling you now,{{pause frames=\"5\"}} if you\nend up getting burned, it's\nnot my fault, {{pause frames=\"5\"}}{{string value=\"Catchphrase\"}}!",
      "EUes": "{{reaction type=\"Intense\"}}No me lo creo. Entras a\nempujones en mi casa{{pause frames=\"5\"}} y ni\nsiquiera me traes nada{{pause frames=\"5\"}}.{{pause frames=\"5\"}}.{{pause frames=\"5\"}}.\n{{pause frames=\"10\"}}{{reaction type=\"Resignation\"}}{{pause frames=\"5\"}}Te lo advierto.{{pause frames=\"5\"}} ¡Después no\nvengas con que no lo\nsabías, {{pause frames=\"5\"}}{{string value=\"Catchphrase\"}}!",
      "EUfr": "{{reaction type=\"Intense\"}}Dire que tu déboules chez \nmoi{{pause frames=\"5\"}} sans même apporter un\ncadeau{{pause frames=\"5\"}}.{{pause frames=\"5\"}}.{{pause frames=\"5\"}}.\n{{pause frames=\"10\"}}{{reaction type=\"Resignation\"}}{{pause frames=\"5\"}}Je te préviens,{{pause frames=\"5\"}} faudra pas\nvenir pleurer s'il t'arrive\ndes ennuis, {{pause frames=\"5\"}}{{string value=\"Catchphrase\"}}!",
      "EUit": "{{reaction type=\"Intense\"}}Sei entrata in casa mia\nsenza bussare{{pause frames=\"5\"}} e senza\nnemmeno un regalo{{pause frames=\"5\"}}.{{pause frames=\"5\"}}.{{pause frames=\"5\"}}.\n{{pause frames=\"10\"}}{{reaction type=\"Resignation\"}}{{pause frames=\"5\"}}T'avverto,{{pause frames=\"5\"}} se ti farai\nmale, non sarà colpa mia,\n{{pause frames=\"5\"}}{{string value=\"Catchphrase\"}}!",
      "JPja": "{{reaction type=\"Intense\"}}{{kanjiReplace charNum=\"1\" value=\"て\"}}手みやげも　もたずに、{{pause frames=\"5\"}}\nボクの　おへやに\n{{kanjiReplace charNum=\"1\" value=\"はい\"}}入ってくるなんて{{pause frames=\"5\"}}・{{pause frames=\"5\"}}・{{pause frames=\"5\"}}・\n{{pause frames=\"10\"}}{{reaction type=\"Resignation\"}}{{pause frames=\"5\"}}ヤケドしても　{{kanjiReplace charNum=\"1\" value=\"し\"}}知らないよぉ\n{{string value=\"PlayerNickname\"}}くぅん！　{{pause frames=\"5\"}}{{string value=\"Catchphrase\"}}！",
      "KRko": "{{reaction type=\"Intense\"}}선물도 없이{{pause frames=\"5\"}}\n빈손으로\n들어오다니{{pause frames=\"5\"}}・{{pause frames=\"5\"}}・{{pause frames=\"5\"}}・\n{{pause frames=\"10\"}}{{reaction type=\"Resignation\"}}{{pause frames=\"5\"}}다쳐도 난 몰라！\n{{string value=\"PlayerNickname\"}}！ {{pause frames=\"5\"}}{{string value=\"Catchphrase\"}}！",
      "USen": "{{reaction type=\"Intense\"}}I can't believe you barged\ninto my house{{pause frames=\"5\"}} without even\nbringing me a gift{{pause frames=\"5\"}}.{{pause frames=\"5\"}}.{{pause frames=\"5\"}}.\n{{pause frames=\"10\"}}{{reaction type=\"Resignation\"}}{{pause frames=\"5\"}}I'm telling you now,{{pause frames=\"5\"}} if you\nend up getting burned, it's\nnot my fault, {{pause frames=\"5\"}}{{string value=\"Catchphrase\"}}!"
    }
  },
  {
    "label": "28",
    "attribute": "0x00000000FE000000",
    "locale": {
      "EUde": "{{reaction type=\"Worry\"}}Ich glaube, wir haben nicht\ngenug Einwohner hier in\n{{color id=\"8\"}}{{string value=\"TownName\"}}{{color id=\"0\"}},{{pause frames=\"5\"}} {{string value=\"Catchphrase\"}}.\n{{reaction type=\"Distress\"}}Ich möchte mehr Leute\ntreffen {{pressButton}}und öfter zum\nEssen eingeladen werden.",
      "EUen": "{{reaction type=\"Worry\"}}I don't think we have\nenough residents here in\n{{color id=\"8\"}}{{string value=\"TownName\"}}{{color id=\"0\"}},{{pause frames=\"5\"}} {{string value=\"Catchphrase\"}}.\n{{reaction type=\"Distress\"}}I want to meet more people{{pressButton}}\nand get invited over for\ndinner.",
      "EUes": "{{reaction type=\"Worry\"}}Creo que faltan residentes\npara darle vidilla a\n{{color id=\"8\"}}{{string value=\"TownName\"}}{{color id=\"0\"}},{{pause frames=\"5\"}} {{string value=\"Catchphrase\"}}.\n{{reaction type=\"Distress\"}}Soy un animal social,{{pressButton}}\nnecesito que me inviten\nmás a cenar.",
      "EUfr": "{{reaction type=\"Worry\"}}Je trouve que nous \nmanquons d'habitants à\n{{color id=\"8\"}}{{string value=\"TownName\"}}{{color id=\"0\"}},{{pause frames=\"5\"}} {{string value=\"Catchphrase\"}}.\n{{reaction type=\"Distress\"}}Je veux de nouveaux amis{{pressButton}}\npour qu'ils m'invitent à\ndîner.",
      "EUit": "{{reaction type=\"Worry\"}}Secondo me non ci sono\nabbastanza abitanti qui a\n{{color id=\"8\"}}{{string value=\"TownName\"}}{{color id=\"0\"}},{{pause frames=\"5\"}} {{string value=\"Catchphrase\"}}.\n{{reaction type=\"Distress\"}}Voglio conoscere più\npersone{{pressButton}} e farmi invitare\na cena a casa loro.",
      "JPja": "{{reaction type=\"Worry\"}}この{{kanjiReplace charNum=\"1\" value=\"むら\"}}村って　ちょっと\nひとが{{kanjiReplace charNum=\"1\" value=\"すく\"}}少ないと\n{{kanjiReplace charNum=\"1\" value=\"おも\"}}思うんだぁ～、{{pause frames=\"5\"}}{{string value=\"Catchphrase\"}}\n{{reaction type=\"Distress\"}}もっと　ボク{{pause frames=\"5\"}}・{{pause frames=\"5\"}}・{{pause frames=\"5\"}}・{{pause frames=\"5\"}}\n{{kanjiReplace charNum=\"1\" value=\"あたら\"}}新しい　{{kanjiReplace charNum=\"2\" value=\"であ\"}}出会いに\nドキドキしたいよぉ～、{{pause frames=\"10\"}}{{string value=\"Catchphrase\"}}",
      "KRko": "{{reaction type=\"Worry\"}}이 마을엔 사람이\n너무 적은 거 같애～～\n{{pause frames=\"5\"}}{{string value=\"Catchphrase\"}}～～\n{{reaction type=\"Distress\"}}난 계속{{pause frames=\"5\"}}・{{pause frames=\"5\"}}・{{pause frames=\"5\"}}・{{pause frames=\"5\"}}\n새롭고 가슴 설레는 만남이\n필요한데～ {{pause frames=\"10\"}}{{string value=\"Catchphrase\"}}～",
      "USen": "{{reaction type=\"Worry\"}}I don't think we have\nenough residents here in\n{{color id=\"8\"}}{{string value=\"TownName\"}}{{color id=\"0\"}},{{pause frames=\"5\"}} {{string value=\"Catchphrase\"}}.\n{{reaction type=\"Distress\"}}I want to meet more people{{pressButton}}\nand get invited over for\ndinner."
    }
  },
  {
    "label": "29",
    "attribute": "0x00000000FE000000",
    "locale": {
      "EUde": "{{reaction type=\"Worry\"}}In letzter Zeit{{pause frames=\"5\"}} sind neue\nLeute in die Stadt ge-\nzogen{{pause frames=\"5\"}}.{{pause frames=\"5\"}}.{{pause frames=\"5\"}}.\n{{reaction type=\"Distress\"}}Aber immer noch nicht ge-\nnug, um meine Einsamkeit zu\nvertreiben,{{pause frames=\"5\"}} {{string value=\"Catchphrase\"}}!",
      "EUen": "{{reaction type=\"Worry\"}}Lately,{{pause frames=\"5\"}} a few new folk have\nbeen moving into town{{pause frames=\"5\"}}.{{pause frames=\"5\"}}.{{pause frames=\"5\"}}.\n\n{{reaction type=\"Distress\"}}But there still aren't\nenough to put an end to my\nloneliness,{{pause frames=\"5\"}} {{string value=\"Catchphrase\"}}!",
      "EUes": "{{reaction type=\"Worry\"}}Hace poco,{{pause frames=\"5\"}} llegó un nuevo\nresidente al pueblo{{pause frames=\"5\"}}.{{pause frames=\"5\"}}.{{pause frames=\"5\"}}.\n\n{{reaction type=\"Distress\"}}¡Pero no es suficiente para\nacabar con esta sensación\nde soledad,{{pause frames=\"5\"}} {{string value=\"Catchphrase\"}}!",
      "EUfr": "{{reaction type=\"Worry\"}}Dernièrement,{{pause frames=\"5\"}} de nouveaux\nhabitants ont emménagé\nen ville{{pause frames=\"5\"}}.{{pause frames=\"5\"}}.{{pause frames=\"5\"}}.\n{{reaction type=\"Distress\"}}Mais ça ne suffit pas à me\ndébarrasser du poids de la \nsolitude,{{pause frames=\"5\"}} {{string value=\"Catchphrase\"}}!",
      "EUit": "{{reaction type=\"Worry\"}}Ultimamente{{pause frames=\"5\"}} sono arrivate\nin città un po' di persone\nnuove{{pause frames=\"5\"}}.{{pause frames=\"5\"}}.{{pause frames=\"5\"}}.\n{{reaction type=\"Distress\"}}Ma non bastano per porre\nfine alla mia solitudine,{{pause frames=\"5\"}}\n{{string value=\"Catchphrase\"}}!",
      "JPja": "{{reaction type=\"Worry\"}}さいきん　この{{kanjiReplace charNum=\"1\" value=\"むら\"}}村に、{{pause frames=\"5\"}}\nちょっとだけ　{{kanjiReplace charNum=\"1\" value=\"あたら\"}}新しい\nじゅうにんが　ふえたけど{{pause frames=\"5\"}}・{{pause frames=\"5\"}}・{{pause frames=\"5\"}}・\n{{reaction type=\"Distress\"}}まだまだ　こんなもんじゃ\nボクの　こどくは\nうめられないのだぁ！　{{pause frames=\"5\"}}{{string value=\"Catchphrase\"}}！",
      "KRko": "{{reaction type=\"Worry\"}}요즘 이 마을에{{pause frames=\"5\"}}\n새로운 주민이 몇 명\n늘은 것 같기도 한데{{pause frames=\"5\"}}・{{pause frames=\"5\"}}・{{pause frames=\"5\"}}・\n{{reaction type=\"Distress\"}}이 정도로는\n내 외로움이\n풀리지 않아！ {{pause frames=\"5\"}}{{string value=\"Catchphrase\"}}",
      "USen": "{{reaction type=\"Worry\"}}Lately,{{pause frames=\"5\"}} a few new folk have\nbeen moving into town{{pause frames=\"5\"}}.{{pause frames=\"5\"}}.{{pause frames=\"5\"}}.\n\n{{reaction type=\"Distress\"}}But there still aren't\nenough to put an end to my\nloneliness,{{pause frames=\"5\"}} {{string value=\"Catchphrase\"}}!"
    }
  },
  {
    "label": "30",
    "attribute": "0x00000000FE000000",
    "locale": {
      "EUde": "{{reaction type=\"Thought\"}}{{pause frames=\"10\"}}Wann wird diese Stadt\nendlich{{pause frames=\"10\"}} zu einem leb-\nhafteren Ort?\n{{reaction type=\"Distress\"}}Wenn {{string value=\"TownName\"}} nur so be-\nlebt wäre, dass man sich\nwie auf dem Rummel fühlt.",
      "EUen": "{{reaction type=\"Thought\"}}{{pause frames=\"10\"}}I wonder when this town{{pause frames=\"10\"}} is\ngoing to start being a\nmore happening place.\n{{reaction type=\"Distress\"}}Ideally, I'd like {{string value=\"TownName\"}}\nto be so crowded that it's\nlike a fair all the time!",
      "EUes": "{{reaction type=\"Thought\"}}{{pause frames=\"10\"}}Me pregunto cuándo este\npueblo{{pause frames=\"10\"}} va a convertirse en\nuna ciudad importante.\n{{reaction type=\"Distress\"}}¡Ojalá hubiera tanta gente\nen {{string value=\"TownName\"}} que esto\npareciera una fiesta!",
      "EUfr": "{{reaction type=\"Thought\"}}{{pause frames=\"10\"}}Je me demande quand cette \nville{{pause frames=\"10\"}} finira par\nbouger un peu.\n{{reaction type=\"Distress\"}}Pour ma part, je voudrais\nqu'il y ait tellement de \ngens à {{string value=\"TownName\"}}...\n... qu'on ait l'impression\nque c'est tous les jours\nla fête!",
      "EUit": "{{reaction type=\"Thought\"}}{{pause frames=\"10\"}}Chissà quando{{pause frames=\"10\"}} questa\ncittà sarà più mondana...\n\n{{reaction type=\"Distress\"}}Vorrei tanto che \n{{string value=\"TownName\"}} sembrasse\nsempre in festa!",
      "JPja": "{{reaction type=\"Thought\"}}{{pause frames=\"10\"}}この{{kanjiReplace charNum=\"1\" value=\"むら\"}}村って{{pause frames=\"10\"}}\nもっと　{{kanjiReplace charNum=\"2\" value=\"げんき\"}}元気に\nならないのかなぁ？　{{pause frames=\"5\"}}{{string value=\"Catchphrase\"}}？\n{{reaction type=\"Distress\"}}ボクはねぇ！{{pause frames=\"10\"}}\nみんなで　{{kanjiReplace charNum=\"2\" value=\"まいにち\"}}毎日\nおまつりしたいんだよぉ～！",
      "KRko": "{{reaction type=\"Thought\"}}{{pause frames=\"10\"}}이 마을이{{pause frames=\"10\"}}\n더 활기찰 수는\n없는걸까아？ {{pause frames=\"5\"}}{{string value=\"Catchphrase\"}}？\n{{reaction type=\"Distress\"}}난 말이야아！！{{pause frames=\"10\"}}\n사람들이랑 매일 매일\n재밌게 놀고 싶거든～！！",
      "USen": "{{reaction type=\"Thought\"}}{{pause frames=\"10\"}}I wonder when this town{{pause frames=\"10\"}} is\ngoing to start being a\nmore happening place.\n{{reaction type=\"Distress\"}}Ideally, I'd like {{string value=\"TownName\"}}\nto be so crowded that it's\nlike a fair all the time!"
    }
  },
  {
    "label": "31",
    "attribute": "0x00000000FE000000",
    "locale": {
      "EUde": "{{reaction type=\"Thought\"}}{{pause frames=\"10\"}}Ich bin schüchtern,{{pressButton}}{{reaction type=\"Happiness\"}} aber\nseit meinem Umzug hierher{{pause frames=\"10\"}}\nrede ich mit mehr Leuten!\n{{reaction type=\"Love\"}}{{pause frames=\"10\"}}Vielleicht sollte ich mal in\nUrlaub fahren,{{pause frames=\"10\"}} {{string value=\"Catchphrase\"}}.",
      "EUen": "{{reaction type=\"Thought\"}}{{pause frames=\"10\"}}I might be kind of shy,{{pressButton}}{{reaction type=\"Happiness\"}} but\nafter moving here,{{pause frames=\"10\"}} I talk\nto all sorts of new people!\n{{reaction type=\"Love\"}}{{pause frames=\"10\"}}Maybe I should try going on\na trip sometime soon,{{pause frames=\"10\"}}\n{{string value=\"Catchphrase\"}}.",
      "EUes": "{{reaction type=\"Thought\"}}{{pause frames=\"10\"}}¡Pese a mi timidez,{{pressButton}}{{reaction type=\"Happiness\"}} en este\npueblo {{pause frames=\"10\"}}no dejo de hablar\ncon gente nueva cada día!\n{{reaction type=\"Love\"}}{{pause frames=\"10\"}}Hasta me dan ganas de\nprogramarme un viaje de\nesos de fin de semana.",
      "EUfr": "{{reaction type=\"Thought\"}}{{pause frames=\"10\"}}Je suis peut-être timide,{{pressButton}}{{reaction type=\"Happiness\"}}\nmais depuis mon arrivée ici,{{pause frames=\"10\"}}\nje fais plein de rencontres!\n{{reaction type=\"Love\"}}{{pause frames=\"10\"}}Je devrais peut-être\nenvisager de visiter une \nautre ville,{{pause frames=\"10\"}} {{string value=\"Catchphrase\"}}.",
      "EUit": "{{reaction type=\"Thought\"}}{{pause frames=\"10\"}}Anche se sono timido,{{pressButton}}{{reaction type=\"Happiness\"}} da\nquando sono qui,{{pause frames=\"10\"}} parlo a\nun sacco di persone nuove!\n{{reaction type=\"Love\"}}{{pause frames=\"10\"}}Forse dovrei andare in\nviaggio uno di questi\ngiorni,{{pause frames=\"10\"}} {{string value=\"Catchphrase\"}}.",
      "JPja": "{{reaction type=\"Thought\"}}{{pause frames=\"10\"}}ひっこみじあんで\nはずかしがりやの\nボクだったけど{{pause frames=\"5\"}}・{{pause frames=\"5\"}}・{{pause frames=\"5\"}}・\n{{reaction type=\"Happiness\"}}この{{kanjiReplace charNum=\"1\" value=\"むら\"}}村に　{{kanjiReplace charNum=\"1\" value=\"き\"}}来てから\n{{kanjiReplace charNum=\"1\" value=\"し\"}}知らないひととも{{pause frames=\"10\"}}\n{{kanjiReplace charNum=\"1\" value=\"はな\"}}話せるように　なったよぉ～！\n{{reaction type=\"Love\"}}{{pause frames=\"10\"}}そろそろ　どこかへ\nたびしてみるのも\nいいかなぁ～、{{pause frames=\"10\"}}{{string value=\"Catchphrase\"}}",
      "KRko": "{{reaction type=\"Thought\"}}{{pause frames=\"10\"}}소극적이고\n부끄럼을 잘 타는\n난{{pause frames=\"5\"}}・{{pause frames=\"5\"}}・{{pause frames=\"5\"}}・\n{{reaction type=\"Happiness\"}}이 마을에 와서\n모르는 사람들과도{{pause frames=\"10\"}}\n얘기를 나눌 수 있게 됐어～！\n{{reaction type=\"Love\"}}{{pause frames=\"10\"}}이제 슬슬 다른 곳으로\n떠나 볼까도 싶어～{{pause frames=\"10\"}}\n{{string value=\"Catchphrase\"}}～",
      "USen": "{{reaction type=\"Thought\"}}{{pause frames=\"10\"}}I might be kind of shy,{{pressButton}}{{reaction type=\"Happiness\"}} but\nafter moving here,{{pause frames=\"10\"}} I talk\nto all sorts of new people!\n{{reaction type=\"Love\"}}{{pause frames=\"10\"}}Maybe I should try going on\na trip sometime soon,{{pause frames=\"10\"}}\n{{string value=\"Catchphrase\"}}."
    }
  }
]