[
  {
    "label": "0",
    "attribute": "0x00000000FF000000",
    "locale": {
      "EUde": "{{reaction type=\"Thought\"}}Ich denke, wir sollten mehr \nZeit miteinander verbringen,\n{{pause frames=\"5\"}}meinst du nicht?\n{{reaction type=\"Inspiration\"}}{{pause frames=\"20\"}}Oh!{{pause frames=\"5\"}} {{reaction type=\"Happiness\"}}Oh! Oh! Ich weiß!{{pause frames=\"20\"}}{{reaction type=\"Curiosity\"}} Kann \nich{{pause frames=\"10\"}} irgendwann mal bei dir \nvorbeikommen?",
      "EUen": "{{reaction type=\"Thought\"}}I think we should hang out\nmore, {{pause frames=\"5\"}}don't you?\n\n{{reaction type=\"Inspiration\"}}{{pause frames=\"20\"}}Oh!{{pause frames=\"5\"}} {{reaction type=\"Happiness\"}}Oh! Oh! I know!{{pause frames=\"20\"}}{{reaction type=\"Curiosity\"}} Can I{{pause frames=\"10\"}}\ncome over to your house\nsometime?",
      "EUes": "{{reaction type=\"Thought\"}}Deberíamos conocernos\nmejor, {{pause frames=\"5\"}}¿no crees?\n\n{{reaction type=\"Inspiration\"}}{{pause frames=\"20\"}}¡Ah!{{pause frames=\"5\"}} {{reaction type=\"Happiness\"}}¡Sí, sí! ¡Ya sé!{{pause frames=\"20\"}}{{reaction type=\"Curiosity\"}} ¿Puedo{{pause frames=\"10\"}}\nvisitar tu casa un día de\nestos?",
      "EUfr": "{{reaction type=\"Thought\"}}Je trouve qu'on devrait \ntraîner ensemble plus\nsouvent, {{pause frames=\"5\"}}pas toi?\n{{reaction type=\"Inspiration\"}}{{pause frames=\"20\"}}Oh!{{pause frames=\"5\"}} {{reaction type=\"Happiness\"}}Oh! Oh! Je sais!{{pause frames=\"20\"}}{{reaction type=\"Curiosity\"}} Je{{pause frames=\"10\"}}\npourrais passer chez toi?",
      "EUit": "{{reaction type=\"Thought\"}}Non pensi che{{pause frames=\"5\"}} dovremmo\nvederci più spesso?\n\n{{reaction type=\"Inspiration\"}}{{pause frames=\"20\"}}Oh!{{pause frames=\"5\"}} {{reaction type=\"Happiness\"}}Oh! Oh! Ecco!{{pause frames=\"20\"}}{{reaction type=\"Curiosity\"}} Posso{{pause frames=\"10\"}}\nvenire a casa tua\nogni tanto?",
      "JPja": "{{reaction type=\"Thought\"}}ボク、{{pause frames=\"10\"}}もっとキミと\nなかよしっぽいことが\nしたいなぁ{{pause frames=\"5\"}}・{{pause frames=\"5\"}}・{{pause frames=\"5\"}}・{{pause frames=\"5\"}}{{reaction type=\"Inspiration\"}}{{pause frames=\"20\"}}あっ！\n{{reaction type=\"Happiness\"}}ねぇねぇ！{{pause frames=\"20\"}}\n{{reaction type=\"Curiosity\"}}こんど　キミのおうちに{{pause frames=\"10\"}}\nあそびに　{{kanjiReplace charNum=\"1\" value=\"い\"}}行ってもいい？",
      "KRko": "{{reaction type=\"Thought\"}}나 {{pause frames=\"10\"}}너랑\n친한 친구끼리만 하는 뭔가를\n해 보고 싶어{{pause frames=\"5\"}}・{{pause frames=\"5\"}}・{{pause frames=\"5\"}}・{{pause frames=\"5\"}} {{reaction type=\"Inspiration\"}}{{pause frames=\"20\"}}그래！！\n{{reaction type=\"Happiness\"}}저기저기～{{pause frames=\"20\"}}\n{{reaction type=\"Curiosity\"}}다음에 너네 집에{{pause frames=\"10\"}}\n놀러가도 될까아？？",
      "USen": "{{reaction type=\"Thought\"}}I think we should hang out\nmore, {{pause frames=\"5\"}}don't you?\n\n{{reaction type=\"Inspiration\"}}{{pause frames=\"20\"}}Oh!{{pause frames=\"5\"}} {{reaction type=\"Happiness\"}}Oh! Oh! I know!{{pause frames=\"20\"}}{{reaction type=\"Curiosity\"}} Can I{{pause frames=\"10\"}}\ncome over to your house\nsometime?"
    }
  },
  {
    "label": "1",
    "attribute": "0x00000000FF000000",
    "locale": {
      "EUde": "{{resetReaction}}Hey, {{string value=\"PlayerNickname\"}}, ich hab\nmich immer gefragt, in was\nfür einem Haus du lebst.\n{{reaction type=\"Intense\"}}Du kommst sehr lässig\ndaher, {{pause frames=\"5\"}}{{reaction type=\"Mischief\"}}aber ich wette, dein \nHaus ist großartig!\n{{reaction type=\"Sadness\"}}Aber das ist reine \nSpekulation, weil du mich \nnoch nie eingeladen hast!\n{{resetReaction}}Wie stehts? {{reaction type=\"Curiosity\"}}Kann ich \nvorbeikommen und mir dein\nHaus ansehen, {{pause frames=\"5\"}}{{string value=\"Catchphrase\"}}?",
      "EUen": "{{resetReaction}}Hey, {{string value=\"PlayerNickname\"}}, I've\nalways wondered what kind\nof a house you live in.\n{{reaction type=\"Intense\"}}You play it like you're all\ncasual, {{pause frames=\"5\"}}{{reaction type=\"Mischief\"}}but I bet your\nhouse is awesome!\n{{reaction type=\"Sadness\"}}But this is all just\nspeculation, 'cause you've\nnever invited me over!\n{{resetReaction}}So whaddaya say? {{reaction type=\"Curiosity\"}}Can I\ncome by and see your\nplace, {{pause frames=\"5\"}}{{string value=\"Catchphrase\"}}?",
      "EUes": "{{resetReaction}}Eh, {{string value=\"PlayerNickname\"}}. Siempre me\nhe preguntado en qué tipo\nde casa vivirías.\n{{reaction type=\"Intense\"}}Vas de bohemi{{gender m=\"o\" f=\"a\"}} por la vida,{{pause frames=\"5\"}}\n{{reaction type=\"Mischief\"}}¡pero seguro que vives en\nun palacio!\n{{reaction type=\"Sadness\"}}¡Aunque solo es una\nsuposición, porque nunca\nhe estado en ella!\n{{resetReaction}}¿Qué me dices? {{reaction type=\"Curiosity\"}}¿Puedo\npasarme un día a ver tu\ncasa, {{pause frames=\"5\"}}{{string value=\"Catchphrase\"}}?",
      "EUfr": "{{resetReaction}}Salut, {{string value=\"PlayerNickname\"}}, je me\nsuis toujours demandé à\nquoi ça ressemble chez toi.\n{{reaction type=\"Intense\"}}Tu la joues {{gender m=\"décontracté\" f=\"décontractée\"}}, {{pause frames=\"5\"}}{{reaction type=\"Mischief\"}}\nmais je parie que ta maison\nest à tomber!\n{{reaction type=\"Sadness\"}}Enfin, ce ne sont que des\nsuppositions étant donné\nque tu ne m'invites jamais!\n{{resetReaction}}Alors, qu'en dis-tu? {{reaction type=\"Curiosity\"}}Je peux\nvenir voir ta maison, \n{{pause frames=\"5\"}}{{string value=\"Catchphrase\"}}?",
      "EUit": "{{resetReaction}}Ehi, {{string value=\"PlayerNickname\"}}, sono\ncurioso di sapere che\naspetto ha casa tua.\n{{reaction type=\"Intense\"}}Anche se fai sempre {{gender m=\"il\" f=\"la\"}}\nmodest{{gender m=\"o\" f=\"a\"}}, {{pause frames=\"5\"}}{{reaction type=\"Mischief\"}}scommetto che\nè favolosa!\n{{reaction type=\"Sadness\"}}Ma posso solo fantasticare\nvisto che non mi hai mai\ninvitato!\n{{resetReaction}}Allora? {{reaction type=\"Curiosity\"}}Posso fare un\nsalto a casa tua a dare\nun'occhiata, {{pause frames=\"5\"}}{{string value=\"Catchphrase\"}}?",
      "JPja": "{{resetReaction}}{{string value=\"PlayerNickname\"}}くんの　おへやって\nきょうみあるなぁ～、{{pause frames=\"5\"}}{{string value=\"Catchphrase\"}}\n\n{{reaction type=\"Intense\"}}いつも　つんけんしてるのに\nじつは　かわいいものに\n{{reaction type=\"Mischief\"}}{{kanjiReplace charNum=\"1\" value=\"め\"}}目が　なかったりして{{pause frames=\"3\"}}・{{pause frames=\"3\"}}・{{pause frames=\"3\"}}・\n{{reaction type=\"Distress\"}}うぅ～っ、{{pause frames=\"5\"}}{{kanjiReplace charNum=\"1\" value=\"き\"}}気になる！{{pause frames=\"20\"}}\n{{kanjiReplace charNum=\"1\" value=\"き\"}}気になるよぉ～！\n\n{{resetReaction}}こんど　キミんちに\n{{reaction type=\"Curiosity\"}}あそびに　{{kanjiReplace charNum=\"1\" value=\"い\"}}行っても\nかまわない？　{{pause frames=\"5\"}}{{string value=\"Catchphrase\"}}？",
      "KRko": "{{resetReaction}}{{string value=\"PlayerNickname\"}}네 집\n되게 궁금해～ {{pause frames=\"5\"}}{{string value=\"Catchphrase\"}}！\n\n{{reaction type=\"Intense\"}}항상 툴툴대는 척하지만\n사실은 귀여운 것만 보면\n{{reaction type=\"Mischief\"}}정신을 못차리곤 했잖아！{{pause frames=\"3\"}}・{{pause frames=\"3\"}}・{{pause frames=\"3\"}}・\n{{reaction type=\"Distress\"}}우우～～ {{pause frames=\"5\"}}궁금해！{{pause frames=\"20\"}}\n궁금해～！！\n\n{{resetReaction}}다음 번에\n{{reaction type=\"Curiosity\"}}너네 집에 놀러가도\n될까아？ {{pause frames=\"5\"}}{{string value=\"Catchphrase\"}}？",
      "USen": "{{resetReaction}}Hey, {{string value=\"PlayerNickname\"}}, I've\nalways wondered what kind\nof a house you live in.\n{{reaction type=\"Intense\"}}You play it like you're all\ncasual, {{pause frames=\"5\"}}{{reaction type=\"Mischief\"}}but I bet your\nhouse is awesome!\n{{reaction type=\"Sadness\"}}But this is all just\nspeculation, 'cause you've\nnever invited me over!\n{{resetReaction}}So whaddaya say? {{reaction type=\"Curiosity\"}}Can I\ncome by and see your\nplace, {{pause frames=\"5\"}}{{string value=\"Catchphrase\"}}?"
    }
  },
  {
    "label": "2",
    "attribute": "0x00000000FF000000",
    "locale": {
      "EUde": "{{reaction type=\"Happiness\"}}Wenn jemand sich dein Haus\nansieht, ist das doch ein\nFreundschaftsbeweis, nicht?\n{{reaction type=\"Distress\"}}Ich würde dein Haus auch\ngerne sehen, {{pause frames=\"10\"}}{{string value=\"Catchphrase\"}}.{{pressButton}}\nZwinker{{color id=\"4\"}}.",
      "EUen": "{{reaction type=\"Happiness\"}}Having someone visit your\nhouse is proof that they're\nyour friend, huh?\n{{reaction type=\"Distress\"}}I'd sure like to see your\nplace, too, {{pause frames=\"10\"}}{{string value=\"Catchphrase\"}}.{{pressButton}}\n{{color id=\"4\"}}Hint, hint.",
      "EUes": "{{reaction type=\"Happiness\"}}Cuando uno tiene amigos\nlos suele invitar a su casa,\n¿no?\n{{reaction type=\"Distress\"}}Vamos, que me gustaría ver\ntu casa, {{pause frames=\"10\"}}{{string value=\"Catchphrase\"}}.",
      "EUfr": "{{reaction type=\"Happiness\"}}Si tu veux te faire un ami,\nfais-lui visiter ta maison!\n{{reaction type=\"Distress\"}}\nD'ailleurs, comment c'est, \nchez toi, {{pause frames=\"10\"}}{{string value=\"Catchphrase\"}}?{{pressButton}}\n{{color id=\"4\"}}*Tousse tousse*",
      "EUit": "{{reaction type=\"Happiness\"}}Se qualcuno viene a\ntrovarti vuol dire che è\ntuo amico, no?\n{{reaction type=\"Distress\"}}Come mi piacerebbe vedere\ncasa tua, {{pause frames=\"10\"}}{{string value=\"Catchphrase\"}}...{{pressButton}}\n{{color id=\"4\"}}Chissà se ci arriva...",
      "JPja": "{{reaction type=\"Happiness\"}}ともだちをおへやに\nしょうたいするのは\nなかよしの　しょうこだよぉ\n{{reaction type=\"Distress\"}}ボクも　キミのおへやに\nあそびに　{{kanjiReplace charNum=\"1\" value=\"い\"}}行きたいなぁ～、\n{{pause frames=\"10\"}}{{string value=\"Catchphrase\"}}",
      "KRko": "{{reaction type=\"Happiness\"}}친구를 집에\n초대하는건\n단짝이라는 증거래！！\n{{reaction type=\"Distress\"}}나도 너네 집에\n놀러갈래～～\n{{pause frames=\"10\"}}{{string value=\"Catchphrase\"}}",
      "USen": "{{reaction type=\"Happiness\"}}Having someone visit your\nhouse is proof that they're\nyour friend, huh?\n{{reaction type=\"Distress\"}}I'd sure like to see your\nplace, too, {{pause frames=\"10\"}}{{string value=\"Catchphrase\"}}.{{pressButton}}\n{{color id=\"4\"}}Hint, hint."
    }
  }
]