[
  {
    "label": "0",
    "attribute": "0x00110000FE000000",
    "locale": {
      "EUde": "{{reaction type=\"Intense\"}}{{capitalizeLetter}}{{string value=\"PlayerNickname\"}}! Das ist uncool!\nHör sofort auf, mich he-\nrumzuschubsen,{{pause frames=\"10\"}} {{string value=\"Catchphrase\"}}.",
      "EUen": "{{reaction type=\"Intense\"}}{{capitalizeLetter}}{{string value=\"PlayerNickname\"}}! That is not\ncool! Just quit pushing me\nalready,{{pause frames=\"10\"}} {{string value=\"Catchphrase\"}}.",
      "EUes": "{{reaction type=\"Intense\"}}¡{{capitalizeLetter}}{{string value=\"PlayerNickname\"}}! ¡No mola nada!\nDeja de empujarme ahora\nmismo,{{pause frames=\"10\"}} {{string value=\"Catchphrase\"}}.",
      "EUfr": "{{reaction type=\"Intense\"}}{{capitalizeLetter}}{{string value=\"PlayerNickname\"}}! C'est pas\nsympa! Arrête de jouer les\ngros bras,{{pause frames=\"10\"}} {{string value=\"Catchphrase\"}}.",
      "EUit": "{{reaction type=\"Intense\"}}{{capitalizeLetter}}{{string value=\"PlayerNickname\"}}! Così non va!\nFiniscila di spingermi,\n{{pause frames=\"10\"}}{{string value=\"Catchphrase\"}}!",
      "JPja": "{{reaction type=\"Intense\"}}{{string value=\"PlayerNickname\"}}くんの　イケズ～！\nそんなに　おすの\nやめてよぉ～、{{pause frames=\"10\"}}{{string value=\"Catchphrase\"}}",
      "KRko": "{{reaction type=\"Intense\"}}바보 {{string value=\"PlayerNickname\"}}～！\n그만 좀\n밀어～～！{{pause frames=\"10\"}} {{string value=\"Catchphrase\"}}",
      "USen": "{{reaction type=\"Intense\"}}{{capitalizeLetter}}{{string value=\"PlayerNickname\"}}! That is not\ncool! Just quit pushing me\nalready,{{pause frames=\"10\"}} {{string value=\"Catchphrase\"}}."
    }
  },
  {
    "label": "1",
    "attribute": "0x00110000FE000000",
    "locale": {
      "EUde": "{{reaction type=\"Annoyed\"}}Komm schon!{{pause frames=\"10\"}} Du weißt, dass\nich das hasse!{{pause frames=\"20\"}} Warum musst\ndu so gemein zu mir sein?",
      "EUen": "{{reaction type=\"Annoyed\"}}C'mon!{{pause frames=\"10\"}} You know I hate\nthat!{{pause frames=\"20\"}} Why do you have\nto be so mean to me?!",
      "EUes": "{{reaction type=\"Annoyed\"}}¡Oye!{{pause frames=\"10\"}} ¡Sabes que no me\ngusta!{{pause frames=\"20\"}} ¡¿Por qué eres tan\nmal{{gender m=\"o\" f=\"a\"}} conmigo?!",
      "EUfr": "{{reaction type=\"Annoyed\"}}OH!{{pause frames=\"10\"}} Tu sais bien que je\nn'aime pas ça!{{pause frames=\"20\"}} Pourquoi\nt'es si {{gender m=\"méchant\" f=\"méchante\"}} avec moi?!",
      "EUit": "{{reaction type=\"Annoyed\"}}E dai!{{pause frames=\"10\"}} Lo sai che detesto\nquando fai così!{{pause frames=\"20\"}} Perché\nmi tratti sempre male?!",
      "JPja": "{{reaction type=\"Annoyed\"}}もぉ、{{pause frames=\"10\"}}ヤダよぉ！{{pause frames=\"20\"}}\nどうしてボクのこと\nいじめるの！？　{{pause frames=\"10\"}}{{string value=\"Catchphrase\"}}！",
      "KRko": "{{reaction type=\"Annoyed\"}}흑， {{pause frames=\"10\"}}싫어싫어！{{pause frames=\"20\"}}\n왜 날 괴롭히고 그래！？\n{{pause frames=\"10\"}}{{string value=\"Catchphrase\"}}！",
      "USen": "{{reaction type=\"Annoyed\"}}C'mon!{{pause frames=\"10\"}} You know I hate\nthat!{{pause frames=\"20\"}} Why do you have\nto be so mean to me?!"
    }
  },
  {
    "label": "2",
    "attribute": "0x00110000FE000000",
    "locale": {
      "EUde": "{{reaction type=\"Annoyed\"}}Hey! {{pause frames=\"10\"}}Ich wollte nie mit dir\nherumbalgen, also hör auf,\n{{pause frames=\"10\"}}{{string value=\"Catchphrase\"}}!",
      "EUen": "{{reaction type=\"Annoyed\"}}Hey! {{pause frames=\"10\"}}I never agreed to\nwrestle with you, so cut it\nout,{{pause frames=\"10\"}} {{string value=\"Catchphrase\"}}!",
      "EUes": "{{reaction type=\"Annoyed\"}}¡Eh! ¡No me gusta la\nviolencia, así que déjalo\nya,{{pause frames=\"10\"}} {{string value=\"Catchphrase\"}}!",
      "EUfr": "{{reaction type=\"Annoyed\"}}Hé! Je veux pas me battre\navec toi, alors arrête ça,\n{{pause frames=\"10\"}}{{string value=\"Catchphrase\"}}!",
      "EUit": "{{reaction type=\"Annoyed\"}}Ehi! {{pause frames=\"10\"}}Non ho mai detto di\nvoler fare la lotta con te.\nFiniscila, {{pause frames=\"10\"}}{{string value=\"Catchphrase\"}}!",
      "JPja": "{{reaction type=\"Annoyed\"}}もぉ！　ボク、キミと\nおすもう　とってるわけじゃ\nないよぉ！　{{pause frames=\"10\"}}{{string value=\"Catchphrase\"}}！",
      "KRko": "{{reaction type=\"Annoyed\"}}아이 진짜～！ \n나 너랑 씨름하기\n싫어～～！{{pause frames=\"10\"}} {{string value=\"Catchphrase\"}}！",
      "USen": "{{reaction type=\"Annoyed\"}}Hey! {{pause frames=\"10\"}}I never agreed to\nwrestle with you, so cut it\nout,{{pause frames=\"10\"}} {{string value=\"Catchphrase\"}}!"
    }
  },
  {
    "label": "3",
    "attribute": "0x00110000FE000000",
    "locale": {
      "EUde": "{{reaction type=\"Worry\"}}Ich bin kein Schneeball, also\nhör sofort auf, mich zu\nschubsen,{{pause frames=\"10\"}} {{string value=\"Catchphrase\"}}. {{pause frames=\"10\"}}Echt!",
      "EUen": "{{reaction type=\"Worry\"}}I'm not a snowball, so quit\npushing me around,{{pause frames=\"10\"}}\n{{string value=\"Catchphrase\"}}. {{pause frames=\"10\"}}Sheesh!",
      "EUes": "{{reaction type=\"Worry\"}}No soy una bola de nieve,\nasí que deja de empujarme,{{pause frames=\"10\"}}\n{{string value=\"Catchphrase\"}}. {{pause frames=\"10\"}}¡GRR!",
      "EUfr": "{{reaction type=\"Worry\"}}Je ne suis pas une boule de\nneige, faut pas me pousser,{{pause frames=\"10\"}}\n{{string value=\"Catchphrase\"}}. Mince alors!",
      "EUit": "{{reaction type=\"Worry\"}}Non sono una palla di neve,\nfiniscila di spingermi,{{pause frames=\"10\"}}\n{{string value=\"Catchphrase\"}}. {{pause frames=\"10\"}}E che diamine!",
      "JPja": "{{reaction type=\"Worry\"}}・{{pause frames=\"3\"}}・{{pause frames=\"3\"}}・{{pause frames=\"3\"}}そんなに　おしても\nボクから　あんこは\n{{kanjiReplace charNum=\"1\" value=\"で\"}}出ないよぉ～、{{pause frames=\"10\"}}{{string value=\"Catchphrase\"}}",
      "KRko": "{{reaction type=\"Worry\"}}・{{pause frames=\"3\"}}・{{pause frames=\"3\"}}・{{pause frames=\"3\"}}계속 밀어봤자\n아무것도 안나와～\n{{pause frames=\"10\"}}{{string value=\"Catchphrase\"}}",
      "USen": "{{reaction type=\"Worry\"}}I'm not a snowball, so quit\npushing me around,{{pause frames=\"10\"}}\n{{string value=\"Catchphrase\"}}. {{pause frames=\"10\"}}Sheesh!"
    }
  },
  {
    "label": "4",
    "attribute": "0x00110000FE000000",
    "locale": {
      "EUde": "{{reaction type=\"Annoyed\"}}Du musst deinen Kaffee-\nkonsum runterschrauben. {{pause frames=\"10\"}}\n\nDer macht dich extrem \naggressiv, {{pause frames=\"10\"}}{{string value=\"Catchphrase\"}}!",
      "EUen": "{{reaction type=\"Annoyed\"}}Dude, you gotta lay off the\ncoffee. {{pause frames=\"10\"}}It's making you\nsuper aggro, {{pause frames=\"10\"}}{{string value=\"Catchphrase\"}}!",
      "EUes": "{{reaction type=\"Annoyed\"}}¿Sabes...? Tanto café no\npuede ser bueno. {{pause frames=\"10\"}}¡Qué\nagresividad, {{pause frames=\"10\"}}{{string value=\"Catchphrase\"}}!",
      "EUfr": "{{reaction type=\"Annoyed\"}}Oh, faut arrêter le café, \nhein. {{pause frames=\"10\"}}T'es vraiment sur les\nnerfs, {{pause frames=\"10\"}}{{string value=\"Catchphrase\"}}!",
      "EUit": "{{reaction type=\"Annoyed\"}}Senti, basta caffè per te.\nTi rende aggressiv{{gender m=\"o\" f=\"a\"}}...\ntroppo, {{pause frames=\"10\"}}{{string value=\"Catchphrase\"}}!",
      "JPja": "・{{pause frames=\"3\"}}・{{pause frames=\"3\"}}・{{pause frames=\"3\"}}{{reaction type=\"Worry\"}}{{kanjiReplace charNum=\"2\" value=\"じぶん\"}}自分がされて\nイヤなコトは、{{pause frames=\"10\"}}ひとにしちゃ\nダメだよぉ～！　{{pause frames=\"10\"}}{{string value=\"Catchphrase\"}}！",
      "KRko": "・{{pause frames=\"3\"}}・{{pause frames=\"3\"}}・{{pause frames=\"3\"}}{{reaction type=\"Worry\"}}너가 당해서 기분 나쁜\n행동은{{pause frames=\"10\"}} 남한테도 기분 나쁜\n법이야～！{{pause frames=\"10\"}} {{string value=\"Catchphrase\"}}！",
      "USen": "{{reaction type=\"Annoyed\"}}Dude, you gotta lay off the\ncoffee. {{pause frames=\"10\"}}It's making you\nsuper aggro, {{pause frames=\"10\"}}{{string value=\"Catchphrase\"}}!"
    }
  }
]