[
  {
    "label": "0",
    "attribute": "0x00000000FF000000",
    "locale": {
      "EUde": "{{resetReaction}}Nun, nun.{{pressButton}} Ich sehe, die\nLeidenschaft fürs Briefe-\nschreiben ist ungebrochen.",
      "EUen": "{{resetReaction}}Well, well.{{pressButton}} I see the\npenmanship is still as\nelegant as ever.",
      "EUes": "{{resetReaction}}Bien, bien.{{pressButton}} Veo que la\ncaligrafía sigue siendo tan\nelegante como siempre.",
      "EUfr": "{{resetReaction}}Bien, bien.{{pressButton}} Je vois que\nson écriture est toujours\naussi élégante.",
      "EUit": "{{resetReaction}}Bene, bene.{{pressButton}} Vedo che la\ncalligrafia è elegante come\nsempre.",
      "JPja": "{{pause frames=\"5\"}}・{{pause frames=\"5\"}}・{{pause frames=\"5\"}}・{{pause frames=\"10\"}}{{resetReaction}}ふぅん{{pressButton}}\n{{kanjiReplace charNum=\"2\" value=\"あいか\"}}相変わらず\n{{kanjiReplace charNum=\"2\" value=\"きど\"}}気取った{{kanjiReplace charNum=\"1\" value=\"じ\"}}字を{{kanjiReplace charNum=\"1\" value=\"か\"}}書くのね",
      "KRko": "{{pause frames=\"5\"}}.{{pause frames=\"5\"}}.{{pause frames=\"5\"}}.{{pause frames=\"10\"}}{{resetReaction}}흐음{{pressButton}}\n여전히\n잘난 척하는 글씨체야",
      "USen": "{{resetReaction}}Well, well.{{pressButton}} I see the\npenmanship is still as\nelegant as ever."
    }
  },
  {
    "label": "1",
    "attribute": "0x00000000FF000000",
    "locale": {
      "EUde": "{{pause frames=\"5\"}}.{{pause frames=\"5\"}}.{{pause frames=\"5\"}}.{{pressButton}}{{reaction type=\"Worry\"}}Hmmm, {{pause frames=\"10\"}}{{string value=\"Catchphrase\"}}.",
      "EUen": "{{pause frames=\"5\"}}.{{pause frames=\"5\"}}.{{pause frames=\"5\"}}.{{pressButton}}{{reaction type=\"Worry\"}}Hmm, {{pause frames=\"10\"}}{{string value=\"Catchphrase\"}}.",
      "EUes": "Mm{{pause frames=\"5\"}}.{{pause frames=\"5\"}}.{{pause frames=\"5\"}}.{{pressButton}}{{reaction type=\"Worry\"}} Mmm, {{pause frames=\"10\"}}{{string value=\"Catchphrase\"}}.",
      "EUfr": "{{pause frames=\"5\"}}.{{pause frames=\"5\"}}.{{pause frames=\"5\"}}.{{pressButton}}{{reaction type=\"Worry\"}} Hum, {{pause frames=\"10\"}}{{string value=\"Catchphrase\"}}.",
      "EUit": "{{pause frames=\"5\"}}.{{pause frames=\"5\"}}.{{pause frames=\"5\"}}.{{pressButton}}{{reaction type=\"Worry\"}} Mmm, {{pause frames=\"10\"}}{{string value=\"Catchphrase\"}}.",
      "JPja": "{{pause frames=\"5\"}}・{{pause frames=\"5\"}}・{{pause frames=\"5\"}}・{{pressButton}}{{reaction type=\"Worry\"}}フフン、{{pause frames=\"10\"}}{{string value=\"Catchphrase\"}}",
      "KRko": "{{pause frames=\"5\"}}.{{pause frames=\"5\"}}.{{pause frames=\"5\"}}.{{pressButton}}{{reaction type=\"Worry\"}}흐흥， {{pause frames=\"10\"}}{{string value=\"Catchphrase\"}}",
      "USen": "{{pause frames=\"5\"}}.{{pause frames=\"5\"}}.{{pause frames=\"5\"}}.{{pressButton}}{{reaction type=\"Worry\"}}Hmm, {{pause frames=\"10\"}}{{string value=\"Catchphrase\"}}."
    }
  },
  {
    "label": "2",
    "attribute": "0x00000000FF000000",
    "locale": {
      "EUde": "{{pause frames=\"5\"}}.{{pause frames=\"5\"}}.{{pause frames=\"5\"}}.{{pause frames=\"10\"}}{{resetReaction}}He he he! {{pressButton}}Das ist ja\nsooo süß.",
      "EUen": "{{pause frames=\"5\"}}.{{pause frames=\"5\"}}.{{pause frames=\"5\"}}.{{pause frames=\"10\"}}{{resetReaction}}Tee hee hee! {{pressButton}}This\nstationery is so cute.",
      "EUes": "{{resetReaction}}¡Ja,{{pause frames=\"5\"}} ja, {{pause frames=\"5\"}}ja!{{pause frames=\"10\"}} {{pressButton}}Qué\nbonito es este papel.",
      "EUfr": "{{pause frames=\"5\"}}.{{pause frames=\"5\"}}.{{pause frames=\"5\"}}.{{pause frames=\"10\"}}{{resetReaction}} Hi, hi, hi! {{pressButton}}Ce papier à\nlettres est si mignon.",
      "EUit": "{{pause frames=\"5\"}}.{{pause frames=\"5\"}}.{{pause frames=\"5\"}}.{{pause frames=\"10\"}}{{resetReaction}} Hi hi! {{pressButton}}La carta da\nlettere è molto carina.",
      "JPja": "{{pause frames=\"5\"}}・{{pause frames=\"5\"}}・{{pause frames=\"5\"}}・{{pause frames=\"10\"}}{{resetReaction}}ふんふん{{pressButton}}\nけっこう　カワイイ\nびんせんじゃない",
      "KRko": "{{pause frames=\"5\"}}.{{pause frames=\"5\"}}.{{pause frames=\"5\"}}.{{pause frames=\"10\"}}{{resetReaction}}호오{{pressButton}}\n꽤 예쁜\n편지지잖아",
      "USen": "{{pause frames=\"5\"}}.{{pause frames=\"5\"}}.{{pause frames=\"5\"}}.{{pause frames=\"10\"}}{{resetReaction}}Tee hee hee! {{pressButton}}This\nstationery is so cute."
    }
  }
]