[
  {
    "label": "00",
    "attribute": "0x00000000FE000000",
    "locale": {
      "EUde": "Aw, man, come ON!{{pause frames=\"5\"}}\nThere's a place for yelling!{{pause frames=\"5\"}}\nIt's called the weight room!{{pause frames=\"10\"}}\n{{capitalizeLetter}}{{fun_0B}}{{color id=\"7\"}}{{itemName index=\"0\"}}\n{{color id=\"0\"}}was right there, and you\nscared him! Weak!",
      "EUen": "Aw, man, come ON!{{pause frames=\"5\"}}\nThere's a place for yelling!{{pause frames=\"5\"}}\nIt's called the weight room!{{pause frames=\"10\"}}\n{{capitalizeLetter}}{{fun_0B}}{{color id=\"7\"}}{{itemName index=\"0\"}}\n{{color id=\"0\"}}was right there, and you\nscared him! Weak!",
      "EUes": "Aw, man, come ON!{{pause frames=\"5\"}}\nThere's a place for yelling!{{pause frames=\"5\"}}\nIt's called the weight room!{{pause frames=\"10\"}}\n{{capitalizeLetter}}{{fun_0B}}{{color id=\"7\"}}{{itemName index=\"0\"}}\n{{color id=\"0\"}}was right there, and you\nscared him! Weak!",
      "EUfr": "Aw, man, come ON!{{pause frames=\"5\"}}\nThere's a place for yelling!{{pause frames=\"5\"}}\nIt's called the weight room!{{pause frames=\"10\"}}\n{{capitalizeLetter}}{{fun_0B}}{{color id=\"7\"}}{{itemName index=\"0\"}}\n{{color id=\"0\"}}was right there, and you\nscared him! Weak!",
      "EUit": "Aw, man, come ON!{{pause frames=\"5\"}}\nThere's a place for yelling!{{pause frames=\"5\"}}\nIt's called the weight room!{{pause frames=\"10\"}}\n{{capitalizeLetter}}{{fun_0B}}{{color id=\"7\"}}{{itemName index=\"0\"}}\n{{color id=\"0\"}}was right there, and you\nscared him! Weak!",
      "JPja": "おいっ！！\nデカい{{kanjiReplace charNum=\"1\" value=\"こえ\"}}声　{{kanjiReplace charNum=\"1\" value=\"だ\"}}出すなよー！{{pause frames=\"10\"}}\n\nせっかくの\n{{color id=\"7\"}}{{itemName index=\"0\"}}{{color id=\"0\"}}が\nにげちゃうじゃんかー、{{pause frames=\"5\"}}{{string value=\"Catchphrase\"}}！",
      "KRko": "おいっ！！\nデカい{{kanjiReplace charNum=\"1\" value=\"こえ\"}}声　{{kanjiReplace charNum=\"1\" value=\"だ\"}}出すなよー！{{pause frames=\"10\"}}\n\nせっかくの\n{{color id=\"7\"}}{{itemName index=\"0\"}}{{color id=\"0\"}}が\nにげちゃうじゃんかー、{{pause frames=\"5\"}}{{string value=\"Catchphrase\"}}！",
      "USen": "Aw, man, come ON!{{pause frames=\"5\"}}\nThere's a place for yelling!{{pause frames=\"5\"}}\nIt's called the weight room!{{pause frames=\"10\"}}\n{{capitalizeLetter}}{{fun_0B}}{{color id=\"7\"}}{{itemName index=\"0\"}}\n{{color id=\"0\"}}was right there, and you\nscared him! Weak!"
    }
  },
  {
    "label": "01",
    "attribute": "0x00000000FE000000",
    "locale": {
      "EUde": "Yeah, fishing really works\nthe arms...{{pause frames=\"5\"}} Hobbies plus\nexercise equals SWEETNESS!",
      "EUen": "Yeah, fishing really works\nthe arms...{{pause frames=\"5\"}} Hobbies plus\nexercise equals SWEETNESS!",
      "EUes": "Yeah, fishing really works\nthe arms...{{pause frames=\"5\"}} Hobbies plus\nexercise equals SWEETNESS!",
      "EUfr": "Yeah, fishing really works\nthe arms...{{pause frames=\"5\"}} Hobbies plus\nexercise equals SWEETNESS!",
      "EUit": "Yeah, fishing really works\nthe arms...{{pause frames=\"5\"}} Hobbies plus\nexercise equals SWEETNESS!",
      "JPja": "つりって　ウデの\nキンニクも　きたえられるから、{{pause frames=\"5\"}}\n{{kanjiReplace charNum=\"4\" value=\"いっせきにちょう\"}}一石二鳥だー！！",
      "KRko": "つりって　ウデの\nキンニクも　きたえられるから、{{pause frames=\"5\"}}\n{{kanjiReplace charNum=\"4\" value=\"いっせきにちょう\"}}一石二鳥だー！！",
      "USen": "Yeah, fishing really works\nthe arms...{{pause frames=\"5\"}} Hobbies plus\nexercise equals SWEETNESS!"
    }
  },
  {
    "label": "02",
    "attribute": "0x00000000FE000000",
    "locale": {
      "EUde": "What should I do if I catch\n{{color id=\"7\"}}{{itemName index=\"0\"}}{{color id=\"0\"}}?\n\nShould I poach it?{{pause frames=\"5\"}}\nShould I grill it{{pause frames=\"5\"}}.{{pause frames=\"5\"}}.{{pause frames=\"5\"}}.{{pause frames=\"5\"}}?\nI can't wait, {{pause frames=\"5\"}}{{string value=\"Catchphrase\"}}!",
      "EUen": "What should I do if I catch\n{{color id=\"7\"}}{{itemName index=\"0\"}}{{color id=\"0\"}}?\n\nShould I poach it?{{pause frames=\"5\"}}\nShould I grill it{{pause frames=\"5\"}}.{{pause frames=\"5\"}}.{{pause frames=\"5\"}}.{{pause frames=\"5\"}}?\nI can't wait, {{pause frames=\"5\"}}{{string value=\"Catchphrase\"}}!",
      "EUes": "What should I do if I catch\n{{color id=\"7\"}}{{itemName index=\"0\"}}{{color id=\"0\"}}?\n\nShould I poach it?{{pause frames=\"5\"}}\nShould I grill it{{pause frames=\"5\"}}.{{pause frames=\"5\"}}.{{pause frames=\"5\"}}.{{pause frames=\"5\"}}?\nI can't wait, {{pause frames=\"5\"}}{{string value=\"Catchphrase\"}}!",
      "EUfr": "What should I do if I catch\n{{color id=\"7\"}}{{itemName index=\"0\"}}{{color id=\"0\"}}?\n\nShould I poach it?{{pause frames=\"5\"}}\nShould I grill it{{pause frames=\"5\"}}.{{pause frames=\"5\"}}.{{pause frames=\"5\"}}.{{pause frames=\"5\"}}?\nI can't wait, {{pause frames=\"5\"}}{{string value=\"Catchphrase\"}}!",
      "EUit": "What should I do if I catch\n{{color id=\"7\"}}{{itemName index=\"0\"}}{{color id=\"0\"}}?\n\nShould I poach it?{{pause frames=\"5\"}}\nShould I grill it{{pause frames=\"5\"}}.{{pause frames=\"5\"}}.{{pause frames=\"5\"}}.{{pause frames=\"5\"}}?\nI can't wait, {{pause frames=\"5\"}}{{string value=\"Catchphrase\"}}!",
      "JPja": "{{color id=\"7\"}}{{itemName index=\"0\"}}{{color id=\"0\"}}が　つれたら\nどうしようかなー？\n\nにて　{{kanjiReplace charNum=\"1\" value=\"く\"}}食おうか、{{pause frames=\"5\"}}\n{{kanjiReplace charNum=\"1\" value=\"や\"}}焼いて　{{kanjiReplace charNum=\"1\" value=\"く\"}}食おうか{{pause frames=\"5\"}}・{{pause frames=\"5\"}}・{{pause frames=\"5\"}}・{{pause frames=\"5\"}}\n{{kanjiReplace charNum=\"1\" value=\"たの\"}}楽しみー！　{{pause frames=\"5\"}}{{string value=\"Catchphrase\"}}！",
      "KRko": "{{color id=\"7\"}}{{itemName index=\"0\"}}{{color id=\"0\"}}が　つれたら\nどうしようかなー？\n\nにて　{{kanjiReplace charNum=\"1\" value=\"く\"}}食おうか、{{pause frames=\"5\"}}\n{{kanjiReplace charNum=\"1\" value=\"や\"}}焼いて　{{kanjiReplace charNum=\"1\" value=\"く\"}}食おうか{{pause frames=\"5\"}}・{{pause frames=\"5\"}}・{{pause frames=\"5\"}}・{{pause frames=\"5\"}}\n{{kanjiReplace charNum=\"1\" value=\"たの\"}}楽しみー！　{{pause frames=\"5\"}}{{string value=\"Catchphrase\"}}！",
      "USen": "What should I do if I catch\n{{color id=\"7\"}}{{itemName index=\"0\"}}{{color id=\"0\"}}?\n\nShould I poach it?{{pause frames=\"5\"}}\nShould I grill it{{pause frames=\"5\"}}.{{pause frames=\"5\"}}.{{pause frames=\"5\"}}.{{pause frames=\"5\"}}?\nI can't wait, {{pause frames=\"5\"}}{{string value=\"Catchphrase\"}}!"
    }
  },
  {
    "label": "03",
    "attribute": "0x00000000FE000000",
    "locale": {
      "EUde": "The last time I was this\nfocused was{{pause frames=\"5\"}}.{{pause frames=\"5\"}}.{{pause frames=\"5\"}}.{{pressButton}}when I was\ntrying to bench my house.",
      "EUen": "The last time I was this\nfocused was{{pause frames=\"5\"}}.{{pause frames=\"5\"}}.{{pause frames=\"5\"}}.{{pressButton}}when I was\ntrying to bench my house.",
      "EUes": "The last time I was this\nfocused was{{pause frames=\"5\"}}.{{pause frames=\"5\"}}.{{pause frames=\"5\"}}.{{pressButton}}when I was\ntrying to bench my house.",
      "EUfr": "The last time I was this\nfocused was{{pause frames=\"5\"}}.{{pause frames=\"5\"}}.{{pause frames=\"5\"}}.{{pressButton}}when I was\ntrying to bench my house.",
      "EUit": "The last time I was this\nfocused was{{pause frames=\"5\"}}.{{pause frames=\"5\"}}.{{pause frames=\"5\"}}.{{pressButton}}when I was\ntrying to bench my house.",
      "JPja": "こんなに　{{kanjiReplace charNum=\"1\" value=\"なに\"}}何かに\n{{kanjiReplace charNum=\"2\" value=\"しゅうちゅう\"}}集中するのって{{pause frames=\"5\"}}・{{pause frames=\"5\"}}・{{pause frames=\"5\"}}・{{pressButton}}\nケンケツの{{kanjiReplace charNum=\"1\" value=\"とき\"}}時　{{kanjiReplace charNum=\"2\" value=\"いらい\"}}以来だぞー！",
      "KRko": "こんなに　{{kanjiReplace charNum=\"1\" value=\"なに\"}}何かに\n{{kanjiReplace charNum=\"2\" value=\"しゅうちゅう\"}}集中するのって{{pause frames=\"5\"}}・{{pause frames=\"5\"}}・{{pause frames=\"5\"}}・{{pressButton}}\nケンケツの{{kanjiReplace charNum=\"1\" value=\"とき\"}}時　{{kanjiReplace charNum=\"2\" value=\"いらい\"}}以来だぞー！",
      "USen": "The last time I was this\nfocused was{{pause frames=\"5\"}}.{{pause frames=\"5\"}}.{{pause frames=\"5\"}}.{{pressButton}}when I was\ntrying to bench my house."
    }
  },
  {
    "label": "04",
    "attribute": "0x00000000FE000000",
    "locale": {
      "EUde": "Hey! {{pause frames=\"5\"}}{{capitalizeLetter}}{{string value=\"Catchphrase\"}}!\nYou trying to steal my\ncatch from me?!\nDon't make me crush you!{{pause frames=\"5\"}}\nI'm trying to catch my\ndinner, {{pause frames=\"5\"}}{{string value=\"Catchphrase\"}}!",
      "EUen": "Hey! {{pause frames=\"5\"}}{{capitalizeLetter}}{{string value=\"Catchphrase\"}}!\nYou trying to steal my\ncatch from me?!\nDon't make me crush you!{{pause frames=\"5\"}}\nI'm trying to catch my\ndinner, {{pause frames=\"5\"}}{{string value=\"Catchphrase\"}}!",
      "EUes": "Hey! {{pause frames=\"5\"}}{{capitalizeLetter}}{{string value=\"Catchphrase\"}}!\nYou trying to steal my\ncatch from me?!\nDon't make me crush you!{{pause frames=\"5\"}}\nI'm trying to catch my\ndinner, {{pause frames=\"5\"}}{{string value=\"Catchphrase\"}}!",
      "EUfr": "Hey! {{pause frames=\"5\"}}{{capitalizeLetter}}{{string value=\"Catchphrase\"}}!\nYou trying to steal my\ncatch from me?!\nDon't make me crush you!{{pause frames=\"5\"}}\nI'm trying to catch my\ndinner, {{pause frames=\"5\"}}{{string value=\"Catchphrase\"}}!",
      "EUit": "Hey! {{pause frames=\"5\"}}{{capitalizeLetter}}{{string value=\"Catchphrase\"}}!\nYou trying to steal my\ncatch from me?!\nDon't make me crush you!{{pause frames=\"5\"}}\nI'm trying to catch my\ndinner, {{pause frames=\"5\"}}{{string value=\"Catchphrase\"}}!",
      "JPja": "おいっ！　{{pause frames=\"5\"}}{{string value=\"Catchphrase\"}}！\nおいらのエモノを\n{{kanjiReplace charNum=\"1\" value=\"よこ\"}}横{{kanjiReplace charNum=\"1\" value=\"ど\"}}取りしないでくれよ！\n{{kanjiReplace charNum=\"2\" value=\"きょう\"}}今日の　{{kanjiReplace charNum=\"1\" value=\"よる\"}}夜ゴハンを\nつってるんだから！　{{pause frames=\"5\"}}{{string value=\"Catchphrase\"}}！",
      "KRko": "おいっ！　{{pause frames=\"5\"}}{{string value=\"Catchphrase\"}}！\nおいらのエモノを\n{{kanjiReplace charNum=\"1\" value=\"よこ\"}}横{{kanjiReplace charNum=\"1\" value=\"ど\"}}取りしないでくれよ！\n{{kanjiReplace charNum=\"2\" value=\"きょう\"}}今日の　{{kanjiReplace charNum=\"1\" value=\"よる\"}}夜ゴハンを\nつってるんだから！　{{pause frames=\"5\"}}{{string value=\"Catchphrase\"}}！",
      "USen": "Hey! {{pause frames=\"5\"}}{{capitalizeLetter}}{{string value=\"Catchphrase\"}}!\nYou trying to steal my\ncatch from me?!\nDon't make me crush you!{{pause frames=\"5\"}}\nI'm trying to catch my\ndinner, {{pause frames=\"5\"}}{{string value=\"Catchphrase\"}}!"
    }
  },
  {
    "label": "05",
    "attribute": "0x00000000FE000000",
    "locale": {
      "EUde": "I work my biceps as I fish.\nDon't you? {{pause frames=\"5\"}}Flex, flex,\nREEEEEL, {{pause frames=\"5\"}}{{string value=\"Catchphrase\"}}!",
      "EUen": "I work my biceps as I fish.\nDon't you? {{pause frames=\"5\"}}Flex, flex,\nREEEEEL, {{pause frames=\"5\"}}{{string value=\"Catchphrase\"}}!",
      "EUes": "I work my biceps as I fish.\nDon't you? {{pause frames=\"5\"}}Flex, flex,\nREEEEEL, {{pause frames=\"5\"}}{{string value=\"Catchphrase\"}}!",
      "EUfr": "I work my biceps as I fish.\nDon't you? {{pause frames=\"5\"}}Flex, flex,\nREEEEEL, {{pause frames=\"5\"}}{{string value=\"Catchphrase\"}}!",
      "EUit": "I work my biceps as I fish.\nDon't you? {{pause frames=\"5\"}}Flex, flex,\nREEEEEL, {{pause frames=\"5\"}}{{string value=\"Catchphrase\"}}!",
      "JPja": "こうやって　つりをしながら\nウデを　きたえてるんだ！\n{{pause frames=\"5\"}}{{string value=\"Catchphrase\"}}！",
      "KRko": "こうやって　つりをしながら\nウデを　きたえてるんだ！\n{{pause frames=\"5\"}}{{string value=\"Catchphrase\"}}！",
      "USen": "I work my biceps as I fish.\nDon't you? {{pause frames=\"5\"}}Flex, flex,\nREEEEEL, {{pause frames=\"5\"}}{{string value=\"Catchphrase\"}}!"
    }
  },
  {
    "label": "06",
    "attribute": "0x00000000FE000000",
    "locale": {
      "EUde": "ARGH! ARGH! ARGH!{{pause frames=\"5\"}}\nI can't catch anything{{pause frames=\"5\"}}.{{pause frames=\"5\"}}.{{pause frames=\"5\"}}.{{pause frames=\"5\"}}\n{{pause frames=\"5\"}}{{string value=\"Catchphrase\"}}!\nIf I knew it was going to\ntake this long, I would've\ntaken breaks to do sit-ups!",
      "EUen": "ARGH! ARGH! ARGH!{{pause frames=\"5\"}}\nI can't catch anything{{pause frames=\"5\"}}.{{pause frames=\"5\"}}.{{pause frames=\"5\"}}.{{pause frames=\"5\"}}\n{{pause frames=\"5\"}}{{string value=\"Catchphrase\"}}!\nIf I knew it was going to\ntake this long, I would've\ntaken breaks to do sit-ups!",
      "EUes": "ARGH! ARGH! ARGH!{{pause frames=\"5\"}}\nI can't catch anything{{pause frames=\"5\"}}.{{pause frames=\"5\"}}.{{pause frames=\"5\"}}.{{pause frames=\"5\"}}\n{{pause frames=\"5\"}}{{string value=\"Catchphrase\"}}!\nIf I knew it was going to\ntake this long, I would've\ntaken breaks to do sit-ups!",
      "EUfr": "ARGH! ARGH! ARGH!{{pause frames=\"5\"}}\nI can't catch anything{{pause frames=\"5\"}}.{{pause frames=\"5\"}}.{{pause frames=\"5\"}}.{{pause frames=\"5\"}}\n{{pause frames=\"5\"}}{{string value=\"Catchphrase\"}}!\nIf I knew it was going to\ntake this long, I would've\ntaken breaks to do sit-ups!",
      "EUit": "ARGH! ARGH! ARGH!{{pause frames=\"5\"}}\nI can't catch anything{{pause frames=\"5\"}}.{{pause frames=\"5\"}}.{{pause frames=\"5\"}}.{{pause frames=\"5\"}}\n{{pause frames=\"5\"}}{{string value=\"Catchphrase\"}}!\nIf I knew it was going to\ntake this long, I would've\ntaken breaks to do sit-ups!",
      "JPja": "くっそー、{{pause frames=\"5\"}}\n{{kanjiReplace charNum=\"2\" value=\"ぜんぜん\"}}全然　つれねー{{pause frames=\"5\"}}・{{pause frames=\"5\"}}・{{pause frames=\"5\"}}・{{pause frames=\"5\"}}\n{{pause frames=\"5\"}}{{string value=\"Catchphrase\"}}！\nこんなコトなら\nふっきんでも\nやってりゃよかったー！",
      "KRko": "くっそー、{{pause frames=\"5\"}}\n{{kanjiReplace charNum=\"2\" value=\"ぜんぜん\"}}全然　つれねー{{pause frames=\"5\"}}・{{pause frames=\"5\"}}・{{pause frames=\"5\"}}・{{pause frames=\"5\"}}\n{{pause frames=\"5\"}}{{string value=\"Catchphrase\"}}！\nこんなコトなら\nふっきんでも\nやってりゃよかったー！",
      "USen": "ARGH! ARGH! ARGH!{{pause frames=\"5\"}}\nI can't catch anything{{pause frames=\"5\"}}.{{pause frames=\"5\"}}.{{pause frames=\"5\"}}.{{pause frames=\"5\"}}\n{{pause frames=\"5\"}}{{string value=\"Catchphrase\"}}!\nIf I knew it was going to\ntake this long, I would've\ntaken breaks to do sit-ups!"
    }
  },
  {
    "label": "07",
    "attribute": "0x00000000FE000000",
    "locale": {
      "EUde": "Hmmm{{pause frames=\"5\"}}.{{pause frames=\"5\"}}.{{pause frames=\"5\"}}.{{pause frames=\"5\"}} I'm wondering,\nhow come I can't catch\nanything, {{pause frames=\"5\"}}{{string value=\"Catchphrase\"}}?!\nYou think maybe I need to\nincrease my muscle mass a\nbit, {{pause frames=\"5\"}}{{string value=\"Catchphrase\"}}?!",
      "EUen": "Hmmm{{pause frames=\"5\"}}.{{pause frames=\"5\"}}.{{pause frames=\"5\"}}.{{pause frames=\"5\"}} I'm wondering,\nhow come I can't catch\nanything, {{pause frames=\"5\"}}{{string value=\"Catchphrase\"}}?!\nYou think maybe I need to\nincrease my muscle mass a\nbit, {{pause frames=\"5\"}}{{string value=\"Catchphrase\"}}?!",
      "EUes": "Hmmm{{pause frames=\"5\"}}.{{pause frames=\"5\"}}.{{pause frames=\"5\"}}.{{pause frames=\"5\"}} I'm wondering,\nhow come I can't catch\nanything, {{pause frames=\"5\"}}{{string value=\"Catchphrase\"}}?!\nYou think maybe I need to\nincrease my muscle mass a\nbit, {{pause frames=\"5\"}}{{string value=\"Catchphrase\"}}?!",
      "EUfr": "Hmmm{{pause frames=\"5\"}}.{{pause frames=\"5\"}}.{{pause frames=\"5\"}}.{{pause frames=\"5\"}} I'm wondering,\nhow come I can't catch\nanything, {{pause frames=\"5\"}}{{string value=\"Catchphrase\"}}?!\nYou think maybe I need to\nincrease my muscle mass a\nbit, {{pause frames=\"5\"}}{{string value=\"Catchphrase\"}}?!",
      "EUit": "Hmmm{{pause frames=\"5\"}}.{{pause frames=\"5\"}}.{{pause frames=\"5\"}}.{{pause frames=\"5\"}} I'm wondering,\nhow come I can't catch\nanything, {{pause frames=\"5\"}}{{string value=\"Catchphrase\"}}?!\nYou think maybe I need to\nincrease my muscle mass a\nbit, {{pause frames=\"5\"}}{{string value=\"Catchphrase\"}}?!",
      "JPja": "う～ん{{pause frames=\"5\"}}・{{pause frames=\"5\"}}・{{pause frames=\"5\"}}・{{pause frames=\"5\"}}\nなかなか　{{kanjiReplace charNum=\"1\" value=\"おも\"}}思うように\nつれないなー、{{pause frames=\"5\"}}{{string value=\"Catchphrase\"}}\nおいらの　キンニクじゃ\nまだ　ウデ{{kanjiReplace charNum=\"2\" value=\"ぶそく\"}}不足なのかも、\n{{pause frames=\"5\"}}{{string value=\"Catchphrase\"}}！",
      "KRko": "う～ん{{pause frames=\"5\"}}・{{pause frames=\"5\"}}・{{pause frames=\"5\"}}・{{pause frames=\"5\"}}\nなかなか　{{kanjiReplace charNum=\"1\" value=\"おも\"}}思うように\nつれないなー、{{pause frames=\"5\"}}{{string value=\"Catchphrase\"}}\nおいらの　キンニクじゃ\nまだ　ウデ{{kanjiReplace charNum=\"2\" value=\"ぶそく\"}}不足なのかも、\n{{pause frames=\"5\"}}{{string value=\"Catchphrase\"}}！",
      "USen": "Hmmm{{pause frames=\"5\"}}.{{pause frames=\"5\"}}.{{pause frames=\"5\"}}.{{pause frames=\"5\"}} I'm wondering,\nhow come I can't catch\nanything, {{pause frames=\"5\"}}{{string value=\"Catchphrase\"}}?!\nYou think maybe I need to\nincrease my muscle mass a\nbit, {{pause frames=\"5\"}}{{string value=\"Catchphrase\"}}?!"
    }
  },
  {
    "label": "08",
    "attribute": "0x00000000FE000000",
    "locale": {
      "EUde": "Whoa!{{pause frames=\"10\"}} A new face!\n{{pause frames=\"5\"}}What's up, {{string value=\"Catchphrase\"}}?\n\nLemme just introduce\nmyself.{{pressButton}} The name's\n{{string value=\"VillagerName\"}}!\nI'm about to catch\n{{color id=\"7\"}}{{itemName index=\"0\"}}{{color id=\"0\"}}, so\ndon't touch that dial!",
      "EUen": "Whoa!{{pause frames=\"10\"}} A new face!\n{{pause frames=\"5\"}}What's up, {{string value=\"Catchphrase\"}}?\n\nLemme just introduce\nmyself.{{pressButton}} The name's\n{{string value=\"VillagerName\"}}!\nI'm about to catch\n{{color id=\"7\"}}{{itemName index=\"0\"}}{{color id=\"0\"}}, so\ndon't touch that dial!",
      "EUes": "Whoa!{{pause frames=\"10\"}} A new face!\n{{pause frames=\"5\"}}What's up, {{string value=\"Catchphrase\"}}?\n\nLemme just introduce\nmyself.{{pressButton}} The name's\n{{string value=\"VillagerName\"}}!\nI'm about to catch\n{{color id=\"7\"}}{{itemName index=\"0\"}}{{color id=\"0\"}}, so\ndon't touch that dial!",
      "EUfr": "Whoa!{{pause frames=\"10\"}} A new face!\n{{pause frames=\"5\"}}What's up, {{string value=\"Catchphrase\"}}?\n\nLemme just introduce\nmyself.{{pressButton}} The name's\n{{string value=\"VillagerName\"}}!\nI'm about to catch\n{{color id=\"7\"}}{{itemName index=\"0\"}}{{color id=\"0\"}}, so\ndon't touch that dial!",
      "EUit": "Whoa!{{pause frames=\"10\"}} A new face!\n{{pause frames=\"5\"}}What's up, {{string value=\"Catchphrase\"}}?\n\nLemme just introduce\nmyself.{{pressButton}} The name's\n{{string value=\"VillagerName\"}}!\nI'm about to catch\n{{color id=\"7\"}}{{itemName index=\"0\"}}{{color id=\"0\"}}, so\ndon't touch that dial!",
      "JPja": "おっ！{{pause frames=\"10\"}}\n{{kanjiReplace charNum=\"1\" value=\"はじ\"}}初めて　{{kanjiReplace charNum=\"1\" value=\"み\"}}見る{{kanjiReplace charNum=\"1\" value=\"かお\"}}顔だー！\n{{pause frames=\"5\"}}{{string value=\"Catchphrase\"}}！\nだったら　じこしょうかいだな！{{pressButton}}\nおいらの　{{kanjiReplace charNum=\"2\" value=\"なまえ\"}}名前は\n{{string value=\"VillagerName\"}}ってゆーんだ！\n{{kanjiReplace charNum=\"1\" value=\"いま\"}}今から　{{color id=\"7\"}}{{itemName index=\"0\"}}{{color id=\"0\"}}を\nつり{{kanjiReplace charNum=\"1\" value=\"あ\"}}上げるから\nこう　ご{{kanjiReplace charNum=\"2\" value=\"きたい\"}}期待！",
      "KRko": "おっ！{{pause frames=\"10\"}}\n{{kanjiReplace charNum=\"1\" value=\"はじ\"}}初めて　{{kanjiReplace charNum=\"1\" value=\"み\"}}見る{{kanjiReplace charNum=\"1\" value=\"かお\"}}顔だー！\n{{pause frames=\"5\"}}{{string value=\"Catchphrase\"}}！\nだったら　じこしょうかいだな！{{pressButton}}\nおいらの　{{kanjiReplace charNum=\"2\" value=\"なまえ\"}}名前は\n{{string value=\"VillagerName\"}}ってゆーんだ！\n{{kanjiReplace charNum=\"1\" value=\"いま\"}}今から　{{color id=\"7\"}}{{itemName index=\"0\"}}{{color id=\"0\"}}を\nつり{{kanjiReplace charNum=\"1\" value=\"あ\"}}上げるから\nこう　ご{{kanjiReplace charNum=\"2\" value=\"きたい\"}}期待！",
      "USen": "Whoa!{{pause frames=\"10\"}} A new face!\n{{pause frames=\"5\"}}What's up, {{string value=\"Catchphrase\"}}?\n\nLemme just introduce\nmyself.{{pressButton}} The name's\n{{string value=\"VillagerName\"}}!\nI'm about to catch\n{{color id=\"7\"}}{{itemName index=\"0\"}}{{color id=\"0\"}}, so\ndon't touch that dial!"
    }
  },
  {
    "label": "09",
    "attribute": "0x00000000FE000000",
    "locale": {
      "EUde": "Hey, nice meeting you!{{pause frames=\"10\"}}\nMy name's {{string value=\"VillagerName\"}},\n{{pause frames=\"5\"}}{{string value=\"Catchphrase\"}}!\nAnd you are.{{pause frames=\"5\"}}.{{pause frames=\"5\"}}.{{pause frames=\"5\"}}\n{{string value=\"PlayerNickname\"}}, huh?{{pause frames=\"5\"}}\nPsyched to meet you!{{pause frames=\"5\"}} Yeah!",
      "EUen": "Hey, nice meeting you!{{pause frames=\"10\"}}\nMy name's {{string value=\"VillagerName\"}},\n{{pause frames=\"5\"}}{{string value=\"Catchphrase\"}}!\nAnd you are.{{pause frames=\"5\"}}.{{pause frames=\"5\"}}.{{pause frames=\"5\"}}\n{{string value=\"PlayerNickname\"}}, huh?{{pause frames=\"5\"}}\nPsyched to meet you!{{pause frames=\"5\"}} Yeah!",
      "EUes": "Hey, nice meeting you!{{pause frames=\"10\"}}\nMy name's {{string value=\"VillagerName\"}},\n{{pause frames=\"5\"}}{{string value=\"Catchphrase\"}}!\nAnd you are.{{pause frames=\"5\"}}.{{pause frames=\"5\"}}.{{pause frames=\"5\"}}\n{{string value=\"PlayerNickname\"}}, huh?{{pause frames=\"5\"}}\nPsyched to meet you!{{pause frames=\"5\"}} Yeah!",
      "EUfr": "Hey, nice meeting you!{{pause frames=\"10\"}}\nMy name's {{string value=\"VillagerName\"}},\n{{pause frames=\"5\"}}{{string value=\"Catchphrase\"}}!\nAnd you are.{{pause frames=\"5\"}}.{{pause frames=\"5\"}}.{{pause frames=\"5\"}}\n{{string value=\"PlayerNickname\"}}, huh?{{pause frames=\"5\"}}\nPsyched to meet you!{{pause frames=\"5\"}} Yeah!",
      "EUit": "Hey, nice meeting you!{{pause frames=\"10\"}}\nMy name's {{string value=\"VillagerName\"}},\n{{pause frames=\"5\"}}{{string value=\"Catchphrase\"}}!\nAnd you are.{{pause frames=\"5\"}}.{{pause frames=\"5\"}}.{{pause frames=\"5\"}}\n{{string value=\"PlayerNickname\"}}, huh?{{pause frames=\"5\"}}\nPsyched to meet you!{{pause frames=\"5\"}} Yeah!",
      "JPja": "ハジメマシテー！！{{pause frames=\"10\"}}\nおいらの{{kanjiReplace charNum=\"2\" value=\"なまえ\"}}名前は　{{string value=\"VillagerName\"}}！\n{{pause frames=\"5\"}}{{string value=\"Catchphrase\"}}！\nおまえは・{{pause frames=\"5\"}}・{{pause frames=\"5\"}}・{{pause frames=\"5\"}}\n{{string value=\"PlayerNickname\"}}ってのか！\nこれから　ヨロシクなー！",
      "KRko": "ハジメマシテー！！{{pause frames=\"10\"}}\nおいらの{{kanjiReplace charNum=\"2\" value=\"なまえ\"}}名前は　{{string value=\"VillagerName\"}}！\n{{pause frames=\"5\"}}{{string value=\"Catchphrase\"}}！\nおまえは・{{pause frames=\"5\"}}・{{pause frames=\"5\"}}・{{pause frames=\"5\"}}\n{{string value=\"PlayerNickname\"}}ってのか！\nこれから　ヨロシクなー！",
      "USen": "Hey, nice meeting you!{{pause frames=\"10\"}}\nMy name's {{string value=\"VillagerName\"}},\n{{pause frames=\"5\"}}{{string value=\"Catchphrase\"}}!\nAnd you are.{{pause frames=\"5\"}}.{{pause frames=\"5\"}}.{{pause frames=\"5\"}}\n{{string value=\"PlayerNickname\"}}, huh?{{pause frames=\"5\"}}\nPsyched to meet you!{{pause frames=\"5\"}} Yeah!"
    }
  },
  {
    "label": "10",
    "attribute": "0x00000000FE000000",
    "locale": {
      "EUde": "I was THIS close to catching\n{{color id=\"7\"}}{{itemName index=\"0\"}} {{color id=\"0\"}}until you\nclomped onto the scene!\n.{{pause frames=\"5\"}}.{{pause frames=\"5\"}}.{{pause frames=\"5\"}}Oh, {{pause frames=\"20\"}}hey, that was rude!\nI don't think we've met.\nWho are you, {{pause frames=\"5\"}}{{string value=\"Catchphrase\"}}?\nYour name's {{pause frames=\"5\"}}{{string value=\"PlayerNickname\"}}?{{pause frames=\"20\"}}\nLook, sorry, I got a little\nover-pumped, {{pause frames=\"5\"}}{{string value=\"Catchphrase\"}}.",
      "EUen": "I was THIS close to catching\n{{color id=\"7\"}}{{itemName index=\"0\"}} {{color id=\"0\"}}until you\nclomped onto the scene!\n.{{pause frames=\"5\"}}.{{pause frames=\"5\"}}.{{pause frames=\"5\"}}Oh, {{pause frames=\"20\"}}hey, that was rude!\nI don't think we've met.\nWho are you, {{pause frames=\"5\"}}{{string value=\"Catchphrase\"}}?\nYour name's {{pause frames=\"5\"}}{{string value=\"PlayerNickname\"}}?{{pause frames=\"20\"}}\nLook, sorry, I got a little\nover-pumped, {{pause frames=\"5\"}}{{string value=\"Catchphrase\"}}.",
      "EUes": "I was THIS close to catching\n{{color id=\"7\"}}{{itemName index=\"0\"}} {{color id=\"0\"}}until you\nclomped onto the scene!\n.{{pause frames=\"5\"}}.{{pause frames=\"5\"}}.{{pause frames=\"5\"}}Oh, {{pause frames=\"20\"}}hey, that was rude!\nI don't think we've met.\nWho are you, {{pause frames=\"5\"}}{{string value=\"Catchphrase\"}}?\nYour name's {{pause frames=\"5\"}}{{string value=\"PlayerNickname\"}}?{{pause frames=\"20\"}}\nLook, sorry, I got a little\nover-pumped, {{pause frames=\"5\"}}{{string value=\"Catchphrase\"}}.",
      "EUfr": "I was THIS close to catching\n{{color id=\"7\"}}{{itemName index=\"0\"}} {{color id=\"0\"}}until you\nclomped onto the scene!\n.{{pause frames=\"5\"}}.{{pause frames=\"5\"}}.{{pause frames=\"5\"}}Oh, {{pause frames=\"20\"}}hey, that was rude!\nI don't think we've met.\nWho are you, {{pause frames=\"5\"}}{{string value=\"Catchphrase\"}}?\nYour name's {{pause frames=\"5\"}}{{string value=\"PlayerNickname\"}}?{{pause frames=\"20\"}}\nLook, sorry, I got a little\nover-pumped, {{pause frames=\"5\"}}{{string value=\"Catchphrase\"}}.",
      "EUit": "I was THIS close to catching\n{{color id=\"7\"}}{{itemName index=\"0\"}} {{color id=\"0\"}}until you\nclomped onto the scene!\n.{{pause frames=\"5\"}}.{{pause frames=\"5\"}}.{{pause frames=\"5\"}}Oh, {{pause frames=\"20\"}}hey, that was rude!\nI don't think we've met.\nWho are you, {{pause frames=\"5\"}}{{string value=\"Catchphrase\"}}?\nYour name's {{pause frames=\"5\"}}{{string value=\"PlayerNickname\"}}?{{pause frames=\"20\"}}\nLook, sorry, I got a little\nover-pumped, {{pause frames=\"5\"}}{{string value=\"Catchphrase\"}}.",
      "JPja": "せっかく　{{color id=\"7\"}}{{itemName index=\"0\"}}{{color id=\"0\"}}を\nつり{{kanjiReplace charNum=\"1\" value=\"あ\"}}上げようとしてるのに\nジャマしないでくれよー！\n・{{pause frames=\"5\"}}・{{pause frames=\"5\"}}・{{pause frames=\"5\"}}あ？{{pause frames=\"20\"}}　おまえ\nはじめて　{{kanjiReplace charNum=\"1\" value=\"あ\"}}会うヤツだな？\n{{pause frames=\"5\"}}{{string value=\"Catchphrase\"}}？\nそっか、{{pause frames=\"5\"}}{{string value=\"PlayerNickname\"}}ってんだ{{pause frames=\"20\"}}\nつっけんどんにして\n{{kanjiReplace charNum=\"1\" value=\"わる\"}}悪かったなー！　{{pause frames=\"5\"}}{{string value=\"Catchphrase\"}}！",
      "KRko": "せっかく　{{color id=\"7\"}}{{itemName index=\"0\"}}{{color id=\"0\"}}を\nつり{{kanjiReplace charNum=\"1\" value=\"あ\"}}上げようとしてるのに\nジャマしないでくれよー！\n・{{pause frames=\"5\"}}・{{pause frames=\"5\"}}・{{pause frames=\"5\"}}あ？{{pause frames=\"20\"}}　おまえ\nはじめて　{{kanjiReplace charNum=\"1\" value=\"あ\"}}会うヤツだな？\n{{pause frames=\"5\"}}{{string value=\"Catchphrase\"}}？\nそっか、{{pause frames=\"5\"}}{{string value=\"PlayerNickname\"}}ってんだ{{pause frames=\"20\"}}\nつっけんどんにして\n{{kanjiReplace charNum=\"1\" value=\"わる\"}}悪かったなー！　{{pause frames=\"5\"}}{{string value=\"Catchphrase\"}}！",
      "USen": "I was THIS close to catching\n{{color id=\"7\"}}{{itemName index=\"0\"}} {{color id=\"0\"}}until you\nclomped onto the scene!\n.{{pause frames=\"5\"}}.{{pause frames=\"5\"}}.{{pause frames=\"5\"}}Oh, {{pause frames=\"20\"}}hey, that was rude!\nI don't think we've met.\nWho are you, {{pause frames=\"5\"}}{{string value=\"Catchphrase\"}}?\nYour name's {{pause frames=\"5\"}}{{string value=\"PlayerNickname\"}}?{{pause frames=\"20\"}}\nLook, sorry, I got a little\nover-pumped, {{pause frames=\"5\"}}{{string value=\"Catchphrase\"}}."
    }
  },
  {
    "label": "11",
    "attribute": "0x00000000FE000000",
    "locale": {
      "EUde": "{{reaction type=\"Happiness\"}}Hey! Pleased to meetcha!\nMy name's {{string value=\"VillagerName\"}}!\nHow're you, {{pause frames=\"5\"}}{{string value=\"Catchphrase\"}}?\nOh, I gotcha. {{pause frames=\"5\"}}So{{pause frames=\"5\"}}.{{pause frames=\"5\"}}.{{pause frames=\"5\"}}.{{pause frames=\"5\"}}\nYou're {{string value=\"PlayerNickname\"}}, huh?\n\nTell me if you catch \n{{color id=\"7\"}}{{itemName index=\"0\"}}{{color id=\"0\"}}, wouldja?{{pause frames=\"5\"}}",
      "EUen": "{{reaction type=\"Happiness\"}}Hey! Pleased to meetcha!\nMy name's {{string value=\"VillagerName\"}}!\nHow're you, {{pause frames=\"5\"}}{{string value=\"Catchphrase\"}}?\nOh, I gotcha. {{pause frames=\"5\"}}So{{pause frames=\"5\"}}.{{pause frames=\"5\"}}.{{pause frames=\"5\"}}.{{pause frames=\"5\"}}\nYou're {{string value=\"PlayerNickname\"}}, huh?\n\nTell me if you catch \n{{color id=\"7\"}}{{itemName index=\"0\"}}{{color id=\"0\"}}, wouldja?{{pause frames=\"5\"}}",
      "EUes": "{{reaction type=\"Happiness\"}}Hey! Pleased to meetcha!\nMy name's {{string value=\"VillagerName\"}}!\nHow're you, {{pause frames=\"5\"}}{{string value=\"Catchphrase\"}}?\nOh, I gotcha. {{pause frames=\"5\"}}So{{pause frames=\"5\"}}.{{pause frames=\"5\"}}.{{pause frames=\"5\"}}.{{pause frames=\"5\"}}\nYou're {{string value=\"PlayerNickname\"}}, huh?\n\nTell me if you catch \n{{color id=\"7\"}}{{itemName index=\"0\"}}{{color id=\"0\"}}, wouldja?{{pause frames=\"5\"}}",
      "EUfr": "{{reaction type=\"Happiness\"}}Hey! Pleased to meetcha!\nMy name's {{string value=\"VillagerName\"}}!\nHow're you, {{pause frames=\"5\"}}{{string value=\"Catchphrase\"}}?\nOh, I gotcha. {{pause frames=\"5\"}}So{{pause frames=\"5\"}}.{{pause frames=\"5\"}}.{{pause frames=\"5\"}}.{{pause frames=\"5\"}}\nYou're {{string value=\"PlayerNickname\"}}, huh?\n\nTell me if you catch \n{{color id=\"7\"}}{{itemName index=\"0\"}}{{color id=\"0\"}}, wouldja?{{pause frames=\"5\"}}",
      "EUit": "{{reaction type=\"Happiness\"}}Hey! Pleased to meetcha!\nMy name's {{string value=\"VillagerName\"}}!\nHow're you, {{pause frames=\"5\"}}{{string value=\"Catchphrase\"}}?\nOh, I gotcha. {{pause frames=\"5\"}}So{{pause frames=\"5\"}}.{{pause frames=\"5\"}}.{{pause frames=\"5\"}}.{{pause frames=\"5\"}}\nYou're {{string value=\"PlayerNickname\"}}, huh?\n\nTell me if you catch \n{{color id=\"7\"}}{{itemName index=\"0\"}}{{color id=\"0\"}}, wouldja?{{pause frames=\"5\"}}",
      "JPja": "{{reaction type=\"Happiness\"}}おっ！　ハジメマシテー！！\nおいらは　{{string value=\"VillagerName\"}}だー！\n{{pause frames=\"5\"}}{{string value=\"Catchphrase\"}}！\nふーん{{pause frames=\"5\"}}・{{pause frames=\"5\"}}・{{pause frames=\"5\"}}・{{pause frames=\"5\"}}\nおまえは　{{string value=\"PlayerNickname\"}}ってのか\n\nもしも　{{color id=\"7\"}}{{itemName index=\"0\"}}{{color id=\"0\"}}を\nつかまえたら、{{pause frames=\"5\"}}\nおいらに　{{kanjiReplace charNum=\"1\" value=\"おし\"}}教えてくれー！",
      "KRko": "{{reaction type=\"Happiness\"}}おっ！　ハジメマシテー！！\nおいらは　{{string value=\"VillagerName\"}}だー！\n{{pause frames=\"5\"}}{{string value=\"Catchphrase\"}}！\nふーん{{pause frames=\"5\"}}・{{pause frames=\"5\"}}・{{pause frames=\"5\"}}・{{pause frames=\"5\"}}\nおまえは　{{string value=\"PlayerNickname\"}}ってのか\n\nもしも　{{color id=\"7\"}}{{itemName index=\"0\"}}{{color id=\"0\"}}を\nつかまえたら、{{pause frames=\"5\"}}\nおいらに　{{kanjiReplace charNum=\"1\" value=\"おし\"}}教えてくれー！",
      "USen": "{{reaction type=\"Happiness\"}}Hey! Pleased to meetcha!\nMy name's {{string value=\"VillagerName\"}}!\nHow're you, {{pause frames=\"5\"}}{{string value=\"Catchphrase\"}}?\nOh, I gotcha. {{pause frames=\"5\"}}So{{pause frames=\"5\"}}.{{pause frames=\"5\"}}.{{pause frames=\"5\"}}.{{pause frames=\"5\"}}\nYou're {{string value=\"PlayerNickname\"}}, huh?\n\nTell me if you catch \n{{color id=\"7\"}}{{itemName index=\"0\"}}{{color id=\"0\"}}, wouldja?{{pause frames=\"5\"}}"
    }
  }
]