[
  {
    "label": "0",
    "attribute": "0x00100001FE000000",
    "locale": {
      "EUde": "{{reaction type=\"Amazed\"}}Oh, hey, {{pause frames=\"10\"}}{{string value=\"PlayerNickname\"}}!{{pause frames=\"15\"}}\n{{reaction type=\"Distress\"}}Zu dir wollte ich gerade,\n{{pause frames=\"5\"}}{{string value=\"Catchphrase\"}}!\n{{resetReaction}}Ja, jedenfalls wollte ich dir\netwas geben:{{pause frames=\"5\"}} {{gender m=\"Diesen\" f=\"Diese\" n=\"Dieses\"}}\n{{ignoreArticle}}{{itemName index=\"0\"}}!\n{{reaction type=\"Intense\"}}Sag Dankeschön!\nDa steckt viel Blut und \nSchweiß und Tränen drin.\n{{reaction type=\"Happiness\"}}Natürlich nicht wirklich.{{pause frames=\"5\"}} \nDas wäre ja auch eklig,\n{{pause frames=\"5\"}}{{string value=\"Catchphrase\"}}!",
      "EUen": "{{reaction type=\"Amazed\"}}Oh, hey, {{pause frames=\"10\"}}{{string value=\"PlayerNickname\"}}!{{pause frames=\"15\"}}\n{{reaction type=\"Distress\"}}I was just looking for you,\n{{pause frames=\"5\"}}{{string value=\"Catchphrase\"}}!\n{{resetReaction}}Yeah, anyway, I thought I'd\ngive you{{pause frames=\"5\"}} this sweet treat:\n{{itemName index=\"0\"}}!\n{{reaction type=\"Intense\"}}You better appreciate it!\nI put my blood, sweat, and\ntears into that thing!\n{{reaction type=\"Happiness\"}}Not literally, of course.{{pause frames=\"5\"}} \nThat would be completely\ndisgusting, {{pause frames=\"5\"}}{{string value=\"Catchphrase\"}}!",
      "EUes": "{{reaction type=\"Amazed\"}}¡Hola, {{pause frames=\"10\"}}{{string value=\"PlayerNickname\"}}!{{pause frames=\"15\"}}\n{{reaction type=\"Distress\"}}Precisamente te estaba\nbuscando, {{pause frames=\"5\"}}{{string value=\"Catchphrase\"}}.\n{{resetReaction}}Había pensado en\ndarte un regalo:\n¡{{itemName index=\"0\"}}!\n{{reaction type=\"Intense\"}}Más vale que te guste, me\nha costado sangre, sudor y\nlágrimas conseguirlo.\n{{reaction type=\"Happiness\"}}Aunque no hablo en sentido\nliteral.{{pause frames=\"5\"}} No te asustes,\n{{pause frames=\"5\"}}{{string value=\"Catchphrase\"}}.",
      "EUfr": "{{reaction type=\"Amazed\"}}Oh, salut, {{pause frames=\"10\"}}{{string value=\"PlayerNickname\"}}!{{pause frames=\"15\"}}\n{{reaction type=\"Distress\"}}Justement, je te cherchais,\n{{pause frames=\"5\"}}{{string value=\"Catchphrase\"}}!\n{{resetReaction}}Bref, je voulais te faire\ncadeau{{pause frames=\"5\"}} de ça:\n{{itemName index=\"0\"}}!\n{{reaction type=\"Intense\"}}J'espère que ça te plaira\nparce que j'y ai mis tout\nmon cœur!\n{{reaction type=\"Happiness\"}}Enfin, c'est une façon de \nparler.{{pause frames=\"5\"}} Ce serait trop\ndégoûtant, {{pause frames=\"5\"}}{{string value=\"Catchphrase\"}}!",
      "EUit": "{{reaction type=\"Amazed\"}}Oh, ehi, {{pause frames=\"10\"}}{{string value=\"PlayerNickname\"}}!{{pause frames=\"15\"}}\n{{reaction type=\"Distress\"}}Stavo proprio cercando te,\n{{pause frames=\"5\"}}{{string value=\"Catchphrase\"}}!\n{{resetReaction}}Davvero! Volevo\ndarti{{pause frames=\"5\"}} una cosa...\n{{itemName index=\"0\"}}!\n{{reaction type=\"Intense\"}}Spero che ti piaccia!\nÈ frutto delle mie lacrime,\ndi sudore e sangue!\n{{reaction type=\"Happiness\"}}È un modo di dire, certo...{{pause frames=\"5\"}} \nAltrimenti sarebbe una vera\nschifezza, {{pause frames=\"5\"}}{{string value=\"Catchphrase\"}}!",
      "JPja": "{{reaction type=\"Amazed\"}}おっ、{{pause frames=\"10\"}}{{string value=\"PlayerNickname\"}}！{{pause frames=\"15\"}}\n{{reaction type=\"Distress\"}}さがしてたんだぞー、{{pause frames=\"5\"}}{{pause frames=\"5\"}}{{string value=\"Catchphrase\"}}！\n\n{{resetReaction}}いや、{{pause frames=\"5\"}}この\n{{itemName index=\"0\"}}を\nおまえにやろうと　{{kanjiReplace charNum=\"1\" value=\"おも\"}}思ってさー\n{{reaction type=\"Intense\"}}これは　おいらの、\n{{kanjiReplace charNum=\"1\" value=\"ち\"}}血と　アセと　ナミダと\n{{kanjiReplace charNum=\"2\" value=\"はなみず\"}}鼻水の　ケッショー！\n{{reaction type=\"Happiness\"}}{{kanjiReplace charNum=\"1\" value=\"ほか\"}}他にも　いろいろ\nしみついてるけど、{{pause frames=\"5\"}}\n{{kanjiReplace charNum=\"1\" value=\"き\"}}気にすんなー！　{{pause frames=\"5\"}}{{string value=\"Catchphrase\"}}！",
      "KRko": "{{reaction type=\"Amazed\"}}옷， {{pause frames=\"10\"}}{{string value=\"PlayerNickname\"}}！{{pause frames=\"15\"}}\n{{reaction type=\"Distress\"}}찾아다녔잖아ー {{pause frames=\"5\"}}{{pause frames=\"5\"}}{{string value=\"Catchphrase\"}}！\n\n{{resetReaction}}아니，{{pause frames=\"5\"}}\n이 {{itemName index=\"0\"}}{{fun_0B arg=\"0x0200\"}}\n너한테 주려고ー\n{{reaction type=\"Intense\"}}이건 나의\n피와 땀이 묻어있는\n콧물의 결정체ー！\n{{reaction type=\"Happiness\"}}그 외에도 여러 가지가\n묻어 있겠지만，{{pause frames=\"5\"}}\n그냥 넘어가ー！ {{pause frames=\"5\"}}{{string value=\"Catchphrase\"}}！",
      "USen": "{{reaction type=\"Amazed\"}}Oh, hey, {{pause frames=\"10\"}}{{string value=\"PlayerNickname\"}}!{{pause frames=\"15\"}}\n{{reaction type=\"Distress\"}}I was just looking for you,\n{{pause frames=\"5\"}}{{string value=\"Catchphrase\"}}!\n{{resetReaction}}Yeah, anyway, I thought I'd\ngive you{{pause frames=\"5\"}} this sweet treat:\n{{itemName index=\"0\"}}!\n{{reaction type=\"Intense\"}}You better appreciate it!\nI put my blood, sweat, and\ntears into that thing!\n{{reaction type=\"Happiness\"}}Not literally, of course.{{pause frames=\"5\"}} \nThat would be completely\ndisgusting, {{pause frames=\"5\"}}{{string value=\"Catchphrase\"}}!"
    }
  },
  {
    "label": "1",
    "attribute": "0x00100001FE000000",
    "locale": {
      "EUde": "{{reaction type=\"Amazed\"}}Wow!{{pause frames=\"10\"}} {{capitalizeLetter}}{{string value=\"PlayerNickname\"}}!{{pressButton}}\n{{reaction type=\"Happiness\"}}Was für ein super Timing!{{pause frames=\"5\"}}\nHier, für dich!\n{{reaction type=\"Worry\"}}Habe aus Versehen zwei\ndavon gekauft, weißt du...?\n\nUnd jetzt habe ich keinen\nPlatz mehr dafür,\n{{pause frames=\"5\"}}{{string value=\"Catchphrase\"}}!",
      "EUen": "{{reaction type=\"Amazed\"}}Whoa!{{pause frames=\"10\"}} {{capitalizeLetter}}{{string value=\"PlayerNickname\"}}!{{pressButton}}\n{{reaction type=\"Happiness\"}}Talk about awesome timing!{{pause frames=\"5\"}}\nHere, have this!\n{{reaction type=\"Worry\"}}I accidentally bought two\nof 'em, see...\n\nAnd now, I have nowhere to\nput 'em, {{pause frames=\"5\"}}{{string value=\"Catchphrase\"}}!",
      "EUes": "{{reaction type=\"Amazed\"}}¡Vaya!{{pause frames=\"10\"}} ¡{{capitalizeLetter}}{{string value=\"PlayerNickname\"}}!{{pressButton}} {{reaction type=\"Happiness\"}}Llegas\njusto a tiempo.{{pause frames=\"5\"}} Esto es\npara ti.\n{{reaction type=\"Worry\"}}Es que compré dos por\nerror...\n\n¡Y con uno ya me llega de\nsobra, {{pause frames=\"5\"}}{{string value=\"Catchphrase\"}}!",
      "EUfr": "{{reaction type=\"Amazed\"}}Waouh!{{pause frames=\"10\"}} {{capitalizeLetter}}{{string value=\"PlayerNickname\"}}!{{pressButton}}\n{{reaction type=\"Happiness\"}}Tu tombes à pic!{{pause frames=\"5\"}}\nTiens, prends ça!\n{{reaction type=\"Worry\"}}J'en ai acheté deux sans le\nfaire exprès...\n\nEt je n'ai pas assez de \nplace pour tout ça, \n{{pause frames=\"5\"}}{{string value=\"Catchphrase\"}}!",
      "EUit": "{{reaction type=\"Amazed\"}}Perfetto!{{pause frames=\"10\"}} {{capitalizeLetter}}{{string value=\"PlayerNickname\"}}!{{pressButton}}\n{{reaction type=\"Happiness\"}}Che tempismo!{{pause frames=\"5\"}}\nEcco, è per te!\n{{reaction type=\"Worry\"}}Purtroppo mi sono sbagliato\ne ne ho comprati due...\n\nE non ho posto, non so che\nfarmene, {{pause frames=\"5\"}}{{string value=\"Catchphrase\"}}!",
      "JPja": "{{reaction type=\"Amazed\"}}あっ！{{pause frames=\"10\"}}\n{{string value=\"PlayerNickname\"}}！{{pressButton}}\n{{reaction type=\"Happiness\"}}これ　やるよー！\n{{reaction type=\"Worry\"}}まちがって　{{kanjiReplace charNum=\"1\" value=\"おな\"}}同じのを\n２つ　{{kanjiReplace charNum=\"1\" value=\"か\"}}買っちゃってさー、\n\n{{kanjiReplace charNum=\"1\" value=\"お\"}}置き{{kanjiReplace charNum=\"2\" value=\"ばしょ\"}}場所も　なくって\nこまってたんだー！\n{{pause frames=\"5\"}}{{string value=\"Catchphrase\"}}！",
      "KRko": "{{reaction type=\"Amazed\"}}앗！{{pause frames=\"10\"}}\n{{string value=\"PlayerNickname\"}}！{{pressButton}}\n{{reaction type=\"Happiness\"}}이거 줄게ー！\n{{reaction type=\"Worry\"}}깜빡하고 똑같은 걸\n２개나 샀거든ー\n\n둘 데가 없어서\n난감해 하던 참이었어ー！\n{{pause frames=\"5\"}}{{string value=\"Catchphrase\"}}！",
      "USen": "{{reaction type=\"Amazed\"}}Whoa!{{pause frames=\"10\"}} {{capitalizeLetter}}{{string value=\"PlayerNickname\"}}!{{pressButton}}\n{{reaction type=\"Happiness\"}}Talk about awesome timing!{{pause frames=\"5\"}}\nHere, have this!\n{{reaction type=\"Worry\"}}I accidentally bought two\nof 'em, see...\n\nAnd now, I have nowhere to\nput 'em, {{pause frames=\"5\"}}{{string value=\"Catchphrase\"}}!"
    }
  },
  {
    "label": "2",
    "attribute": "0x00100001FE000000",
    "locale": {
      "EUde": "{{reaction type=\"Amazed\"}}Oh, {{pause frames=\"5\"}}{{string value=\"PlayerNickname\"}}!\n\n\n{{reaction type=\"Intense\"}}Hör zu, ich lasse nicht zu,\ndass du ablehnst, also nimm\nes schon, {{pause frames=\"5\"}}{{string value=\"Catchphrase\"}}!\n{{reaction type=\"Worry\"}}Jawohl{{pause frames=\"5\"}}.{{pause frames=\"5\"}}.{{pause frames=\"5\"}}.{{pause frames=\"5\"}} Ehrlich gesagt,\ndas lag heute Morgen vor\nmeiner Tür{{pause frames=\"5\"}}.{{pause frames=\"5\"}}.{{pause frames=\"5\"}}.\n{{reaction type=\"Distress\"}}Das hat mir Angst gemacht,\nalso tu mir den Gefallen\nund nimm es, {{pause frames=\"5\"}}{{string value=\"Catchphrase\"}}!",
      "EUen": "{{reaction type=\"Amazed\"}}Oh, {{pause frames=\"5\"}}{{string value=\"PlayerNickname\"}}!\n\n\n{{reaction type=\"Intense\"}}Listen, I'm not gonna allow\nyou to refuse, so you gotta\ntake this, {{pause frames=\"5\"}}{{string value=\"Catchphrase\"}}!\n{{reaction type=\"Worry\"}}Yeah{{pause frames=\"5\"}}.{{pause frames=\"5\"}}.{{pause frames=\"5\"}}.{{pause frames=\"5\"}} If you wanna know\nthe truth, I woke up today,\nand it was by my door{{pause frames=\"5\"}}.{{pause frames=\"5\"}}.{{pause frames=\"5\"}}.\n{{reaction type=\"Distress\"}}It's kinda got me freaked\nout, so do a guy a favor\nand take it, {{pause frames=\"5\"}}{{string value=\"Catchphrase\"}}!",
      "EUes": "{{reaction type=\"Amazed\"}}¡Eoo, {{pause frames=\"5\"}}{{string value=\"PlayerNickname\"}}!\n\n\n{{reaction type=\"Intense\"}}¡Para ti! ¡Y no intentes\nnegarte! ¡Te aviso,\n{{pause frames=\"5\"}}{{string value=\"Catchphrase\"}}!\n{{reaction type=\"Worry\"}}La verdad es que estaba en\nmi puerta esta mañana\ncuando me levanté{{pause frames=\"5\"}}.{{pause frames=\"5\"}}.{{pause frames=\"5\"}}.\n{{reaction type=\"Distress\"}}Es una cosa muy rara, da un\npoco de miedo. Por eso\npensé en ti, {{pause frames=\"5\"}}¡{{string value=\"Catchphrase\"}}!",
      "EUfr": "{{reaction type=\"Amazed\"}}Oh, {{pause frames=\"5\"}}{{string value=\"PlayerNickname\"}}!\n\n\n{{reaction type=\"Intense\"}}Je n'accepterai pas de\nrefus, alors prends ça,\n{{pause frames=\"5\"}}{{string value=\"Catchphrase\"}}!\n{{reaction type=\"Worry\"}}Bon{{pause frames=\"5\"}}.{{pause frames=\"5\"}}.{{pause frames=\"5\"}}.{{pause frames=\"5\"}} Si tu veux tout\nsavoir, j'ai trouvé ça sur \nle palier en me levant{{pause frames=\"5\"}}.{{pause frames=\"5\"}}.{{pause frames=\"5\"}}.\n{{reaction type=\"Distress\"}}Ça m'a un peu fait peur,\ndonc sois sympa et prends\nça, {{pause frames=\"5\"}}{{string value=\"Catchphrase\"}}!",
      "EUit": "{{reaction type=\"Amazed\"}}Oh, {{pause frames=\"5\"}}{{string value=\"PlayerNickname\"}}!\n\n\n{{reaction type=\"Intense\"}}Senti, non fare complimenti\ne accetta questo regalo,\n{{pause frames=\"5\"}}{{string value=\"Catchphrase\"}}!\n{{reaction type=\"Worry\"}}Sì{{pause frames=\"5\"}}.{{pause frames=\"5\"}}.{{pause frames=\"5\"}}.{{pause frames=\"5\"}} Se vuoi sapere\nla verità... era davanti a\ncasa mia stamattina{{pause frames=\"5\"}}.{{pause frames=\"5\"}}.{{pause frames=\"5\"}}.\n{{reaction type=\"Distress\"}}È stato un ritrovamento\ninquietante... me ne voglio\nliberare, {{pause frames=\"5\"}}{{string value=\"Catchphrase\"}}!",
      "JPja": "{{reaction type=\"Amazed\"}}あっ、{{pause frames=\"5\"}}{{string value=\"PlayerNickname\"}}！\n\n\n{{reaction type=\"Intense\"}}{{kanjiReplace charNum=\"1\" value=\"なに\"}}何も　{{kanjiReplace charNum=\"1\" value=\"い\"}}言わずに\nコレを{{kanjiReplace charNum=\"1\" value=\"う\"}}受けとってくれー、\n{{pause frames=\"5\"}}{{string value=\"Catchphrase\"}}！！\n{{reaction type=\"Worry\"}}いやぁ{{pause frames=\"5\"}}・{{pause frames=\"5\"}}・{{pause frames=\"5\"}}・{{pause frames=\"5\"}}\n{{kanjiReplace charNum=\"1\" value=\"あさ\"}}朝{{kanjiReplace charNum=\"1\" value=\"お\"}}起きたら　げんかんに\n{{kanjiReplace charNum=\"1\" value=\"お\"}}置いてあってさ{{pause frames=\"5\"}}・{{pause frames=\"5\"}}・{{pause frames=\"5\"}}・\n{{reaction type=\"Distress\"}}ちょっと　コワいし、\nおまえに　{{kanjiReplace charNum=\"1\" value=\"う\"}}受けとってもらえると\n{{kanjiReplace charNum=\"1\" value=\"たす\"}}助かるんだ、{{pause frames=\"5\"}}{{string value=\"Catchphrase\"}}",
      "KRko": "{{reaction type=\"Amazed\"}}앗， {{pause frames=\"5\"}}{{string value=\"PlayerNickname\"}}！\n\n\n{{reaction type=\"Intense\"}}아무 말도 말고\n이걸 받아 줘ー\n{{pause frames=\"5\"}}{{string value=\"Catchphrase\"}}！！\n{{reaction type=\"Worry\"}}아니{{pause frames=\"5\"}}・{{pause frames=\"5\"}}・{{pause frames=\"5\"}}・{{pause frames=\"5\"}}\n아침에 일어났더니 현관문에\n이게 있더라구{{pause frames=\"5\"}}・{{pause frames=\"5\"}}・{{pause frames=\"5\"}}・\n{{reaction type=\"Distress\"}}난 좀 무서워서ー\n니가 받아 주면 이 은혜\n안 잊을게， {{pause frames=\"5\"}}{{string value=\"Catchphrase\"}}",
      "USen": "{{reaction type=\"Amazed\"}}Oh, {{pause frames=\"5\"}}{{string value=\"PlayerNickname\"}}!\n\n\n{{reaction type=\"Intense\"}}Listen, I'm not gonna allow\nyou to refuse, so you gotta\ntake this, {{pause frames=\"5\"}}{{string value=\"Catchphrase\"}}!\n{{reaction type=\"Worry\"}}Yeah{{pause frames=\"5\"}}.{{pause frames=\"5\"}}.{{pause frames=\"5\"}}.{{pause frames=\"5\"}} If you wanna know\nthe truth, I woke up today,\nand it was by my door{{pause frames=\"5\"}}.{{pause frames=\"5\"}}.{{pause frames=\"5\"}}.\n{{reaction type=\"Distress\"}}It's kinda got me freaked\nout, so do a guy a favor\nand take it, {{pause frames=\"5\"}}{{string value=\"Catchphrase\"}}!"
    }
  }
]