[
  {
    "label": "0",
    "attribute": "0x000B0000FF000000",
    "locale": {
      "EUde": "{{reaction type=\"Shocked\"}}Auweia! {{pause frames=\"5\"}}Ist das da\nwirklich {{gender m=\"ein\" f=\"eine\" n=\"ein\"}}\n{{ignoreArticle}}{{itemName index=\"2\"}}?!?\n{{reaction type=\"Worry\"}}Das stellt ja {{gender m=\"meinen\" f=\"meine\" n=\"mein\"}}\n{{ignoreArticle}}{{itemName index=\"3\"}}\ntotal in den Schatten!\n{{reaction type=\"Intense\"}}GRRR! Wie frustrierend! {{pause frames=\"10\"}}Gut!\nDafür behalte ich {{gender m=\"diesen\" f=\"diese\" n=\"dieses\"}}\n{{ignoreArticle}}{{itemName index=\"2\"}}!",
      "EUen": "{{reaction type=\"Shocked\"}}Omigosh! {{pause frames=\"5\"}}Is that really\n{{itemName index=\"2\"}}\nyou have there?!\n{{reaction type=\"Worry\"}}That totally makes the\n{{ignoreArticle}}{{itemName index=\"3\"}} I\nhave look minor league!\n{{reaction type=\"Intense\"}}GRRR! How frustrating! {{pause frames=\"10\"}}Fine!\nMaybe I'll just keep this\n{{ignoreArticle}}{{itemName index=\"2\"}}!",
      "EUes": "{{reaction type=\"Shocked\"}}¡Madre mía! {{pause frames=\"5\"}}¿Eso es\n{{itemName index=\"2\"}}?\n¿Es de verdad?\n{{reaction type=\"Worry\"}}¡Pues a su lado, mi\n{{ignoreArticle}}{{itemName index=\"3\"}}\nse queda pequeñ{{gender m=\"o\" f=\"a\" n=\"x\"}}!\n{{reaction type=\"Intense\"}}¡GRRR! ¡Qué frustración!{{pause frames=\"10\"}}\n¡Vale, pues me voy a\nquedar ese ejemplar tuyo!",
      "EUfr": "{{reaction type=\"Shocked\"}}Waouh! {{pause frames=\"5\"}}C'est vraiment\n{{itemName index=\"2\"}}\nque tu as là?!\n{{reaction type=\"Worry\"}}Alors, m{{gender m=\"on\" f=\"a\" n=\"\"}} modeste\n{{ignoreArticle}}{{itemName index=\"3\"}}\nne fait pas le poids!\n{{reaction type=\"Intense\"}}GRRR! C'est trop frustrant!{{pause frames=\"10\"}}\nParfait! Je vais garder\n{{fun_0B}}{{itemName index=\"2\"}}!",
      "EUit": "{{reaction type=\"Shocked\"}}Santo cielo! {{pause frames=\"5\"}}È\n{{itemName index=\"2\"}}\nquell{{gender m=\"o\" f=\"a\" n=\"\"}}?!\n{{reaction type=\"Worry\"}}A confronto, {{gender m=\"il mio\" f=\"la mia\" n=\"\"}}\n{{ignoreArticle}}{{itemName index=\"3\"}} è\nun moscerino!\n{{reaction type=\"Intense\"}}GRRR! Che rabbia! {{pause frames=\"10\"}}Ok, allora\nmi terrò quest{{gender m=\"o\" f=\"a\" n=\"\"}}\n{{ignoreArticle}}{{itemName index=\"2\"}}!",
      "JPja": "{{reaction type=\"Shocked\"}}これって　まさか{{pause frames=\"5\"}}・{{pause frames=\"5\"}}・{{pause frames=\"5\"}}・{{pause frames=\"5\"}}\n{{itemName index=\"2\"}}？\n\n{{reaction type=\"Worry\"}}あたしは　{{itemName index=\"3\"}}を\n{{kanjiReplace charNum=\"1\" value=\"つか\"}}捕まえたけど　どう{{kanjiReplace charNum=\"1\" value=\"み\"}}見ても\nレベルが　ちがうわ！\n{{reaction type=\"Intense\"}}くやしいから\nこの　{{itemName index=\"2\"}}は、{{pause frames=\"10\"}}\nもらっとくわね、{{pause frames=\"10\"}}{{string value=\"Catchphrase\"}}",
      "KRko": "{{reaction type=\"Shocked\"}}이건 혹시{{pause frames=\"5\"}}・{{pause frames=\"5\"}}・{{pause frames=\"5\"}}・{{pause frames=\"5\"}}\n{{itemName index=\"2\"}}？\n\n{{reaction type=\"Worry\"}}난 {{itemName index=\"3\"}}{{fun_0B arg=\"0x0200\"}}\n잡긴 했는데， 이건 아무리 봐도\n레벨이 달라！\n{{reaction type=\"Intense\"}}분하니까\n이 {{itemName index=\"2\"}}{{fun_0B arg=\"0x0100\"}}{{pause frames=\"10\"}}\n받아 둘게， {{pause frames=\"10\"}}{{string value=\"Catchphrase\"}}",
      "USen": "{{reaction type=\"Shocked\"}}Omigosh! {{pause frames=\"5\"}}Is that really\n{{itemName index=\"2\"}}\nyou have there?!\n{{reaction type=\"Worry\"}}That totally makes the\n{{ignoreArticle}}{{itemName index=\"3\"}} I\nhave look minor league!\n{{reaction type=\"Intense\"}}GRRR! How frustrating! {{pause frames=\"10\"}}Fine!\nMaybe I'll just keep this\n{{ignoreArticle}}{{itemName index=\"2\"}}!"
    }
  },
  {
    "label": "1",
    "attribute": "0x000B0000FF000000",
    "locale": {
      "EUde": "{{reaction type=\"Shocked\"}}Ist das etwa {{gender m=\"ein\" f=\"eine\" n=\"ein\"}}{{pause frames=\"5\"}}.{{pause frames=\"5\"}}.{{pause frames=\"5\"}}.{{pause frames=\"5\"}}\n{{ignoreArticle}}{{itemName index=\"2\"}}?{{pressButton}}\n{{reaction type=\"Happiness\"}}Gute Arbeit, {{string value=\"PlayerNickname\"}}!\nWo hast du {{gender m=\"den\" f=\"die\" n=\"das\"}} nur her?{{resetReaction}}\nIch habe nur {{gender m=\"diesen\" f=\"diese\" n=\"dieses\"}}\n{{ignoreArticle}}{{itemName index=\"3\"}}{{pause frames=\"3\"}}.{{pause frames=\"3\"}}.{{pause frames=\"3\"}}.\nTja, dann hast du wohl\ngewonnen, {{pause frames=\"5\"}}{{string value=\"Catchphrase\"}}.\nUnglaublich!\n{{reaction type=\"Intense\"}}GRRR! Aber ich behalte {{gender m=\"den\" f=\"die\" n=\"das\"}}\n{{ignoreArticle}}{{itemName index=\"2\"}}!{{pause frames=\"10\"}}\nDas schuldest du mir!",
      "EUen": "{{reaction type=\"Shocked\"}}Is that, by any chance{{pause frames=\"5\"}}.{{pause frames=\"5\"}}.{{pause frames=\"5\"}}.{{pause frames=\"5\"}}\n{{itemName index=\"2\"}}?{{pressButton}}\n{{reaction type=\"Happiness\"}}Good job, {{string value=\"PlayerNickname\"}}!\nWhere did you find it? {{resetReaction}}I\nonly managed to catch\n{{itemName index=\"3\"}}{{pause frames=\"3\"}}.{{pause frames=\"3\"}}.{{pause frames=\"3\"}}.\nWell, I guess you won this\nmatch, {{pause frames=\"5\"}}{{string value=\"Catchphrase\"}}. I can't\nbelieve it.\n{{reaction type=\"Intense\"}}GRRR! I'm going to keep this\n{{ignoreArticle}}{{itemName index=\"2\"}}!{{pause frames=\"10\"}}\nYou owe it to me!",
      "EUes": "{{reaction type=\"Shocked\"}}¿Eso no será, por un casual,{{pause frames=\"5\"}}\n{{itemName index=\"2\"}}?{{pressButton}}\n{{reaction type=\"Happiness\"}}¡Bien hecho, {{string value=\"PlayerNickname\"}}!\n¿Dónde l{{gender m=\"o\" f=\"a\" n=\"x\"}} has encontrado?{{resetReaction}}\nYo solo he conseguido\n{{itemName index=\"3\"}}{{pause frames=\"3\"}}.{{pause frames=\"3\"}}.{{pause frames=\"3\"}}.\nEstá claro que has ganado\ntú, {{pause frames=\"5\"}}{{string value=\"Catchphrase\"}}. Casi no me\nlo puedo creer.\n{{reaction type=\"Intense\"}}¡GRRR! ¡Voy a quedarme est{{gender m=\"e\" f=\"a\" n=\"x\"}}\n{{ignoreArticle}}{{itemName index=\"2\"}}!{{pause frames=\"10\"}}\n¡Me l{{gender m=\"o\" f=\"a\" n=\"\"}} debes!",
      "EUfr": "{{reaction type=\"Shocked\"}}Est-ce, par hasard{{pause frames=\"5\"}}.{{pause frames=\"5\"}}.{{pause frames=\"5\"}}.{{pause frames=\"5\"}}\n{{itemName index=\"2\"}}?{{pressButton}}\n{{reaction type=\"Happiness\"}}Beau boulot, {{string value=\"PlayerNickname\"}}!\nOù l'as-tu trouvé{{gender m=\"\" f=\"e\" n=\"\"}}? {{resetReaction}}Je n'ai\nréussi à attraper\nqu'{{itemName index=\"3\"}}{{pause frames=\"3\"}}.{{pause frames=\"3\"}}.{{pause frames=\"3\"}}.\nBon, je crois que tu gagnes\nce match, {{pause frames=\"5\"}}{{string value=\"Catchphrase\"}}.\nÇa me coupe les pattes!\n{{reaction type=\"Intense\"}}GRRR! Je vais garder\n{{fun_0B}}{{itemName index=\"2\"}}\nen question!{{pause frames=\"10\"}} Au moins!",
      "EUit": "{{reaction type=\"Shocked\"}}Per caso{{pause frames=\"5\"}}.{{pause frames=\"5\"}}.{{pause frames=\"5\"}}.{{pause frames=\"5\"}} quell{{gender m=\"o\" f=\"a\" n=\"\"}} non è\n{{itemName index=\"2\"}}?{{pressButton}}\n{{reaction type=\"Happiness\"}}Ottimo lavoro, {{string value=\"PlayerNickname\"}}!\nMa come hai fatto? {{resetReaction}}Io ho\npreso solo\n{{itemName index=\"3\"}}{{pause frames=\"3\"}}.{{pause frames=\"3\"}}.{{pause frames=\"3\"}}.\nE così hai vinto questa\ngara, {{pause frames=\"5\"}}{{string value=\"Catchphrase\"}}. Non ci\nposso credere.\n{{reaction type=\"Intense\"}}GRRR! Mi terrò quest{{gender m=\"o\" f=\"a\" n=\"\"}}\n{{ignoreArticle}}{{itemName index=\"2\"}}!{{pause frames=\"10\"}}\nMe lo devi!",
      "JPja": "{{reaction type=\"Shocked\"}}あら、{{pause frames=\"5\"}}これって\nもしかして{{pause frames=\"5\"}}・{{pause frames=\"5\"}}・{{pause frames=\"5\"}}・{{pause frames=\"5\"}}\n{{itemName index=\"2\"}}？\n{{reaction type=\"Happiness\"}}やるわね、{{string value=\"PlayerNickname\"}}ちゃん{{pause frames=\"20\"}}\nこんなの　どこにいたの？\n{{pause frames=\"5\"}}{{string value=\"Catchphrase\"}}？\n{{resetReaction}}あたしが　{{kanjiReplace charNum=\"1\" value=\"つか\"}}捕まえたのは\n{{itemName index=\"3\"}}だし{{pause frames=\"3\"}}・{{pause frames=\"3\"}}・{{pause frames=\"3\"}}・\n\nこの{{kanjiReplace charNum=\"2\" value=\"しょうぶ\"}}勝負、{{pause frames=\"5\"}}\n{{kanjiReplace charNum=\"1\" value=\"くら\"}}比べるまでもなく\nおたくの{{kanjiReplace charNum=\"1\" value=\"か\"}}勝ちね、{{pause frames=\"5\"}}{{string value=\"Catchphrase\"}}\n{{reaction type=\"Intense\"}}くやしいから\nこの　{{itemName index=\"2\"}}は、{{pause frames=\"10\"}}\nもらっとくわよ、{{pause frames=\"10\"}}{{string value=\"Catchphrase\"}}",
      "KRko": "{{reaction type=\"Shocked\"}}어머， {{pause frames=\"5\"}}이건\n혹시{{pause frames=\"5\"}}・{{pause frames=\"5\"}}・{{pause frames=\"5\"}}・{{pause frames=\"5\"}}\n{{itemName index=\"2\"}}？\n{{reaction type=\"Happiness\"}}꽤 하는걸， {{string value=\"PlayerNickname\"}}{{pause frames=\"20\"}}\n이거 어디에 있었어？\n{{pause frames=\"5\"}}{{string value=\"Catchphrase\"}}？\n{{resetReaction}}내가 잡은 건\n{{itemName index=\"3\"}}{{pause frames=\"3\"}}・{{pause frames=\"3\"}}・{{pause frames=\"3\"}}・\n\n이 대결은， {{pause frames=\"5\"}}\n비교할 것도 없이\n당신이 이겼어， {{pause frames=\"5\"}}{{string value=\"Catchphrase\"}}\n{{reaction type=\"Intense\"}}분하니까\n이 {{itemName index=\"2\"}}{{fun_0B arg=\"0x0100\"}}{{pause frames=\"10\"}}\n내가 가질게， {{pause frames=\"10\"}}{{string value=\"Catchphrase\"}}",
      "USen": "{{reaction type=\"Shocked\"}}Is that, by any chance{{pause frames=\"5\"}}.{{pause frames=\"5\"}}.{{pause frames=\"5\"}}.{{pause frames=\"5\"}}\n{{itemName index=\"2\"}}?{{pressButton}}\n{{reaction type=\"Happiness\"}}Good job, {{string value=\"PlayerNickname\"}}!\nWhere did you find it? {{resetReaction}}I\nonly managed to catch\n{{itemName index=\"3\"}}{{pause frames=\"3\"}}.{{pause frames=\"3\"}}.{{pause frames=\"3\"}}.\nWell, I guess you won this\nmatch, {{pause frames=\"5\"}}{{string value=\"Catchphrase\"}}. I can't\nbelieve it.\n{{reaction type=\"Intense\"}}GRRR! I'm going to keep this\n{{ignoreArticle}}{{itemName index=\"2\"}}!{{pause frames=\"10\"}}\nYou owe it to me!"
    }
  }
]