[
  {
    "label": "0",
    "attribute": "0x000B0000FF000000",
    "locale": {
      "EUde": "{{resetReaction}}Okay, also{{pause frames=\"5\"}} für {{gender m=\"deinen\" f=\"deine\" n=\"dein\"}}\n{{ignoreArticle}}{{itemName index=\"0\"}} \nbekommst du etwas Schönes.\nGenau!{{pause frames=\"5\"}} Das hier ist gut!{{pause frames=\"5\"}}\n{{reaction type=\"Happiness\"}}{{capitalizeLetter}}{{itemName index=\"1\"}}!{{pause frames=\"5\"}}\n{{reaction type=\"Joy\"}}Ich hab die tollsten Preise!",
      "EUen": "{{resetReaction}}OK,{{pause frames=\"5\"}} so in return for\n{{itemName index=\"0\"}},{{pause frames=\"5\"}} \nI'll give you...\n{{reaction type=\"Happiness\"}}{{capitalizeLetter}}{{itemName index=\"1\"}}!\nYup!{{pause frames=\"5\"}} It's official!{{pause frames=\"5\"}} {{reaction type=\"Joy\"}}I give\nthe BEST PRIZES!",
      "EUes": "{{resetReaction}}Muy bien,{{pause frames=\"5\"}} a cambio de es{{gender m=\"e\" f=\"a\" n=\"x\"}}\n{{ignoreArticle}}{{itemName index=\"0\"}},{{pause frames=\"5\"}}\nte mereces...\n{{reaction type=\"Happiness\"}}¡{{itemName index=\"1\"}}!\nSí,{{pause frames=\"5\"}} ¿no lo sabías?{{pause frames=\"5\"}} {{reaction type=\"Joy\"}}¡Yo doy\nlas mejores recompensas!",
      "EUfr": "{{resetReaction}}Ok,{{pause frames=\"5\"}} t{{gender m=\"on\" f=\"a\" n=\"\"}} magnifique\n{{ignoreArticle}}{{itemName index=\"0\"}},{{pause frames=\"5\"}} \nje te l'échange contre...\n{{reaction type=\"Happiness\"}}{{itemName index=\"1\"}}!\nOuaip!{{pause frames=\"5\"}} C'est officiel!{{pause frames=\"5\"}} {{reaction type=\"Joy\"}}Je\ndonne les PLUS BEAUX PRIX!",
      "EUit": "{{resetReaction}}OK,{{pause frames=\"5\"}} in cambio {{gender m=\"del tuo\" f=\"della tua\" n=\"\"}}\n{{ignoreArticle}}{{itemName index=\"0\"}},{{pause frames=\"5\"}}\nti darò...\n{{reaction type=\"Happiness\"}}{{capitalizeLetter}}{{itemName index=\"1\"}}!\nSì!{{pause frames=\"5\"}} È ufficiale!{{pause frames=\"5\"}} {{reaction type=\"Joy\"}}Nessuno dà\ndei premi migliori dei miei!",
      "JPja": "{{resetReaction}}じゃ、{{pause frames=\"5\"}}{{itemName index=\"0\"}}を\nもらった　お{{kanjiReplace charNum=\"1\" value=\"れい\"}}礼に、{{pause frames=\"5\"}}\nこれ　あげる！\n{{reaction type=\"Happiness\"}}{{itemName index=\"1\"}}だよ、\n{{pause frames=\"5\"}}{{string value=\"Catchphrase\"}}",
      "KRko": "{{resetReaction}}{{pause frames=\"5\"}}{{itemName index=\"0\"}}{{fun_0B arg=\"0x0200\"}}\n받은 답례로{{pause frames=\"5\"}}\n이거 줄게！\n{{reaction type=\"Happiness\"}}{{itemName index=\"1\"}}！\n{{pause frames=\"5\"}}{{string value=\"Catchphrase\"}}！",
      "USen": "{{resetReaction}}OK,{{pause frames=\"5\"}} so in return for\n{{itemName index=\"0\"}},{{pause frames=\"5\"}} \nI'll give you...\n{{reaction type=\"Happiness\"}}{{capitalizeLetter}}{{itemName index=\"1\"}}!\nYup!{{pause frames=\"5\"}} It's official!{{pause frames=\"5\"}} {{reaction type=\"Joy\"}}I give\nthe BEST PRIZES!"
    }
  },
  {
    "label": "1",
    "attribute": "0x000B0000FF000000",
    "locale": {
      "EUde": "{{reaction type=\"Happiness\"}}Für dieses Insekt bekommst\ndu etwas. Bitteschön.\n{{capitalizeLetter}}{{itemName index=\"1\"}}!",
      "EUen": "{{reaction type=\"Happiness\"}}Just for giving me the bug,\nI'll give you\n{{itemName index=\"1\"}}!",
      "EUes": "{{reaction type=\"Happiness\"}}¡Por haberme traído el\nbicho, te has ganado\n{{itemName index=\"1\"}}!",
      "EUfr": "{{reaction type=\"Happiness\"}}Comme tu m'as donné un\ninsecte, je te donne\n{{itemName index=\"1\"}}!",
      "EUit": "{{reaction type=\"Happiness\"}}Se mi dai il tuo insetto, in\ncambio ti darò\n{{itemName index=\"1\"}}!",
      "JPja": "{{reaction type=\"Happiness\"}}じゃ、{{pause frames=\"5\"}}ムシと　ひきかえに\n{{itemName index=\"1\"}}を\nプレゼント！　{{pause frames=\"5\"}}{{string value=\"Catchphrase\"}}！",
      "KRko": "{{reaction type=\"Happiness\"}}자， {{pause frames=\"5\"}}곤충 대신에\n{{itemName index=\"1\"}}{{fun_0B arg=\"0x0200\"}}\n선물할게！ {{pause frames=\"5\"}}{{string value=\"Catchphrase\"}}！",
      "USen": "{{reaction type=\"Happiness\"}}Just for giving me the bug,\nI'll give you\n{{itemName index=\"1\"}}!"
    }
  },
  {
    "label": "2",
    "attribute": "0x000B0000FF000000",
    "locale": {
      "EUde": "{{reaction type=\"Happiness\"}}Hier ist ein Geschenk für\ndich drin:\n{{capitalizeLetter}}{{itemName index=\"1\"}}!",
      "EUen": "{{reaction type=\"Happiness\"}}In return, why don't you\ntake my fabulous prize:\n{{itemName index=\"1\"}}?",
      "EUes": "{{reaction type=\"Happiness\"}}Mira, a cambio te ofrezco\nuna recompensa fabulosa:\n¡{{itemName index=\"1\"}}!",
      "EUfr": "{{reaction type=\"Happiness\"}}Pour te remercier, je\nvoudrais que tu prennes ça:\n{{itemName index=\"1\"}}!",
      "EUit": "{{reaction type=\"Happiness\"}}Ecco in cambio un premio\nfavoloso:\n{{itemName index=\"1\"}}!",
      "JPja": "{{reaction type=\"Happiness\"}}そんじゃ、{{pause frames=\"5\"}}ムシと　こうかんで{{pause frames=\"5\"}}\n{{itemName index=\"1\"}}でも\n{{kanjiReplace charNum=\"1\" value=\"う\"}}受け{{kanjiReplace charNum=\"1\" value=\"と\"}}取ってよ、{{pause frames=\"5\"}}{{string value=\"Catchphrase\"}}",
      "KRko": "{{reaction type=\"Happiness\"}}그럼 {{pause frames=\"5\"}}곤충 대신에{{pause frames=\"5\"}}\n{{itemName index=\"1\"}}{{fun_0B arg=\"0x0500\"}}라도\n받아， {{pause frames=\"5\"}}{{string value=\"Catchphrase\"}}",
      "USen": "{{reaction type=\"Happiness\"}}In return, why don't you\ntake my fabulous prize:\n{{itemName index=\"1\"}}?"
    }
  }
]