[
  {
    "label": "000",
    "attribute": "0x00000000FF000000",
    "locale": {
      "EUde": "Lass uns reden!",
      "EUen": "Let's talk!",
      "EUes": "¡Charlemos!",
      "EUfr": "Parlons!",
      "EUit": "Parliamo!",
      "JPja": "お{{kanjiReplace charNum=\"1\" value=\"ハナシ\"}}話しよう！",
      "KRko": "얘기하자！",
      "USen": "Let's talk!"
    }
  },
  {
    "label": "001",
    "attribute": "0x00000000FF000000",
    "locale": {
      "EUde": "Was gibts Neues?",
      "EUen": "Give me news!",
      "EUes": "¡Cuéntame algo!",
      "EUfr": "Quoi de neuf?",
      "EUit": "Raccontami!",
      "JPja": "なにか{{kanjiReplace charNum=\"1\" value=\"き\"}}聞かせて！",
      "KRko": "아무 말이나 해봐！",
      "USen": "Give me news!"
    }
  },
  {
    "label": "002",
    "attribute": "0x00000000FF000000",
    "locale": {
      "EUde": "Wie läufts so?",
      "EUen": "Let's chitchat!",
      "EUes": "¿Qué te cuentas?",
      "EUfr": "Papotons un peu!",
      "EUit": "Chiacchieriamo!",
      "JPja": "おしゃべりしよう",
      "KRko": "수다 떨자",
      "USen": "Let's chitchat!"
    }
  },
  {
    "label": "003",
    "attribute": "0x00000000FF000000",
    "locale": {
      "EUde": "Gibts was Neues?",
      "EUen": "Got any gossip?",
      "EUes": "¿Cómo va todo?",
      "EUfr": "Des ragots?",
      "EUit": "Pettegolezzi?",
      "JPja": "{{kanjiReplace charNum=\"2\" value=\"セケン\"}}世間{{kanjiReplace charNum=\"1\" value=\"ばなし\"}}話でも",
      "KRko": "잡담 어때？",
      "USen": "Got any gossip?"
    }
  },
  {
    "label": "004",
    "attribute": "0x00000000FF000000",
    "locale": {
      "EUde": "Sprich mit mir!",
      "EUen": "Speak to me!",
      "EUes": "¿Qué me dices?",
      "EUfr": "Parle-moi!",
      "EUit": "Parla con me!",
      "JPja": "{{kanjiReplace charNum=\"1\" value=\"かた\"}}語ってほしい",
      "KRko": "잡담하자",
      "USen": "Speak to me!"
    }
  },
  {
    "label": "005",
    "attribute": "0x00000000FF000000",
    "locale": {
      "EUde": "Erzähl mir was!",
      "EUen": "Tell me a story!",
      "EUes": "¡Cuenta algo!",
      "EUfr": "Du nouveau?",
      "EUit": "Dimmi una storia!",
      "JPja": "お{{kanjiReplace charNum=\"1\" value=\"ハナシ\"}}話きかせて！",
      "KRko": "나랑 놀자！",
      "USen": "Tell me a story!"
    }
  },
  {
    "label": "006",
    "attribute": "0x00000000FF000000",
    "locale": {
      "EUde": "Was ist so los?",
      "EUen": "Tell me anything!",
      "EUes": "¿Qué hay?",
      "EUfr": "Dis-moi tout!",
      "EUit": "Dimmi qualcosa!",
      "JPja": "なんか{{kanjiReplace charNum=\"1\" value=\"はな\"}}話して！",
      "KRko": "수다 떨까？",
      "USen": "Tell me anything!"
    }
  },
  {
    "label": "007",
    "attribute": "0x00000000FF000000",
    "locale": {
      "EUde": "Ich will reden!",
      "EUen": "I'm here to talk!",
      "EUes": "Hablemos de algo",
      "EUfr": "Je viens causer!",
      "EUit": "Voglio parlare!",
      "JPja": "{{kanjiReplace charNum=\"1\" value=\"はな\"}}話しにきたよ！",
      "KRko": "얘기하러 왔어！",
      "USen": "I'm here to talk!"
    }
  },
  {
    "label": "008",
    "attribute": "0x00000000FF000000",
    "locale": {
      "EUde": "Ich bummle.",
      "EUen": "I'm killing time.",
      "EUes": "Pasaba por aquí",
      "EUfr": "Je tue le temps.",
      "EUit": "Perdo tempo.",
      "JPja": "ちょっとヒマつぶし",
      "KRko": "그냥 지루해서",
      "USen": "I'm killing time."
    }
  },
  {
    "label": "009",
    "attribute": "0x00000000FF000000",
    "locale": {
      "EUde": "Mir ist langweilig.",
      "EUen": "I'm bored.",
      "EUes": "¡Me aburro!",
      "EUfr": "Je m'ennuie.",
      "EUit": "Mi annoio.",
      "JPja": "たいくつなの",
      "KRko": "심심해",
      "USen": "I'm bored."
    }
  },
  {
    "label": "010",
    "attribute": "0x00000000FF000000",
    "locale": {
      "EUde": "Nichts.",
      "EUen": "Nothing.",
      "EUes": "Nada",
      "EUfr": "Rien.",
      "EUit": "Niente.",
      "JPja": "なんでもない",
      "KRko": "아무것도 아냐 ",
      "USen": "Nothing."
    }
  },
  {
    "label": "011",
    "attribute": "0x00000000FF000000",
    "locale": {
      "EUde": "Nichts Wichtiges.",
      "EUen": "Nothing really.",
      "EUes": "No, nada",
      "EUfr": "Vraiment rien.",
      "EUit": "Niente, davvero.",
      "JPja": "とくになにも",
      "KRko": "아니， 그냥 ",
      "USen": "Nothing really."
    }
  },
  {
    "label": "012",
    "attribute": "0x00000000FF000000",
    "locale": {
      "EUde": "Lass mich gehen.",
      "EUen": "I don't need you.",
      "EUes": "Olvídalo",
      "EUfr": "Laisse-moi.",
      "EUit": "Non m'interessi.",
      "JPja": "{{kanjiReplace charNum=\"1\" value=\"よう\"}}用はないです",
      "KRko": "아니에요",
      "USen": "I don't need you."
    }
  },
  {
    "label": "013",
    "attribute": "0x00000000FF000000",
    "locale": {
      "EUde": "Ups, sorry!",
      "EUen": "Oops, sorry!",
      "EUes": "Nada, perdona",
      "EUfr": "Pardon!",
      "EUit": "Ops, scusa!",
      "JPja": "あっ、ゴメン",
      "KRko": "아， 미안",
      "USen": "Oops, sorry!"
    }
  },
  {
    "label": "014",
    "attribute": "0x00000000FF000000",
    "locale": {
      "EUde": "Und tschüss!",
      "EUen": "Made you look!",
      "EUes": "Nada, déjalo",
      "EUfr": "Tiens donc!",
      "EUit": "Te l'ho fatta!",
      "JPja": "{{kanjiReplace charNum=\"1\" value=\"よ\"}}呼んでみただけ",
      "KRko": "그냥 불러 봤어",
      "USen": "Made you look!"
    }
  },
  {
    "label": "015",
    "attribute": "0x00000000FF000000",
    "locale": {
      "EUde": "Ups, mein Fehler!",
      "EUen": "Oops, my fault!",
      "EUes": "Me he equivocado",
      "EUfr": "Excuse-moi!",
      "EUit": "Ops, niente!",
      "JPja": "あっ、まちがえた",
      "KRko": "아， 아냐 ",
      "USen": "Oops, my fault!"
    }
  },
  {
    "label": "016",
    "attribute": "0x00000000FF000000",
    "locale": {
      "EUde": "Mein Fehler!",
      "EUen": "My mistake!",
      "EUes": "Nada, ni caso",
      "EUfr": "Pardon pardon!",
      "EUit": "Ho sbagliato!",
      "JPja": "ひとちがいでした",
      "KRko": "잘못 봤어 ",
      "USen": "My mistake!"
    }
  },
  {
    "label": "017",
    "attribute": "0x00000000FF000000",
    "locale": {
      "EUde": "Äh, schon gut.",
      "EUen": "Uh, never mind.",
      "EUes": "No, nada",
      "EUfr": "Laisse tomber.",
      "EUit": "Ah, non importa.",
      "JPja": "いや、その、{{kanjiReplace charNum=\"1\" value=\"べつ\"}}別に",
      "KRko": "아니， 딱히",
      "USen": "Uh, never mind."
    }
  },
  {
    "label": "018",
    "attribute": "0x00000000FF000000",
    "locale": {
      "EUde": "Nichts. Wirklich.",
      "EUen": "Nothing, really.",
      "EUes": "Nada, déjalo",
      "EUfr": "Rien. Je t'assure.",
      "EUit": "Nulla, nulla.",
      "JPja": "{{kanjiReplace charNum=\"1\" value=\"よう\"}}用はないんだな",
      "KRko": "아무 일도 아냐",
      "USen": "Nothing, really."
    }
  },
  {
    "label": "019",
    "attribute": "0x00000000FF000000",
    "locale": {
      "EUde": "Nichts.",
      "EUen": "Nothing.",
      "EUes": "Nada",
      "EUfr": "Rien.",
      "EUit": "Niente.",
      "JPja": "なんでもないです",
      "KRko": "아무것도 아니에요",
      "USen": "Nothing."
    }
  },
  {
    "label": "020",
    "attribute": "0x00000000FF000000",
    "locale": {
      "EUde": "Wie gehts?",
      "EUen": "How're you doing?",
      "EUes": "¿Qué tal?",
      "EUfr": "Comment ça va?",
      "EUit": "Come stai?",
      "JPja": "{{kanjiReplace charNum=\"2\" value=\"ちょうし\"}}調子はどう？",
      "KRko": "좀 어때？",
      "USen": "How're you doing?"
    }
  },
  {
    "label": "021",
    "attribute": "0x00000000FF000000",
    "locale": {
      "EUde": "Willst du Medizin?",
      "EUen": "Need medicine?",
      "EUes": "¿Medicina?",
      "EUfr": "Un médicament?",
      "EUit": "Vuoi la medicina?",
      "JPja": "クスリだよ",
      "KRko": "약이야",
      "USen": "Need medicine?"
    }
  },
  {
    "label": "022",
    "attribute": "0x00000000FF000000",
    "locale": {
      "EUde": "Bist du O.K.?",
      "EUen": "Are you OK?",
      "EUes": "¿Estás bien?",
      "EUfr": "Ça va?",
      "EUit": "Stai bene?",
      "JPja": "だいじょうぶ？",
      "KRko": "괜찮아？",
      "USen": "Are you OK?"
    }
  },
  {
    "label": "023",
    "attribute": "0x00000000FF000000",
    "locale": {
      "EUde": "Viel Glück.",
      "EUen": "Take care.",
      "EUes": "Cuídate",
      "EUfr": "Fais attention.",
      "EUit": "Rimettiti!",
      "JPja": "おだいじに",
      "KRko": "몸조리 잘 해",
      "USen": "Take care."
    }
  },
  {
    "label": "024",
    "attribute": "0x00000000FF000000",
    "locale": {
      "EUde": "Schau, ein Fisch!",
      "EUen": "I caught a fish!",
      "EUes": "¡Pesqué algo!",
      "EUfr": "J'ai un poisson!",
      "EUit": "Ecco un pesce!",
      "JPja": "{{kanjiReplace charNum=\"1\" value=\"つ\"}}釣ってきたよ！",
      "KRko": "잡았어！",
      "USen": "I caught a fish!"
    }
  },
  {
    "label": "025",
    "attribute": "0x00000000FF000000",
    "locale": {
      "EUde": "Schau, ein Insekt!",
      "EUen": "I caught a bug!",
      "EUes": "¡Pillé un bicho!",
      "EUfr": "J'ai un insecte!",
      "EUit": "Ecco un insetto!",
      "JPja": "ムシとったよ！",
      "KRko": "벌레 잡았어！",
      "USen": "I caught a bug!"
    }
  },
  {
    "label": "026",
    "attribute": "0x00000000FF000000",
    "locale": {
      "EUde": "Schau, ein Fossil!",
      "EUen": "Here's a fossil!",
      "EUes": "¡Tengo un fósil!",
      "EUfr": "Tiens, un fossile!",
      "EUit": "Ecco un fossile!",
      "JPja": "{{kanjiReplace charNum=\"2\" value=\"かせき\"}}化石あげるよ！",
      "KRko": "화석 줄게！",
      "USen": "Here's a fossil!"
    }
  },
  {
    "label": "027",
    "attribute": "0x00000000FF000000",
    "locale": {
      "EUde": "Zieh dich an!",
      "EUen": "Clothe yourself!",
      "EUes": "¡Sírvete!",
      "EUfr": "Habille-toi!",
      "EUit": "Vestiti!",
      "JPja": "この{{kanjiReplace charNum=\"1\" value=\"ふく\"}}服いかが？",
      "KRko": "이 옷 어때？",
      "USen": "Clothe yourself!"
    }
  },
  {
    "label": "028",
    "attribute": "0x00000000FF000000",
    "locale": {
      "EUde": "Nimm das.",
      "EUen": "Take this.",
      "EUes": "¡Toma esto!",
      "EUfr": "Prends ça.",
      "EUit": "Prendi.",
      "JPja": "この{{kanjiReplace charNum=\"2\" value=\"かぐ\"}}家具あげる！",
      "KRko": "이 가구 줄게！",
      "USen": "Take this."
    }
  },
  {
    "label": "029",
    "attribute": "0x00000000FF000000",
    "locale": {
      "EUde": "Lieferung!",
      "EUen": "Delivery!",
      "EUes": "¡Te traigo algo!",
      "EUfr": "Livraison!",
      "EUit": "Consegna!",
      "JPja": "お{{kanjiReplace charNum=\"1\" value=\"とど\"}}届けものでーす",
      "KRko": "배달 왔어요！",
      "USen": "Delivery!"
    }
  },
  {
    "label": "030",
    "attribute": "0x00000000FF000000",
    "locale": {
      "EUde": "Was wollte ich?",
      "EUen": "What did I need?",
      "EUes": "¿Qué querías?",
      "EUfr": "Je voulais quoi?",
      "EUit": "Che volevo?",
      "JPja": "なんだったっけ？",
      "KRko": "뭐더라？",
      "USen": "What did I need?"
    }
  },
  {
    "label": "031",
    "attribute": "0x00000000FF000000",
    "locale": {
      "EUde": "Das ist O.K.!",
      "EUen": "That's fine!",
      "EUes": "¡Está bien!",
      "EUfr": "C'est parfait!",
      "EUit": "Va bene!",
      "JPja": "いいよー！",
      "KRko": "좋아！",
      "USen": "That's fine!"
    }
  },
  {
    "label": "032",
    "attribute": "0x00000000FF000000",
    "locale": {
      "EUde": "Nicht jetzt...",
      "EUen": "Not right now...",
      "EUes": "Ahora no...",
      "EUfr": "Plus tard...",
      "EUit": "Ora no...",
      "JPja": "{{kanjiReplace charNum=\"1\" value=\"いま\"}}今はちょっと・・・",
      "KRko": "지금은 좀…",
      "USen": "Not right now..."
    }
  },
  {
    "label": "033",
    "attribute": "0x00000000FF000000",
    "locale": {
      "EUde": "Ich mache das!",
      "EUen": "Leave it to me!",
      "EUes": "¡Yo me encargo!",
      "EUfr": "Laisse-moi faire!",
      "EUit": "Ci penso io!",
      "JPja": "まかせてよ！",
      "KRko": "나한테 맡겨！",
      "USen": "Leave it to me!"
    }
  },
  {
    "label": "034",
    "attribute": "0x00000000FF000000",
    "locale": {
      "EUde": "Ein andermal...",
      "EUen": "Another time...",
      "EUes": "Quizás otra vez",
      "EUfr": "Une autre fois...",
      "EUit": "Un'altra volta...",
      "JPja": "またの{{kanjiReplace charNum=\"2\" value=\"きかい\"}}機会に・・・",
      "KRko": "다음 기회에…",
      "USen": "Another time..."
    }
  },
  {
    "label": "035",
    "attribute": "0x00000000FF000000",
    "locale": {
      "EUde": "Erledigt!",
      "EUen": "I delivered it!",
      "EUes": "¡Lo conseguí!",
      "EUfr": "C'est livré!",
      "EUit": "Consegnato!",
      "JPja": "{{kanjiReplace charNum=\"1\" value=\"とど\"}}届けてきたよ！",
      "KRko": "배달하고 왔어！",
      "USen": "I delivered it!"
    }
  },
  {
    "label": "036",
    "attribute": "0x00000000FF000000",
    "locale": {
      "EUde": "SPITZE!",
      "EUen": "It was AWESOME!",
      "EUes": "¡Genial!",
      "EUfr": "C'était GENIAL!",
      "EUit": "STUPENDO!",
      "JPja": "サイコーだった",
      "KRko": "최고였어",
      "USen": "It was AWESOME!"
    }
  },
  {
    "label": "037",
    "attribute": "0x00000000FF000000",
    "locale": {
      "EUde": "So lala.",
      "EUen": "It was all right.",
      "EUes": "Bien",
      "EUfr": "C'était sympa.",
      "EUit": "OK.",
      "JPja": "まあまあでした",
      "KRko": "그냥 그랬어",
      "USen": "It was all right."
    }
  },
  {
    "label": "038",
    "attribute": "0x00000000FF000000",
    "locale": {
      "EUde": "Gar nicht gut...",
      "EUen": "It didn't work...",
      "EUes": "Bueeeno...",
      "EUfr": "C'est raté...",
      "EUit": "Un fallimento...",
      "JPja": "ダメでした・・・",
      "KRko": "별로였어…",
      "USen": "It didn't work..."
    }
  },
  {
    "label": "039",
    "attribute": "0x00000000FF000000",
    "locale": {
      "EUde": "Dein Paket...",
      "EUen": "Your package...",
      "EUes": "Tu paquete...",
      "EUfr": "Ton colis...",
      "EUit": "Il tuo pacco...",
      "JPja": "お{{kanjiReplace charNum=\"1\" value=\"とど\"}}届けものを・・・",
      "KRko": "배달을…",
      "USen": "Your package..."
    }
  },
  {
    "label": "040",
    "attribute": "0x00000000FF000000",
    "locale": {
      "EUde": "Hier, mein Insekt!",
      "EUen": "Look at my bug!",
      "EUes": "¡Mira qué bicho!",
      "EUfr": "Regarde l'insecte!",
      "EUit": "Guarda l'insetto!",
      "JPja": "このムシで{{kanjiReplace charNum=\"2\" value=\"しょうぶ\"}}勝負！",
      "KRko": "이 벌레로 승부！",
      "USen": "Look at my bug!"
    }
  },
  {
    "label": "041",
    "attribute": "0x00000000FF000000",
    "locale": {
      "EUde": "Schau, mein Fisch.",
      "EUen": "You like my fish?",
      "EUes": "¡Mira qué pez!",
      "EUfr": "Et ce poisson?",
      "EUit": "Ti piace il pesce?",
      "JPja": "このサカナでどうだ！",
      "KRko": "이 물고기 어때！",
      "USen": "You like my fish?"
    }
  },
  {
    "label": "042",
    "attribute": "0x00000000FF000000",
    "locale": {
      "EUde": "Post!",
      "EUen": "Letter!",
      "EUes": "¡Correo!",
      "EUfr": "Une lettre!",
      "EUit": "Lettera!",
      "JPja": "お{{kanjiReplace charNum=\"2\" value=\"てがみ\"}}手紙ですよー！",
      "KRko": "편지 왔어요！",
      "USen": "Letter!"
    }
  },
  {
    "label": "043",
    "attribute": "0x00000000FF000000",
    "locale": {
      "EUde": "Ein Brief...",
      "EUen": "A letter...",
      "EUes": "Una carta...",
      "EUfr": "Une lettre...",
      "EUit": "Una lettera...",
      "JPja": "お{{kanjiReplace charNum=\"2\" value=\"てがみ\"}}手紙を・・・",
      "KRko": "편지를…",
      "USen": "A letter..."
    }
  },
  {
    "label": "044",
    "attribute": "0x00000000FF000000",
    "locale": {
      "EUde": "Der Schlüssel...",
      "EUen": "I found a key!",
      "EUes": "¡Mira qué llave!",
      "EUfr": "Tiens, une clé!",
      "EUit": "Chiave trovata!",
      "JPja": "カギ{{kanjiReplace charNum=\"1\" value=\"み\"}}見つけたよ！",
      "KRko": "열쇠 찾았어！",
      "USen": "I found a key!"
    }
  },
  {
    "label": "045",
    "attribute": "0x00000000FF000000",
    "locale": {
      "EUde": "Ein Schlüssel?",
      "EUen": "About the key...",
      "EUes": "Esto, la llave...",
      "EUfr": "Et cette clé...",
      "EUit": "Questa chiave...",
      "JPja": "あれ、カギは・・・？",
      "KRko": "어？ 열쇠는？",
      "USen": "About the key..."
    }
  },
  {
    "label": "046",
    "attribute": "0x00000000FF000000",
    "locale": {
      "EUde": "Verstecken?",
      "EUen": "Hide-and-seek?",
      "EUes": "¿Escondite?",
      "EUfr": "Cache-cache?",
      "EUit": "Nascondino?",
      "JPja": "あれ、かくれんぼは？",
      "KRko": "어？ 숨바꼭질은？",
      "USen": "Hide-and-seek?"
    }
  },
  {
    "label": "047",
    "attribute": "0x00000000FF000000",
    "locale": {
      "EUde": "Falsch...",
      "EUen": "Wrong...",
      "EUes": "Me temo que no...",
      "EUfr": "Faux...",
      "EUit": "Sbagliato...",
      "JPja": "ちがうよ・・・",
      "KRko": "아니야…",
      "USen": "Wrong..."
    }
  },
  {
    "label": "048",
    "attribute": "0x00000000FF000000",
    "locale": {
      "EUde": "Wann kommst du?",
      "EUen": "You'll come when?",
      "EUes": "¿Cuándo vendrás?",
      "EUfr": "Tu passes quand?",
      "EUit": "Quando vieni?",
      "JPja": "{{kanjiReplace charNum=\"2\" value=\"なんじ\"}}何時にくるの？",
      "KRko": "몇 시에 와？",
      "USen": "You'll come when?"
    }
  },
  {
    "label": "049",
    "attribute": "0x00000000FF000000",
    "locale": {
      "EUde": "Unser Treffen?",
      "EUen": "Our appointment?",
      "EUes": "¿Cita?",
      "EUfr": "Le rendez-vous?",
      "EUit": "L'appuntamento?",
      "JPja": "やくそくは{{kanjiReplace charNum=\"2\" value=\"なんじ\"}}何時？",
      "KRko": "약속이 몇 시지？",
      "USen": "Our appointment?"
    }
  },
  {
    "label": "050",
    "attribute": "0x00000000FF000000",
    "locale": {
      "EUde": "Ich bin glücklich!",
      "EUen": "I'm so happy!",
      "EUes": "¡Qué suerte!",
      "EUfr": "C'est génial!",
      "EUit": "Sono felice!",
      "JPja": "うれしい！",
      "KRko": "기뻐！",
      "USen": "I'm so happy!"
    }
  },
  {
    "label": "051",
    "attribute": "0x00000000FF000000",
    "locale": {
      "EUde": "Na ja.",
      "EUen": "So-so.",
      "EUes": "Así, asao",
      "EUfr": "Mouaich.",
      "EUit": "Così così.",
      "JPja": "まあまあ",
      "KRko": "그냥저냥",
      "USen": "So-so."
    }
  },
  {
    "label": "052",
    "attribute": "0x00000000FF000000",
    "locale": {
      "EUde": "Tschüss.",
      "EUen": "Good-bye.",
      "EUes": "Adiós",
      "EUfr": "Au revoir.",
      "EUit": "Ciao.",
      "JPja": "サヨナラする",
      "KRko": "안녕하기",
      "USen": "Good-bye."
    }
  },
  {
    "label": "053",
    "attribute": "0x00000000FF000000",
    "locale": {
      "EUde": "Ich gebe auf.",
      "EUen": "I quit.",
      "EUes": "Lo dejo",
      "EUfr": "J'y vais.",
      "EUit": "Mollo.",
      "JPja": "やめとく",
      "KRko": "그만두기",
      "USen": "I quit."
    }
  },
  {
    "label": "054",
    "attribute": "0x00000000FF000000",
    "locale": {
      "EUde": "Ich habe es!",
      "EUen": "I bought it!",
      "EUes": "¡He comprado eso!",
      "EUfr": "J'ai acheté!",
      "EUit": "È un mio acquisto!",
      "JPja": "{{kanjiReplace charNum=\"1\" value=\"か\"}}買った！",
      "KRko": "살게！",
      "USen": "I bought it!"
    }
  },
  {
    "label": "055",
    "attribute": "0x00000000FF000000",
    "locale": {
      "EUde": "Geh nicht!",
      "EUen": "Don't go!",
      "EUes": "¡No te vayas!",
      "EUfr": "Reste!",
      "EUit": "Non andartene!",
      "JPja": "{{kanjiReplace charNum=\"1\" value=\"い\"}}行かないで！",
      "KRko": "가지 마！",
      "USen": "Don't go!"
    }
  },
  {
    "label": "056",
    "attribute": "0x00000000FF000000",
    "locale": {
      "EUde": "Bitte geh nicht!",
      "EUen": "You can't leave!",
      "EUes": "¡No puedes irte!",
      "EUfr": "Tu dois rester!",
      "EUit": "Non andartene!",
      "JPja": "{{kanjiReplace charNum=\"1\" value=\"い\"}}行っちゃヤダ！",
      "KRko": "가면 안 돼！",
      "USen": "You can't leave!"
    }
  },
  {
    "label": "057",
    "attribute": "0x00000000FF000000",
    "locale": {
      "EUde": "Un... möglich...",
      "EUen": "Th-that can't be!",
      "EUes": "¡No puede ser!",
      "EUfr": "C'est impossible!",
      "EUit": "Ma è impossibile!",
      "JPja": "そっ、そんなぁ！？",
      "KRko": "뭐， 뭐라구？",
      "USen": "Th-that can't be!"
    }
  },
  {
    "label": "058",
    "attribute": "0x00000000FF000000",
    "locale": {
      "EUde": "Leb wohl.",
      "EUen": "Take care.",
      "EUes": "Cuídate",
      "EUfr": "A plus.",
      "EUit": "A presto.",
      "JPja": "{{kanjiReplace charNum=\"2\" value=\"げんき\"}}元気でね",
      "KRko": "건강해야해",
      "USen": "Take care."
    }
  },
  {
    "label": "059",
    "attribute": "0x00000000FF000000",
    "locale": {
      "EUde": "Tschüssi!",
      "EUen": "Bye-bye!",
      "EUes": "¡Adiós!",
      "EUfr": "Au revoir!",
      "EUit": "Ciao ciao!",
      "JPja": "バイバイ・・・",
      "KRko": "바이바이…",
      "USen": "Bye-bye!"
    }
  },
  {
    "label": "060",
    "attribute": "0x00000000FF000000",
    "locale": {
      "EUde": "Lebewohl...",
      "EUen": "Farewell...",
      "EUes": "Nos vemos...",
      "EUfr": "Adieu...",
      "EUit": "Addio...",
      "JPja": "さよなら・・・",
      "KRko": "안녕…",
      "USen": "Farewell..."
    }
  },
  {
    "label": "061",
    "attribute": "0x00000000FF000000",
    "locale": {
      "EUde": "{{arrowSymbol}} Jemand anders.",
      "EUen": "{{arrowSymbol}}Someone else.",
      "EUes": "{{arrowSymbol}} Quizás otro",
      "EUfr": "{{arrowSymbol}}L'autre là.",
      "EUit": "{{arrowSymbol}} Qualcun altro.",
      "JPja": "{{arrowSymbol}}ほかの{{kanjiReplace charNum=\"1\" value=\"ひと\"}}人",
      "KRko": "{{arrowSymbol}}다른 사람",
      "USen": "{{arrowSymbol}}Someone else."
    }
  },
  {
    "label": "062",
    "attribute": "0x00000000FF000000",
    "locale": {
      "EUde": "Deswegen...",
      "EUen": "About that...",
      "EUes": "Sobre eso...",
      "EUfr": "D'ailleurs...",
      "EUit": "A proposito...",
      "JPja": "それはだねぇ・・・",
      "KRko": "그건 말야…",
      "USen": "About that..."
    }
  },
  {
    "label": "063",
    "attribute": "0x00000000FF000000",
    "locale": {
      "EUde": "Unverkäuflich.",
      "EUen": "I can't sell that.",
      "EUes": "Eso no se vende",
      "EUfr": "C'est invendable.",
      "EUit": "Non è in vendita.",
      "JPja": "それは{{kanjiReplace charNum=\"1\" value=\"う\"}}売れない",
      "KRko": "그건 팔지 않아",
      "USen": "I can't sell that."
    }
  },
  {
    "label": "064",
    "attribute": "0x00000000FF000000",
    "locale": {
      "EUde": "Ich muss wohl...",
      "EUen": "I guess I must.",
      "EUes": "Qué remedio...",
      "EUfr": "J'ai pas le choix.",
      "EUit": "Non ho scelta.",
      "JPja": "しょうがないなぁ",
      "KRko": "어쩔 수 없군",
      "USen": "I guess I must."
    }
  },
  {
    "label": "065",
    "attribute": "0x00000000FF000000",
    "locale": {
      "EUde": "Das geht nicht!",
      "EUen": "I can't give that!",
      "EUes": "No puedo dar eso",
      "EUfr": "Ça, je garde.",
      "EUit": "Non posso!",
      "JPja": "ゆずれないのだ",
      "KRko": "안 돼",
      "USen": "I can't give that!"
    }
  },
  {
    "label": "066",
    "attribute": "0x00000000FF000000",
    "locale": {
      "EUde": "Ich verkaufe es.",
      "EUen": "I'll sell it.",
      "EUes": "Venderé eso",
      "EUfr": "Je vends.",
      "EUit": "Vendo.",
      "JPja": "{{kanjiReplace charNum=\"1\" value=\"う\"}}売っちゃいます",
      "KRko": "팔게요",
      "USen": "I'll sell it."
    }
  },
  {
    "label": "067",
    "attribute": "0x00000000FF000000",
    "locale": {
      "EUde": "Fehlanzeige!",
      "EUen": "It didn't work!",
      "EUes": "¡No funcionó!",
      "EUfr": "Ça marche pas!",
      "EUit": "Un fallimento!",
      "JPja": "やっぱダメ！",
      "KRko": "역시 안 되겠어！",
      "USen": "It didn't work!"
    }
  },
  {
    "label": "068",
    "attribute": "0x00000000FF000000",
    "locale": {
      "EUde": "Du bist dabei!",
      "EUen": "You're hired!",
      "EUes": "¡Te contrato!",
      "EUfr": "Je t'engage!",
      "EUit": "Ben fatto!",
      "JPja": "さいよう！",
      "KRko": "결정！",
      "USen": "You're hired!"
    }
  },
  {
    "label": "069",
    "attribute": "0x00000000FF000000",
    "locale": {
      "EUde": "Raus damit!",
      "EUen": "Tell me!",
      "EUes": "¡Dime!",
      "EUfr": "Vas-y!",
      "EUit": "Dimmi!",
      "JPja": "{{kanjiReplace charNum=\"1\" value=\"おし\"}}教えて！",
      "KRko": "가르쳐 줘！",
      "USen": "Tell me!"
    }
  },
  {
    "label": "070",
    "attribute": "0x00000000FF000000",
    "locale": {
      "EUde": "Sei bloß ruhig!",
      "EUen": "Don't wanna know!",
      "EUes": "No me lo cuentes",
      "EUfr": "Ne me dis rien!",
      "EUit": "Non m'interessa!",
      "JPja": "{{kanjiReplace charNum=\"1\" value=\"き\"}}聞きたくない",
      "KRko": "듣고 싶지 않아",
      "USen": "Don't wanna know!"
    }
  },
  {
    "label": "071",
    "attribute": "0x00000000FF000000",
    "locale": {
      "EUde": "W-was?!?",
      "EUen": "Wh-what?!?",
      "EUes": "¡Qué! ¿Dónde?",
      "EUfr": "De quoi?",
      "EUit": "Co-cosa?!?",
      "JPja": "ど、どこが？！",
      "KRko": "뭐， 뭐가？",
      "USen": "Wh-what?!?"
    }
  },
  {
    "label": "072",
    "attribute": "0x00000000FF000000",
    "locale": {
      "EUde": "Jawoll!",
      "EUen": "Yup, that's right.",
      "EUes": "Sí, exacto",
      "EUfr": "Oui, c'est vrai.",
      "EUit": "Sì, giusto.",
      "JPja": "そうですね",
      "KRko": "맞아요",
      "USen": "Yup, that's right."
    }
  },
  {
    "label": "073",
    "attribute": "0x00000000FF000000",
    "locale": {
      "EUde": "Nochmal.",
      "EUen": "Do over.",
      "EUes": "Rehacer",
      "EUfr": "Recommence.",
      "EUit": "Rifai.",
      "JPja": "やりなおす",
      "KRko": "다시 하기",
      "USen": "Do over."
    }
  },
  {
    "label": "074",
    "attribute": "0x00000000FF000000",
    "locale": {
      "EUde": "Das ist O.K.",
      "EUen": "That's fine.",
      "EUes": "Está bien",
      "EUfr": "C'est bien.",
      "EUit": "Va bene.",
      "JPja": "それでいい",
      "KRko": "그걸로 됐어",
      "USen": "That's fine."
    }
  },
  {
    "label": "075",
    "attribute": "0x00000000FF000000",
    "locale": {
      "EUde": "Ich mache das!",
      "EUen": "Leave it to me!",
      "EUes": "¡Déjamelo a mí!",
      "EUfr": "Laisse-moi faire.",
      "EUit": "Ci penso io!",
      "JPja": "まかせてよ！",
      "KRko": "나한테 맡겨！",
      "USen": "Leave it to me!"
    }
  },
  {
    "label": "076",
    "attribute": "0x00000000FF000000",
    "locale": {
      "EUde": "Ich überlegs mir!",
      "EUen": "I'll decide!",
      "EUes": "¡Decidiré yo!",
      "EUfr": "Je décide.",
      "EUit": "Decido io!",
      "JPja": "{{kanjiReplace charNum=\"1\" value=\"き\"}}決めてあげる！",
      "KRko": "정해 줄게！",
      "USen": "I'll decide!"
    }
  },
  {
    "label": "077",
    "attribute": "0x00000000FF000000",
    "locale": {
      "EUde": "Verstanden!",
      "EUen": "Understood!",
      "EUes": "¡Comprendido!",
      "EUfr": "Compris!",
      "EUit": "OK!",
      "JPja": "まかせなさい",
      "KRko": "맡겨 줘",
      "USen": "Understood!"
    }
  },
  {
    "label": "078",
    "attribute": "0x00000000FF000000",
    "locale": {
      "EUde": "Ich ziehs durch!",
      "EUen": "I'll mull it over!",
      "EUes": "Me lo pensaré",
      "EUfr": "J'y réfléchirai!",
      "EUit": "Ci penso su!",
      "JPja": "{{kanjiReplace charNum=\"1\" value=\"かんが\"}}考えたげる！",
      "KRko": "생각해 줄게！",
      "USen": "I'll mull it over!"
    }
  },
  {
    "label": "079",
    "attribute": "0x00000000FF000000",
    "locale": {
      "EUde": "Schon erledigt!",
      "EUen": "Consider it done!",
      "EUes": "¡Eso está hecho!",
      "EUfr": "Je m'en occupe!",
      "EUit": "Detto fatto!",
      "JPja": "まかしといて！",
      "KRko": "맡겨 둬！",
      "USen": "Consider it done!"
    }
  },
  {
    "label": "080",
    "attribute": "0x00000000FF000000",
    "locale": {
      "EUde": "So ist das gut.",
      "EUen": "That's fine as is.",
      "EUes": "Está bien así",
      "EUfr": "C'est bien ainsi.",
      "EUit": "Va bene così.",
      "JPja": "そのままでいいよ",
      "KRko": "지금도 좋아！",
      "USen": "That's fine as is."
    }
  },
  {
    "label": "081",
    "attribute": "0x00000000FF000000",
    "locale": {
      "EUde": "Gibs auf.",
      "EUen": "Give it up.",
      "EUes": "Déjalo",
      "EUfr": "Laisse courir.",
      "EUit": "Arrenditi.",
      "JPja": "やめときなよ",
      "KRko": "그만둬",
      "USen": "Give it up."
    }
  },
  {
    "label": "082",
    "attribute": "0x00000000FF000000",
    "locale": {
      "EUde": "Das reicht nicht.",
      "EUen": "That won't do.",
      "EUes": "No es suficiente",
      "EUfr": "Ça marchera pas.",
      "EUit": "Niente da fare.",
      "JPja": "それはちょっと",
      "KRko": "그건 좀",
      "USen": "That won't do."
    }
  },
  {
    "label": "083",
    "attribute": "0x00000000FF000000",
    "locale": {
      "EUde": "Sorry!",
      "EUen": "Sorry!",
      "EUes": "¡Lo siento!",
      "EUfr": "Pardon!",
      "EUit": "Spiacente!",
      "JPja": "ゴメン！",
      "KRko": "미안！",
      "USen": "Sorry!"
    }
  },
  {
    "label": "084",
    "attribute": "0x00000000FF000000",
    "locale": {
      "EUde": "So ist es gut.",
      "EUen": "It's fine as is.",
      "EUes": "Está bien así",
      "EUfr": "C'est bien ainsi.",
      "EUit": "Va bene così.",
      "JPja": "そのままでイイ",
      "KRko": "지금도 좋은걸",
      "USen": "It's fine as is."
    }
  },
  {
    "label": "085",
    "attribute": "0x00000000FF000000",
    "locale": {
      "EUde": "Au, nein!",
      "EUen": "Ew, no!",
      "EUes": "¡Eh, no!",
      "EUfr": "Euh, non!",
      "EUit": "Ah, no!",
      "JPja": "いやです",
      "KRko": "싫어요",
      "USen": "Ew, no!"
    }
  },
  {
    "label": "086",
    "attribute": "0x00000000FF000000",
    "locale": {
      "EUde": "Äh, schon gut...",
      "EUen": "Uh, never mind.",
      "EUes": "Nada, da igual",
      "EUfr": "Euh, laisse.",
      "EUit": "Oh, non importa.",
      "JPja": "いや、{{kanjiReplace charNum=\"1\" value=\"べつ\"}}別に",
      "KRko": "아니 별로…",
      "USen": "Uh, never mind."
    }
  },
  {
    "label": "087",
    "attribute": "0x00000000FF000000",
    "locale": {
      "EUde": "",
      "EUen": "",
      "EUes": "",
      "EUfr": "",
      "EUit": "",
      "JPja": "",
      "KRko": "",
      "USen": ""
    }
  },
  {
    "label": "088",
    "attribute": "0x00000000FF000000",
    "locale": {
      "EUde": "",
      "EUen": "",
      "EUes": "",
      "EUfr": "",
      "EUit": "",
      "JPja": "",
      "KRko": "",
      "USen": ""
    }
  },
  {
    "label": "089",
    "attribute": "0x00000000FF000000",
    "locale": {
      "EUde": "",
      "EUen": "",
      "EUes": "",
      "EUfr": "",
      "EUit": "",
      "JPja": "",
      "KRko": "",
      "USen": ""
    }
  },
  {
    "label": "090",
    "attribute": "0x00000000FF000000",
    "locale": {
      "EUde": "Passt bestens!",
      "EUen": "Fits you to a T!",
      "EUes": "¡Si te va genial!",
      "EUfr": "Ça te va bien!",
      "EUit": "Ti sta a pennello!",
      "JPja": "バッチリさ",
      "KRko": "물론이지",
      "USen": "Fits you to a T!"
    }
  },
  {
    "label": "091",
    "attribute": "0x00000000FF000000",
    "locale": {
      "EUde": "O.K.!",
      "EUen": "OK!",
      "EUes": "¡Vale!",
      "EUfr": "Ok!",
      "EUit": "OK!",
      "JPja": "オッケー！",
      "KRko": "오케이！",
      "USen": "OK!"
    }
  },
  {
    "label": "092",
    "attribute": "0x00000000FF000000",
    "locale": {
      "EUde": "Klingt gut!",
      "EUen": "Sounds good!",
      "EUes": "¡Suena bien!",
      "EUfr": "Ça paraît bien!",
      "EUit": "Grande!",
      "JPja": "いいともさ",
      "KRko": "좋고말고",
      "USen": "Sounds good!"
    }
  },
  {
    "label": "093",
    "attribute": "0x00000000FF000000",
    "locale": {
      "EUde": "Das ist O.K.!",
      "EUen": "That's fine!",
      "EUes": "Está bien",
      "EUfr": "Ça me va!",
      "EUit": "Bene!",
      "JPja": "かまわないよ",
      "KRko": "상관없어",
      "USen": "That's fine!"
    }
  },
  {
    "label": "094",
    "attribute": "0x00000000FF000000",
    "locale": {
      "EUde": "Ich kann nicht...",
      "EUen": "I can't...",
      "EUes": "No puedo...",
      "EUfr": "Impossible...",
      "EUit": "Non posso...",
      "JPja": "ダメなのだ",
      "KRko": "안돼",
      "USen": "I can't..."
    }
  },
  {
    "label": "095",
    "attribute": "0x00000000FF000000",
    "locale": {
      "EUde": "Nächstes Mal.",
      "EUen": "Maybe next time.",
      "EUes": "En otra ocasión",
      "EUfr": "Une autre fois.",
      "EUit": "Un'altra volta.",
      "JPja": "またの{{kanjiReplace charNum=\"2\" value=\"きかい\"}}機会に",
      "KRko": "다음번에",
      "USen": "Maybe next time."
    }
  },
  {
    "label": "096",
    "attribute": "0x00000000FF000000",
    "locale": {
      "EUde": "Ich kann nicht...",
      "EUen": "I can't...",
      "EUes": "No puedo...",
      "EUfr": "Impossible...",
      "EUit": "Non posso...",
      "JPja": "ゆずれないのだ",
      "KRko": "안돼",
      "USen": "I can't..."
    }
  },
  {
    "label": "097",
    "attribute": "0x00000000FF000000",
    "locale": {
      "EUde": "",
      "EUen": "",
      "EUes": "",
      "EUfr": "",
      "EUit": "",
      "JPja": "",
      "KRko": "",
      "USen": ""
    }
  },
  {
    "label": "098",
    "attribute": "0x00000000FF000000",
    "locale": {
      "EUde": "",
      "EUen": "",
      "EUes": "",
      "EUfr": "",
      "EUit": "",
      "JPja": "",
      "KRko": "",
      "USen": ""
    }
  },
  {
    "label": "099",
    "attribute": "0x00000000FF000000",
    "locale": {
      "EUde": "",
      "EUen": "",
      "EUes": "",
      "EUfr": "",
      "EUit": "",
      "JPja": "",
      "KRko": "",
      "USen": ""
    }
  },
  {
    "label": "100",
    "attribute": "0x00000000FF000000",
    "locale": {
      "EUde": "",
      "EUen": "",
      "EUes": "",
      "EUfr": "",
      "EUit": "",
      "JPja": "",
      "KRko": "",
      "USen": ""
    }
  },
  {
    "label": "101",
    "attribute": "0x00000000FF000000",
    "locale": {
      "EUde": "",
      "EUen": "",
      "EUes": "",
      "EUfr": "",
      "EUit": "",
      "JPja": "",
      "KRko": "",
      "USen": ""
    }
  },
  {
    "label": "102",
    "attribute": "0x00000000FF000000",
    "locale": {
      "EUde": "",
      "EUen": "",
      "EUes": "",
      "EUfr": "",
      "EUit": "",
      "JPja": "",
      "KRko": "",
      "USen": ""
    }
  },
  {
    "label": "103",
    "attribute": "0x00000000FF000000",
    "locale": {
      "EUde": "",
      "EUen": "",
      "EUes": "",
      "EUfr": "",
      "EUit": "",
      "JPja": "",
      "KRko": "",
      "USen": ""
    }
  },
  {
    "label": "104",
    "attribute": "0x00000000FF000000",
    "locale": {
      "EUde": "",
      "EUen": "",
      "EUes": "",
      "EUfr": "",
      "EUit": "",
      "JPja": "",
      "KRko": "",
      "USen": ""
    }
  },
  {
    "label": "105",
    "attribute": "0x00000000FF000000",
    "locale": {
      "EUde": "",
      "EUen": "",
      "EUes": "",
      "EUfr": "",
      "EUit": "",
      "JPja": "",
      "KRko": "",
      "USen": ""
    }
  },
  {
    "label": "106",
    "attribute": "0x00000000FF000000",
    "locale": {
      "EUde": "",
      "EUen": "",
      "EUes": "",
      "EUfr": "",
      "EUit": "",
      "JPja": "",
      "KRko": "",
      "USen": ""
    }
  },
  {
    "label": "107",
    "attribute": "0x00000000FF000000",
    "locale": {
      "EUde": "",
      "EUen": "",
      "EUes": "",
      "EUfr": "",
      "EUit": "",
      "JPja": "",
      "KRko": "",
      "USen": ""
    }
  },
  {
    "label": "108",
    "attribute": "0x00000000FF000000",
    "locale": {
      "EUde": "",
      "EUen": "",
      "EUes": "",
      "EUfr": "",
      "EUit": "",
      "JPja": "",
      "KRko": "",
      "USen": ""
    }
  },
  {
    "label": "109",
    "attribute": "0x00000000FF000000",
    "locale": {
      "EUde": "",
      "EUen": "",
      "EUes": "",
      "EUfr": "",
      "EUit": "",
      "JPja": "",
      "KRko": "",
      "USen": ""
    }
  },
  {
    "label": "110",
    "attribute": "0x00000000FF000000",
    "locale": {
      "EUde": "",
      "EUen": "",
      "EUes": "",
      "EUfr": "",
      "EUit": "",
      "JPja": "",
      "KRko": "",
      "USen": ""
    }
  },
  {
    "label": "111",
    "attribute": "0x00000000FF000000",
    "locale": {
      "EUde": "Nicht wirklich...",
      "EUen": "Not really...",
      "EUes": "Pues no...",
      "EUfr": "Pas vraiment...",
      "EUit": "Non direi...",
      "JPja": "あんまり・・・",
      "KRko": "그다지…",
      "USen": "Not really..."
    }
  },
  {
    "label": "112",
    "attribute": "0x00000000FF000000",
    "locale": {
      "EUde": "",
      "EUen": "",
      "EUes": "",
      "EUfr": "",
      "EUit": "",
      "JPja": "",
      "KRko": "",
      "USen": ""
    }
  },
  {
    "label": "113",
    "attribute": "0x00000000FF000000",
    "locale": {
      "EUde": "",
      "EUen": "",
      "EUes": "",
      "EUfr": "",
      "EUit": "",
      "JPja": "",
      "KRko": "",
      "USen": ""
    }
  },
  {
    "label": "114",
    "attribute": "0x00000000FF000000",
    "locale": {
      "EUde": "",
      "EUen": "",
      "EUes": "",
      "EUfr": "",
      "EUit": "",
      "JPja": "",
      "KRko": "",
      "USen": ""
    }
  },
  {
    "label": "115",
    "attribute": "0x00000000FF000000",
    "locale": {
      "EUde": "",
      "EUen": "",
      "EUes": "",
      "EUfr": "",
      "EUit": "",
      "JPja": "",
      "KRko": "",
      "USen": ""
    }
  },
  {
    "label": "116",
    "attribute": "0x00000000FF000000",
    "locale": {
      "EUde": "",
      "EUen": "",
      "EUes": "",
      "EUfr": "",
      "EUit": "",
      "JPja": "",
      "KRko": "",
      "USen": ""
    }
  },
  {
    "label": "117",
    "attribute": "0x00000000FF000000",
    "locale": {
      "EUde": "",
      "EUen": "",
      "EUes": "",
      "EUfr": "",
      "EUit": "",
      "JPja": "",
      "KRko": "",
      "USen": ""
    }
  },
  {
    "label": "118",
    "attribute": "0x00000000FF000000",
    "locale": {
      "EUde": "",
      "EUen": "",
      "EUes": "",
      "EUfr": "",
      "EUit": "",
      "JPja": "",
      "KRko": "",
      "USen": ""
    }
  },
  {
    "label": "119",
    "attribute": "0x00000000FF000000",
    "locale": {
      "EUde": "",
      "EUen": "",
      "EUes": "",
      "EUfr": "",
      "EUit": "",
      "JPja": "",
      "KRko": "",
      "USen": ""
    }
  },
  {
    "label": "120",
    "attribute": "0x00000000FF000000",
    "locale": {
      "EUde": "Mir egal!",
      "EUen": "I don't care.",
      "EUes": "No me importa",
      "EUfr": "Je m'en moque.",
      "EUit": "Non m'importa.",
      "JPja": "なんでもない",
      "KRko": "아무것도 아냐",
      "USen": "I don't care."
    }
  },
  {
    "label": "121",
    "attribute": "0x00000000FF000000",
    "locale": {
      "EUde": "Na und?",
      "EUen": "So what?",
      "EUes": "¿Y qué?",
      "EUfr": "Et alors?",
      "EUit": "E allora?",
      "JPja": "とくになにも",
      "KRko": "아니， 그냥",
      "USen": "So what?"
    }
  },
  {
    "label": "122",
    "attribute": "0x00000000FF000000",
    "locale": {
      "EUde": "Ha! Zurück!",
      "EUen": "Ew, stand back!",
      "EUes": "Eh, aparta",
      "EUfr": "Eh, recule!",
      "EUit": "Ehi, sta' indietro!",
      "JPja": "あっそ",
      "KRko": "아， 그래？",
      "USen": "Ew, stand back!"
    }
  },
  {
    "label": "123",
    "attribute": "0x00000000FF000000",
    "locale": {
      "EUde": "Ansteckend?",
      "EUen": "Still contagious?",
      "EUes": "¿Es contagioso?",
      "EUfr": "Toujours malade?",
      "EUit": "Hai una malattia?",
      "JPja": "じゃあ、さよなら",
      "KRko": "그럼 안녕",
      "USen": "Still contagious?"
    }
  },
  {
    "label": "124",
    "attribute": "0x00000000FF000000",
    "locale": {
      "EUde": "Irre!",
      "EUen": "Gross!",
      "EUes": "¡Qué asco!",
      "EUfr": "Beurk!",
      "EUit": "Che schifo!",
      "JPja": "{{kanjiReplace charNum=\"1\" value=\"よ\"}}呼んでみただけ",
      "KRko": "그냥 불러 봤어",
      "USen": "Gross!"
    }
  },
  {
    "label": "125",
    "attribute": "0x00000000FF000000",
    "locale": {
      "EUde": "Bleib weg. Bäh!",
      "EUen": "Keep away, sicky!",
      "EUes": "¡Mantente lejos!",
      "EUfr": "T'approche pas!",
      "EUit": "Stai indietro!",
      "JPja": "あっ、まちがえた",
      "KRko": "아， 아냐",
      "USen": "Keep away, sicky!"
    }
  },
  {
    "label": "126",
    "attribute": "0x00000000FF000000",
    "locale": {
      "EUde": "Würg!",
      "EUen": "Blech!",
      "EUes": "¡Vade retro!",
      "EUfr": "Beurk!",
      "EUit": "Bleah!",
      "JPja": "うつさないでね",
      "KRko": "옮기지 마",
      "USen": "Blech!"
    }
  },
  {
    "label": "127",
    "attribute": "0x00000000FF000000",
    "locale": {
      "EUde": "E-K-E-L-haft!",
      "EUen": "G-R-O-S-S!",
      "EUes": "¡PUAJ!",
      "EUfr": "REPUGNANT!",
      "EUit": "S-C-H-I-F-O!",
      "JPja": "ふーん",
      "KRko": "흠…",
      "USen": "G-R-O-S-S!"
    }
  },
  {
    "label": "128",
    "attribute": "0x00000000FF000000",
    "locale": {
      "EUde": "Und...?",
      "EUen": "And...?",
      "EUes": "¿Y...?",
      "EUfr": "Et...",
      "EUit": "E...?",
      "JPja": "{{kanjiReplace charNum=\"1\" value=\"よう\"}}用はないんだな",
      "KRko": "별일 아냐",
      "USen": "And...?"
    }
  },
  {
    "label": "129",
    "attribute": "0x00000000FF000000",
    "locale": {
      "EUde": "Äh, tschüss!",
      "EUen": "Uh, adios!",
      "EUes": "¡Me las piro!",
      "EUfr": "Euh, ciao!",
      "EUit": "Oh, addio!",
      "JPja": "じゃーね",
      "KRko": "안녕！",
      "USen": "Uh, adios!"
    }
  },
  {
    "label": "130",
    "attribute": "0x00000000FF000000",
    "locale": {
      "EUde": "",
      "EUen": "",
      "EUes": "",
      "EUfr": "",
      "EUit": "",
      "JPja": "",
      "KRko": "",
      "USen": ""
    }
  },
  {
    "label": "131",
    "attribute": "0x00000000FF000000",
    "locale": {
      "EUde": "",
      "EUen": "",
      "EUes": "",
      "EUfr": "",
      "EUit": "",
      "JPja": "",
      "KRko": "",
      "USen": ""
    }
  },
  {
    "label": "132",
    "attribute": "0x00000000FF000000",
    "locale": {
      "EUde": "",
      "EUen": "",
      "EUes": "",
      "EUfr": "",
      "EUit": "",
      "JPja": "",
      "KRko": "",
      "USen": ""
    }
  },
  {
    "label": "133",
    "attribute": "0x00000000FF000000",
    "locale": {
      "EUde": "",
      "EUen": "",
      "EUes": "",
      "EUfr": "",
      "EUit": "",
      "JPja": "",
      "KRko": "",
      "USen": ""
    }
  },
  {
    "label": "134",
    "attribute": "0x00000000FF000000",
    "locale": {
      "EUde": "",
      "EUen": "",
      "EUes": "",
      "EUfr": "",
      "EUit": "",
      "JPja": "",
      "KRko": "",
      "USen": ""
    }
  },
  {
    "label": "135",
    "attribute": "0x00000000FF000000",
    "locale": {
      "EUde": "",
      "EUen": "",
      "EUes": "",
      "EUfr": "",
      "EUit": "",
      "JPja": "",
      "KRko": "",
      "USen": ""
    }
  },
  {
    "label": "136",
    "attribute": "0x00000000FF000000",
    "locale": {
      "EUde": "",
      "EUen": "",
      "EUes": "",
      "EUfr": "",
      "EUit": "",
      "JPja": "",
      "KRko": "",
      "USen": ""
    }
  },
  {
    "label": "137",
    "attribute": "0x00000000FF000000",
    "locale": {
      "EUde": "",
      "EUen": "",
      "EUes": "",
      "EUfr": "",
      "EUit": "",
      "JPja": "",
      "KRko": "",
      "USen": ""
    }
  },
  {
    "label": "138",
    "attribute": "0x00000000FF000000",
    "locale": {
      "EUde": "",
      "EUen": "",
      "EUes": "",
      "EUfr": "",
      "EUit": "",
      "JPja": "",
      "KRko": "",
      "USen": ""
    }
  },
  {
    "label": "139",
    "attribute": "0x00000000FF000000",
    "locale": {
      "EUde": "",
      "EUen": "",
      "EUes": "",
      "EUfr": "",
      "EUit": "",
      "JPja": "",
      "KRko": "",
      "USen": ""
    }
  },
  {
    "label": "140",
    "attribute": "0x00000000FF000000",
    "locale": {
      "EUde": "",
      "EUen": "",
      "EUes": "",
      "EUfr": "",
      "EUit": "",
      "JPja": "",
      "KRko": "",
      "USen": ""
    }
  },
  {
    "label": "141",
    "attribute": "0x00000000FF000000",
    "locale": {
      "EUde": "",
      "EUen": "",
      "EUes": "",
      "EUfr": "",
      "EUit": "",
      "JPja": "",
      "KRko": "",
      "USen": ""
    }
  },
  {
    "label": "142",
    "attribute": "0x00000000FF000000",
    "locale": {
      "EUde": "",
      "EUen": "",
      "EUes": "",
      "EUfr": "",
      "EUit": "",
      "JPja": "",
      "KRko": "",
      "USen": ""
    }
  },
  {
    "label": "143",
    "attribute": "0x00000000FF000000",
    "locale": {
      "EUde": "",
      "EUen": "",
      "EUes": "",
      "EUfr": "",
      "EUit": "",
      "JPja": "",
      "KRko": "",
      "USen": ""
    }
  },
  {
    "label": "144",
    "attribute": "0x00000000FF000000",
    "locale": {
      "EUde": "",
      "EUen": "",
      "EUes": "",
      "EUfr": "",
      "EUit": "",
      "JPja": "",
      "KRko": "",
      "USen": ""
    }
  },
  {
    "label": "145",
    "attribute": "0x00000000FF000000",
    "locale": {
      "EUde": "",
      "EUen": "",
      "EUes": "",
      "EUfr": "",
      "EUit": "",
      "JPja": "",
      "KRko": "",
      "USen": ""
    }
  },
  {
    "label": "146",
    "attribute": "0x00000000FF000000",
    "locale": {
      "EUde": "",
      "EUen": "",
      "EUes": "",
      "EUfr": "",
      "EUit": "",
      "JPja": "",
      "KRko": "",
      "USen": ""
    }
  },
  {
    "label": "147",
    "attribute": "0x00000000FF000000",
    "locale": {
      "EUde": "",
      "EUen": "",
      "EUes": "",
      "EUfr": "",
      "EUit": "",
      "JPja": "",
      "KRko": "",
      "USen": ""
    }
  },
  {
    "label": "148",
    "attribute": "0x00000000FF000000",
    "locale": {
      "EUde": "",
      "EUen": "",
      "EUes": "",
      "EUfr": "",
      "EUit": "",
      "JPja": "",
      "KRko": "",
      "USen": ""
    }
  },
  {
    "label": "149",
    "attribute": "0x00000000FF000000",
    "locale": {
      "EUde": "",
      "EUen": "",
      "EUes": "",
      "EUfr": "",
      "EUit": "",
      "JPja": "",
      "KRko": "",
      "USen": ""
    }
  },
  {
    "label": "150",
    "attribute": "0x00000000FF000000",
    "locale": {
      "EUde": "",
      "EUen": "",
      "EUes": "",
      "EUfr": "",
      "EUit": "",
      "JPja": "",
      "KRko": "",
      "USen": ""
    }
  },
  {
    "label": "151",
    "attribute": "0x00000000FF000000",
    "locale": {
      "EUde": "",
      "EUen": "",
      "EUes": "",
      "EUfr": "",
      "EUit": "",
      "JPja": "",
      "KRko": "",
      "USen": ""
    }
  },
  {
    "label": "152",
    "attribute": "0x00000000FF000000",
    "locale": {
      "EUde": "",
      "EUen": "",
      "EUes": "",
      "EUfr": "",
      "EUit": "",
      "JPja": "",
      "KRko": "",
      "USen": ""
    }
  },
  {
    "label": "153",
    "attribute": "0x00000000FF000000",
    "locale": {
      "EUde": "",
      "EUen": "",
      "EUes": "",
      "EUfr": "",
      "EUit": "",
      "JPja": "",
      "KRko": "",
      "USen": ""
    }
  },
  {
    "label": "154",
    "attribute": "0x00000000FF000000",
    "locale": {
      "EUde": "",
      "EUen": "",
      "EUes": "",
      "EUfr": "",
      "EUit": "",
      "JPja": "",
      "KRko": "",
      "USen": ""
    }
  },
  {
    "label": "155",
    "attribute": "0x00000000FF000000",
    "locale": {
      "EUde": "",
      "EUen": "",
      "EUes": "",
      "EUfr": "",
      "EUit": "",
      "JPja": "",
      "KRko": "",
      "USen": ""
    }
  },
  {
    "label": "156",
    "attribute": "0x00000000FF000000",
    "locale": {
      "EUde": "",
      "EUen": "",
      "EUes": "",
      "EUfr": "",
      "EUit": "",
      "JPja": "",
      "KRko": "",
      "USen": ""
    }
  },
  {
    "label": "157",
    "attribute": "0x00000000FF000000",
    "locale": {
      "EUde": "",
      "EUen": "",
      "EUes": "",
      "EUfr": "",
      "EUit": "",
      "JPja": "",
      "KRko": "",
      "USen": ""
    }
  },
  {
    "label": "158",
    "attribute": "0x00000000FF000000",
    "locale": {
      "EUde": "",
      "EUen": "",
      "EUes": "",
      "EUfr": "",
      "EUit": "",
      "JPja": "",
      "KRko": "",
      "USen": ""
    }
  },
  {
    "label": "159",
    "attribute": "0x00000000FF000000",
    "locale": {
      "EUde": "",
      "EUen": "",
      "EUes": "",
      "EUfr": "",
      "EUit": "",
      "JPja": "",
      "KRko": "",
      "USen": ""
    }
  },
  {
    "label": "160",
    "attribute": "0x00000000FF000000",
    "locale": {
      "EUde": "",
      "EUen": "",
      "EUes": "",
      "EUfr": "",
      "EUit": "",
      "JPja": "",
      "KRko": "",
      "USen": ""
    }
  },
  {
    "label": "161",
    "attribute": "0x00000000FF000000",
    "locale": {
      "EUde": "",
      "EUen": "",
      "EUes": "",
      "EUfr": "",
      "EUit": "",
      "JPja": "",
      "KRko": "",
      "USen": ""
    }
  },
  {
    "label": "162",
    "attribute": "0x00000000FF000000",
    "locale": {
      "EUde": "",
      "EUen": "",
      "EUes": "",
      "EUfr": "",
      "EUit": "",
      "JPja": "",
      "KRko": "",
      "USen": ""
    }
  },
  {
    "label": "163",
    "attribute": "0x00000000FF000000",
    "locale": {
      "EUde": "",
      "EUen": "",
      "EUes": "",
      "EUfr": "",
      "EUit": "",
      "JPja": "",
      "KRko": "",
      "USen": ""
    }
  },
  {
    "label": "164",
    "attribute": "0x00000000FF000000",
    "locale": {
      "EUde": "",
      "EUen": "",
      "EUes": "",
      "EUfr": "",
      "EUit": "",
      "JPja": "",
      "KRko": "",
      "USen": ""
    }
  },
  {
    "label": "165",
    "attribute": "0x00000000FF000000",
    "locale": {
      "EUde": "",
      "EUen": "",
      "EUes": "",
      "EUfr": "",
      "EUit": "",
      "JPja": "",
      "KRko": "",
      "USen": ""
    }
  },
  {
    "label": "166",
    "attribute": "0x00000000FF000000",
    "locale": {
      "EUde": "",
      "EUen": "",
      "EUes": "",
      "EUfr": "",
      "EUit": "",
      "JPja": "",
      "KRko": "",
      "USen": ""
    }
  },
  {
    "label": "167",
    "attribute": "0x00000000FF000000",
    "locale": {
      "EUde": "",
      "EUen": "",
      "EUes": "",
      "EUfr": "",
      "EUit": "",
      "JPja": "",
      "KRko": "",
      "USen": ""
    }
  },
  {
    "label": "168",
    "attribute": "0x00000000FF000000",
    "locale": {
      "EUde": "",
      "EUen": "",
      "EUes": "",
      "EUfr": "",
      "EUit": "",
      "JPja": "",
      "KRko": "",
      "USen": ""
    }
  },
  {
    "label": "169",
    "attribute": "0x00000000FF000000",
    "locale": {
      "EUde": "",
      "EUen": "",
      "EUes": "",
      "EUfr": "",
      "EUit": "",
      "JPja": "",
      "KRko": "",
      "USen": ""
    }
  },
  {
    "label": "170",
    "attribute": "0x00000000FF000000",
    "locale": {
      "EUde": "",
      "EUen": "",
      "EUes": "",
      "EUfr": "",
      "EUit": "",
      "JPja": "",
      "KRko": "",
      "USen": ""
    }
  },
  {
    "label": "171",
    "attribute": "0x00000000FF000000",
    "locale": {
      "EUde": "",
      "EUen": "",
      "EUes": "",
      "EUfr": "",
      "EUit": "",
      "JPja": "",
      "KRko": "",
      "USen": ""
    }
  },
  {
    "label": "172",
    "attribute": "0x00000000FF000000",
    "locale": {
      "EUde": "",
      "EUen": "",
      "EUes": "",
      "EUfr": "",
      "EUit": "",
      "JPja": "",
      "KRko": "",
      "USen": ""
    }
  },
  {
    "label": "173",
    "attribute": "0x00000000FF000000",
    "locale": {
      "EUde": "",
      "EUen": "",
      "EUes": "",
      "EUfr": "",
      "EUit": "",
      "JPja": "",
      "KRko": "",
      "USen": ""
    }
  },
  {
    "label": "174",
    "attribute": "0x00000000FF000000",
    "locale": {
      "EUde": "",
      "EUen": "",
      "EUes": "",
      "EUfr": "",
      "EUit": "",
      "JPja": "",
      "KRko": "",
      "USen": ""
    }
  },
  {
    "label": "175",
    "attribute": "0x00000000FF000000",
    "locale": {
      "EUde": "",
      "EUen": "",
      "EUes": "",
      "EUfr": "",
      "EUit": "",
      "JPja": "",
      "KRko": "",
      "USen": ""
    }
  },
  {
    "label": "176",
    "attribute": "0x00000000FF000000",
    "locale": {
      "EUde": "",
      "EUen": "",
      "EUes": "",
      "EUfr": "",
      "EUit": "",
      "JPja": "",
      "KRko": "",
      "USen": ""
    }
  },
  {
    "label": "177",
    "attribute": "0x00000000FF000000",
    "locale": {
      "EUde": "",
      "EUen": "",
      "EUes": "",
      "EUfr": "",
      "EUit": "",
      "JPja": "",
      "KRko": "",
      "USen": ""
    }
  },
  {
    "label": "178",
    "attribute": "0x00000000FF000000",
    "locale": {
      "EUde": "",
      "EUen": "",
      "EUes": "",
      "EUfr": "",
      "EUit": "",
      "JPja": "",
      "KRko": "",
      "USen": ""
    }
  },
  {
    "label": "179",
    "attribute": "0x00000000FF000000",
    "locale": {
      "EUde": "",
      "EUen": "",
      "EUes": "",
      "EUfr": "",
      "EUit": "",
      "JPja": "",
      "KRko": "",
      "USen": ""
    }
  },
  {
    "label": "180",
    "attribute": "0x00000000FF000000",
    "locale": {
      "EUde": "",
      "EUen": "",
      "EUes": "",
      "EUfr": "",
      "EUit": "",
      "JPja": "",
      "KRko": "",
      "USen": ""
    }
  },
  {
    "label": "181",
    "attribute": "0x00000000FF000000",
    "locale": {
      "EUde": "",
      "EUen": "",
      "EUes": "",
      "EUfr": "",
      "EUit": "",
      "JPja": "",
      "KRko": "",
      "USen": ""
    }
  },
  {
    "label": "182",
    "attribute": "0x00000000FF000000",
    "locale": {
      "EUde": "",
      "EUen": "",
      "EUes": "",
      "EUfr": "",
      "EUit": "",
      "JPja": "",
      "KRko": "",
      "USen": ""
    }
  },
  {
    "label": "183",
    "attribute": "0x00000000FF000000",
    "locale": {
      "EUde": "",
      "EUen": "",
      "EUes": "",
      "EUfr": "",
      "EUit": "",
      "JPja": "",
      "KRko": "",
      "USen": ""
    }
  },
  {
    "label": "184",
    "attribute": "0x00000000FF000000",
    "locale": {
      "EUde": "",
      "EUen": "",
      "EUes": "",
      "EUfr": "",
      "EUit": "",
      "JPja": "",
      "KRko": "",
      "USen": ""
    }
  },
  {
    "label": "185",
    "attribute": "0x00000000FF000000",
    "locale": {
      "EUde": "",
      "EUen": "",
      "EUes": "",
      "EUfr": "",
      "EUit": "",
      "JPja": "",
      "KRko": "",
      "USen": ""
    }
  },
  {
    "label": "186",
    "attribute": "0x00000000FF000000",
    "locale": {
      "EUde": "",
      "EUen": "",
      "EUes": "",
      "EUfr": "",
      "EUit": "",
      "JPja": "",
      "KRko": "",
      "USen": ""
    }
  },
  {
    "label": "187",
    "attribute": "0x00000000FF000000",
    "locale": {
      "EUde": "",
      "EUen": "",
      "EUes": "",
      "EUfr": "",
      "EUit": "",
      "JPja": "",
      "KRko": "",
      "USen": ""
    }
  },
  {
    "label": "188",
    "attribute": "0x00000000FF000000",
    "locale": {
      "EUde": "",
      "EUen": "",
      "EUes": "",
      "EUfr": "",
      "EUit": "",
      "JPja": "",
      "KRko": "",
      "USen": ""
    }
  },
  {
    "label": "189",
    "attribute": "0x00000000FF000000",
    "locale": {
      "EUde": "",
      "EUen": "",
      "EUes": "",
      "EUfr": "",
      "EUit": "",
      "JPja": "",
      "KRko": "",
      "USen": ""
    }
  },
  {
    "label": "190",
    "attribute": "0x00000000FF000000",
    "locale": {
      "EUde": "",
      "EUen": "",
      "EUes": "",
      "EUfr": "",
      "EUit": "",
      "JPja": "",
      "KRko": "",
      "USen": ""
    }
  },
  {
    "label": "191",
    "attribute": "0x00000000FF000000",
    "locale": {
      "EUde": "",
      "EUen": "",
      "EUes": "",
      "EUfr": "",
      "EUit": "",
      "JPja": "",
      "KRko": "",
      "USen": ""
    }
  },
  {
    "label": "192",
    "attribute": "0x00000000FF000000",
    "locale": {
      "EUde": "",
      "EUen": "",
      "EUes": "",
      "EUfr": "",
      "EUit": "",
      "JPja": "",
      "KRko": "",
      "USen": ""
    }
  },
  {
    "label": "193",
    "attribute": "0x00000000FF000000",
    "locale": {
      "EUde": "",
      "EUen": "",
      "EUes": "",
      "EUfr": "",
      "EUit": "",
      "JPja": "",
      "KRko": "",
      "USen": ""
    }
  },
  {
    "label": "194",
    "attribute": "0x00000000FF000000",
    "locale": {
      "EUde": "",
      "EUen": "",
      "EUes": "",
      "EUfr": "",
      "EUit": "",
      "JPja": "",
      "KRko": "",
      "USen": ""
    }
  },
  {
    "label": "195",
    "attribute": "0x00000000FF000000",
    "locale": {
      "EUde": "",
      "EUen": "",
      "EUes": "",
      "EUfr": "",
      "EUit": "",
      "JPja": "",
      "KRko": "",
      "USen": ""
    }
  },
  {
    "label": "196",
    "attribute": "0x00000000FF000000",
    "locale": {
      "EUde": "Erzähl!",
      "EUen": "Tell me!",
      "EUes": "¡Dime!",
      "EUfr": "Dis-moi!",
      "EUit": "Dimmi!",
      "JPja": "きかせて！",
      "KRko": "들려 줘！",
      "USen": "Tell me!"
    }
  },
  {
    "label": "197",
    "attribute": "0x00000000FF000000",
    "locale": {
      "EUde": "",
      "EUen": "",
      "EUes": "",
      "EUfr": "",
      "EUit": "",
      "JPja": "",
      "KRko": "",
      "USen": ""
    }
  },
  {
    "label": "198",
    "attribute": "0x00000000FF000000",
    "locale": {
      "EUde": "",
      "EUen": "",
      "EUes": "",
      "EUfr": "",
      "EUit": "",
      "JPja": "",
      "KRko": "",
      "USen": ""
    }
  },
  {
    "label": "199",
    "attribute": "0x00000000FF000000",
    "locale": {
      "EUde": "",
      "EUen": "",
      "EUes": "",
      "EUfr": "",
      "EUit": "",
      "JPja": "",
      "KRko": "",
      "USen": ""
    }
  },
  {
    "label": "200",
    "attribute": "0x00000000FF000000",
    "locale": {
      "EUde": "",
      "EUen": "",
      "EUes": "",
      "EUfr": "",
      "EUit": "",
      "JPja": "",
      "KRko": "",
      "USen": ""
    }
  },
  {
    "label": "201",
    "attribute": "0x00000000FF000000",
    "locale": {
      "EUde": "",
      "EUen": "",
      "EUes": "",
      "EUfr": "",
      "EUit": "",
      "JPja": "",
      "KRko": "",
      "USen": ""
    }
  },
  {
    "label": "202",
    "attribute": "0x00000000FF000000",
    "locale": {
      "EUde": "",
      "EUen": "",
      "EUes": "",
      "EUfr": "",
      "EUit": "",
      "JPja": "",
      "KRko": "",
      "USen": ""
    }
  },
  {
    "label": "203",
    "attribute": "0x00000000FF000000",
    "locale": {
      "EUde": "",
      "EUen": "",
      "EUes": "",
      "EUfr": "",
      "EUit": "",
      "JPja": "",
      "KRko": "",
      "USen": ""
    }
  },
  {
    "label": "204",
    "attribute": "0x00000000FF000000",
    "locale": {
      "EUde": "",
      "EUen": "",
      "EUes": "",
      "EUfr": "",
      "EUit": "",
      "JPja": "",
      "KRko": "",
      "USen": ""
    }
  },
  {
    "label": "205",
    "attribute": "0x00000000FF000000",
    "locale": {
      "EUde": "",
      "EUen": "",
      "EUes": "",
      "EUfr": "",
      "EUit": "",
      "JPja": "",
      "KRko": "",
      "USen": ""
    }
  },
  {
    "label": "206",
    "attribute": "0x00000000FF000000",
    "locale": {
      "EUde": "",
      "EUen": "",
      "EUes": "",
      "EUfr": "",
      "EUit": "",
      "JPja": "",
      "KRko": "",
      "USen": ""
    }
  },
  {
    "label": "207",
    "attribute": "0x00000000FF000000",
    "locale": {
      "EUde": "",
      "EUen": "",
      "EUes": "",
      "EUfr": "",
      "EUit": "",
      "JPja": "",
      "KRko": "",
      "USen": ""
    }
  },
  {
    "label": "208",
    "attribute": "0x00000000FF000000",
    "locale": {
      "EUde": "Schon gut.",
      "EUen": "Never mind.",
      "EUes": "Déjalo",
      "EUfr": "Laisse tomber.",
      "EUit": "Non importa.",
      "JPja": "やめとく",
      "KRko": "그만두기",
      "USen": "Never mind."
    }
  },
  {
    "label": "209",
    "attribute": "0x00000000FF000000",
    "locale": {
      "EUde": "",
      "EUen": "",
      "EUes": "",
      "EUfr": "",
      "EUit": "",
      "JPja": "",
      "KRko": "",
      "USen": ""
    }
  },
  {
    "label": "210",
    "attribute": "0x00000000FF000000",
    "locale": {
      "EUde": "",
      "EUen": "",
      "EUes": "",
      "EUfr": "",
      "EUit": "",
      "JPja": "",
      "KRko": "",
      "USen": ""
    }
  },
  {
    "label": "211",
    "attribute": "0x00000000FF000000",
    "locale": {
      "EUde": "Ich kaufe!",
      "EUen": "I'll buy!",
      "EUes": "¡Sí, compro!",
      "EUfr": "J'achète!",
      "EUit": "Compro!",
      "JPja": "{{kanjiReplace charNum=\"1\" value=\"か\"}}買っちゃう！",
      "KRko": "살게！",
      "USen": "I'll buy!"
    }
  },
  {
    "label": "212",
    "attribute": "0x00000000FF000000",
    "locale": {
      "EUde": "",
      "EUen": "",
      "EUes": "",
      "EUfr": "",
      "EUit": "",
      "JPja": "",
      "KRko": "",
      "USen": ""
    }
  },
  {
    "label": "213",
    "attribute": "0x00000000FF000000",
    "locale": {
      "EUde": "Brief behalten.",
      "EUen": "Save a letter.",
      "EUes": "Archivar correo",
      "EUfr": "Archiver lettre.",
      "EUit": "Salva lettere.",
      "JPja": "{{kanjiReplace charNum=\"2\" value=\"てがみ\"}}手紙を{{kanjiReplace charNum=\"2\" value=\"ほぞん\"}}保存したい",
      "KRko": "편지 보관",
      "USen": "Save a letter."
    }
  },
  {
    "label": "214",
    "attribute": "0x00000000FF000000",
    "locale": {
      "EUde": "",
      "EUen": "",
      "EUes": "",
      "EUfr": "",
      "EUit": "",
      "JPja": "",
      "KRko": "",
      "USen": ""
    }
  },
  {
    "label": "215",
    "attribute": "0x00000000FF000000",
    "locale": {
      "EUde": "",
      "EUen": "",
      "EUes": "",
      "EUfr": "",
      "EUit": "",
      "JPja": "",
      "KRko": "",
      "USen": ""
    }
  },
  {
    "label": "216",
    "attribute": "0x00000000FF000000",
    "locale": {
      "EUde": "",
      "EUen": "",
      "EUes": "",
      "EUfr": "",
      "EUit": "",
      "JPja": "",
      "KRko": "",
      "USen": ""
    }
  },
  {
    "label": "217",
    "attribute": "0x00000000FF000000",
    "locale": {
      "EUde": "",
      "EUen": "",
      "EUes": "",
      "EUfr": "",
      "EUit": "",
      "JPja": "",
      "KRko": "",
      "USen": ""
    }
  },
  {
    "label": "218",
    "attribute": "0x00000000FF000000",
    "locale": {
      "EUde": "",
      "EUen": "",
      "EUes": "",
      "EUfr": "",
      "EUit": "",
      "JPja": "",
      "KRko": "",
      "USen": ""
    }
  },
  {
    "label": "219",
    "attribute": "0x00000000FF000000",
    "locale": {
      "EUde": "",
      "EUen": "",
      "EUes": "",
      "EUfr": "",
      "EUit": "",
      "JPja": "",
      "KRko": "",
      "USen": ""
    }
  },
  {
    "label": "220",
    "attribute": "0x00000000FF000000",
    "locale": {
      "EUde": "",
      "EUen": "",
      "EUes": "",
      "EUfr": "",
      "EUit": "",
      "JPja": "",
      "KRko": "",
      "USen": ""
    }
  },
  {
    "label": "221",
    "attribute": "0x00000000FF000000",
    "locale": {
      "EUde": "",
      "EUen": "",
      "EUes": "",
      "EUfr": "",
      "EUit": "",
      "JPja": "",
      "KRko": "",
      "USen": ""
    }
  },
  {
    "label": "222",
    "attribute": "0x00000000FF000000",
    "locale": {
      "EUde": "",
      "EUen": "",
      "EUes": "",
      "EUfr": "",
      "EUit": "",
      "JPja": "",
      "KRko": "",
      "USen": ""
    }
  },
  {
    "label": "223",
    "attribute": "0x00000000FF000000",
    "locale": {
      "EUde": "",
      "EUen": "",
      "EUes": "",
      "EUfr": "",
      "EUit": "",
      "JPja": "",
      "KRko": "",
      "USen": ""
    }
  },
  {
    "label": "224",
    "attribute": "0x00000000FF000000",
    "locale": {
      "EUde": "",
      "EUen": "",
      "EUes": "",
      "EUfr": "",
      "EUit": "",
      "JPja": "",
      "KRko": "",
      "USen": ""
    }
  },
  {
    "label": "225",
    "attribute": "0x00000000FF000000",
    "locale": {
      "EUde": "Anprobieren?",
      "EUen": "Can I try it on?",
      "EUes": "A ver cómo queda",
      "EUfr": "Je peux essayer?",
      "EUit": "Posso provare?",
      "JPja": "{{kanjiReplace charNum=\"1\" value=\"き\"}}着てみたい",
      "KRko": "입어 볼래요",
      "USen": "Can I try it on?"
    }
  },
  {
    "label": "226",
    "attribute": "0x00000000FF000000",
    "locale": {
      "EUde": "Anprobieren?",
      "EUen": "Can I try it on?",
      "EUes": "A ver cómo queda",
      "EUfr": "Je peux essayer?",
      "EUit": "Posso provare?",
      "JPja": "かぶってみたい",
      "KRko": "써 볼래요",
      "USen": "Can I try it on?"
    }
  },
  {
    "label": "227",
    "attribute": "0x00000000FF000000",
    "locale": {
      "EUde": "Anprobieren?",
      "EUen": "Can I try it on?",
      "EUes": "A ver cómo queda",
      "EUfr": "Je peux essayer?",
      "EUit": "Posso provare?",
      "JPja": "ためしてみたい",
      "KRko": "써 볼래요",
      "USen": "Can I try it on?"
    }
  },
  {
    "label": "228",
    "attribute": "0x00000000FF000000",
    "locale": {
      "EUde": "",
      "EUen": "",
      "EUes": "",
      "EUfr": "",
      "EUit": "",
      "JPja": "",
      "KRko": "",
      "USen": ""
    }
  },
  {
    "label": "229",
    "attribute": "0x00000000FF000000",
    "locale": {
      "EUde": "Ich lese weiter.",
      "EUen": "I'll read more.",
      "EUes": "Seguir leyendo",
      "EUfr": "Je continue.",
      "EUit": "Leggo ancora.",
      "JPja": "もっと{{kanjiReplace charNum=\"1\" value=\"よ\"}}読む",
      "KRko": "더 읽기",
      "USen": "I'll read more."
    }
  },
  {
    "label": "230",
    "attribute": "0x00000000FF000000",
    "locale": {
      "EUde": "Ich bin fertig.",
      "EUen": "I'm done reading.",
      "EUes": "No quiero seguir",
      "EUfr": "J'ai fini de lire.",
      "EUit": "Ho letto tutto.",
      "JPja": "もう{{kanjiReplace charNum=\"1\" value=\"よ\"}}読まない",
      "KRko": "더 이상 읽지 않기",
      "USen": "I'm done reading."
    }
  },
  {
    "label": "231",
    "attribute": "0x00000000FF000000",
    "locale": {
      "EUde": "",
      "EUen": "",
      "EUes": "",
      "EUfr": "",
      "EUit": "",
      "JPja": "",
      "KRko": "",
      "USen": ""
    }
  },
  {
    "label": "232",
    "attribute": "0x00000000FF000000",
    "locale": {
      "EUde": "",
      "EUen": "",
      "EUes": "",
      "EUfr": "",
      "EUit": "",
      "JPja": "",
      "KRko": "",
      "USen": ""
    }
  },
  {
    "label": "233",
    "attribute": "0x00000000FF000000",
    "locale": {
      "EUde": "",
      "EUen": "",
      "EUes": "",
      "EUfr": "",
      "EUit": "",
      "JPja": "",
      "KRko": "",
      "USen": ""
    }
  },
  {
    "label": "234",
    "attribute": "0x00000000FF000000",
    "locale": {
      "EUde": "",
      "EUen": "",
      "EUes": "",
      "EUfr": "",
      "EUit": "",
      "JPja": "",
      "KRko": "",
      "USen": ""
    }
  },
  {
    "label": "235",
    "attribute": "0x00000000FF000000",
    "locale": {
      "EUde": "Brief abschicken.",
      "EUen": "Mail a letter.",
      "EUes": "Enviar una carta",
      "EUfr": "Envoyer lettre.",
      "EUit": "Invia lettere.",
      "JPja": "{{kanjiReplace charNum=\"2\" value=\"てがみ\"}}手紙を{{kanjiReplace charNum=\"1\" value=\"だ\"}}出したい",
      "KRko": "편지 발송",
      "USen": "Mail a letter."
    }
  },
  {
    "label": "236",
    "attribute": "0x00000000FF000000",
    "locale": {
      "EUde": "Kontozugriff.",
      "EUen": "Access account.",
      "EUes": "Ver mi cuenta",
      "EUfr": "Voir le compte.",
      "EUit": "Accedi al conto.",
      "JPja": "{{kanjiReplace charNum=\"2\" value=\"ちょきん\"}}貯金のこと",
      "KRko": "저축 관련",
      "USen": "Access account."
    }
  },
  {
    "label": "237",
    "attribute": "0x00000000FF000000",
    "locale": {
      "EUde": "Kredit bezahlen.",
      "EUen": "Pay mortgage.",
      "EUes": "Pagar hipoteca",
      "EUfr": "Rembourser prêt.",
      "EUit": "Paga il mutuo.",
      "JPja": "ローンのふりこみ",
      "KRko": "대출 상환",
      "USen": "Pay mortgage."
    }
  },
  {
    "label": "238",
    "attribute": "0x00000000FF000000",
    "locale": {
      "EUde": "Über das Land...",
      "EUen": "About the land...",
      "EUes": "Sobre la tierra...",
      "EUfr": "Le terrain...",
      "EUit": "L'ambiente...",
      "JPja": "かんきょうのこと",
      "KRko": "환경 관련",
      "USen": "About the land..."
    }
  },
  {
    "label": "239",
    "attribute": "0x00000000FF000000",
    "locale": {
      "EUde": "Spenden!",
      "EUen": "Donate!",
      "EUes": "Donar unas bayas",
      "EUfr": "Faire un don.",
      "EUit": "Donazione!",
      "JPja": "ぼきんのこと",
      "KRko": "기부금 관련",
      "USen": "Donate!"
    }
  },
  {
    "label": "240",
    "attribute": "0x00000000FF000000",
    "locale": {
      "EUde": "Umzugsdetails.",
      "EUen": "Moving details.",
      "EUes": "¿Cómo me mudo?",
      "EUfr": "Déménagement.",
      "EUit": "Dettagli trasloco.",
      "JPja": "{{kanjiReplace charNum=\"1\" value=\"ひ\"}}引っ{{kanjiReplace charNum=\"1\" value=\"こ\"}}越し　{{kanjiReplace charNum=\"1\" value=\"て\"}}手{{kanjiReplace charNum=\"1\" value=\"つづ\"}}続き",
      "KRko": "이사 준비",
      "USen": "Moving details."
    }
  },
  {
    "label": "241",
    "attribute": "0x00000000FF000000",
    "locale": {
      "EUde": "",
      "EUen": "",
      "EUes": "",
      "EUfr": "",
      "EUit": "",
      "JPja": "",
      "KRko": "",
      "USen": ""
    }
  },
  {
    "label": "242",
    "attribute": "0x00000000FF000000",
    "locale": {
      "EUde": "",
      "EUen": "",
      "EUes": "",
      "EUfr": "",
      "EUit": "",
      "JPja": "",
      "KRko": "",
      "USen": ""
    }
  },
  {
    "label": "243",
    "attribute": "0x00000000FF000000",
    "locale": {
      "EUde": "",
      "EUen": "",
      "EUes": "",
      "EUfr": "",
      "EUit": "",
      "JPja": "",
      "KRko": "",
      "USen": ""
    }
  },
  {
    "label": "244",
    "attribute": "0x00000000FF000000",
    "locale": {
      "EUde": "",
      "EUen": "",
      "EUes": "",
      "EUfr": "",
      "EUit": "",
      "JPja": "",
      "KRko": "",
      "USen": ""
    }
  },
  {
    "label": "245",
    "attribute": "0x00000000FF000000",
    "locale": {
      "EUde": "",
      "EUen": "",
      "EUes": "",
      "EUfr": "",
      "EUit": "",
      "JPja": "",
      "KRko": "",
      "USen": ""
    }
  },
  {
    "label": "246",
    "attribute": "0x00000000FF000000",
    "locale": {
      "EUde": "",
      "EUen": "",
      "EUes": "",
      "EUfr": "",
      "EUit": "",
      "JPja": "",
      "KRko": "",
      "USen": ""
    }
  },
  {
    "label": "247",
    "attribute": "0x00000000FF000000",
    "locale": {
      "EUde": "",
      "EUen": "",
      "EUes": "",
      "EUfr": "",
      "EUit": "",
      "JPja": "",
      "KRko": "",
      "USen": ""
    }
  },
  {
    "label": "248",
    "attribute": "0x00000000FF000000",
    "locale": {
      "EUde": "",
      "EUen": "",
      "EUes": "",
      "EUfr": "",
      "EUit": "",
      "JPja": "",
      "KRko": "",
      "USen": ""
    }
  },
  {
    "label": "249",
    "attribute": "0x00000000FF000000",
    "locale": {
      "EUde": "",
      "EUen": "",
      "EUes": "",
      "EUfr": "",
      "EUit": "",
      "JPja": "",
      "KRko": "",
      "USen": ""
    }
  },
  {
    "label": "250",
    "attribute": "0x00000000FF000000",
    "locale": {
      "EUde": "",
      "EUen": "",
      "EUes": "",
      "EUfr": "",
      "EUit": "",
      "JPja": "",
      "KRko": "",
      "USen": ""
    }
  },
  {
    "label": "251",
    "attribute": "0x00000000FF000000",
    "locale": {
      "EUde": "",
      "EUen": "",
      "EUes": "",
      "EUfr": "",
      "EUit": "",
      "JPja": "",
      "KRko": "",
      "USen": ""
    }
  },
  {
    "label": "252",
    "attribute": "0x00000000FF000000",
    "locale": {
      "EUde": "",
      "EUen": "",
      "EUes": "",
      "EUfr": "",
      "EUit": "",
      "JPja": "",
      "KRko": "",
      "USen": ""
    }
  },
  {
    "label": "253",
    "attribute": "0x00000000FF000000",
    "locale": {
      "EUde": "",
      "EUen": "",
      "EUes": "",
      "EUfr": "",
      "EUit": "",
      "JPja": "",
      "KRko": "",
      "USen": ""
    }
  },
  {
    "label": "254",
    "attribute": "0x00000000FF000000",
    "locale": {
      "EUde": "",
      "EUen": "",
      "EUes": "",
      "EUfr": "",
      "EUit": "",
      "JPja": "",
      "KRko": "",
      "USen": ""
    }
  },
  {
    "label": "255",
    "attribute": "0x00000000FF000000",
    "locale": {
      "EUde": "Umziehen.",
      "EUen": "Move.",
      "EUes": "Mudanza",
      "EUfr": "Déménager.",
      "EUit": "Sposta.",
      "JPja": "{{kanjiReplace charNum=\"1\" value=\"ひ\"}}引っ{{kanjiReplace charNum=\"1\" value=\"こ\"}}越す",
      "KRko": "이사하기",
      "USen": "Move."
    }
  }
]