[
  {
    "label": "0",
    "attribute": "0x001C0000FE000000",
    "locale": {
      "EUde": "",
      "EUen": "",
      "EUes": "",
      "EUfr": "",
      "EUit": "",
      "JPja": "{{reaction type=\"Curiosity\"}}かくれんぼ？{{pause frames=\"15\"}}\n{{kanjiReplace charNum=\"1\" value=\"なに\"}}何、{{pause frames=\"5\"}}ソレ？{{pressButton}}\n・{{pause frames=\"5\"}}・{{pause frames=\"5\"}}・{{pause frames=\"5\"}}{{reaction type=\"Amazed\"}}ああ！{{pause frames=\"10\"}}　アレのコト？！\n{{reaction type=\"Worry\"}}なんかもう　グダグダに\nなっちゃってたから、{{pause frames=\"5\"}}\n{{kanjiReplace charNum=\"2\" value=\"かって\"}}勝手に　{{kanjiReplace charNum=\"1\" value=\"かえ\"}}帰ったよ！\n{{kanjiReplace charNum=\"2\" value=\"こんど\"}}今度やる{{kanjiReplace charNum=\"1\" value=\"とき\"}}時は\nちゃんと　さがしてくれよなー！\n{{pause frames=\"5\"}}{{string value=\"Catchphrase\"}}！{{fun_03 arg=\"0x01\"}}",
      "KRko": "{{reaction type=\"Curiosity\"}}かくれんぼ？{{pause frames=\"15\"}}\n{{kanjiReplace charNum=\"1\" value=\"なに\"}}何、{{pause frames=\"5\"}}ソレ？{{pressButton}}\n・{{pause frames=\"5\"}}・{{pause frames=\"5\"}}・{{pause frames=\"5\"}}{{reaction type=\"Amazed\"}}ああ！{{pause frames=\"10\"}}　アレのコト？！\n{{reaction type=\"Worry\"}}なんかもう　グダグダに\nなっちゃってたから、{{pause frames=\"5\"}}\n{{kanjiReplace charNum=\"2\" value=\"かって\"}}勝手に　{{kanjiReplace charNum=\"1\" value=\"かえ\"}}帰ったよ！\n{{kanjiReplace charNum=\"2\" value=\"こんど\"}}今度やる{{kanjiReplace charNum=\"1\" value=\"とき\"}}時は\nちゃんと　さがしてくれよなー！\n{{pause frames=\"5\"}}{{string value=\"Catchphrase\"}}！{{fun_03 arg=\"0x01\"}}",
      "USen": ""
    }
  },
  {
    "label": "1",
    "attribute": "0x001C0000FE000000",
    "locale": {
      "EUde": "",
      "EUen": "",
      "EUes": "",
      "EUfr": "",
      "EUit": "",
      "JPja": "{{reaction type=\"Aggravation\"}}そういえば、{{pause frames=\"5\"}}{{color id=\"5\"}}{{string value=\"PlayerNickname\"}}ー{{color id=\"0\"}}！{{pause frames=\"10\"}}\nおいらを　ほったらかして、{{pause frames=\"5\"}}\n{{kanjiReplace charNum=\"1\" value=\"なに\"}}何やってたんだよー！\n{{reaction type=\"Intense\"}}おまえ、{{pause frames=\"5\"}}おいらの　アセ\nいっつも　かいでるから、{{pause frames=\"5\"}}\n{{reaction type=\"Curiosity\"}}ニオイで　{{kanjiReplace charNum=\"1\" value=\"わ\"}}分かるハズだろ？！\n{{reaction type=\"Intense\"}}すっげー　さみしかったんだぞ！{{pause frames=\"10\"}}\n{{kanjiReplace charNum=\"1\" value=\"つぎ\"}}次からは　やめてくれよな！\n{{pause frames=\"5\"}}{{string value=\"Catchphrase\"}}！{{fun_03 arg=\"0x01\"}}",
      "KRko": "{{reaction type=\"Aggravation\"}}そういえば、{{pause frames=\"5\"}}{{color id=\"5\"}}{{string value=\"PlayerNickname\"}}ー{{color id=\"0\"}}！{{pause frames=\"10\"}}\nおいらを　ほったらかして、{{pause frames=\"5\"}}\n{{kanjiReplace charNum=\"1\" value=\"なに\"}}何やってたんだよー！\n{{reaction type=\"Intense\"}}おまえ、{{pause frames=\"5\"}}おいらの　アセ\nいっつも　かいでるから、{{pause frames=\"5\"}}\n{{reaction type=\"Curiosity\"}}ニオイで　{{kanjiReplace charNum=\"1\" value=\"わ\"}}分かるハズだろ？！\n{{reaction type=\"Intense\"}}すっげー　さみしかったんだぞ！{{pause frames=\"10\"}}\n{{kanjiReplace charNum=\"1\" value=\"つぎ\"}}次からは　やめてくれよな！\n{{pause frames=\"5\"}}{{string value=\"Catchphrase\"}}！{{fun_03 arg=\"0x01\"}}",
      "USen": ""
    }
  },
  {
    "label": "2",
    "attribute": "0x001C0000FE000000",
    "locale": {
      "EUde": "",
      "EUen": "",
      "EUes": "",
      "EUfr": "",
      "EUit": "",
      "JPja": "{{reaction type=\"Intense\"}}おまえー！{{pause frames=\"5\"}}\n{{kanjiReplace charNum=\"1\" value=\"く\"}}来るの　おそすぎんだよー！\n{{pause frames=\"5\"}}{{string value=\"Catchphrase\"}}！\n{{reaction type=\"Worry\"}}どーせ　おまえのコトだから\nかくれんぼなんか\nわすれちまって、\n{{kanjiReplace charNum=\"1\" value=\"ほか\"}}他のヤツと　{{kanjiReplace charNum=\"1\" value=\"あそ\"}}遊んでたんじゃ\nないのかー？！\n{{pause frames=\"5\"}}{{string value=\"Catchphrase\"}}？！\n{{resetReaction}}・{{pause frames=\"5\"}}・{{pause frames=\"5\"}}・{{pause frames=\"5\"}}{{reaction type=\"Amazed\"}}あ！{{pause frames=\"20\"}}\nそれ、{{pause frames=\"5\"}}おいらのコトだー！{{pause frames=\"10\"}}\n{{reaction type=\"Sadness\"}}スマンスマン{{fun_03 arg=\"0x01\"}}",
      "KRko": "{{reaction type=\"Intense\"}}おまえー！{{pause frames=\"5\"}}\n{{kanjiReplace charNum=\"1\" value=\"く\"}}来るの　おそすぎんだよー！\n{{pause frames=\"5\"}}{{string value=\"Catchphrase\"}}！\n{{reaction type=\"Worry\"}}どーせ　おまえのコトだから\nかくれんぼなんか\nわすれちまって、\n{{kanjiReplace charNum=\"1\" value=\"ほか\"}}他のヤツと　{{kanjiReplace charNum=\"1\" value=\"あそ\"}}遊んでたんじゃ\nないのかー？！\n{{pause frames=\"5\"}}{{string value=\"Catchphrase\"}}？！\n{{resetReaction}}・{{pause frames=\"5\"}}・{{pause frames=\"5\"}}・{{pause frames=\"5\"}}{{reaction type=\"Amazed\"}}あ！{{pause frames=\"20\"}}\nそれ、{{pause frames=\"5\"}}おいらのコトだー！{{pause frames=\"10\"}}\n{{reaction type=\"Sadness\"}}スマンスマン{{fun_03 arg=\"0x01\"}}",
      "USen": ""
    }
  }
]