[
  {
    "label": "0",
    "attribute": "0x00070000FE000000",
    "locale": {
      "EUde": "",
      "EUen": "",
      "EUes": "",
      "EUfr": "",
      "EUit": "",
      "JPja": "{{reaction type=\"Intense\"}}{{kanjiReplace charNum=\"1\" value=\"つぎ\"}}次は　ゼッタイ\n{{kanjiReplace charNum=\"1\" value=\"ま\"}}負けないぞー！\n{{pause frames=\"5\"}}{{string value=\"Catchphrase\"}}！",
      "KRko": "{{reaction type=\"Intense\"}}{{kanjiReplace charNum=\"1\" value=\"つぎ\"}}次は　ゼッタイ\n{{kanjiReplace charNum=\"1\" value=\"ま\"}}負けないぞー！\n{{pause frames=\"5\"}}{{string value=\"Catchphrase\"}}！",
      "USen": ""
    }
  },
  {
    "label": "1",
    "attribute": "0x00070000FE000000",
    "locale": {
      "EUde": "",
      "EUen": "",
      "EUes": "",
      "EUfr": "",
      "EUit": "",
      "JPja": "{{reaction type=\"Distress\"}}{{kanjiReplace charNum=\"2\" value=\"きょう\"}}今日は　この{{kanjiReplace charNum=\"1\" value=\"へん\"}}辺で\nカンベンしてやるー！\n{{pause frames=\"5\"}}{{string value=\"Catchphrase\"}}！",
      "KRko": "{{reaction type=\"Distress\"}}{{kanjiReplace charNum=\"2\" value=\"きょう\"}}今日は　この{{kanjiReplace charNum=\"1\" value=\"へん\"}}辺で\nカンベンしてやるー！\n{{pause frames=\"5\"}}{{string value=\"Catchphrase\"}}！",
      "USen": ""
    }
  },
  {
    "label": "2",
    "attribute": "0x00070000FE000000",
    "locale": {
      "EUde": "",
      "EUen": "",
      "EUes": "",
      "EUfr": "",
      "EUit": "",
      "JPja": "{{reaction type=\"Joy\"}}{{kanjiReplace charNum=\"1\" value=\"たの\"}}楽しかったー！{{pause frames=\"10\"}}\nまた　やろうぜー！　{{pause frames=\"5\"}}{{string value=\"Catchphrase\"}}！",
      "KRko": "{{reaction type=\"Joy\"}}{{kanjiReplace charNum=\"1\" value=\"たの\"}}楽しかったー！{{pause frames=\"10\"}}\nまた　やろうぜー！　{{pause frames=\"5\"}}{{string value=\"Catchphrase\"}}！",
      "USen": ""
    }
  }
]