[
  {
    "label": "0",
    "attribute": "0x00000000FF000000",
    "locale": {
      "EUde": "{{reaction type=\"Shocked\"}}Du hast es geschafft?{{pause frames=\"10\"}} Heißt{{pause frames=\"3\"}}\ndas{{pause frames=\"5\"}}.{{pause frames=\"5\"}}.{{pause frames=\"5\"}}.{{pause frames=\"5\"}} Ich habe verloren?\n{{pause frames=\"5\"}}{{capitalizeLetter}}{{string value=\"Catchphrase\"}}?{{pause frames=\"20\"}} {{reaction type=\"Sorrow\"}}UAAAAAAAH!!!",
      "EUen": "{{reaction type=\"Shocked\"}}You got it already?!{{pause frames=\"10\"}} Y{{pause frames=\"3\"}}-you\nmean{{pause frames=\"5\"}}.{{pause frames=\"5\"}}.{{pause frames=\"5\"}}.{{pause frames=\"5\"}} I lose, {{pause frames=\"5\"}}{{string value=\"Catchphrase\"}}?{{pause frames=\"20\"}}\n{{reaction type=\"Sorrow\"}}WAAAAAAAAAAAAAAAH!!!",
      "EUes": "{{reaction type=\"Shocked\"}}¡¿Ya lo tienes?!{{pause frames=\"10\"}} ¿Eso{{pause frames=\"3\"}} quiere\ndecir{{pause frames=\"5\"}}.{{pause frames=\"5\"}}.{{pause frames=\"5\"}}.{{pause frames=\"5\"}} que pierdo?{{pause frames=\"20\"}}\n{{reaction type=\"Sorrow\"}}¡¡¡Ay, buuuuuaaaaaaah!!!",
      "EUfr": "{{reaction type=\"Shocked\"}}Tu as réussi?!{{pause frames=\"10\"}} Alors...{{pause frames=\"3\"}} j'ai\nperdu{{pause frames=\"5\"}}.{{pause frames=\"5\"}}.{{pause frames=\"5\"}}.{{pause frames=\"5\"}} Non, {{pause frames=\"5\"}}{{string value=\"Catchphrase\"}}?{{pause frames=\"20\"}}\n{{reaction type=\"Sorrow\"}}OUUUUAAAAAAAAAAAAAH!!!",
      "EUit": "{{reaction type=\"Shocked\"}}Ne hai già preso uno?!{{pause frames=\"10\"}}\nV{{pause frames=\"3\"}}-vuoi dire che{{pause frames=\"5\"}}.{{pause frames=\"5\"}}.{{pause frames=\"5\"}}.{{pause frames=\"5\"}} ho già\nperso, {{pause frames=\"5\"}}{{string value=\"Catchphrase\"}}?{{pause frames=\"20\"}}\n{{reaction type=\"Sorrow\"}}WAAAAAAAAAAAAAAAH!!!",
      "JPja": "{{reaction type=\"Shocked\"}}もう　{{kanjiReplace charNum=\"1\" value=\"も\"}}持ってきたんだ！{{pause frames=\"10\"}}\nそんじゃ　アタイの{{kanjiReplace charNum=\"1\" value=\"ま\"}}負けって\nコトー？　{{pause frames=\"5\"}}{{string value=\"Catchphrase\"}}？",
      "KRko": "{{reaction type=\"Shocked\"}}벌써 갖고 왔잖아！{{pause frames=\"10\"}}\n그럼 내가 졌다는\n뜻ー？ {{pause frames=\"5\"}}{{string value=\"Catchphrase\"}}？",
      "USen": "{{reaction type=\"Shocked\"}}You got it already?!{{pause frames=\"10\"}} Y{{pause frames=\"3\"}}-you\nmean{{pause frames=\"5\"}}.{{pause frames=\"5\"}}.{{pause frames=\"5\"}}.{{pause frames=\"5\"}} I lose, {{pause frames=\"5\"}}{{string value=\"Catchphrase\"}}?{{pause frames=\"20\"}}\n{{reaction type=\"Sorrow\"}}WAAAAAAAAAAAAAAAH!!!"
    }
  },
  {
    "label": "1",
    "attribute": "0x00000000FF000000",
    "locale": {
      "EUde": "{{resetReaction}}Was soll das heißen?{{pause frames=\"5\"}} \"Hier\"?{{pause frames=\"10\"}}\n{{reaction type=\"Shocked\"}}Du hast es geschafft?!?{{pause frames=\"10\"}}\nJETZT SCHON?!?\n{{reaction type=\"Sadness\"}}Du hast also gewonnen!{{pause frames=\"10\"}}\nSo ein Mist{{pause frames=\"5\"}}.{{pause frames=\"5\"}}.{{pause frames=\"5\"}}.{{pause frames=\"10\"}}\nM-I-S-T! {{capitalizeLetter}}{{string value=\"Catchphrase\"}}.",
      "EUen": "{{resetReaction}}Whattya mean,{{pause frames=\"5\"}} \"Here ya go\"?{{pause frames=\"10\"}}\n{{reaction type=\"Shocked\"}}You caught it?!{{pause frames=\"10\"}} ALREADY?!{{pause frames=\"15\"}}\nThat means you win...\n{{reaction type=\"Sadness\"}}Oh, like, wow.{{pause frames=\"10\"}} Bummer{{pause frames=\"5\"}}.{{pause frames=\"5\"}}.{{pause frames=\"5\"}}.{{pause frames=\"10\"}}\nB-U-M-M-E-R, {{string value=\"Catchphrase\"}}.",
      "EUes": "{{resetReaction}}¿Cómo que{{pause frames=\"5\"}} \"ya está\"?{{pause frames=\"10\"}}\n{{reaction type=\"Shocked\"}}¡¿Ya lo tienes?!{{pause frames=\"10\"}} ¡¿YA?!{{pause frames=\"15\"}}\nO sea, que tú ganas...\n{{reaction type=\"Sadness\"}}Oh, qué fatal.{{pause frames=\"10\"}} Qué rollo{{pause frames=\"5\"}}.{{pause frames=\"5\"}}.{{pause frames=\"5\"}}.{{pause frames=\"10\"}}\nNo lo soporto, {{string value=\"Catchphrase\"}}.",
      "EUfr": "{{resetReaction}}Ça veut dire quoi,{{pause frames=\"5\"}} \"C'est\nbon\"?{{pause frames=\"10\"}} {{reaction type=\"Shocked\"}}Tu as un poisson?!{{pause frames=\"10\"}}\nDEJA?!{{pause frames=\"15\"}} Alors tu as gagné...\n{{reaction type=\"Sadness\"}}Oh. Pfff.{{pause frames=\"10\"}} Rabat-joie{{pause frames=\"5\"}}.{{pause frames=\"5\"}}.{{pause frames=\"5\"}}.{{pause frames=\"10\"}}\nRA-BAT-JOIE, {{string value=\"Catchphrase\"}}.",
      "EUit": "{{resetReaction}}Che significa,{{pause frames=\"5\"}} \"Ecco fatto\"?{{pause frames=\"10\"}}\n{{reaction type=\"Shocked\"}}L'hai preso?!{{pause frames=\"10\"}} DI GIÀ?!{{pause frames=\"15\"}}\nMa allora hai vinto tu...\n{{reaction type=\"Sadness\"}}Oh, cioè, wow.{{pause frames=\"10\"}} Uffa{{pause frames=\"5\"}}.{{pause frames=\"5\"}}.{{pause frames=\"5\"}}.{{pause frames=\"10\"}}\nUFFA, UFFA,\nUFFA, {{string value=\"Catchphrase\"}}!!!",
      "JPja": "{{resetReaction}}えっ、{{pause frames=\"5\"}}\n「これどうぞ」って{{pause frames=\"5\"}}・{{pause frames=\"5\"}}・{{pause frames=\"5\"}}・\n{{reaction type=\"Shocked\"}}もう　つっちゃったのー？！{{pause frames=\"10\"}}\n{{reaction type=\"Worry\"}}ってコトは　アンタの{{kanjiReplace charNum=\"1\" value=\"か\"}}勝ちかー{{pause frames=\"20\"}}\nくやしーなー{{pause frames=\"5\"}}・{{pause frames=\"5\"}}・{{pause frames=\"5\"}}・{{pause frames=\"5\"}}{{string value=\"Catchphrase\"}}",
      "KRko": "{{resetReaction}}엇， {{pause frames=\"5\"}}\n「이거 가져」라니{{pause frames=\"5\"}}・{{pause frames=\"5\"}}・{{pause frames=\"5\"}}・\n{{reaction type=\"Shocked\"}}벌써 낚은 거야ー？！{{pause frames=\"10\"}}\n{{reaction type=\"Worry\"}}그렇다면 니가 이긴 거네 {{pause frames=\"20\"}}\n신경질나{{pause frames=\"5\"}}・{{pause frames=\"5\"}}・{{pause frames=\"5\"}}・{{pause frames=\"5\"}}{{string value=\"Catchphrase\"}}",
      "USen": "{{resetReaction}}Whattya mean,{{pause frames=\"5\"}} \"Here ya go\"?{{pause frames=\"10\"}}\n{{reaction type=\"Shocked\"}}You caught it?!{{pause frames=\"10\"}} ALREADY?!{{pause frames=\"15\"}}\nThat means you win...\n{{reaction type=\"Sadness\"}}Oh, like, wow.{{pause frames=\"10\"}} Bummer{{pause frames=\"5\"}}.{{pause frames=\"5\"}}.{{pause frames=\"5\"}}.{{pause frames=\"10\"}}\nB-U-M-M-E-R, {{string value=\"Catchphrase\"}}."
    }
  },
  {
    "label": "2",
    "attribute": "0x00000000FF000000",
    "locale": {
      "EUde": "{{reaction type=\"Amazed\"}}Oh,{{pause frames=\"5\"}} wow! Das ging aber\nschnell! {{pause frames=\"5\"}}{{capitalizeLetter}}{{string value=\"Catchphrase\"}}!\n\n{{reaction type=\"Distress\"}}Ich hätte nicht gedacht,\ndass du so schnell bist!{{pause frames=\"5\"}}\nDAS IST NICHT FAIR!",
      "EUen": "{{reaction type=\"Amazed\"}}Oh,{{pause frames=\"5\"}} wow! That was so fast,\n{{pause frames=\"5\"}}{{string value=\"Catchphrase\"}}!\n\n{{reaction type=\"Distress\"}}I never expected you to \nbe so speedy!{{pause frames=\"5\"}} NO FAIR!",
      "EUes": "{{reaction type=\"Amazed\"}}¡Oh,{{pause frames=\"5\"}} vaya! ¡Qué velocidad,\n{{pause frames=\"5\"}}{{string value=\"Catchphrase\"}}!\n\n{{reaction type=\"Distress\"}}¡No esperaba que ganaras\ntan pronto!{{pause frames=\"5\"}} ¡NO VALE!",
      "EUfr": "{{reaction type=\"Amazed\"}}Oh!{{pause frames=\"5\"}} Eh bah! Quelle rapidité,\n{{pause frames=\"5\"}}{{string value=\"Catchphrase\"}}!\n\n{{reaction type=\"Distress\"}}Je ne me serais jamais\ndoutée que tu étais si\nrapide!{{pause frames=\"5\"}} C'EST PAS JUSTE!",
      "EUit": "{{reaction type=\"Amazed\"}}Oh,{{pause frames=\"5\"}} wow! Che rapidità,\n{{pause frames=\"5\"}}{{string value=\"Catchphrase\"}}!\n\n{{reaction type=\"Distress\"}}Non credevo che fossi così\nveloce!{{pause frames=\"5\"}} NON È GIUSTO!",
      "JPja": "{{reaction type=\"Amazed\"}}あっ、{{pause frames=\"5\"}}\n{{kanjiReplace charNum=\"1\" value=\"はや\"}}早かったね！　{{pause frames=\"5\"}}{{string value=\"Catchphrase\"}}！\n\n{{reaction type=\"Distress\"}}こんな　{{kanjiReplace charNum=\"1\" value=\"はや\"}}早くつっちゃうなんて、{{pause frames=\"5\"}}\nサカナのハートを\nわしづかみ　しすぎだよー！",
      "KRko": "{{reaction type=\"Amazed\"}}앗，{{pause frames=\"5\"}}\n빠르네！ {{pause frames=\"5\"}}{{string value=\"Catchphrase\"}}！\n\n{{reaction type=\"Distress\"}}이렇게 빨리 낚다니{{pause frames=\"5\"}}\n물고기 마음을\n꿰뚫고 있는 거야ー？",
      "USen": "{{reaction type=\"Amazed\"}}Oh,{{pause frames=\"5\"}} wow! That was so fast,\n{{pause frames=\"5\"}}{{string value=\"Catchphrase\"}}!\n\n{{reaction type=\"Distress\"}}I never expected you to \nbe so speedy!{{pause frames=\"5\"}} NO FAIR!"
    }
  }
]