[
  {
    "label": "0",
    "attribute": "0x00000000FE000000",
    "locale": {
      "EUde": "{{reaction type=\"Happiness\"}}{{capitalizeLetter}}{{string value=\"PlayerNickname\"}},{{pause frames=\"10\"}} danke, dass du\nmich ertragen hast, als ich\nauf dem Klamottentrip war!\n{{reaction type=\"Joy\"}}Ich weiß das zu schätzen,\n{{pause frames=\"5\"}}{{string value=\"Catchphrase\"}}!\n\n{{reaction type=\"Happiness\"}}Und siehe da! Du hast mir\nso viele coole Sachen\ngebracht,\ndass ich nichts mehr\nbrauche!\n{{reaction type=\"Laughter\"}}{{capitalizeLetter}}{{string value=\"PlayerNickname\"}}, du bist\nDEFINITIV {{gender m=\"der\" f=\"die\"}} Modischste\nin {{string value=\"TownName\"}}!",
      "EUen": "{{reaction type=\"Happiness\"}}{{capitalizeLetter}}{{string value=\"PlayerNickname\"}},{{pause frames=\"10\"}} thanks for\nputting up with me while I\nwas on this clothing bender!\n{{reaction type=\"Joy\"}}I really appreciate it, \n{{pause frames=\"5\"}}{{string value=\"Catchphrase\"}}!\n\n{{reaction type=\"Happiness\"}}And guess what? You got me\nso many cool duds that I\ndon't need any more!\n{{reaction type=\"Laughter\"}}{{capitalizeLetter}}{{string value=\"PlayerNickname\"}}, you are\nDEFINITELY {{string value=\"TownName\"}}'s top\nfashionista!",
      "EUes": "{{reaction type=\"Happiness\"}}{{capitalizeLetter}}{{string value=\"PlayerNickname\"}},{{pause frames=\"10\"}} gracias por\naguantarme cuando estaba\ncon mis neuras de ropa.\n{{reaction type=\"Joy\"}}¡Te lo agradezco de verdad,\n{{pause frames=\"5\"}}{{string value=\"Catchphrase\"}}!\n\n{{reaction type=\"Happiness\"}}¿Sabes qué? ¡Me conseguiste\ntantas cosas estupendas\nque ya no necesito más!\n{{reaction type=\"Laughter\"}}{{capitalizeLetter}}{{string value=\"PlayerNickname\"}}, ¡eres\n{{gender m=\"el\" f=\"la\"}} mejor estilista de\n{{string value=\"TownName\"}}!",
      "EUfr": "{{reaction type=\"Happiness\"}}{{capitalizeLetter}}{{string value=\"PlayerNickname\"}},{{pause frames=\"10\"}} merci de\nm'avoir soutenue dans ma\nrecherche vestimentaire!\n{{reaction type=\"Joy\"}}Je suis très contente, \n{{pause frames=\"5\"}}{{string value=\"Catchphrase\"}}!\n{{reaction type=\"Happiness\"}}Tu sais quoi? Tu m'as\ntrouvé tellement d'habits\ngéniaux que je n'en ai\nplus besoin d'autres!\n{{reaction type=\"Laughter\"}}{{capitalizeLetter}}{{string value=\"PlayerNickname\"}}, {{string value=\"TownName\"}}\npeut compter sur toi en\nmatière de mode!",
      "EUit": "{{reaction type=\"Happiness\"}}{{capitalizeLetter}}{{string value=\"PlayerNickname\"}},{{pause frames=\"10\"}} grazie per\navermi sopportata durante\nla mia follia modaiola!\n{{reaction type=\"Joy\"}}Te ne sono davvero grata, \n{{pause frames=\"5\"}}{{string value=\"Catchphrase\"}}!\n\n{{reaction type=\"Happiness\"}}La sai una cosa? Mi hai\nportato così tanti abiti che\nsono a posto per un pezzo!\n{{reaction type=\"Laughter\"}}{{capitalizeLetter}}{{string value=\"PlayerNickname\"}}, sei davvero\nil GURU della moda di\n{{string value=\"TownName\"}}!",
      "JPja": "{{reaction type=\"Happiness\"}}{{string value=\"PlayerNickname\"}}さん、{{pause frames=\"10\"}}{{kanjiReplace charNum=\"1\" value=\"いま\"}}今まで\nわたしの　ファッションブームに\nつきあって　いただいて、\n{{reaction type=\"Joy\"}}{{kanjiReplace charNum=\"1\" value=\"ほん\"}}本{{kanjiReplace charNum=\"1\" value=\"とう\"}}当に　ありがとう\nございました、{{pause frames=\"5\"}}{{string value=\"Catchphrase\"}}！\n\n{{reaction type=\"Happiness\"}}さまざまな{{kanjiReplace charNum=\"1\" value=\"ふく\"}}服を\n{{kanjiReplace charNum=\"1\" value=\"えら\"}}選んでいただいて、{{pause frames=\"5\"}}\nもう　すっかり{{kanjiReplace charNum=\"1\" value=\"まん\"}}満{{kanjiReplace charNum=\"1\" value=\"ぞく\"}}足です\n{{reaction type=\"Laughter\"}}{{string value=\"PlayerNickname\"}}さんは\n{{string value=\"TownName\"}}{{kanjiReplace charNum=\"1\" value=\"むら\"}}村　{{kanjiReplace charNum=\"2\" value=\"いちばん\"}}一番の\n{{kanjiReplace charNum=\"1\" value=\"ふく\"}}服そうコーディネーターですね！",
      "KRko": "{{reaction type=\"Happiness\"}}{{string value=\"PlayerNickname\"}}님， {{pause frames=\"10\"}}지금까지\n패션에 빠져 있던 저와\n함께 놀아 주셔서\n{{reaction type=\"Joy\"}}정말로 감사합니다！！\n{{pause frames=\"5\"}}{{string value=\"Catchphrase\"}}！\n\n{{reaction type=\"Happiness\"}}다양한 옷을\n골라 주셔서{{pause frames=\"5\"}}\n전 정말 만족해요\n{{reaction type=\"Laughter\"}}{{string value=\"PlayerNickname\"}}님은\n{{string value=\"TownName\"}} 마을 최고의\n코디네이터예요！！！",
      "USen": "{{reaction type=\"Happiness\"}}{{capitalizeLetter}}{{string value=\"PlayerNickname\"}},{{pause frames=\"10\"}} thanks for\nputting up with me while I\nwas on this clothing bender!\n{{reaction type=\"Joy\"}}I really appreciate it, \n{{pause frames=\"5\"}}{{string value=\"Catchphrase\"}}!\n\n{{reaction type=\"Happiness\"}}And guess what? You got me\nso many cool duds that I\ndon't need any more!\n{{reaction type=\"Laughter\"}}{{capitalizeLetter}}{{string value=\"PlayerNickname\"}}, you are\nDEFINITELY {{string value=\"TownName\"}}'s top\nfashionista!"
    }
  },
  {
    "label": "1",
    "attribute": "0x00000000FE000000",
    "locale": {
      "EUde": "{{reaction type=\"Happiness\"}}{{capitalizeLetter}}{{string value=\"PlayerNickname\"}},{{pause frames=\"10\"}} vielen Dank,\ndass du all meine neuen\nKlamotten ausgesucht hast!\n{{resetReaction}}Dank dir habe ich jetzt\neinen viel feineren\nModegeschmack, {{pause frames=\"5\"}}{{string value=\"Catchphrase\"}}!\n{{reaction type=\"Worry\"}}Aaaber{{pause frames=\"5\"}}.{{pause frames=\"5\"}}.{{pause frames=\"5\"}}. ich bin müde vom\nAnprobieren,{{pause frames=\"10\"}} {{resetReaction}}{{reaction type=\"Joy\"}}deshalb mache\nich eine Pause.\n{{resetReaction}}{{reaction type=\"Glee\"}}Aber ich schulde dir was!\nIrgendwann kaufe ich dir\nmal einen Kleiderschrank!",
      "EUen": "{{reaction type=\"Happiness\"}}{{string value=\"PlayerNickname\"}},{{pause frames=\"10\"}} thank you so\nmuch for picking out all\nmy new clothes!\n{{resetReaction}}Thanks to you, I now have \na well-honed sense of\nfashion, {{pause frames=\"5\"}}{{string value=\"Catchphrase\"}}!\n{{reaction type=\"Worry\"}}Buuuut{{pause frames=\"5\"}}.{{pause frames=\"5\"}}.{{pause frames=\"5\"}}. I'm a little tired\nof dressing up,{{pause frames=\"10\"}} {{resetReaction}}{{reaction type=\"Joy\"}}so I'm\ngoing to take a break.\n{{resetReaction}}{{reaction type=\"Glee\"}}But I owe you big-time!\nSomeday I'll have to buy\nyou a new wardrobe!",
      "EUes": "{{reaction type=\"Happiness\"}}¡{{string value=\"PlayerNickname\"}},{{pause frames=\"10\"}} gracias por\nelegirme toda mi ropa\nnueva!\n{{resetReaction}}¡Gracias a ti, desarrollé mi\nsentido de la estética y la\nmoda, {{pause frames=\"5\"}}{{string value=\"Catchphrase\"}}!\n{{reaction type=\"Worry\"}}Peeero{{pause frames=\"5\"}}.{{pause frames=\"5\"}}.{{pause frames=\"5\"}}. estoy un poco\nharta de arreglarme tanto.{{pause frames=\"10\"}}{{resetReaction}}\n{{reaction type=\"Joy\"}}Voy a descansar un tiempo.\n{{resetReaction}}{{reaction type=\"Glee\"}}¡Eso sí, te debo un favor!\n¡Un día te compraré todo un\narmario nuevo!",
      "EUfr": "{{reaction type=\"Happiness\"}}{{string value=\"PlayerNickname\"}},{{pause frames=\"10\"}} merci d'avoir\nchoisi mes nouveaux\nvêtements!\n{{resetReaction}}Grâce à toi, je suis à la\nmode, {{pause frames=\"5\"}}{{string value=\"Catchphrase\"}}!\n{{reaction type=\"Worry\"}}Maiiiis{{pause frames=\"5\"}}.{{pause frames=\"5\"}}.{{pause frames=\"5\"}}. j'en ai un peu\nassez de m'habiller chic.{{pause frames=\"10\"}} {{resetReaction}}{{reaction type=\"Joy\"}} \nJe vais faire une pause.\n{{resetReaction}}{{reaction type=\"Glee\"}}Je te dois une fière\nchandelle! Un jour, je\nt'achèterai une nouvelle\ngarde-robe!",
      "EUit": "{{reaction type=\"Happiness\"}}{{capitalizeLetter}}{{string value=\"PlayerNickname\"}},{{pause frames=\"10\"}} grazie per\naver scelto così tanti\nvestiti nuovi per me!\n{{resetReaction}}Grazie a te, ora ho\nsviluppato anch'io un gusto\nraffinato, {{pause frames=\"5\"}}{{string value=\"Catchphrase\"}}!\n{{reaction type=\"Worry\"}}Ma{{pause frames=\"5\"}}.{{pause frames=\"5\"}}.{{pause frames=\"5\"}}. mi sono stufata di\nandare in giro vestita\nall'ultimo grido.{{pause frames=\"10\"}} {{resetReaction}}{{reaction type=\"Joy\"}}Ora basta.\n{{resetReaction}}{{reaction type=\"Glee\"}}Ma mi ricorderò del tuo\naiuto e un giorno ti\nrifarò tutto il guardaroba!",
      "JPja": "{{reaction type=\"Happiness\"}}{{string value=\"PlayerNickname\"}}さん、{{pause frames=\"10\"}}\n{{kanjiReplace charNum=\"1\" value=\"いま\"}}今まで　いろんな{{kanjiReplace charNum=\"1\" value=\"ふく\"}}服を\n{{kanjiReplace charNum=\"1\" value=\"えら\"}}選んでくれて　ありがとう\n{{resetReaction}}おかげさまで　すっかり\nファッションセンスにも\n{{kanjiReplace charNum=\"2\" value=\"じしん\"}}自信が　{{kanjiReplace charNum=\"1\" value=\"も\"}}持てました、{{pause frames=\"5\"}}{{string value=\"Catchphrase\"}}\n{{reaction type=\"Worry\"}}でも、ちょっとだけ\nおしゃれするのも\nつかれちゃった{{pause frames=\"5\"}}・{{pause frames=\"5\"}}・{{pause frames=\"5\"}}・\n{{reaction type=\"Happiness\"}}これからは\nふつうの　{{kanjiReplace charNum=\"1\" value=\"おんな\"}}女の{{kanjiReplace charNum=\"1\" value=\"こ\"}}子に\nもどりますね、{{pause frames=\"5\"}}{{string value=\"Catchphrase\"}}！\n{{reaction type=\"Glee\"}}{{string value=\"PlayerNickname\"}}さん、{{pause frames=\"10\"}}\n{{kanjiReplace charNum=\"1\" value=\"いま\"}}今まで　{{kanjiReplace charNum=\"1\" value=\"て\"}}手{{kanjiReplace charNum=\"1\" value=\"だす\"}}助けしてくださって{{pause frames=\"5\"}}\nどうも　ありがとうございました！",
      "KRko": "{{reaction type=\"Happiness\"}}{{string value=\"PlayerNickname\"}}님{{pause frames=\"10\"}}\n지금까지 여러 가지 옷을\n골라 주셔서 감사합니다\n{{resetReaction}}덕분에 이제는\n제 패션에 자신감이\n생겼어요！ {{pause frames=\"5\"}}{{string value=\"Catchphrase\"}}\n{{reaction type=\"Worry\"}}하지만 이제는\n멋 내는 것도\n지쳤어요{{pause frames=\"5\"}}・{{pause frames=\"5\"}}・{{pause frames=\"5\"}}・\n{{reaction type=\"Happiness\"}}지금부터는\n평범한 여자로\n돌아갈래요， {{pause frames=\"5\"}}{{string value=\"Catchphrase\"}}！\n{{reaction type=\"Glee\"}}{{string value=\"PlayerNickname\"}}님！{{pause frames=\"10\"}}\n지금까지 도와주셔서{{pause frames=\"5\"}}\n정말 감사합니다！",
      "USen": "{{reaction type=\"Happiness\"}}{{string value=\"PlayerNickname\"}},{{pause frames=\"10\"}} thank you so\nmuch for picking out all\nmy new clothes!\n{{resetReaction}}Thanks to you, I now have \na well-honed sense of\nfashion, {{pause frames=\"5\"}}{{string value=\"Catchphrase\"}}!\n{{reaction type=\"Worry\"}}Buuuut{{pause frames=\"5\"}}.{{pause frames=\"5\"}}.{{pause frames=\"5\"}}. I'm a little tired\nof dressing up,{{pause frames=\"10\"}} {{resetReaction}}{{reaction type=\"Joy\"}}so I'm\ngoing to take a break.\n{{resetReaction}}{{reaction type=\"Glee\"}}But I owe you big-time!\nSomeday I'll have to buy\nyou a new wardrobe!"
    }
  }
]