[
  {
    "label": "00",
    "attribute": "",
    "locale": {
      "EUde": "Ich bins! Weißt du noch?\nICH! Ja, dachte ich mir!\n",
      "EUen": "It's me! Remember? ME!\nYeah, I thought you would!\n",
      "EUes": "¡Soy yo! ¿Te acuerdas de\nmí? ¡Sí, por supuesto!\n",
      "EUfr": "C'est moi! Tu te souviens?\nOui, j'en étais sûr!\n",
      "EUit": "Sono io, ti ricordi? IO!\nMa certo che ti ricordi!\n",
      "JPja": "ボクだよ　ボクぅ！\nいわなくても　わかるよねぇ？\n",
      "KRko": "나야 나！\n말 안해도 알지이？\n",
      "USen": "It's me! Remember? ME!\nYeah, I thought you would!\n"
    }
  },
  {
    "label": "01",
    "attribute": "",
    "locale": {
      "EUde": "Ich bins! Hatte ich neulich\neinen Spaß!\n",
      "EUen": "It's me! You know, I had a\nblast the other day!\n",
      "EUes": "¡Soy yo! ¡Me mudé hace\nbien poquito!\n",
      "EUfr": "C'est moi! J'ai bien\nrigolé l'autre jour!\n",
      "EUit": "Sono io! L'altro giorno\nmi sono proprio divertito!\n",
      "JPja": "ボクのこと　おぼえてる？\nこないだは　たのしかったねぇ\n",
      "KRko": "나 기억하지이～？\n저번엔 정말 재밌었어\n",
      "USen": "It's me! You know, I had a\nblast the other day!\n"
    }
  },
  {
    "label": "02",
    "attribute": "",
    "locale": {
      "EUde": "Magst du {{ignoreArticle}}{{string index=\"8\"}}? \nHast du mich verstanden?\n",
      "EUen": "Did you like {{string index=\"8\"}}?\nDid you get what I meant?\n",
      "EUes": "¿Te gustó {{string index=\"8\"}}?\n¿Entiendes la pregunta?\n",
      "EUfr": "T'as aimé {{string index=\"8\"}}? T'as\ncompris ce que je disais?\n",
      "EUit": "Ti è piaciuta {{string index=\"8\"}}?\nHai capito cosa intendevo?\n",
      "JPja": "{{string index=\"8\"}}むら、どうだった？\nボクのキモチ　つたわったかなぁ！",
      "KRko": "{{string index=\"8\"}} 마을은 어땠어？\n내 맘은 전해졌을까아！\n",
      "USen": "Did you like {{string index=\"8\"}}?\nDid you get what I meant?\n"
    }
  },
  {
    "label": "03",
    "attribute": "",
    "locale": {
      "EUde": "Danke für neulich! Das war\nwirklich sehr lustig!\n",
      "EUen": "Thanks for the other day!\nIt was really fun!\n",
      "EUes": "¡Gracias por lo del otro\ndía! ¡Me lo pasé pipa!\n",
      "EUfr": "Merci pour l'autre jour!\nC'était vraiment sympa!\n",
      "EUit": "Grazie per l'altro giorno!\nMi sono proprio divertito!\n",
      "JPja": "こないだは　ありがとうねぇ、\nおかげで　たのしかったよぉ～\n",
      "KRko": "저번엔 고마웠어～！\n덕분에 즐거웠지 뭐야～\n",
      "USen": "Thanks for the other day!\nIt was really fun!\n"
    }
  },
  {
    "label": "04",
    "attribute": "",
    "locale": {
      "EUde": "Seit ich dich sah, mag ich\n{{ignoreArticle}}{{string index=\"5\"}}!\n",
      "EUen": "Since I saw you, I've been\ninto {{string index=\"5\"}}!\n",
      "EUes": "¡Últimamente no paro de\nbeber {{ignoreArticle}}{{string index=\"5\"}}!\n",
      "EUfr": "Depuis notre rencontre, \nje bois {{string index=\"5\"}}!\n",
      "EUit": "Da quando ti ho visto\nbevo {{string index=\"5\"}}!\n",
      "JPja": "こんにちは！　あれから　まいにち{{string index=\"5\"}}をのんでるよぉ\n",
      "KRko": "안녕！ 난 그때 이후로 줄곧\n{{string index=\"5\"}}만 마셔～\n",
      "USen": "Since I saw you, I've been\ninto {{string index=\"5\"}}!\n"
    }
  },
  {
    "label": "05",
    "attribute": "",
    "locale": {
      "EUde": "Manchmal schreibe ich \nlieber statt zu reden.\n",
      "EUen": "Sometimes I like writing\nletters more than talking.\n",
      "EUes": "A veces prefiero escribir\ncartas que charlar.\n",
      "EUfr": "Parfois je préfère écrire\nque parler.\n",
      "EUit": "A volte, preferisco\nscrivere più che parlare.\n",
      "JPja": "おてがみ　かくのなんて　ボクにはあさめしまえだよぉ！\n",
      "KRko": "편지 쓰는 것 정도야\n나한텐 누워서 떡 먹기지～！\n",
      "USen": "Sometimes I like writing\nletters more than talking.\n"
    }
  },
  {
    "label": "06",
    "attribute": "",
    "locale": {
      "EUde": "Okay! In was für einer \nStadt lebst du?\n",
      "EUen": "All right! What kind of\ntown do you live in?\n",
      "EUes": "¿Y bien? ¿En qué tipo de\npueblo vives ahora?\n",
      "EUfr": "Bien! Dans quel type\nde ville vis-tu?\n",
      "EUit": "Va bene, in che tipo\ndi città vivi?\n",
      "JPja": "わぁい！　そっちのむらは\nどんなカンジなのぉ？\n",
      "KRko": "야～호！ 그쪽 마을\n분위기는 어때？？\n",
      "USen": "All right! What kind of\ntown do you live in?\n"
    }
  },
  {
    "label": "07",
    "attribute": "",
    "locale": {
      "EUde": "Wie gehts? Ich bin hung-\nrig, aber das ständig!\n",
      "EUen": "How are you? I'm hungry,\nbut I'm always hungry!\n",
      "EUes": "¿Cómo andas? Yo tengo\nhambre. Para variar.\n",
      "EUfr": "Comment tu vas? J'ai\nfaim, j'ai toujours faim!\n",
      "EUit": "Come stai? Io ho fame,\nsempre!\n",
      "JPja": "ちょうしは　どう？　ボクは\nあいかわらず　ハラペコだよぉ～\n",
      "KRko": "요샌 컨디션이 어때？\n난 여전히 배쫄쫄이야아～～\n",
      "USen": "How are you? I'm hungry,\nbut I'm always hungry!\n"
    }
  },
  {
    "label": "08",
    "attribute": "",
    "locale": {
      "EUde": "Hast du heimgefunden, \nohne dich zu verlaufen?\n",
      "EUen": "Were you able to get home\nwithout getting lost?\n",
      "EUes": "¿Pudiste llegar a casa sin\nperderte por el camino?\n",
      "EUfr": "T'as réussi à rentrer\nsans te perdre?\n",
      "EUit": "Hai fatto ritorno a casa\nsenza perderti?\n",
      "JPja": "まっすぐかえれた？　まいごに\nなってなきゃ　いいけどねぇ\n",
      "KRko": "잘 돌아갔어？\n설마 미아가 된건 아니지？\n",
      "USen": "Were you able to get home\nwithout getting lost?\n"
    }
  },
  {
    "label": "09",
    "attribute": "",
    "locale": {
      "EUde": "Ich will deine Stadt be-\nsuchen, wo sind die Züge?\n",
      "EUen": "I want to visit your town,\nbut where are the trains?\n",
      "EUes": "Quiero visitarte, pero el\ntren no llega hasta aquí.\n",
      "EUfr": "Je veux te rendre visite,\nmais par quel train?\n",
      "EUit": "Vorrei venire nella tua\ncittà, ma su quale treno?\n",
      "JPja": "キミのむらに　いきたいけど、\nでんしゃが　ないんだよねぇ～\n",
      "KRko": "너네 마을에 가고는 싶은데\n전철이 없어서 못 가～～\n",
      "USen": "I want to visit your town,\nbut where are the trains?\n"
    }
  },
  {
    "label": "10",
    "attribute": "",
    "locale": {
      "EUde": "Ich freue mich schon auf \ndeinen nächsten Besuch! \n",
      "EUen": "I can't wait until your\nnext visit. It'll be fun!\n",
      "EUes": "Estoy deseando que\nvuelvas. ¡Será guay!\n",
      "EUfr": "J'ai hâte de recevoir ta\nvisite. Ça va être super!\n",
      "EUit": "Non vedo l'ora che\ntorni. Ci divertiremo!\n",
      "JPja": "こんど　あそびにくるのは　いつ？ボク、まちきれないよぉ～！\n",
      "KRko": "담엔 언제 놀러올꺼야아？？\n내가 성격이 좀 급해서～！\n",
      "USen": "I can't wait until your\nnext visit. It'll be fun!\n"
    }
  },
  {
    "label": "11",
    "attribute": "",
    "locale": {
      "EUde": "Ich hoffte, du würdest \nheute wiederkommen!\n",
      "EUen": "I was hoping that you'd\nvisit me again today!\n",
      "EUes": "¡Esperaba que vinieras\nhoy otra vez!\n",
      "EUfr": "J'espérais te revoir\naujourd'hui!\n",
      "EUit": "Speravo in un'altra\ntua visita oggi!\n",
      "JPja": "きょうも　くるかなぁって\nボク、まってたんだよぉ～！\n",
      "KRko": "오늘은 오겠지～ 하고\n기다렸는데～！！\n",
      "USen": "I was hoping that you'd\nvisit me again today!\n"
    }
  },
  {
    "label": "12",
    "attribute": "",
    "locale": {
      "EUde": "Ich bins! Erinnerst du \ndich? Bin immer direkt.\n",
      "EUen": "It's me! Remember me?\nSorry to be so forward.\n",
      "EUes": "¡Soy yo! ¿Te acuerdas?\nSiento ser tan directo.\n",
      "EUfr": "C'est moi! Tu te souviens?\nPardon d'être direct.\n",
      "EUit": "Sono io! Ti ricordi?\nSpero di non disturbare.\n",
      "JPja": "わぁい、{{string index=\"0\"}}くん！\nボクだよぉ～、おぼえてる？\n",
      "KRko": "야호！ {{string index=\"0\"}}！\n나야 나～ 기억하지～？\n",
      "USen": "It's me! Remember me?\nSorry to be so forward.\n"
    }
  },
  {
    "label": "13",
    "attribute": "",
    "locale": {
      "EUde": "Wir sollten uns wieder \ntreffen. Wir hatten Spaß.\n",
      "EUen": "We should hang out again.\nI had fun last time.\n",
      "EUes": "¿Por qué no nos vemos de\nnuevo? Me lo pasé genial.\n",
      "EUfr": "On devrait se revoir.\nJ'ai bien ri l'autre fois.\n",
      "EUit": "Rivediamoci! Mi sono\ndivertito l'altra volta.\n",
      "JPja": "キミのことを　おもいだすと、\nむねが　キュンキュンするよぉ～\n",
      "KRko": "널 생각하면 \n맘이 짠해져어～\n",
      "USen": "We should hang out again.\nI had fun last time.\n"
    }
  },
  {
    "label": "14",
    "attribute": "",
    "locale": {
      "EUde": "Wenn du nicht da bist,\nwerde ich so hungrig!\n",
      "EUen": "When you're not here, I\nget so lonely...and hungry!\n",
      "EUes": "Si no estás, me siento\nsolo. ¡Y me entra hambre!\n",
      "EUfr": "Quand tu n'es pas là, je\nme sens seul... et affamé!\n",
      "EUit": "Quando non ci sei, sono\ncosì triste... e affamato!\n",
      "JPja": "キミがいないと　さみしくってぇ\nボク、たべすぎちゅういほうだよぉ",
      "KRko": "너가 없는 동안 외로워서～\n과식주의보가 발령됐어～\n",
      "USen": "When you're not here, I\nget so lonely...and hungry!\n"
    }
  },
  {
    "label": "15",
    "attribute": "",
    "locale": {
      "EUde": "Versprich mir, dass du \nmich bald wieder besuchst!\n",
      "EUen": "Promise me that you'll\ncome visit me soon!\n",
      "EUes": "¡Prométeme que vendrás\npronto a visitarme!\n",
      "EUfr": "Promets-moi de venir\nme voir bientôt!\n",
      "EUit": "Promettimi che tornerai\npresto a trovarmi!\n",
      "JPja": "{{string index=\"0\"}}くぅん！　また\nきてくれるって　ヤクソクしてよぉ",
      "KRko": "{{string index=\"0\"}}{{fun_0B arg=\"0x0400\"}}！！\n또 와 준다고 약속해～！\n",
      "USen": "Promise me that you'll\ncome visit me soon!\n"
    }
  }
]