[
  {
    "label": "00",
    "attribute": "",
    "locale": {
      "EUde": "Wie gehts, wie stehts?\nMir gehts supi!\n",
      "EUen": "So...whatcha been up to?\nMe? I've been great!\n",
      "EUes": "Bueno, ¿qué tal todo?\n¡Yo, estupendamente!\n",
      "EUfr": "Alors... quoi de neuf?\nMoi? C'est la forme!\n",
      "EUit": "Allora... come stai?\nIo? Io sto benissimo!\n",
      "JPja": "あれから　どうしてるのかな？\nアタイは　げんきだよ！\n",
      "KRko": "그 후로 어떻게 지내？\n난 잘 지내！\n",
      "USen": "So...whatcha been up to?\nMe? I've been great!\n"
    }
  },
  {
    "label": "01",
    "attribute": "",
    "locale": {
      "EUde": "Seit du weg bist, habe ich\nviel Obst gegessen.\n",
      "EUen": "I've been eating a lot of\nfruit since you left.\n",
      "EUes": "Últimamente como mucha\nfruta, es más sano.\n",
      "EUfr": "Depuis ton départ, je\nmange beaucoup de fruits.\n",
      "EUit": "Ho mangiato tantissima\nfrutta dalla tua partenza.\n",
      "JPja": "あのときから　アタイ、\nダイエットの　まいにちだよ！\n",
      "KRko": "그때 이후로 나，\n매일 다이어트하고 있어！\n",
      "USen": "I've been eating a lot of\nfruit since you left.\n"
    }
  },
  {
    "label": "02",
    "attribute": "",
    "locale": {
      "EUde": "Schön hier, oder? Ich will\nauch mal in deine Stadt!\n",
      "EUen": "How did you like our fair\ntown? I wanna see yours!\n",
      "EUes": "¿Te gustó nuestro pueblo?\n¡Quiero ir a ver el tuyo!\n",
      "EUfr": "As-tu aimé notre ville?\nJ'aimerais voir la tienne!\n",
      "EUit": "Ti è piaciuta la nostra\ncittà? Mostrami la tua!\n",
      "JPja": "こっちのむらは　どうだった？\nアタイもそっちに　いきたいな！\n",
      "KRko": "우리 마을은 어땠니？\n나도 너네 마을에 갈래！\n",
      "USen": "How did you like our fair\ntown? I wanna see yours!\n"
    }
  },
  {
    "label": "03",
    "attribute": "",
    "locale": {
      "EUde": "Dein Lächeln ist so krass,\ndass ich oft daran denke!\n",
      "EUen": "When I feel sleepy, I think\nof your face to wake up!\n",
      "EUes": "Si tengo sueño, ¡pienso en\nti y me despierto toda!\n",
      "EUfr": "Quand je suis fatiguée, je\npense à toi!\n",
      "EUit": "Quando ho sonno, penso al\ntuo viso per svegliarmi!\n",
      "JPja": "アンタのえがお　キョーレツすぎておきぬけに　おもいだしちゃう！\n",
      "KRko": "네 미소가 너무 강렬해서\n아침에 눈뜰 때마다 생각나！\n",
      "USen": "When I feel sleepy, I think\nof your face to wake up!\n"
    }
  },
  {
    "label": "04",
    "attribute": "",
    "locale": {
      "EUde": "Dein Lächeln ist irgend-\nwie schaurig, weißt du?\n",
      "EUen": "That smirk of yours is\nkind of scary, you know.\n",
      "EUes": "Sabes, esa sonrisa que\ntienes da como miedo.\n",
      "EUfr": "Ton sourire satisfait est\nassez effrayant, tu sais.\n",
      "EUit": "Quel tuo sorriso mi\nspaventa un po', sai?\n",
      "JPja": "あいかわらず　ニヤけたスマイル\nふりまいてるのかな？\n",
      "KRko": "여전히 상큼한\n미소를 짓고 있니？\n",
      "USen": "That smirk of yours is\nkind of scary, you know.\n"
    }
  },
  {
    "label": "05",
    "attribute": "",
    "locale": {
      "EUde": "Hier ist alles beim Alten.\nUnd ich finde das SPITZI!\n",
      "EUen": "Nothing's changed here,\nand that's A-OK with me!\n",
      "EUes": "Aquí todo sigue igual,\n¡y a mí me parece genial!\n",
      "EUfr": "Rien n'a changé ici et \nça me convient très bien!\n",
      "EUit": "Non è cambiato niente qui,\ne a me sta bene così!\n",
      "JPja": "アタイは　あいかわらず\nひとりで　もりあがってるよー！\n",
      "KRko": "난 변함없이 혼자서\n신나게 놀고 있어ー！\n",
      "USen": "Nothing's changed here,\nand that's A-OK with me!\n"
    }
  },
  {
    "label": "06",
    "attribute": "",
    "locale": {
      "EUde": "Hal-lo! Was gibts Neues?\nIch bins! ICH!\n",
      "EUen": "Hi-ho! What's new? It's\nme! You know, ME!\n",
      "EUes": "¿Qué te cuentas? Soy yo.\n¿No sabes? ¡Yo, la diva!\n",
      "EUfr": "Hé! Quoi de neuf? C'est\nmoi! Tu sais, MOI!\n",
      "EUit": "Ciao! Come va? Sono\nio! Dai, hai capito, IO!\n",
      "JPja": "やっほー！　げんきぃ？\nアタイよ　アタイ！\n",
      "KRko": "야호ー！ 안녕？\n나야 나！\n",
      "USen": "Hi-ho! What's new? It's\nme! You know, ME!\n"
    }
  },
  {
    "label": "07",
    "attribute": "",
    "locale": {
      "EUde": "Falls du das liest, bist du\nheil nach Hause gekommen.\n",
      "EUen": "If you're reading this, it\nmeans you got home safe!\n",
      "EUes": "Si lees esto, ¡quiere decir\nque llegaste bien a casa!\n",
      "EUfr": "Si tu lis ceci, ça veut\ndire que tu vas bien!\n",
      "EUit": "Se stai leggendo questa,\nvuol dire che sei a casa!\n",
      "JPja": "これを　よんでるってコトは\nひとりで　かえれたんだね！\n",
      "KRko": "이걸 읽고 있다는 건 혼자\n집에 잘 갔다는 거겠지！\n",
      "USen": "If you're reading this, it\nmeans you got home safe!\n"
    }
  },
  {
    "label": "08",
    "attribute": "",
    "locale": {
      "EUde": "Zu Hause findest du es\ndoch am schönsten, was?\n",
      "EUen": "I guess you're happiest at\nhome after all?\n",
      "EUes": "Supongo que estás mejor\nen tu propia casa, ¿no?\n",
      "EUfr": "Je crois que tu te sens\nmieux chez toi, non?\n",
      "EUit": "Scommetto che a casa tua\nti trovi benissimo, eh?\n",
      "JPja": "やっぱり　じぶんのおうちが\nイチバンなのかな？\n",
      "KRko": "역시 자기 집이\n제일이지？\n",
      "USen": "I guess you're happiest at\nhome after all?\n"
    }
  },
  {
    "label": "09",
    "attribute": "",
    "locale": {
      "EUde": "Ich tanze ständig zu\n{{string index=\"2\"}}! Yeah!\n",
      "EUen": "I dance to {{string index=\"2\"}}\nall the time! WAHOOOO!\n",
      "EUes": "¡Bailo {{string index=\"2\"}}\ntodo el rato! ¡Yupiiiiiii!\n",
      "EUfr": "{{capitalizeLetter}}{{string index=\"2\"}}, c'est\nsuper pour danser! WAOUH!\n",
      "EUit": "Ascolto sempre musica\n{{string index=\"2\"}}! WAHOOOO!\n",
      "JPja": "ダイエットはじめたよ！　そのなも{{string index=\"2\"}}ダイエット！\n",
      "KRko": "다이어트 시작했어！ 바로\n{{string index=\"2\"}} 다이어트！\n",
      "USen": "I dance to {{string index=\"2\"}}\nall the time! WAHOOOO!\n"
    }
  },
  {
    "label": "10",
    "attribute": "",
    "locale": {
      "EUde": "Mist! Es ist SO langweilig\nhier ohne dich!\n",
      "EUen": "Dang it! It's boring here\nwithout you! BO-RING!\n",
      "EUes": "Es un rollo supremo estar\naquí sin ti... ¡Un ROLLO!\n",
      "EUfr": "Mince! Je m'ennuie\nsans toi! VRAIMENT!\n",
      "EUit": "UFFA! Che noia senza di\nte! CHE NOIA!\n",
      "JPja": "ぶっちゃけ　アンタがいないと\nもりあがんないよー！\n",
      "KRko": "솔직히 너 없으면\n재미없어ー！\n",
      "USen": "Dang it! It's boring here\nwithout you! BO-RING!\n"
    }
  },
  {
    "label": "11",
    "attribute": "",
    "locale": {
      "EUde": "Du vermisst mich, oder?\nIch wusste es!\n",
      "EUen": "You miss me tons, don't\nyou? I knew it!\n",
      "EUes": "Me echas mucho de menos,\n¿a que sí? ¡Lo sabía!\n",
      "EUfr": "Je te manque beaucoup,\nnon? Je le savais!\n",
      "EUit": "Ti manco, vero?\nLo sapevo!\n",
      "JPja": "そろそろ　アタイに\nあいたくなってきたんじゃない？\n",
      "KRko": "솔직히 너 요즘\n나 보고 싶지 않아？\n",
      "USen": "You miss me tons, don't\nyou? I knew it!\n"
    }
  },
  {
    "label": "12",
    "attribute": "",
    "locale": {
      "EUde": "Ich denk an dich,\n{{string index=\"0\"}}!\n",
      "EUen": "I have something to say.\nTell {{string index=\"0\"}}, OK?\n",
      "EUes": "Tengo algo que decir.\nDíselo a {{string index=\"0\"}}.\n",
      "EUfr": "J'ai quelque chose à dire.\nPréviens {{string index=\"0\"}}, OK?\n",
      "EUit": "Ho qualcosa da dire.\nDillo a {{string index=\"0\"}}, OK?\n",
      "JPja": "アタイの　この　おもい、\n{{string index=\"0\"}}ちゃんに　とどけ！\n",
      "KRko": "나의 이런 마음\n{{string index=\"0\"}}에게！\n",
      "USen": "I have something to say.\nTell {{string index=\"0\"}}, OK?\n"
    }
  },
  {
    "label": "13",
    "attribute": "",
    "locale": {
      "EUde": "Ich werde die schöne Zeit\nmit dir nicht vergessen!\n",
      "EUen": "I still haven't forgotten\nyou! Come visit again, OK?\n",
      "EUes": "¡Todavía me acuerdo de ti!\nVuelve a venir, ¿vale?\n",
      "EUfr": "J'aimerais bien te voir!\nRends-moi visite, ok?\n",
      "EUit": "Non ti ho ancora\ndimenticato! Torna, OK?\n",
      "JPja": "アンタとの　おもいで\nずっと　わすれないんだから！\n",
      "KRko": "너와 함께했던 추억\n절대 잊지 않을게！\n",
      "USen": "I still haven't forgotten\nyou! Come visit again, OK?\n"
    }
  },
  {
    "label": "14",
    "attribute": "",
    "locale": {
      "EUde": "Hallo! {{capitalizeLetter}}{{string index=\"0\"}}!\nLass dich nicht hängen!\n",
      "EUen": "Hello! {{capitalizeLetter}}{{string index=\"0\"}}! Make\nup your mind, will ya?\n",
      "EUes": "¡Eh, {{string index=\"0\"}}!\n¡Decídete de una vez!\n",
      "EUfr": "Salut! {{capitalizeLetter}}{{string index=\"0\"}}!\nDécide-toi, d'accord?\n",
      "EUit": "Ciao! {{capitalizeLetter}}{{string index=\"0\"}}! Deciditi\nper favore, OK?\n",
      "JPja": "はぁい！　{{string index=\"0\"}}ちゃん！\nはりきっていこー！\n",
      "KRko": "하이！ {{string index=\"0\"}}！\n오늘도 신나게 화이팅ー！\n",
      "USen": "Hello! {{capitalizeLetter}}{{string index=\"0\"}}! Make\nup your mind, will ya?\n"
    }
  },
  {
    "label": "15",
    "attribute": "",
    "locale": {
      "EUde": "Wie gehts? {{capitalizeLetter}}{{string index=\"8\"}}\nist wie ausgestorben!\n",
      "EUen": "How are you? {{capitalizeLetter}}{{string index=\"8\"}}\nis sleepy. It's boring!\n",
      "EUes": "¿Qué tal? ¡{{capitalizeLetter}}{{string index=\"8\"}}\nes un rollazo supremo!\n",
      "EUfr": "Comment va? {{capitalizeLetter}}{{string index=\"8\"}}\nest d'un ennui! \n",
      "EUit": "Come va? Le {{string index=\"8\"}}?\nChe noia!\n",
      "JPja": "げんきー？　{{string index=\"8\"}}むらは\nあいかわらず　へいわだよ！\n",
      "KRko": "안녕？！ {{string index=\"8\"}} 마을은\n여전히 평화로워！\n",
      "USen": "How are you? {{capitalizeLetter}}{{string index=\"8\"}}\nis sleepy. It's boring!\n"
    }
  }
]