[
  {
    "label": "0",
    "attribute": "0x00000000FE000000",
    "locale": {
      "EUde": "Yo!{{pause frames=\"20\"}} Ich heiße {{string value=\"VillagerName\"}}\nund bin, falls du es nicht \nbemerkt hast,{{pause frames=\"5\"}} neu hier.\n{{reaction type=\"Agreement\"}}Davor habe ich in\n{{color id=\"8\"}}{{string index=\"1\"}} {{color id=\"0\"}}gewohnt.\n\n{{reaction type=\"Happiness\"}}Hey, {{pause frames=\"5\"}}es ist schön,\ndich kennen zu lernen,\n{{pause frames=\"5\"}}{{string value=\"Catchphrase\"}}.",
      "EUen": "Yo!{{pause frames=\"20\"}} I'm {{string value=\"VillagerName\"}} and, in\ncase you couldn't tell,{{pause frames=\"5\"}} I'm\nnew here, {{pause frames=\"5\"}}{{string value=\"Catchphrase\"}}. \n{{reaction type=\"Agreement\"}}Before I moved here, I lived\nin {{color id=\"8\"}}{{string index=\"1\"}}{{color id=\"0\"}}. {{reaction type=\"Happiness\"}}Hey, {{pause frames=\"5\"}}nice\nto meet you.",
      "EUes": "¡Hola!{{pause frames=\"20\"}} Soy {{string value=\"VillagerName\"}} y,\npor si no te has percatado,{{pause frames=\"5\"}}\nsoy nuevo, {{pause frames=\"5\"}}{{string value=\"Catchphrase\"}}. \n{{reaction type=\"Agreement\"}}Antes de que me mudara,\nvivía en {{color id=\"8\"}}{{string index=\"1\"}}{{color id=\"0\"}}. {{reaction type=\"Happiness\"}}Eh,{{pause frames=\"5\"}}\nencantado de conocerte.",
      "EUfr": "Yo!{{pause frames=\"20\"}} Je suis {{string value=\"VillagerName\"}}. Au\ncas où tu le saurais pas,{{pause frames=\"5\"}} je\nsuis nouveau, {{pause frames=\"5\"}}{{string value=\"Catchphrase\"}}. \n{{reaction type=\"Agreement\"}}Avant, je vivais\nà {{color id=\"8\"}}{{string index=\"1\"}}{{color id=\"0\"}}. {{reaction type=\"Happiness\"}}Salut, {{pause frames=\"5\"}}ravi\nde te rencontrer.",
      "EUit": "Ciao!{{pause frames=\"20\"}} Io sono {{string value=\"VillagerName\"}} e {{pause frames=\"5\"}}\nsono appena arrivato qui,\n{{pause frames=\"5\"}}{{string value=\"Catchphrase\"}}. \n{{reaction type=\"Agreement\"}}Prima stavo a {{color id=\"8\"}}{{string index=\"1\"}}{{color id=\"0\"}}. {{reaction type=\"Happiness\"}}\nEhi, {{pause frames=\"5\"}}piacere di conoscerti.",
      "JPja": "おぅ！{{pause frames=\"20\"}}\nオレは　{{string value=\"VillagerName\"}}って{{pause frames=\"5\"}}\n{{kanjiReplace charNum=\"1\" value=\"なが\"}}流れ{{kanjiReplace charNum=\"1\" value=\"もの\"}}者だ、{{pause frames=\"5\"}}{{string value=\"Catchphrase\"}}\n{{reaction type=\"Agreement\"}}ここに　{{kanjiReplace charNum=\"1\" value=\"く\"}}来る{{kanjiReplace charNum=\"1\" value=\"まえ\"}}前は\n{{color id=\"8\"}}{{string index=\"1\"}}{{color id=\"0\"}}{{kanjiReplace charNum=\"1\" value=\"むら\"}}村ってトコに\n{{kanjiReplace charNum=\"1\" value=\"す\"}}住んでたのさ\n{{reaction type=\"Happiness\"}}ま、{{pause frames=\"5\"}}よろしくな！　{{pause frames=\"5\"}}{{string value=\"Catchphrase\"}}！",
      "KRko": "안녕！{{pause frames=\"20\"}}\n난 {{string value=\"VillagerName\"}}{{fun_0B arg=\"0x0500\"}}라는{{pause frames=\"5\"}}\n방랑자야， {{pause frames=\"5\"}}{{string value=\"Catchphrase\"}}\n{{reaction type=\"Agreement\"}}여기 오기 전에는\n{{color id=\"8\"}}{{string index=\"1\"}} {{color id=\"0\"}}마을이란 곳에\n살았었지\n{{reaction type=\"Happiness\"}}잘 {{pause frames=\"5\"}}부탁해！ {{pause frames=\"5\"}}{{string value=\"Catchphrase\"}}！",
      "USen": "Yo!{{pause frames=\"20\"}} I'm {{string value=\"VillagerName\"}} and, in\ncase you couldn't tell,{{pause frames=\"5\"}} I'm\nnew here, {{pause frames=\"5\"}}{{string value=\"Catchphrase\"}}. \n{{reaction type=\"Agreement\"}}Before I moved here, I lived\nin {{color id=\"8\"}}{{string index=\"1\"}}{{color id=\"0\"}}. {{reaction type=\"Happiness\"}}Hey, {{pause frames=\"5\"}}nice\nto meet you."
    }
  },
  {
    "label": "1",
    "attribute": "0x00000000FE000000",
    "locale": {
      "EUde": "Hey!{{pause frames=\"15\"}}{{reaction type=\"Curiosity\"}} Du da! Wer bist du?\n{{resetReaction}}.{{pause frames=\"5\"}}.{{pause frames=\"5\"}}.{{pause frames=\"5\"}}{{capitalizeLetter}}{{string value=\"PlayerNickname\"}}, was?{{pause frames=\"20\"}}\n{{reaction type=\"Happiness\"}}Das ist ein netter Name.\n{{resetReaction}}Ich heiße {{string value=\"VillagerName\"}}!{{pause frames=\"20\"}}\nFrüher habe ich in\n{{color id=\"8\"}}{{string index=\"1\"}}{{color id=\"0\"}} gewohnt.\nJa{{pause frames=\"5\"}}.{{pause frames=\"5\"}}.{{pause frames=\"5\"}}.{{pause frames=\"5\"}} {{reaction type=\"Agreement\"}}Nenn mich einfach{{pause frames=\"5\"}}\n{{string value=\"VillagerName\"}} der Große!\n{{pause frames=\"5\"}}{{capitalizeLetter}}{{string value=\"Catchphrase\"}}.",
      "EUen": "Whoa!{{pause frames=\"15\"}}{{reaction type=\"Curiosity\"}} You there! Who are\nyou? {{resetReaction}}.{{pause frames=\"5\"}}.{{pause frames=\"5\"}}.{{pause frames=\"5\"}}{{capitalizeLetter}}{{string value=\"PlayerNickname\"}}, huh?{{pause frames=\"20\"}}\n{{reaction type=\"Happiness\"}}That's a nice name you got.\n{{resetReaction}}I'm {{string value=\"VillagerName\"}}!{{pause frames=\"20\"}} I used to\nlive in a town called\n{{color id=\"8\"}}{{string index=\"1\"}}{{color id=\"0\"}}, {{pause frames=\"5\"}}{{string value=\"Catchphrase\"}}.\nYeah{{pause frames=\"5\"}}.{{pause frames=\"5\"}}.{{pause frames=\"5\"}}.{{pause frames=\"5\"}} {{reaction type=\"Agreement\"}}You can call me{{pause frames=\"5\"}}\n{{string value=\"VillagerName\"}} the Great!",
      "EUes": "¡Vaya!{{pause frames=\"15\"}}{{reaction type=\"Curiosity\"}} ¡Hola! ¿Cómo te\nllamas? {{resetReaction}}Mm.{{pause frames=\"5\"}}.{{pause frames=\"5\"}}.{{pause frames=\"5\"}} {{capitalizeLetter}}{{string value=\"PlayerNickname\"}},\n¿eh?{{pause frames=\"20\"}} {{reaction type=\"Happiness\"}}Bonito nombre.\n{{resetReaction}}Yo me llamo {{string value=\"VillagerName\"}}.{{pause frames=\"20\"}}\nVengo de {{color id=\"8\"}}{{string index=\"1\"}}{{color id=\"0\"}},\n{{pause frames=\"5\"}}{{string value=\"Catchphrase\"}}.\nSí{{pause frames=\"5\"}}.{{pause frames=\"5\"}}.{{pause frames=\"5\"}}.{{pause frames=\"5\"}} {{reaction type=\"Agreement\"}}¡Puedes llamarme{{pause frames=\"5\"}}\n{{string value=\"VillagerName\"}} el Grande!",
      "EUfr": "Waouh!{{pause frames=\"15\"}}{{reaction type=\"Curiosity\"}} Toi là! Qui\nes-tu? {{resetReaction}}.{{pause frames=\"5\"}}.{{pause frames=\"5\"}}.{{pause frames=\"5\"}}{{capitalizeLetter}} {{string value=\"PlayerNickname\"}}, hein?{{pause frames=\"20\"}}\n{{reaction type=\"Happiness\"}}C'est un joli nom.\n{{resetReaction}}Je suis {{string value=\"VillagerName\"}}!{{pause frames=\"20\"}}\nAuparavant, je vivais à\n{{color id=\"8\"}}{{string index=\"1\"}}{{color id=\"0\"}}, {{pause frames=\"5\"}}{{string value=\"Catchphrase\"}}.\nOuais{{pause frames=\"5\"}}.{{pause frames=\"5\"}}.{{pause frames=\"5\"}}.{{pause frames=\"5\"}} {{reaction type=\"Agreement\"}}Tu peux m'appeler{{pause frames=\"5\"}}\n{{string value=\"VillagerName\"}} le Grand!",
      "EUit": "Wow!{{pause frames=\"15\"}}{{reaction type=\"Curiosity\"}} Ehi, tu! Chi sei?\n{{resetReaction}}.{{pause frames=\"5\"}}.{{pause frames=\"5\"}}.{{pause frames=\"5\"}} {{capitalizeLetter}}{{string value=\"PlayerNickname\"}}, eh?{{pause frames=\"20\"}}\n{{reaction type=\"Happiness\"}}Bel nome, complimenti.\n{{resetReaction}}Io sono {{string value=\"VillagerName\"}}!{{pause frames=\"20\"}} Prima\nvivevo a {{color id=\"8\"}}{{string index=\"1\"}}{{color id=\"0\"}},\n{{pause frames=\"5\"}}{{string value=\"Catchphrase\"}}.\nSì{{pause frames=\"5\"}}.{{pause frames=\"5\"}}.{{pause frames=\"5\"}}.{{pause frames=\"5\"}} {{reaction type=\"Agreement\"}}Puoi chiamarmi{{pause frames=\"5\"}}\n{{string value=\"VillagerName\"}} il Grande!",
      "JPja": "おっと、{{pause frames=\"15\"}}{{reaction type=\"Curiosity\"}}\nそこのおめぇは　{{kanjiReplace charNum=\"2\" value=\"なにもの\"}}何者でぇ？\n\n{{resetReaction}}・{{pause frames=\"5\"}}・{{pause frames=\"5\"}}・{{pause frames=\"5\"}}{{string value=\"PlayerNickname\"}}ってのか{{pause frames=\"20\"}}\n{{reaction type=\"Happiness\"}}なかなか　イナセな\n{{kanjiReplace charNum=\"2\" value=\"なまえ\"}}名前じゃねぇか、{{pause frames=\"5\"}}{{string value=\"Catchphrase\"}}\n{{resetReaction}}オレは　{{string value=\"VillagerName\"}}ってもんだ！{{pause frames=\"20\"}}\n{{kanjiReplace charNum=\"1\" value=\"まえ\"}}前は　{{color id=\"8\"}}{{string index=\"1\"}}{{color id=\"0\"}}{{kanjiReplace charNum=\"1\" value=\"むら\"}}村って\nトコに　{{kanjiReplace charNum=\"1\" value=\"す\"}}住んでたんだが、\nそうだな{{pause frames=\"5\"}}・{{pause frames=\"5\"}}・{{pause frames=\"5\"}}・{{pause frames=\"5\"}}\n{{reaction type=\"Agreement\"}}オレの{{kanjiReplace charNum=\"1\" value=\"こと\"}}事ぁ{{pause frames=\"5\"}}　{{kanjiReplace charNum=\"1\" value=\"おとこ\"}}男ざかりの\n{{string value=\"VillagerName\"}}とでも　{{kanjiReplace charNum=\"1\" value=\"よ\"}}呼んでくれ！",
      "KRko": "어이쿠야， {{pause frames=\"15\"}}{{reaction type=\"Curiosity\"}}\n거기 너 누구냐？\n\n{{resetReaction}}・{{pause frames=\"5\"}}・{{pause frames=\"5\"}}・{{pause frames=\"5\"}}{{string value=\"PlayerNickname\"}}{{fun_0B arg=\"0x0500\"}}라{{pause frames=\"20\"}}\n{{reaction type=\"Happiness\"}}상당히 멋진\n이름인걸， {{pause frames=\"5\"}}{{string value=\"Catchphrase\"}}\n{{resetReaction}}나는 {{string value=\"VillagerName\"}}{{fun_0B arg=\"0x0500\"}}다！{{pause frames=\"20\"}}\n전에는 {{color id=\"8\"}}{{string index=\"1\"}} {{color id=\"0\"}}마을에\n살고 있었는데\n그래{{pause frames=\"5\"}}・{{pause frames=\"5\"}}・{{pause frames=\"5\"}}・{{pause frames=\"5\"}}\n{{reaction type=\"Agreement\"}}날 {{pause frames=\"5\"}}남성다운\n{{string value=\"VillagerName\"}}님이라고 불러라！",
      "USen": "Whoa!{{pause frames=\"15\"}}{{reaction type=\"Curiosity\"}} You there! Who are\nyou? {{resetReaction}}.{{pause frames=\"5\"}}.{{pause frames=\"5\"}}.{{pause frames=\"5\"}}{{capitalizeLetter}}{{string value=\"PlayerNickname\"}}, huh?{{pause frames=\"20\"}}\n{{reaction type=\"Happiness\"}}That's a nice name you got.\n{{resetReaction}}I'm {{string value=\"VillagerName\"}}!{{pause frames=\"20\"}} I used to\nlive in a town called\n{{color id=\"8\"}}{{string index=\"1\"}}{{color id=\"0\"}}, {{pause frames=\"5\"}}{{string value=\"Catchphrase\"}}.\nYeah{{pause frames=\"5\"}}.{{pause frames=\"5\"}}.{{pause frames=\"5\"}}.{{pause frames=\"5\"}} {{reaction type=\"Agreement\"}}You can call me{{pause frames=\"5\"}}\n{{string value=\"VillagerName\"}} the Great!"
    }
  },
  {
    "label": "2",
    "attribute": "0x00000000FE000000",
    "locale": {
      "EUde": "Oh! Hi.{{pause frames=\"20\"}} Ich bin {{string value=\"VillagerName\"}}!\nBis vor kurzem habe ich\nin {{color id=\"8\"}}{{string index=\"1\"}} {{color id=\"0\"}}gewohnt.\n{{resetReaction}}Du bist also{{pause frames=\"5\"}}.{{pause frames=\"5\"}}.{{pause frames=\"5\"}}.{{pause frames=\"15\"}} {{string value=\"PlayerNickname\"}},\nwas? O.K., {{pause frames=\"5\"}}{{string value=\"Catchphrase\"}}.\n{{reaction type=\"Agreement\"}}Du bist aus {{string value=\"TownName\"}}.\n{{gender m=\"Ein echter\" f=\"Eine echte\"}} {{string value=\"TownName\"}}{{gender m=\"er\" f=\"erin\"}}!\n{{reaction type=\"Happiness\"}}Ich freue mich echt, dich\nkennen zu lernen.",
      "EUen": "Oh! Hi.{{pause frames=\"20\"}} I'm {{string value=\"VillagerName\"}}!\nUntil a little while ago,{{pause frames=\"5\"}}\nI lived in {{color id=\"8\"}}{{string index=\"1\"}}{{color id=\"0\"}}.\n{{resetReaction}}So you're{{pause frames=\"5\"}}.{{pause frames=\"5\"}}.{{pause frames=\"5\"}}.{{pause frames=\"15\"}}{{string value=\"PlayerNickname\"}},\nhuh? OK, {{pause frames=\"5\"}}{{string value=\"Catchphrase\"}}.\n{{reaction type=\"Agreement\"}}You're from {{string value=\"TownName\"}}.\nYou must be a local, then.\n{{reaction type=\"Happiness\"}}It's nice to meet someone\n{{pause frames=\"5\"}}who's been here a while.",
      "EUes": "¡Ah! Hola.{{pause frames=\"20\"}} ¡Soy {{string value=\"VillagerName\"}}!\nHasta hace muy poco{{pause frames=\"5\"}} vivía\nen {{color id=\"8\"}}{{string index=\"1\"}}{{color id=\"0\"}}.\n{{resetReaction}}Así que eres{{pause frames=\"5\"}}.{{pause frames=\"5\"}}.{{pause frames=\"5\"}}.{{pause frames=\"15\"}} {{string value=\"PlayerNickname\"}},\n¿mm? Muy bien, {{pause frames=\"5\"}}{{string value=\"Catchphrase\"}}.\n\n{{reaction type=\"Agreement\"}}Vives en {{string value=\"TownName\"}}, así\nque debes de ser de aquí.\n\n{{reaction type=\"Happiness\"}}Me mola conocer a alguien\n{{pause frames=\"5\"}}que lleva tiempo viviendo\npor aquí.",
      "EUfr": "Oh! 'Lut.{{pause frames=\"20\"}} J'suis {{string value=\"VillagerName\"}}!\nJe suis nouveau ici.{{pause frames=\"5\"}} Avant,\nje vivais à {{color id=\"8\"}}{{string index=\"1\"}}{{color id=\"0\"}}.\n{{resetReaction}}Donc, tu es{{pause frames=\"5\"}}.{{pause frames=\"5\"}}.{{pause frames=\"5\"}}.{{pause frames=\"15\"}} {{string value=\"PlayerNickname\"}},\nc'est ça? Ok, {{pause frames=\"5\"}}{{string value=\"Catchphrase\"}}.\n{{reaction type=\"Agreement\"}}Tu viens de {{string value=\"TownName\"}}.\nT'es sûrement du coin.\n{{reaction type=\"Happiness\"}}C'est sympa de rencontrer\n{{pause frames=\"5\"}}{{gender m=\"un autochtone\" f=\"une autochtone\"}}.",
      "EUit": "Ciao!{{pause frames=\"20\"}} Io sono {{string value=\"VillagerName\"}}!\nFino a poco tempo fa{{pause frames=\"5\"}}\nvivevo a {{color id=\"8\"}}{{string index=\"1\"}}{{color id=\"0\"}}.\n{{resetReaction}}Tu sei{{pause frames=\"5\"}}.{{pause frames=\"5\"}}.{{pause frames=\"5\"}}.{{pause frames=\"15\"}} {{string value=\"PlayerNickname\"}},\nvero? OK, {{pause frames=\"5\"}}{{string value=\"Catchphrase\"}}.\n{{reaction type=\"Agreement\"}}E vieni da {{string value=\"TownName\"}}.\nAllora sei del posto, eh?\n{{reaction type=\"Happiness\"}}È bello conoscere qualcuno\n{{pause frames=\"5\"}}che vive qui da un po'.",
      "JPja": "おぅ！{{pause frames=\"20\"}}\nオレは　{{string value=\"VillagerName\"}}ってもんだ\n\nちょっと{{kanjiReplace charNum=\"1\" value=\"まえ\"}}前まで{{pause frames=\"5\"}}\n{{color id=\"8\"}}{{string index=\"1\"}}{{color id=\"0\"}}{{kanjiReplace charNum=\"1\" value=\"むら\"}}村って　トコに\n{{kanjiReplace charNum=\"1\" value=\"す\"}}住んでたんだぜぇ、{{pause frames=\"5\"}}{{string value=\"Catchphrase\"}}\n{{resetReaction}}おめぇは{{pause frames=\"5\"}}・{{pause frames=\"5\"}}・{{pause frames=\"5\"}}・{{pause frames=\"15\"}}\n{{string value=\"PlayerNickname\"}}ってのか\n\n{{reaction type=\"Agreement\"}}{{string value=\"TownName\"}}ムラの{{pause frames=\"5\"}}\n{{string value=\"PlayerNickname\"}}だから、{{pause frames=\"20\"}}\nムラムラの　{{string value=\"PlayerNickname\"}}だな\n{{reaction type=\"Happiness\"}}ま、{{pause frames=\"5\"}}{{kanjiReplace charNum=\"2\" value=\"きょう\"}}今日から　ひとつ{{pause frames=\"5\"}}\nよろしく　たのむぜぇ、{{pause frames=\"5\"}}{{string value=\"Catchphrase\"}}！",
      "KRko": "안녕！{{pause frames=\"20\"}}\n난 {{string value=\"VillagerName\"}}{{fun_0B arg=\"0x0500\"}}라고 해\n\n얼마 전까지는{{pause frames=\"5\"}}\n{{color id=\"8\"}}{{string index=\"1\"}} {{color id=\"0\"}}마을이란 데서\n살았었지， {{pause frames=\"5\"}}{{string value=\"Catchphrase\"}}\n{{resetReaction}}너는{{pause frames=\"5\"}}・{{pause frames=\"5\"}}・{{pause frames=\"5\"}}・{{pause frames=\"15\"}}\n{{string value=\"PlayerNickname\"}}{{fun_0B arg=\"0x0500\"}}군\n\n{{reaction type=\"Agreement\"}}{{string value=\"TownName\"}} 마을의{{pause frames=\"5\"}}\n{{string value=\"PlayerNickname\"}}{{fun_0B arg=\"0x0500\"}}라서{{pause frames=\"20\"}}\n살짝 촌티가 나는구나\n{{reaction type=\"Happiness\"}}암튼 {{pause frames=\"5\"}}오늘부터{{pause frames=\"5\"}}\n잘 부탁해， {{pause frames=\"5\"}}{{string value=\"Catchphrase\"}}！",
      "USen": "Oh! Hi.{{pause frames=\"20\"}} I'm {{string value=\"VillagerName\"}}!\nUntil a little while ago,{{pause frames=\"5\"}}\nI lived in {{color id=\"8\"}}{{string index=\"1\"}}{{color id=\"0\"}}.\n{{resetReaction}}So you're{{pause frames=\"5\"}}.{{pause frames=\"5\"}}.{{pause frames=\"5\"}}.{{pause frames=\"15\"}}{{string value=\"PlayerNickname\"}},\nhuh? OK, {{pause frames=\"5\"}}{{string value=\"Catchphrase\"}}.\n{{reaction type=\"Agreement\"}}You're from {{string value=\"TownName\"}}.\nYou must be a local, then.\n{{reaction type=\"Happiness\"}}It's nice to meet someone\n{{pause frames=\"5\"}}who's been here a while."
    }
  },
  {
    "label": "3",
    "attribute": "0x00000000FE000000",
    "locale": {
      "EUde": "{{reaction type=\"Amazed\"}}Oh!{{pause frames=\"15\"}} Hey!{{pause frames=\"15\"}} Was gibts denn!?!{{pause frames=\"20\"}}\n{{reaction type=\"Mischief\"}}Was willst du!?!{{pause frames=\"20\"}} Hä!?!\nAntworte schon!\n{{resetReaction}}Oh, {{pause frames=\"15\"}}Schande, {{pause frames=\"5\"}}mein Fehler.{{pause frames=\"5\"}}\nIch wollte dich nicht so\nankeifen{{pause frames=\"20\"}}.\nManchmal gehen mit mir die\nNerven durch.\n\n{{reaction type=\"Happiness\"}}Ich heiße {{string value=\"VillagerName\"}} und\ngehe liebend gerne\n{{string value=\"Hobby\"}}.{{pause frames=\"5\"}}\nDas ist alles. Ähm, nein, da\ngibt es noch etwas.\n\nFrüher habe ich in\n{{color id=\"8\"}}{{string index=\"1\"}}{{color id=\"0\"}} gelebt!\n\n{{reaction type=\"Agreement\"}}Also,{{pause frames=\"5\"}} nett, dich kennen zu\nlernen! {{pause frames=\"5\"}}{{capitalizeLetter}}{{string value=\"Catchphrase\"}}!",
      "EUen": "{{reaction type=\"Amazed\"}}Oh!{{pause frames=\"15\"}} Hey!{{pause frames=\"15\"}} What's the deal?!{{pause frames=\"20\"}}\n{{reaction type=\"Mischief\"}}What do you want?!{{pause frames=\"20\"}} Huh?!\nAnswer me!\n{{resetReaction}}Oh, {{pause frames=\"15\"}}shoot, {{pause frames=\"5\"}}my bad.{{pause frames=\"5\"}} I don't\nmean you any harm,{{pause frames=\"20\"}} I just\ntend to bark a lot.\n{{reaction type=\"Happiness\"}}My name is {{string value=\"VillagerName\"}}, and\nI like to {{string value=\"Hobby\"}},{{pause frames=\"5\"}}\nand that's all!\nWell, no, there's one more\nthing. Before I moved here,\nI lived in {{color id=\"8\"}}{{string index=\"1\"}}{{color id=\"0\"}}!\n{{reaction type=\"Agreement\"}}Well, it's {{pause frames=\"5\"}}nice to meet you!\n{{pause frames=\"5\"}}{{capitalizeLetter}}{{string value=\"Catchphrase\"}}!",
      "EUes": "{{reaction type=\"Amazed\"}}¡Ah!{{pause frames=\"15\"}} ¡Hola!{{pause frames=\"15\"}} ¡¿Qué ocurre?!{{pause frames=\"20\"}}\n{{reaction type=\"Mischief\"}}¡¿Qué quieres?!{{pause frames=\"20\"}} ¡¿Mm?!\n¡Responde!\n{{resetReaction}}Ah, {{pause frames=\"15\"}}leñes. {{pause frames=\"5\"}}Perdóname.{{pause frames=\"5\"}}\nNo quería hacerte daño,{{pause frames=\"20\"}} es\nque tiendo a gritar mucho.\n{{reaction type=\"Happiness\"}}Me llamo {{string value=\"VillagerName\"}} y me\ngusta {{string value=\"Hobby\"}}.{{pause frames=\"5\"}}\n¡Eso es todo!\nBueno, no. Hay algo más.\nAntes de mudarme a este\nsitio, vivía en {{color id=\"8\"}}{{string index=\"1\"}}{{color id=\"0\"}}.\n{{reaction type=\"Agreement\"}}Pues nada, encantado {{pause frames=\"5\"}}\nde conocerte. {{pause frames=\"5\"}}¡{{capitalizeLetter}}{{string value=\"Catchphrase\"}}!",
      "EUfr": "{{reaction type=\"Amazed\"}}Oh!{{pause frames=\"15\"}} Hé!{{pause frames=\"15\"}} Que se passe-t-il?!{{pause frames=\"20\"}}\n{{reaction type=\"Mischief\"}}Que veux-tu?!{{pause frames=\"20\"}} Hein?!\nTu vas répondre, oui!\n{{resetReaction}}Oh, {{pause frames=\"15\"}}mince, {{pause frames=\"5\"}}désolé.{{pause frames=\"5\"}}\nJe ne te veux pas de mal,{{pause frames=\"20\"}}\nje parle fort, c'est tout.\n{{reaction type=\"Happiness\"}}Je suis {{string value=\"VillagerName\"}}, j'aime\n{{string value=\"Hobby\"}}.{{pause frames=\"5\"}}\nJe crois que c'est tout!\nAh, autre chose. Avant de\nm'installer ici, je vivais\nà {{color id=\"8\"}}{{string index=\"1\"}}{{color id=\"0\"}}!\n{{reaction type=\"Agreement\"}}Eh bien,{{pause frames=\"5\"}} enchanté!\n{{pause frames=\"5\"}}{{capitalizeLetter}}{{string value=\"Catchphrase\"}}!",
      "EUit": "{{reaction type=\"Amazed\"}}Oh!{{pause frames=\"15\"}} Ehi!{{pause frames=\"15\"}} Che vuoi?!{{pause frames=\"20\"}}\n{{reaction type=\"Mischief\"}}Cosa ti serve?!{{pause frames=\"20\"}} Eh?!\nRispondimi!\n{{resetReaction}}Oh, {{pause frames=\"15\"}}spara, {{pause frames=\"5\"}}dai.{{pause frames=\"5\"}} Sono\ninnocuo,{{pause frames=\"20\"}} can che abbaia non\nmorde, sai?\n{{reaction type=\"Happiness\"}}Mi chiamo {{string value=\"VillagerName\"}} e\nadoro {{string value=\"Hobby\"}},{{pause frames=\"5\"}}\ntutto qui!\nBeh, in realtà, c'è\nun'altra cosa. Prima stavo\na {{color id=\"8\"}}{{string index=\"1\"}}{{color id=\"0\"}}!\n{{reaction type=\"Agreement\"}}Tanto piacere {{pause frames=\"5\"}}di conoscerti!\n{{pause frames=\"5\"}}{{capitalizeLetter}}{{string value=\"Catchphrase\"}}!",
      "JPja": "{{reaction type=\"Amazed\"}}おっ！{{pause frames=\"15\"}}　なんだよ、{{pause frames=\"15\"}}おめぇ？！{{pause frames=\"20\"}}\n{{reaction type=\"Mischief\"}}なんか　{{kanjiReplace charNum=\"1\" value=\"よう\"}}用でもあんの？{{pause frames=\"20\"}}　あぁ？\n\n{{resetReaction}}おっと、{{pause frames=\"15\"}}わりぃ{{pause frames=\"5\"}}　わりぃ{{pause frames=\"5\"}}\n{{kanjiReplace charNum=\"1\" value=\"べつ\"}}別に　{{kanjiReplace charNum=\"2\" value=\"わるぎ\"}}悪気は　ねぇんだ{{pause frames=\"20\"}}\n{{kanjiReplace charNum=\"1\" value=\"わる\"}}悪いのは　{{kanjiReplace charNum=\"1\" value=\"くち\"}}口だけだからよ\n{{reaction type=\"Happiness\"}}オレは\n{{string value=\"Hobby\"}}が　シュミの{{pause frames=\"5\"}}\n{{string value=\"VillagerName\"}}ってもんだ！\nここに　{{kanjiReplace charNum=\"1\" value=\"く\"}}来る{{kanjiReplace charNum=\"1\" value=\"まえ\"}}前は\n{{color id=\"8\"}}{{string index=\"1\"}}{{color id=\"0\"}}{{kanjiReplace charNum=\"1\" value=\"むら\"}}村ってトコに\n{{kanjiReplace charNum=\"1\" value=\"す\"}}住んでたんだが、\n{{reaction type=\"Agreement\"}}ま、{{pause frames=\"5\"}}ひとつ\nよろしく　たのむぜ、{{pause frames=\"5\"}}{{string value=\"Catchphrase\"}}！",
      "KRko": "{{reaction type=\"Amazed\"}}야！{{pause frames=\"15\"}} 넌{{pause frames=\"15\"}} 누구야？！{{pause frames=\"20\"}}\n{{reaction type=\"Mischief\"}}무슨 볼일이라도 있냐？{{pause frames=\"20\"}} 앙？\n\n{{resetReaction}}어이쿠야 {{pause frames=\"15\"}}미안{{pause frames=\"5\"}} 미안{{pause frames=\"5\"}}\n딱히 악의가 있는 건 아녔어{{pause frames=\"20\"}}\n탓할려면 내 입을 탓해\n{{reaction type=\"Happiness\"}}나는\n{{string value=\"Hobby\"}}{{fun_0B arg=\"0x0300\"}} 취미인{{pause frames=\"5\"}}\n{{string value=\"VillagerName\"}}{{fun_0B arg=\"0x0500\"}}라고 해！\n여기 오기 전에는\n{{color id=\"8\"}}{{string index=\"1\"}} {{color id=\"0\"}}마을이란 곳에\n살고 있었지，\n{{reaction type=\"Agreement\"}}암튼 {{pause frames=\"5\"}}앞으로\n잘 부탁한다， {{pause frames=\"5\"}}{{string value=\"Catchphrase\"}}！",
      "USen": "{{reaction type=\"Amazed\"}}Oh!{{pause frames=\"15\"}} Hey!{{pause frames=\"15\"}} What's the deal?!{{pause frames=\"20\"}}\n{{reaction type=\"Mischief\"}}What do you want?!{{pause frames=\"20\"}} Huh?!\nAnswer me!\n{{resetReaction}}Oh, {{pause frames=\"15\"}}shoot, {{pause frames=\"5\"}}my bad.{{pause frames=\"5\"}} I don't\nmean you any harm,{{pause frames=\"20\"}} I just\ntend to bark a lot.\n{{reaction type=\"Happiness\"}}My name is {{string value=\"VillagerName\"}}, and\nI like to {{string value=\"Hobby\"}},{{pause frames=\"5\"}}\nand that's all!\nWell, no, there's one more\nthing. Before I moved here,\nI lived in {{color id=\"8\"}}{{string index=\"1\"}}{{color id=\"0\"}}!\n{{reaction type=\"Agreement\"}}Well, it's {{pause frames=\"5\"}}nice to meet you!\n{{pause frames=\"5\"}}{{capitalizeLetter}}{{string value=\"Catchphrase\"}}!"
    }
  },
  {
    "label": "4",
    "attribute": "0x00000000FE000000",
    "locale": {
      "EUde": "{{reaction type=\"Annoyed\"}}Was!?!{{pause frames=\"15\"}} Du! Da drüben!{{pause frames=\"20\"}} Du mit\nden Daumen! Wo guckst du\ndenn hin!?!{{pause frames=\"5\"}}\n{{resetReaction}}Weißt du nicht,{{pause frames=\"15\"}} dass man\nLeute nicht so-{{pause frames=\"5\"}}{{reaction type=\"Worry\"}}\nOh, {{resetReaction}}Moment mal.\nIch bin {{string value=\"VillagerName\"}} aus\n{{color id=\"8\"}}{{string index=\"1\"}}{{color id=\"0\"}}, {{pause frames=\"5\"}}{{string value=\"Catchphrase\"}}.\n\n{{reaction type=\"Happiness\"}}Ja, {{pause frames=\"5\"}}ich bin nicht der\nnetteste Typ in der Stadt. \n\nIch freue mich aber\ntrotzdem, {{pause frames=\"5\"}}dich kennen\nzu lernen!",
      "EUen": "{{reaction type=\"Annoyed\"}}What?!{{pause frames=\"15\"}} You! There!{{pause frames=\"20\"}} With the\nthumbs! What do you think\nyou're looking at?!{{pause frames=\"5\"}}\n{{resetReaction}}Don't you know{{pause frames=\"15\"}} that when\nyou meet someone, you\nshould--{{pause frames=\"5\"}}{{reaction type=\"Worry\"}} Oh, {{resetReaction}}wait.\nI'm {{string value=\"VillagerName\"}} from\n{{color id=\"8\"}}{{string index=\"1\"}}{{color id=\"0\"}}, {{pause frames=\"5\"}}{{string value=\"Catchphrase\"}}.\n\n{{reaction type=\"Happiness\"}}Yeah, {{pause frames=\"5\"}}I'm not the most\npolite guy in town, but it's{{pause frames=\"5\"}}\nnice to meet you!",
      "EUes": "{{reaction type=\"Annoyed\"}}¡¿Qué?!{{pause frames=\"15\"}} ¡Tú! ¡Hola!{{pause frames=\"20\"}} ¡{{gender m=\"El\" f=\"La\"}} de la\nnariz! ¡¿Qué crees que\nestás mirando?!{{pause frames=\"5\"}}\n{{resetReaction}}¿No sabes{{pause frames=\"15\"}} que cuando\nte presentas a alguien\ndebes...?{{pause frames=\"5\"}}{{reaction type=\"Worry\"}} Ah, {{resetReaction}}espera.\nSoy {{string value=\"VillagerName\"}} y vengo de\n{{color id=\"8\"}}{{string index=\"1\"}}{{color id=\"0\"}}, {{pause frames=\"5\"}}{{string value=\"Catchphrase\"}}.\n\n{{reaction type=\"Happiness\"}}Sí, {{pause frames=\"5\"}}ya sé que no soy el\nmás educado del pueblo,\npero... {{pause frames=\"5\"}}¡Encantado!",
      "EUfr": "{{reaction type=\"Annoyed\"}}Quoi?!{{pause frames=\"15\"}} Toi! Là!{{pause frames=\"20\"}} Avec tes\npouces! Tu veux ma photo\nou quoi?!{{pause frames=\"5\"}}\n{{resetReaction}}Tu sais donc pas{{pause frames=\"15\"}} que quand\non rencontre quelqu'un\nil faut--{{pause frames=\"5\"}}{{reaction type=\"Worry\"}} Oh, {{resetReaction}}un instant.\nJe suis {{string value=\"VillagerName\"}} de\n{{color id=\"8\"}}{{string index=\"1\"}}{{color id=\"0\"}}, {{pause frames=\"5\"}}{{string value=\"Catchphrase\"}}.\n\n{{reaction type=\"Happiness\"}}Bon, {{pause frames=\"5\"}}c'est vrai, je suis pas\nle type le plus poli du coin.{{pause frames=\"5\"}}\nEnfin... Enchanté!",
      "EUit": "{{reaction type=\"Annoyed\"}}Nooo?!{{pause frames=\"15\"}} Ehi, tu!{{pause frames=\"20\"}} Sì, tu con i\npollici, cosa guardi?!{{pause frames=\"5\"}}\n\n{{resetReaction}}Non lo sai{{pause frames=\"15\"}} che quando\nincontri qualcuno devi...{{pause frames=\"5\"}}{{reaction type=\"Worry\"}}\nOh, {{resetReaction}}aspetta.\nSono {{string value=\"VillagerName\"}} e vengo da\n{{color id=\"8\"}}{{string index=\"1\"}}{{color id=\"0\"}}, {{pause frames=\"5\"}}{{string value=\"Catchphrase\"}}.\n\n{{reaction type=\"Happiness\"}}Sì, {{pause frames=\"5\"}}non sono l'educazione\nin persona, ma{{pause frames=\"5\"}} piacere\ndi conoscerti!",
      "JPja": "{{reaction type=\"Annoyed\"}}おぅおぅ、{{pause frames=\"15\"}}そこの　おめぇ！{{pause frames=\"20\"}}\nどこに　{{kanjiReplace charNum=\"1\" value=\"め\"}}目ぇつけて{{pause frames=\"5\"}}\n{{kanjiReplace charNum=\"1\" value=\"ある\"}}歩いてやがるんでぇっ！！\n{{resetReaction}}って、{{pause frames=\"15\"}}いくら　なんでも\n{{kanjiReplace charNum=\"3\" value=\"しょたいめん\"}}初対面の　あいさつに\nこれは　ねぇよな{{pause frames=\"5\"}}・{{pause frames=\"5\"}}・{{pause frames=\"5\"}}・{{pause frames=\"5\"}}{{reaction type=\"Worry\"}}すまねぇ！\n{{resetReaction}}オレは\n{{color id=\"8\"}}{{string index=\"1\"}}{{color id=\"0\"}}{{kanjiReplace charNum=\"1\" value=\"むら\"}}村から{{kanjiReplace charNum=\"1\" value=\"き\"}}来た\n{{string value=\"VillagerName\"}}ってんだ\n{{reaction type=\"Happiness\"}}まぁ、{{pause frames=\"5\"}}{{kanjiReplace charNum=\"1\" value=\"くち\"}}口の　わりぃのが{{pause frames=\"5\"}}\nたまにキズだな、{{pause frames=\"5\"}}{{string value=\"Catchphrase\"}}！",
      "KRko": "{{reaction type=\"Annoyed\"}}이봐， {{pause frames=\"15\"}}거기 너！{{pause frames=\"20\"}}\n어딜 쳐다보고{{pause frames=\"5\"}}\n걷고 있는 거야！！\n{{resetReaction}}흠， {{pause frames=\"15\"}}아무리 그래도\n처음 보는 사람한테\n이건 좀 심했나{{pause frames=\"5\"}}・{{pause frames=\"5\"}}・{{pause frames=\"5\"}}・{{pause frames=\"5\"}} {{reaction type=\"Worry\"}}미안！\n{{resetReaction}}나는\n{{color id=\"8\"}}{{string index=\"1\"}} {{color id=\"0\"}}마을에서 온\n{{string value=\"VillagerName\"}}{{fun_0B arg=\"0x0500\"}}라구 해\n{{reaction type=\"Happiness\"}}{{pause frames=\"5\"}}입이 거친 게{{pause frames=\"5\"}}\n옥에 티랄까， {{pause frames=\"5\"}}{{string value=\"Catchphrase\"}}！",
      "USen": "{{reaction type=\"Annoyed\"}}What?!{{pause frames=\"15\"}} You! There!{{pause frames=\"20\"}} With the\nthumbs! What do you think\nyou're looking at?!{{pause frames=\"5\"}}\n{{resetReaction}}Don't you know{{pause frames=\"15\"}} that when\nyou meet someone, you\nshould--{{pause frames=\"5\"}}{{reaction type=\"Worry\"}} Oh, {{resetReaction}}wait.\nI'm {{string value=\"VillagerName\"}} from\n{{color id=\"8\"}}{{string index=\"1\"}}{{color id=\"0\"}}, {{pause frames=\"5\"}}{{string value=\"Catchphrase\"}}.\n\n{{reaction type=\"Happiness\"}}Yeah, {{pause frames=\"5\"}}I'm not the most\npolite guy in town, but it's{{pause frames=\"5\"}}\nnice to meet you!"
    }
  },
  {
    "label": "5",
    "attribute": "0x00000000FE000000",
    "locale": {
      "EUde": "{{reaction type=\"Curiosity\"}}Huch? {{pause frames=\"15\"}}Hey du!{{pause frames=\"15\"}} {{resetReaction}}Wir sehen uns\nzum ersten Mal,\n{{pause frames=\"5\"}}{{string value=\"Catchphrase\"}}.\nIch bin {{string value=\"VillagerName\"}} aus\n{{color id=\"8\"}}{{string index=\"1\"}}.{{color id=\"0\"}}{{pause frames=\"15\"}} {{reaction type=\"Mischief\"}}Hast\ndu mir etwas zu sagen!?!\nNa?{{pause frames=\"10\"}}{{resetReaction}} Nein? Nichts?{{pause frames=\"15\"}} Oh, dann\nist alles klar.{{pause frames=\"20\"}} {{reaction type=\"Happiness\"}}Bis später,\n{{pause frames=\"5\"}}{{string value=\"Catchphrase\"}}!",
      "EUen": "{{reaction type=\"Curiosity\"}}Huh? {{pause frames=\"15\"}}Hey you!{{pause frames=\"15\"}} {{resetReaction}}This is the\nfirst time we've met,\n{{pause frames=\"5\"}}{{string value=\"Catchphrase\"}}.\nI'm {{string value=\"VillagerName\"}} from\n{{color id=\"8\"}}{{string index=\"1\"}}.{{color id=\"0\"}}{{pause frames=\"15\"}} {{reaction type=\"Mischief\"}}You got\nsomethin' to say to me?!\nWell?{{pause frames=\"10\"}}{{resetReaction}} No? Nothing?{{pause frames=\"15\"}} Aw, all\nright then.{{pause frames=\"20\"}} {{reaction type=\"Happiness\"}}Later, then,\n{{pause frames=\"5\"}}{{string value=\"Catchphrase\"}}!",
      "EUes": "{{reaction type=\"Curiosity\"}}¿Eh? {{pause frames=\"15\"}}¡Eh, hola!{{pause frames=\"15\"}} {{resetReaction}}Es la primera\nvez que nos cruzamos,\n{{pause frames=\"5\"}}{{string value=\"Catchphrase\"}}.\nSoy {{string value=\"VillagerName\"}} y vengo de\n{{color id=\"8\"}}{{string index=\"1\"}}{{color id=\"0\"}}.{{pause frames=\"15\"}} {{reaction type=\"Mischief\"}}¡¿Tienes algo\nque deba saber?!\n¿Y bien?{{pause frames=\"10\"}}{{resetReaction}} ¿No? ¿Nada?{{pause frames=\"15\"}} Vaya,\npues nada.{{pause frames=\"20\"}} {{reaction type=\"Happiness\"}}¡Cuando te\nacuerdes, {{pause frames=\"5\"}}{{string value=\"Catchphrase\"}}!",
      "EUfr": "{{reaction type=\"Curiosity\"}}Hein? {{pause frames=\"15\"}}Hé toi!{{pause frames=\"15\"}} {{resetReaction}}C'est la\npremière fois qu'on se voit,\n{{pause frames=\"5\"}}{{string value=\"Catchphrase\"}}.\nJe suis {{string value=\"VillagerName\"}} de\n{{color id=\"8\"}}{{string index=\"1\"}}{{color id=\"0\"}}.{{pause frames=\"15\"}} {{reaction type=\"Mischief\"}}Tu veux\nme dire quelque chose?!\nAlors?{{pause frames=\"10\"}}{{resetReaction}} Non? Rien?{{pause frames=\"15\"}} Bah,\ncomme tu voudras.{{pause frames=\"20\"}} {{reaction type=\"Happiness\"}}A plus,\n{{pause frames=\"5\"}}{{string value=\"Catchphrase\"}}!",
      "EUit": "{{reaction type=\"Curiosity\"}}Eh? {{pause frames=\"15\"}}Ehi, tu!{{pause frames=\"15\"}} {{resetReaction}}È la prima volta\nche ci incontriamo,\n{{pause frames=\"5\"}}{{string value=\"Catchphrase\"}}.\nIo sono {{string value=\"VillagerName\"}} e vengo\nda {{color id=\"8\"}}{{string index=\"1\"}}.{{color id=\"0\"}}{{pause frames=\"15\"}} {{reaction type=\"Mischief\"}}Vuoi dirmi\nqualcosa per caso?!\nEbbene?{{pause frames=\"10\"}}{{resetReaction}} No? Niente?{{pause frames=\"15\"}}\nOK, allora.{{pause frames=\"20\"}} {{reaction type=\"Happiness\"}}Ci si vede in\ngiro, {{pause frames=\"5\"}}{{string value=\"Catchphrase\"}}!",
      "JPja": "{{reaction type=\"Curiosity\"}}ん？{{pause frames=\"15\"}}　おめぇ{{pause frames=\"15\"}}\n{{resetReaction}}{{kanjiReplace charNum=\"1\" value=\"はじ\"}}初めて{{kanjiReplace charNum=\"1\" value=\"あ\"}}会うヤツだな、{{pause frames=\"5\"}}{{string value=\"Catchphrase\"}}\n\nオレは　{{color id=\"8\"}}{{string index=\"1\"}}{{color id=\"0\"}}{{kanjiReplace charNum=\"1\" value=\"むら\"}}村から{{kanjiReplace charNum=\"1\" value=\"き\"}}来た\n{{string value=\"VillagerName\"}}ってもんだが、{{pause frames=\"15\"}}\n{{reaction type=\"Mischief\"}}モンクでも　あんのか？！\n・{{pause frames=\"5\"}}・{{pause frames=\"5\"}}・{{pause frames=\"5\"}}{{resetReaction}}いや、{{pause frames=\"15\"}}\nなけりゃ　{{kanjiReplace charNum=\"1\" value=\"べつ\"}}別にいいんだ{{pause frames=\"20\"}}\n{{reaction type=\"Happiness\"}}よろしくな、{{pause frames=\"5\"}}{{string value=\"Catchphrase\"}}！",
      "KRko": "{{reaction type=\"Curiosity\"}}응？{{pause frames=\"15\"}} 넌{{pause frames=\"15\"}}\n{{resetReaction}}처음 보는걸， {{pause frames=\"5\"}}{{string value=\"Catchphrase\"}}\n\n난 {{color id=\"8\"}}{{string index=\"1\"}} {{color id=\"0\"}}마을에서 온\n{{string value=\"VillagerName\"}}{{fun_0B arg=\"0x0500\"}}라고 하는데{{pause frames=\"15\"}}\n{{reaction type=\"Mischief\"}}뭐， 불만 있어？！\n・{{pause frames=\"5\"}}・{{pause frames=\"5\"}}・{{pause frames=\"5\"}}{{resetReaction}}아니，{{pause frames=\"15\"}}\n없음 됐어{{pause frames=\"20\"}}\n{{reaction type=\"Happiness\"}}잘 부탁해， {{pause frames=\"5\"}}{{string value=\"Catchphrase\"}}！",
      "USen": "{{reaction type=\"Curiosity\"}}Huh? {{pause frames=\"15\"}}Hey you!{{pause frames=\"15\"}} {{resetReaction}}This is the\nfirst time we've met,\n{{pause frames=\"5\"}}{{string value=\"Catchphrase\"}}.\nI'm {{string value=\"VillagerName\"}} from\n{{color id=\"8\"}}{{string index=\"1\"}}.{{color id=\"0\"}}{{pause frames=\"15\"}} {{reaction type=\"Mischief\"}}You got\nsomethin' to say to me?!\nWell?{{pause frames=\"10\"}}{{resetReaction}} No? Nothing?{{pause frames=\"15\"}} Aw, all\nright then.{{pause frames=\"20\"}} {{reaction type=\"Happiness\"}}Later, then,\n{{pause frames=\"5\"}}{{string value=\"Catchphrase\"}}!"
    }
  },
  {
    "label": "6",
    "attribute": "0x00000000FF000000",
    "locale": {
      "EUde": "",
      "EUen": "",
      "EUes": "",
      "EUfr": "",
      "EUit": "",
      "JPja": "",
      "KRko": "",
      "USen": ""
    }
  },
  {
    "label": "7",
    "attribute": "0x00000000FF000000",
    "locale": {
      "EUde": "{{reaction type=\"Amazed\"}}WAS!?! {{pause frames=\"10\"}}{{capitalizeLetter}}{{string value=\"PlayerNickname\"}}?!?{{pause frames=\"20\"}}\nWas zum GEIER tust du hier,\n{{pause frames=\"5\"}}{{string value=\"Catchphrase\"}}?!?\n{{reaction type=\"Annoyed\"}}Wenn du weggehst,{{pause frames=\"5\"}} kannst du\nnicht erwarten, dass alles\nbeim Alten bleibt!",
      "EUen": "{{reaction type=\"Amazed\"}}WHAT?! {{pause frames=\"10\"}}{{capitalizeLetter}}{{string value=\"PlayerNickname\"}}?!{{pause frames=\"20\"}}\nWhat the HECK are you doing\nback here, {{pause frames=\"5\"}}{{string value=\"Catchphrase\"}}?!\n{{reaction type=\"Annoyed\"}}When you leave a place,{{pause frames=\"5\"}} you\ncan't just expect that\npeople won't move on!",
      "EUes": "{{reaction type=\"Amazed\"}}¡¿QUÉ?! {{pause frames=\"10\"}}¡¿{{capitalizeLetter}}{{string value=\"PlayerNickname\"}}?!{{pause frames=\"20\"}}\n¡¿Qué LEÑES haces tú por\naquí, {{pause frames=\"5\"}}{{string value=\"Catchphrase\"}}?!\n{{reaction type=\"Annoyed\"}}¡Qué pasa! ¿Tienes que\nestar{{pause frames=\"5\"}} en todas partes para\nsentirte importante?",
      "EUfr": "{{reaction type=\"Amazed\"}}QUOI?! {{pause frames=\"10\"}}{{capitalizeLetter}}{{string value=\"PlayerNickname\"}}?!{{pause frames=\"20\"}}\nBON SANG, pourquoi tu es\n{{gender m=\"revenu\" f=\"revenue\"}}, {{pause frames=\"5\"}}{{string value=\"Catchphrase\"}}?!\n{{reaction type=\"Annoyed\"}}Tu croyais peut-être{{pause frames=\"5\"}}\nqu'en ton absence, la vie\ns'était arrêtée!",
      "EUit": "{{reaction type=\"Amazed\"}}COSA?! {{pause frames=\"10\"}}{{capitalizeLetter}}{{string value=\"PlayerNickname\"}}?!{{pause frames=\"20\"}}\nChe DIAVOLO ci fai\ntu qui, {{pause frames=\"5\"}}{{string value=\"Catchphrase\"}}?!\n{{reaction type=\"Annoyed\"}}Quando te ne vai{{pause frames=\"5\"}}\nnon puoi aspettarti che\nil mondo si fermi, no?",
      "JPja": "{{reaction type=\"Amazed\"}}{{string value=\"PlayerNickname\"}}？！{{pause frames=\"20\"}}\nおめぇ、{{pause frames=\"5\"}}{{kanjiReplace charNum=\"1\" value=\"ひ\"}}引っ{{kanjiReplace charNum=\"1\" value=\"こ\"}}越したんじゃ\nなかったのかよ？　{{pause frames=\"5\"}}{{string value=\"Catchphrase\"}}？\n{{reaction type=\"Happiness\"}}まあ、{{pause frames=\"5\"}}{{kanjiReplace charNum=\"1\" value=\"べつ\"}}別に\nどうでも　いっか",
      "KRko": "{{reaction type=\"Amazed\"}}{{string value=\"PlayerNickname\"}}？！{{pause frames=\"20\"}}\n너 {{pause frames=\"5\"}}이사했던 거\n아녔어？ {{pause frames=\"5\"}}{{string value=\"Catchphrase\"}}？\n{{reaction type=\"Happiness\"}}뭐， {{pause frames=\"5\"}}별루\n상관은 없으니 됐어",
      "USen": "{{reaction type=\"Amazed\"}}WHAT?! {{pause frames=\"10\"}}{{capitalizeLetter}}{{string value=\"PlayerNickname\"}}?!{{pause frames=\"20\"}}\nWhat the HECK are you doing\nback here, {{pause frames=\"5\"}}{{string value=\"Catchphrase\"}}?!\n{{reaction type=\"Annoyed\"}}When you leave a place,{{pause frames=\"5\"}} you\ncan't just expect that\npeople won't move on!"
    }
  },
  {
    "label": "8",
    "attribute": "0x00000000FF000000",
    "locale": {
      "EUde": "{{reaction type=\"Amazed\"}}Yo, {{pause frames=\"5\"}}{{string value=\"PlayerNickname\"}}!{{pause frames=\"20\"}} Du bist\ndoch umgezogen! {{pressButton}}Doch sieh\ndich jetzt mal an!\n{{reaction type=\"Mischief\"}}Ich wusste, du würdest\nzurückgekrochen kommen!\n\n{{pause frames=\"10\"}}{{reaction type=\"Laughter\"}}Du bist so leicht zu\ndurchschauen, {{pause frames=\"5\"}}{{string value=\"Catchphrase\"}}!",
      "EUen": "{{reaction type=\"Amazed\"}}Yo, {{pause frames=\"5\"}}{{string value=\"PlayerNickname\"}}!{{pause frames=\"20\"}} I heard\nyou moved! {{pressButton}}But just look\nat you now!\n{{reaction type=\"Mischief\"}}I always knew you'd come\ncrawling back! {{pause frames=\"10\"}}{{reaction type=\"Laughter\"}}You're so\npredictable, {{pause frames=\"5\"}}{{string value=\"Catchphrase\"}}!",
      "EUes": "{{reaction type=\"Amazed\"}}¡Hola, {{pause frames=\"5\"}}{{string value=\"PlayerNickname\"}}!{{pause frames=\"20\"}} Tengo\nentendido que te mudaste.{{pressButton}}\n¡Pero mírate ahora!\n{{reaction type=\"Mischief\"}}¡Siempre supe que volverías\narrastrándote! {{pause frames=\"10\"}}{{reaction type=\"Laughter\"}}¡Eres tan\npredecible, {{pause frames=\"5\"}}{{string value=\"Catchphrase\"}}!",
      "EUfr": "{{reaction type=\"Amazed\"}}Yo, {{pause frames=\"5\"}}{{string value=\"PlayerNickname\"}}!{{pause frames=\"20\"}} On m'a dit\nque tu avais déménagé! {{pressButton}}Et\nregarde où tu en es!\n{{reaction type=\"Mischief\"}}J'ai toujours su que tu\nreviendrais en rampant! {{pause frames=\"10\"}}{{reaction type=\"Laughter\"}}T'es\nsi prévisible, {{pause frames=\"5\"}}{{string value=\"Catchphrase\"}}!",
      "EUit": "{{reaction type=\"Amazed\"}}Ehilà, {{pause frames=\"5\"}}{{string value=\"PlayerNickname\"}}!{{pause frames=\"20\"}} Si diceva\nche te n'eri andat{{gender m=\"o\" f=\"a\"}}! {{pressButton}}\nE guardati ora!\n{{reaction type=\"Mischief\"}}L'ho sempre saputo che\nsaresti tornat{{gender m=\"o\" f=\"a\"}} strisciando!\n{{pause frames=\"10\"}}{{reaction type=\"Laughter\"}}Sei così prevedibile!",
      "JPja": "{{reaction type=\"Amazed\"}}おっ、{{pause frames=\"5\"}}{{string value=\"PlayerNickname\"}}！{{pause frames=\"20\"}}\n{{kanjiReplace charNum=\"1\" value=\"ひ\"}}引っ{{kanjiReplace charNum=\"1\" value=\"こ\"}}越したそうだな\n\n{{reaction type=\"Mischief\"}}あぶねぇハシ　{{kanjiReplace charNum=\"1\" value=\"わた\"}}渡るのも\nたいがいに　しとけよ、{{pause frames=\"5\"}}{{string value=\"Catchphrase\"}}",
      "KRko": "{{reaction type=\"Amazed\"}}야아， {{pause frames=\"5\"}}{{string value=\"PlayerNickname\"}}！{{pause frames=\"20\"}}\n이사했단 얘긴 들었다\n\n{{reaction type=\"Mischief\"}}위험한 다리 건너는 것도\n이제 좀 그만해라， {{pause frames=\"5\"}}{{string value=\"Catchphrase\"}}",
      "USen": "{{reaction type=\"Amazed\"}}Yo, {{pause frames=\"5\"}}{{string value=\"PlayerNickname\"}}!{{pause frames=\"20\"}} I heard\nyou moved! {{pressButton}}But just look\nat you now!\n{{reaction type=\"Mischief\"}}I always knew you'd come\ncrawling back! {{pause frames=\"10\"}}{{reaction type=\"Laughter\"}}You're so\npredictable, {{pause frames=\"5\"}}{{string value=\"Catchphrase\"}}!"
    }
  },
  {
    "label": "9",
    "attribute": "0x00000000FF000000",
    "locale": {
      "EUde": "Oh!{{pause frames=\"20\"}} Hey,{{pause frames=\"5\"}} du bist doch\numgezogen.{{pause frames=\"5\"}} Doch jetzt biste\nwieder da.{{pressButton}}{{reaction type=\"Annoyed\"}}{{vibrateWeak}} WARUM!?!\nErwarte von mir kein großes\nWillkommen! {{pause frames=\"5\"}}Nein, der Zug\nist schon lange abgefahren!",
      "EUen": "Oh!{{pause frames=\"20\"}} Hey,{{pause frames=\"5\"}} I heard you moved.{{pause frames=\"5\"}}\nBut here you are, back\nagain.{{pressButton}}{{reaction type=\"Annoyed\"}}{{vibrateWeak}} WHY?!\nYou better not expect any\nhandouts from me! {{pause frames=\"5\"}}Nope,\nthat train's long gone!",
      "EUes": "¡Ah!{{pause frames=\"20\"}} Hola,{{pause frames=\"5\"}} oí que te\nmudaste.{{pause frames=\"5\"}} Pero hete aquí, de\nvuelta.{{pressButton}} {{reaction type=\"Annoyed\"}}{{vibrateWeak}}¡¿POR QUÉ?!\n¡No esperes ninguna\nhospitalidad por mi parte!{{pause frames=\"5\"}}\n¡Ni por asomo!",
      "EUfr": "Oh!{{pause frames=\"20\"}} Hé,{{pause frames=\"5\"}} je te croyais {{gender m=\"parti\" f=\"partie\"}}.{{pause frames=\"5\"}}\nMais voilà, tu es de\nretour.{{pressButton}}{{reaction type=\"Annoyed\"}}{{vibrateWeak}} POURQUOI?!\nT'attends pas à ce que je\nt'accueille à bras ouverts! {{pause frames=\"5\"}}\nNon, j'ai tourné la page!",
      "EUit": "Oh!{{pause frames=\"20\"}} Ehi,{{pause frames=\"5\"}} non te n'eri andat{{gender m=\"o\" f=\"a\"}}?{{pause frames=\"5\"}}\nSì, ma rieccoti qua.{{pressButton}}{{reaction type=\"Annoyed\"}}{{vibrateWeak}} \nPERCHÉ?!\nNon sarai mica venut{{gender m=\"o\" f=\"a\"}} \na chiedermi qualcosa! {{pause frames=\"5\"}}Non\nc'è trippa per gatti, eh!",
      "JPja": "おう！{{pause frames=\"20\"}}　おめぇ{{pause frames=\"5\"}}\n{{kanjiReplace charNum=\"1\" value=\"ひ\"}}引っ{{kanjiReplace charNum=\"1\" value=\"こ\"}}越したらしいな\n\n{{reaction type=\"Mischief\"}}{{kanjiReplace charNum=\"1\" value=\"なに\"}}何が　あったのかは\n{{kanjiReplace charNum=\"1\" value=\"き\"}}聞かないで　おいてやるぜ！\n{{pause frames=\"5\"}}{{string value=\"Catchphrase\"}}！",
      "KRko": "와우！{{pause frames=\"20\"}} 너{{pause frames=\"5\"}}\n이사했다면서\n\n{{reaction type=\"Mischief\"}}무슨 일이 있었는지는\n특별히 안 물을게！\n{{pause frames=\"5\"}}{{string value=\"Catchphrase\"}}！",
      "USen": "Oh!{{pause frames=\"20\"}} Hey,{{pause frames=\"5\"}} I heard you moved.{{pause frames=\"5\"}}\nBut here you are, back\nagain.{{pressButton}}{{reaction type=\"Annoyed\"}}{{vibrateWeak}} WHY?!\nYou better not expect any\nhandouts from me! {{pause frames=\"5\"}}Nope,\nthat train's long gone!"
    }
  }
]