[
  {
    "label": "0",
    "attribute": "0x000F0000FE000000",
    "locale": {
      "EUde": "{{reaction type=\"Joy\"}}Ah! Das ist besser!{{pressButton}}\n{{reaction type=\"Fearful\"}}Ich hatte mich gefühlt,{{pause frames=\"5\"}} als\nfolgt mir jemand... {{pause frames=\"10\"}}Schlimm!\n{{reaction type=\"Glee\"}}Wer hätte gedacht, dass du\nSO ein guter Jäger bist, \n{{string value=\"PlayerNickname\"}}? {{pause frames=\"10\"}}{{capitalizeLetter}}{{string value=\"Catchphrase\"}}!",
      "EUen": "{{reaction type=\"Joy\"}}Whoa, I feel loads better!{{pressButton}}\n{{reaction type=\"Fearful\"}}I had this feeling that{{pause frames=\"5\"}} I\nwas being followed... {{pause frames=\"10\"}}Scary!\n{{reaction type=\"Glee\"}}Who knew that you were SO\ngood at catching bugs, \n{{string value=\"PlayerNickname\"}}? {{pause frames=\"10\"}}{{capitalizeLetter}}{{string value=\"Catchphrase\"}}!",
      "EUes": "{{reaction type=\"Joy\"}}¡Ya me siento mucho mejor!{{pressButton}}\n{{reaction type=\"Fearful\"}}Tenía la sensación{{pause frames=\"5\"}} como de\nque alguien me seguía...\n{{reaction type=\"Glee\"}}¡Jamás hubiera pensado que\neras tan buen{{gender m=\"o\" f=\"a\"}} atrapando\nbichos, {{string value=\"PlayerNickname\"}}!",
      "EUfr": "{{reaction type=\"Joy\"}}Waouh, je me sens mieux!{{pressButton}}\n{{reaction type=\"Fearful\"}}J'avais l'impression{{pause frames=\"5\"}} \nqu'on me suivait... {{pause frames=\"10\"}}Brrr!\n{{reaction type=\"Glee\"}}J'ignorais ton don pour\nattraper les insectes, \n{{string value=\"PlayerNickname\"}}! {{pause frames=\"10\"}}{{capitalizeLetter}}{{string value=\"Catchphrase\"}}!",
      "EUit": "{{reaction type=\"Joy\"}}Wow, mi sento molto meglio!{{pressButton}}\n{{reaction type=\"Fearful\"}}Era come se qualcuno{{pause frames=\"5\"}}\nmi seguisse... {{pause frames=\"10\"}}Che paura!\n{{reaction type=\"Glee\"}}Chi l'avrebbe mai detto\nche sei COSÌ brav{{gender m=\"o\" f=\"a\"}} a cat-\nturare insetti, {{pause frames=\"10\"}}{{string value=\"Catchphrase\"}}?",
      "JPja": "{{reaction type=\"Joy\"}}わぁ～、すっきりぃ～！{{pressButton}}\n{{resetReaction}}なんだか　{{kanjiReplace charNum=\"1\" value=\"からだ\"}}体が\nムズムズしてたんだぁ、{{pause frames=\"10\"}}{{string value=\"Catchphrase\"}}\n{{reaction type=\"Glee\"}}{{string value=\"PlayerNickname\"}}くんって\nムシとりさせたら\nてんさいてきだねぇ～、{{pause frames=\"10\"}}{{string value=\"Catchphrase\"}}！",
      "KRko": "{{reaction type=\"Joy\"}}와아～ 시원해～！！{{pressButton}}\n{{resetReaction}}어쩐지 몸이\n근질근질하더라～ {{pause frames=\"10\"}}{{string value=\"Catchphrase\"}}\n{{reaction type=\"Glee\"}}{{string value=\"PlayerNickname\"}}{{fun_0B arg=\"0x0500\"}}는\n곤충채집의\n달인이구나아～？ {{pause frames=\"10\"}}{{string value=\"Catchphrase\"}}",
      "USen": "{{reaction type=\"Joy\"}}Whoa, I feel loads better!{{pressButton}}\n{{reaction type=\"Fearful\"}}I had this feeling that{{pause frames=\"5\"}} I\nwas being followed... {{pause frames=\"10\"}}Scary!\n{{reaction type=\"Glee\"}}Who knew that you were SO\ngood at catching bugs, \n{{string value=\"PlayerNickname\"}}? {{pause frames=\"10\"}}{{capitalizeLetter}}{{string value=\"Catchphrase\"}}!"
    }
  },
  {
    "label": "1",
    "attribute": "0x000F0000FE000000",
    "locale": {
      "EUde": "{{reaction type=\"Shocked\"}}{{vibrateWeak}}HEY!!!{{pressButton}} NEIN!!!{{pause frames=\"20\"}} M{{pause frames=\"10\"}}-meine{{pause frames=\"5\"}}.{{pause frames=\"5\"}}.{{pause frames=\"5\"}}.\n\n\n{{reaction type=\"Distress\"}}Meine Freunde!!!{{pause frames=\"20\"}} Du hast\nmeine Freunde entführt!{{pause frames=\"5\"}}\n{{capitalizeLetter}}{{string value=\"Catchphrase\"}}!",
      "EUen": "{{reaction type=\"Shocked\"}}{{vibrateWeak}}HEY!!!{{pressButton}} Oh, NO!!{{pause frames=\"20\"}} M{{pause frames=\"10\"}}-my{{pause frames=\"5\"}}.{{pause frames=\"5\"}}.{{pause frames=\"5\"}}.\n\n\n{{reaction type=\"Distress\"}}My buddies!!!{{pause frames=\"20\"}} You've\nkidnapped my buddies!{{pause frames=\"5\"}}\n{{capitalizeLetter}}{{string value=\"Catchphrase\"}}!",
      "EUes": "{{reaction type=\"Shocked\"}}{{vibrateWeak}}¡¡EEH!!{{pressButton}} ¡¡Oh, NO!!{{pause frames=\"20\"}} Va{{pause frames=\"10\"}}-vaya{{pause frames=\"5\"}}.{{pause frames=\"5\"}}.{{pause frames=\"5\"}}.\n\n\n{{reaction type=\"Distress\"}}¡¡Mi amiga!!{{pause frames=\"20\"}}\n¡La has atrapado!{{pause frames=\"5\"}}\n¡{{capitalizeLetter}}{{string value=\"Catchphrase\"}}!",
      "EUfr": "{{reaction type=\"Shocked\"}}{{vibrateWeak}}Hé!!!{{pressButton}} Oh, NON!!{{pause frames=\"20\"}} M{{pause frames=\"10\"}}-mes{{pause frames=\"5\"}}.{{pause frames=\"5\"}}.{{pause frames=\"5\"}}.\n\n\n{{reaction type=\"Distress\"}}Mes copines!!!{{pause frames=\"20\"}} Tu as\nenlevé mes copines!{{pause frames=\"5\"}}\n{{capitalizeLetter}}{{string value=\"Catchphrase\"}}!",
      "EUit": "{{reaction type=\"Shocked\"}}{{vibrateWeak}}EHI!!!{{pressButton}} Oh, NO!{{pause frames=\"20\"}} I M{{pause frames=\"10\"}}-miei{{pause frames=\"5\"}}.{{pause frames=\"5\"}}.{{pause frames=\"5\"}}.\n\n\n{{reaction type=\"Distress\"}}I miei amici!!!{{pause frames=\"20\"}} Hai rapito\ni miei amici!{{pause frames=\"5\"}}\n{{capitalizeLetter}}{{string value=\"Catchphrase\"}}!",
      "JPja": "{{reaction type=\"Shocked\"}}{{vibrateWeak}}あぁぁぁ！{{pressButton}}\nボ、ボクの{{pause frames=\"5\"}}・{{pause frames=\"5\"}}・{{pause frames=\"5\"}}・\n\n{{reaction type=\"Distress\"}}ゆうかいだぁ！{{pause frames=\"20\"}}\nボクの　ともだちが\nゆうかいされたぁ！　{{pause frames=\"5\"}}{{string value=\"Catchphrase\"}}！",
      "KRko": "{{reaction type=\"Shocked\"}}{{vibrateWeak}}으아아아악！{{pressButton}}\n내， 내 친구를{{pause frames=\"5\"}}・{{pause frames=\"5\"}}・{{pause frames=\"5\"}}・\n\n{{reaction type=\"Distress\"}}납치다아！{{pause frames=\"20\"}}\n내 친구가\n납치당했다아！！ {{pause frames=\"5\"}}{{string value=\"Catchphrase\"}}",
      "USen": "{{reaction type=\"Shocked\"}}{{vibrateWeak}}HEY!!!{{pressButton}} Oh, NO!!{{pause frames=\"20\"}} M{{pause frames=\"10\"}}-my{{pause frames=\"5\"}}.{{pause frames=\"5\"}}.{{pause frames=\"5\"}}.\n\n\n{{reaction type=\"Distress\"}}My buddies!!!{{pause frames=\"20\"}} You've\nkidnapped my buddies!{{pause frames=\"5\"}}\n{{capitalizeLetter}}{{string value=\"Catchphrase\"}}!"
    }
  },
  {
    "label": "2",
    "attribute": "0x000F0000FE000000",
    "locale": {
      "EUde": "{{reaction type=\"Shocked\"}}Wow!{{pause frames=\"20\"}} {{reaction type=\"Distress\"}}Hey, {{pause frames=\"5\"}}das ist neu!{{pause frames=\"10\"}}\nIch hatte keine Ahnung!{{pause frames=\"20\"}} Es\nhat auch nicht gejuckt{{pause frames=\"5\"}}.{{pause frames=\"5\"}}.{{pause frames=\"5\"}}.\n{{reaction type=\"Intense\"}}Und ich wasche mich täglich!{{pause frames=\"10\"}}\nIm Ernst! {{pause frames=\"5\"}}{{capitalizeLetter}}{{string value=\"Catchphrase\"}}!",
      "EUen": "{{reaction type=\"Shocked\"}}Whoa!{{pause frames=\"20\"}} {{reaction type=\"Distress\"}}Hey, {{pause frames=\"5\"}}I had no idea!{{pause frames=\"10\"}}\nNone at all!{{pause frames=\"20\"}} 'Cause it's not\nlike I was itchy{{pause frames=\"5\"}}.{{pause frames=\"5\"}}.{{pause frames=\"5\"}}.\n{{reaction type=\"Intense\"}}And I wash every day!{{pause frames=\"10\"}}\nHonest! {{pause frames=\"5\"}}{{capitalizeLetter}}{{string value=\"Catchphrase\"}}!",
      "EUes": "{{reaction type=\"Shocked\"}}¡Anda!{{pause frames=\"20\"}} {{reaction type=\"Distress\"}}¡Eh, no tenía ni idea!{{pause frames=\"10\"}}\n¡Ni me lo imaginaba!{{pause frames=\"20\"}} No es\ncomo si me picara o así{{pause frames=\"5\"}}.{{pause frames=\"5\"}}.{{pause frames=\"5\"}}.\n{{reaction type=\"Intense\"}}¡Y me ducho todos los días!{{pause frames=\"10\"}}\n¡En serio, {{string value=\"Catchphrase\"}}!",
      "EUfr": "{{reaction type=\"Shocked\"}}Waouh!{{pause frames=\"20\"}} {{reaction type=\"Distress\"}}Hé, {{pause frames=\"5\"}}j'ignorais!{{pause frames=\"10\"}}\nTotalement!{{pause frames=\"20\"}} Ça ne me\ngrattait pas non plus{{pause frames=\"5\"}}.{{pause frames=\"5\"}}.{{pause frames=\"5\"}}.\n{{reaction type=\"Intense\"}}Je me lave tous les jours!{{pause frames=\"10\"}}\nSincèrement! {{pause frames=\"5\"}}{{capitalizeLetter}}{{string value=\"Catchphrase\"}}!",
      "EUit": "{{reaction type=\"Shocked\"}}Wow!{{pause frames=\"20\"}} {{reaction type=\"Distress\"}}Ehi, {{pause frames=\"5\"}}non me n'ero\naccorto!{{pause frames=\"10\"}} Niente!{{pause frames=\"20\"}} Tra l'altro,\nnon mi prudeva affatto{{pause frames=\"5\"}}.{{pause frames=\"5\"}}.{{pause frames=\"5\"}}.\n{{reaction type=\"Intense\"}}E mi lavo ogni giorno!{{pause frames=\"10\"}}\nGiuro! {{pause frames=\"5\"}}{{capitalizeLetter}}{{string value=\"Catchphrase\"}}!",
      "JPja": "{{reaction type=\"Shocked\"}}うわっ！{{pause frames=\"20\"}}\n{{reaction type=\"Distress\"}}し、{{pause frames=\"5\"}}{{kanjiReplace charNum=\"1\" value=\"し\"}}知らない！{{pause frames=\"10\"}}\nそんなの　{{kanjiReplace charNum=\"1\" value=\"し\"}}知らないよぉ！\n{{reaction type=\"Intense\"}}カユイとこなんて　なかったし{{pause frames=\"5\"}}\nカラダだって　あらってるもん！\n{{pause frames=\"5\"}}{{string value=\"Catchphrase\"}}！",
      "KRko": "{{reaction type=\"Shocked\"}}으악！{{pause frames=\"20\"}}\n{{reaction type=\"Distress\"}}나， {{pause frames=\"5\"}}난 몰라！{{pause frames=\"10\"}}\n난 정말로 몰라！！\n{{reaction type=\"Intense\"}}전혀 간지럽지도 않았고{{pause frames=\"5\"}}\n샤워도 했단 말이야！！\n{{pause frames=\"5\"}}{{string value=\"Catchphrase\"}}！！",
      "USen": "{{reaction type=\"Shocked\"}}Whoa!{{pause frames=\"20\"}} {{reaction type=\"Distress\"}}Hey, {{pause frames=\"5\"}}I had no idea!{{pause frames=\"10\"}}\nNone at all!{{pause frames=\"20\"}} 'Cause it's not\nlike I was itchy{{pause frames=\"5\"}}.{{pause frames=\"5\"}}.{{pause frames=\"5\"}}.\n{{reaction type=\"Intense\"}}And I wash every day!{{pause frames=\"10\"}}\nHonest! {{pause frames=\"5\"}}{{capitalizeLetter}}{{string value=\"Catchphrase\"}}!"
    }
  }
]