[
  {
    "label": "0",
    "attribute": "0x00000000FE000000",
    "locale": {
      "EUde": "{{reaction type=\"Amazed\"}}Waaah!{{pause frames=\"20\"}} Schau!{{pause frames=\"5\"}} SCHAU!{{pause frames=\"5\"}} Siehst\ndu es!?!{{pause frames=\"20\"}} {{gender m=\"Diesen\" f=\"Diese\" n=\"Dieses\"}}\n{{ignoreArticle}}{{itemName index=\"0\"}}!\n{{reaction type=\"ColdChill\"}}Ähm{{pause frames=\"5\"}}.{{pause frames=\"5\"}}.{{pause frames=\"5\"}}.{{pressButton}} {{reaction type=\"Sorrow\"}} WAAAAAAH!{{pause frames=\"5\"}} Ich\nhabe Angst! Komm mir \nnicht zu nahe, {{pause frames=\"10\"}}{{string value=\"Catchphrase\"}}!",
      "EUen": "{{reaction type=\"Amazed\"}}Gyaaa!{{pause frames=\"20\"}} Look!{{pause frames=\"5\"}} LOOK!{{pause frames=\"5\"}} Are you\nlooking?!{{pause frames=\"20\"}} Look at that\n{{ignoreArticle}}{{itemName index=\"0\"}}!\n{{reaction type=\"ColdChill\"}}Um{{pause frames=\"5\"}}.{{pause frames=\"5\"}}.{{pause frames=\"5\"}}.{{pressButton}} {{reaction type=\"Sorrow\"}}WAAAAAAAH!{{pause frames=\"5\"}} It's really\nfreakin' me out! Don't let\nit get me, {{pause frames=\"10\"}}{{string value=\"Catchphrase\"}}!",
      "EUes": "{{reaction type=\"Amazed\"}}¡Uuaaaa!{{pause frames=\"20\"}} ¡Mira!{{pause frames=\"5\"}} ¡MIRA!{{pause frames=\"5\"}} ¡¿Estás\nmirando?!{{pause frames=\"20\"}} ¡Madre mía, qué\n{{ignoreArticle}}{{itemName index=\"0\"}}!\n{{reaction type=\"ColdChill\"}}Mm{{pause frames=\"5\"}}.{{pause frames=\"5\"}}.{{pause frames=\"5\"}}.{{pressButton}} {{reaction type=\"Sorrow\"}}¡BUAAAA!{{pause frames=\"5\"}} ¡Me dan un\nmiedo horrible! ¡Que no se\nme acerque, {{pause frames=\"10\"}}{{string value=\"Catchphrase\"}}!",
      "EUfr": "{{reaction type=\"Amazed\"}}Gyaaa!{{pause frames=\"20\"}} Regarde!{{pause frames=\"5\"}} Regarde!{{pause frames=\"5\"}} \nT'as vu ça?{{pause frames=\"20\"}} Non mais vise\n{{gender m=\"le\" f=\"la\" n=\"\"}}{{ignoreArticle}} {{itemName index=\"0\"}}!\n{{reaction type=\"ColdChill\"}}Hum{{pause frames=\"5\"}}.{{pause frames=\"5\"}}.{{pause frames=\"5\"}}.{{pressButton}} {{reaction type=\"Sorrow\"}}WAAAAAAAH!{{pause frames=\"5\"}} Ça me\nfout la frousse! L{{gender m=\"e\" f=\"a\" n=\"\"}} laisse\npas m'attraper, {{pause frames=\"10\"}}{{string value=\"Catchphrase\"}}!",
      "EUit": "{{reaction type=\"Amazed\"}}Iaaaah!{{pause frames=\"20\"}} Guarda!{{pause frames=\"5\"}} GUARDA!\n{{pause frames=\"5\"}}Stai guardando?!{{pause frames=\"20\"}} È\n{{itemName index=\"0\"}}!\n{{reaction type=\"ColdChill\"}}Uhm{{pause frames=\"5\"}}.{{pause frames=\"5\"}}.{{pause frames=\"5\"}}.{{pressButton}} {{reaction type=\"Sorrow\"}}AAAAAAAH!{{pause frames=\"5\"}} Mi spaventa\na morte! Non voglio\navvicinarmici, {{pause frames=\"10\"}}{{string value=\"Catchphrase\"}}!",
      "JPja": "{{reaction type=\"Amazed\"}}あ！　{{pause frames=\"20\"}}{{kanjiReplace charNum=\"1\" value=\"み\"}}見て、{{pause frames=\"5\"}}{{kanjiReplace charNum=\"1\" value=\"み\"}}見て！　\n{{string value=\"PlayerNickname\"}}くん！{{pause frames=\"20\"}}\nあの{{itemName index=\"0\"}}{{pause frames=\"5\"}}・{{pause frames=\"5\"}}・{{pause frames=\"5\"}}・{{pause frames=\"5\"}}\n{{reaction type=\"ColdChill\"}}{{pause frames=\"5\"}}・{{pause frames=\"5\"}}・{{pause frames=\"5\"}}・{{pressButton}}\n{{reaction type=\"Sorrow\"}}うわぁ～！{{pause frames=\"5\"}}　コワイよぉ～！\n{{pause frames=\"10\"}}{{string value=\"Catchphrase\"}}！",
      "KRko": "{{reaction type=\"Amazed\"}}악！ {{pause frames=\"20\"}}이것 {{pause frames=\"5\"}}좀 봐！！　\n{{string value=\"PlayerNickname\"}}{{fun_0B arg=\"0x0400\"}}！！{{pause frames=\"20\"}}\n{{itemName index=\"0\"}}{{pause frames=\"5\"}}・{{pause frames=\"5\"}}・{{pause frames=\"5\"}}・{{pause frames=\"5\"}}\n{{reaction type=\"ColdChill\"}}{{pause frames=\"5\"}}・{{pause frames=\"5\"}}・{{pause frames=\"5\"}}・{{pressButton}}\n{{reaction type=\"Sorrow\"}}꺄아～！{{pause frames=\"5\"}} 무서워～～！！\n{{pause frames=\"10\"}}{{string value=\"Catchphrase\"}}～！",
      "USen": "{{reaction type=\"Amazed\"}}Gyaaa!{{pause frames=\"20\"}} Look!{{pause frames=\"5\"}} LOOK!{{pause frames=\"5\"}} Are you\nlooking?!{{pause frames=\"20\"}} Look at that\n{{ignoreArticle}}{{itemName index=\"0\"}}!\n{{reaction type=\"ColdChill\"}}Um{{pause frames=\"5\"}}.{{pause frames=\"5\"}}.{{pause frames=\"5\"}}.{{pressButton}} {{reaction type=\"Sorrow\"}}WAAAAAAAH!{{pause frames=\"5\"}} It's really\nfreakin' me out! Don't let\nit get me, {{pause frames=\"10\"}}{{string value=\"Catchphrase\"}}!"
    }
  },
  {
    "label": "1",
    "attribute": "0x00000000FE000000",
    "locale": {
      "EUde": "{{reaction type=\"Inspiration\"}}Oh, {{pause frames=\"10\"}}{{string value=\"PlayerNickname\"}}!{{pause frames=\"20\"}} Siehst du\n{{gender m=\"den\" f=\"die\" n=\"das\"}} {{ignoreArticle}}{{itemName index=\"0\"}}\ndort drüben?\n{{reaction type=\"Mischief\"}}Ganz ruhig. Vorsichtig\nbewegen und keine Spuren\nhinterlassen,{{pause frames=\"10\"}} {{string value=\"Catchphrase\"}}.",
      "EUen": "{{reaction type=\"Inspiration\"}}Oh, {{pause frames=\"10\"}}{{string value=\"PlayerNickname\"}}!{{pause frames=\"20\"}} See that\n{{ignoreArticle}}{{itemName index=\"0\"}}\nover there?\n{{reaction type=\"Mischief\"}}We gotta play it cool. Just\nwalk quietly and don't leave\nany traces,{{pause frames=\"10\"}} {{string value=\"Catchphrase\"}}.",
      "EUes": "{{reaction type=\"Inspiration\"}}¡Ah, {{pause frames=\"10\"}}{{string value=\"PlayerNickname\"}}!{{pause frames=\"20\"}} ¿Ves es{{gender m=\"e\" f=\"a\" n=\"x\"}}\n{{ignoreArticle}}{{itemName index=\"0\"}} de\nallí?\n{{reaction type=\"Mischief\"}}Tenemos que hacerlo bien.\nAcércate lentamente y no\ndejes huellas,{{pause frames=\"10\"}} {{string value=\"Catchphrase\"}}.",
      "EUfr": "{{reaction type=\"Inspiration\"}}Oh, {{pause frames=\"10\"}}{{string value=\"PlayerNickname\"}}!{{pause frames=\"20\"}} Tu vois\n{{fun_0B}}{{itemName index=\"0\"}}\nlà-bas?\n{{reaction type=\"Mischief\"}}On va la jouer discret.\nAvance doucement et laisse\npas de traces,{{pause frames=\"10\"}} {{string value=\"Catchphrase\"}}.",
      "EUit": "{{reaction type=\"Inspiration\"}}Oh, {{pause frames=\"10\"}}{{string value=\"PlayerNickname\"}}!{{pause frames=\"20\"}} Hai visto\nquella cosa laggiù?\nÈ {{itemName index=\"0\"}}.\n{{reaction type=\"Mischief\"}}Sii disinvolt{{gender m=\"o\" f=\"a\"}}. Cammina\nlentamente e non lasciare\ntracce,{{pause frames=\"10\"}} {{string value=\"Catchphrase\"}}.",
      "JPja": "{{reaction type=\"Amazed\"}}あ！　{{pause frames=\"10\"}}{{string value=\"PlayerNickname\"}}くん、{{pause frames=\"20\"}}\n{{itemName index=\"0\"}}だよぉ～\n\n{{reaction type=\"Worry\"}}けはいを　けして\n{{kanjiReplace charNum=\"1\" value=\"ある\"}}歩こうねぇ～、{{pause frames=\"10\"}}{{string value=\"Catchphrase\"}}",
      "KRko": "{{reaction type=\"Inspiration\"}}앗！ {{pause frames=\"10\"}}{{string value=\"PlayerNickname\"}}！！{{pause frames=\"20\"}}\n{{itemName index=\"0\"}}{{fun_0B arg=\"0x0500\"}}야\n\n{{reaction type=\"Worry\"}}발소리를 죽이고\n걷자아～～ {{pause frames=\"10\"}}{{string value=\"Catchphrase\"}}～",
      "USen": "{{reaction type=\"Inspiration\"}}Oh, {{pause frames=\"10\"}}{{string value=\"PlayerNickname\"}}!{{pause frames=\"20\"}} See that\n{{ignoreArticle}}{{itemName index=\"0\"}}\nover there?\n{{reaction type=\"Mischief\"}}We gotta play it cool. Just\nwalk quietly and don't leave\nany traces,{{pause frames=\"10\"}} {{string value=\"Catchphrase\"}}."
    }
  },
  {
    "label": "2",
    "attribute": "0x00000000FE000000",
    "locale": {
      "EUde": "{{reaction type=\"Annoyed\"}}Hey!{{pause frames=\"20\"}} Du machst immer so\neinen Aufstand. Mach ruhig,\nO.K.? {{pause frames=\"10\"}}Das ist nicht schwer!\n{{reaction type=\"Distress\"}}Dort ist {{gender m=\"ein seltener\" f=\"eine seltene\" n=\"ein seltenes\"}}\n{{ignoreArticle}}{{itemName index=\"0\"}}!\nSei vorsichtig{{pause frames=\"10\"}}.{{pause frames=\"10\"}}.{{pause frames=\"10\"}}.{{pause frames=\"10\"}} Und RUHIG!",
      "EUen": "{{reaction type=\"Annoyed\"}}Dang!{{pause frames=\"20\"}} You're always making\nsuch a racket! Cool it,\nOK? {{pause frames=\"10\"}}It's not that hard!\n{{reaction type=\"Distress\"}}That right there is a rare\n{{ignoreArticle}}{{itemName index=\"0\"}}!\nBe careful{{pause frames=\"10\"}}.{{pause frames=\"10\"}}.{{pause frames=\"10\"}}.{{pause frames=\"10\"}} And CHILL OUT!",
      "EUes": "{{reaction type=\"Annoyed\"}}¡No puede ser!{{pause frames=\"20\"}} ¡Siempre\narmando jaleo! Relájate,\n¿vale?{{pause frames=\"10\"}} ¡Verás qué fácil es!\n{{reaction type=\"Distress\"}}¡Mira, un raro ejemplar\nde {{ignoreArticle}}{{itemName index=\"0\"}}!\nTen cuidado{{pause frames=\"10\"}}.{{pause frames=\"10\"}}.{{pause frames=\"10\"}}.{{pause frames=\"10\"}} ¡y RELÁJATE!",
      "EUfr": "{{reaction type=\"Annoyed\"}}Flûte!{{pause frames=\"20\"}} Tu fais toujours un\ntel boucan! Calme-toi, OK?\n{{pause frames=\"10\"}}C'est pas si compliqué!\n{{reaction type=\"Distress\"}}C'est si rare de croiser\n{{itemName index=\"0\"}}!\nFais gaffe{{pause frames=\"10\"}}.{{pause frames=\"10\"}}.{{pause frames=\"10\"}}.{{pause frames=\"10\"}} et RESTE CALME!",
      "EUit": "{{reaction type=\"Annoyed\"}}Diamine!{{pause frames=\"20\"}} Fai sempre così\ntanto rumore! Finiscila, OK?\n{{pause frames=\"10\"}}Non è così difficile!\n{{reaction type=\"Distress\"}}Laggiù c'è\n{{itemName index=\"0\"}}...\nuna vera rarità!\nFa' attenzione{{pause frames=\"10\"}}.{{pause frames=\"10\"}}.{{pause frames=\"10\"}}.{{pause frames=\"10\"}}\nE rimani CALM{{gender m=\"O\" f=\"A\"}}!",
      "JPja": "{{reaction type=\"Annoyed\"}}もぉ～！{{pause frames=\"20\"}}\nキミってば　いっつも\nさわがしいなぁ！\n{{reaction type=\"Distress\"}}そこに　{{itemName index=\"0\"}}が\nいるんだから、{{pause frames=\"10\"}}\n{{kanjiReplace charNum=\"1\" value=\"き\"}}気をつけてよぉ！　{{pause frames=\"10\"}}{{string value=\"Catchphrase\"}}！",
      "KRko": "{{reaction type=\"Annoyed\"}}야～！{{pause frames=\"20\"}}\n넌 항상 너무\n시끄러워！！\n{{reaction type=\"Distress\"}}{{itemName index=\"0\"}}{{fun_0B arg=\"0x0300\"}}\n저기에 있으니까{{pause frames=\"10\"}}\n조심해！！ {{pause frames=\"10\"}}{{string value=\"Catchphrase\"}}！",
      "USen": "{{reaction type=\"Annoyed\"}}Dang!{{pause frames=\"20\"}} You're always making\nsuch a racket! Cool it,\nOK? {{pause frames=\"10\"}}It's not that hard!\n{{reaction type=\"Distress\"}}That right there is a rare\n{{ignoreArticle}}{{itemName index=\"0\"}}!\nBe careful{{pause frames=\"10\"}}.{{pause frames=\"10\"}}.{{pause frames=\"10\"}}.{{pause frames=\"10\"}} And CHILL OUT!"
    }
  }
]