[
  {
    "label": "0",
    "attribute": "0x000B0000FF000000",
    "locale": {
      "EUde": "{{reaction type=\"Amazed\"}}Oh...{{pause frames=\"10\"}} {{resetReaction}}{{reaction type=\"Joy\"}}HURRA!{{pause frames=\"5\"}} JIPPIE!{{pause frames=\"5\"}} {{gender m=\"Ein\" f=\"Eine\" n=\"Ein\"}}\n{{ignoreArticle}}{{itemName index=\"0\"}}!\n{{pause frames=\"5\"}}{{capitalizeLetter}}{{string value=\"Catchphrase\"}}!!!\n{{capitalizeLetter}}{{color id=\"7\"}}{{string index=\"0\"}}{{color id=\"0\"}}\nmag ich am\nliebsten!{{pause frames=\"10\"}} WUNDERBAR!",
      "EUen": "{{reaction type=\"Amazed\"}}Oh...{{pause frames=\"10\"}} {{resetReaction}}{{reaction type=\"Joy\"}}HOORAY!{{pause frames=\"5\"}} YAY!{{pause frames=\"5\"}} It's\n{{itemName index=\"0\"}}, \n{{pause frames=\"5\"}}{{string value=\"Catchphrase\"}}!!\nI always wanted some\n{{color id=\"7\"}}{{string index=\"0\"}}{{color id=\"0\"}}\nlike this!{{pause frames=\"10\"}} It's ADORABLE!",
      "EUes": "{{reaction type=\"Amazed\"}}Oh...{{pause frames=\"10\"}} {{resetReaction}}{{reaction type=\"Joy\"}}¡Qué bien,{{pause frames=\"5\"}} qué estupén!{{pause frames=\"5\"}}\n¡{{capitalizeLetter}}{{itemName index=\"0\"}}, \n{{pause frames=\"5\"}}{{string value=\"Catchphrase\"}}!\n¡Siempre he querido\n{{color id=\"7\"}}{{string index=\"0\"}}{{color id=\"0\"}}\nasí!{{pause frames=\"10\"}} ¡Qué GENIAL!",
      "EUfr": "{{reaction type=\"Amazed\"}}Oh...{{pause frames=\"10\"}} {{resetReaction}}{{reaction type=\"Joy\"}}HIP!{{pause frames=\"5\"}} HIP!{{pause frames=\"5\"}} HIP!{{pause frames=\"5\"}} HOURRA!{{pause frames=\"5\"}}\n{{capitalizeLetter}}{{itemName index=\"0\"}}, \n{{pause frames=\"5\"}}{{string value=\"Catchphrase\"}}!!\nJ'ai toujours voulu\n{{color id=\"7\"}}{{string index=\"0\"}}{{color id=\"0\"}}\ncomme ça!{{pause frames=\"10\"}} C'est GENIAL!",
      "EUit": "{{reaction type=\"Amazed\"}}Oh...{{pause frames=\"10\"}} {{resetReaction}}{{reaction type=\"Joy\"}}URRÀ!{{pause frames=\"5\"}} SÌ!{{pause frames=\"5\"}} È\n{{itemName index=\"0\"}}, \n{{pause frames=\"5\"}}{{string value=\"Catchphrase\"}}!\nHo sempre desiderato degli\nesclusivi\n{{color id=\"7\"}}{{string index=\"0\"}}{{color id=\"0\"}}\ncome questo!{{pause frames=\"10\"}} È ADORABILE!",
      "JPja": "{{resetReaction}}あ、{{pause frames=\"10\"}}\n{{itemName index=\"0\"}}だね、\n{{pause frames=\"5\"}}{{string value=\"Catchphrase\"}}\nこんな　カンジの\n{{color id=\"7\"}}{{string index=\"0\"}}{{color id=\"0\"}}が\nほしかったんだー！",
      "KRko": "{{reaction type=\"Amazed\"}}어머， {{pause frames=\"10\"}}\n{{itemName index=\"0\"}}{{fun_0B arg=\"0x0500\"}}네\n{{pause frames=\"5\"}}{{string value=\"Catchphrase\"}}\n이런 느낌의\n{{color id=\"7\"}}{{string index=\"0\"}}{{color id=\"0\"}}{{fun_0B arg=\"0x0300\"}}\n갖고 싶었어！",
      "USen": "{{reaction type=\"Amazed\"}}Oh...{{pause frames=\"10\"}} {{resetReaction}}{{reaction type=\"Joy\"}}HOORAY!{{pause frames=\"5\"}} YAY!{{pause frames=\"5\"}} It's\n{{itemName index=\"0\"}}, \n{{pause frames=\"5\"}}{{string value=\"Catchphrase\"}}!!\nI always wanted some\n{{color id=\"7\"}}{{string index=\"0\"}}{{color id=\"0\"}}\nlike this!{{pause frames=\"10\"}} It's ADORABLE!"
    }
  },
  {
    "label": "1",
    "attribute": "0x000B0000FF000000",
    "locale": {
      "EUde": "Was?{{pause frames=\"20\"}} {{reaction type=\"Distress\"}}Du hast für mich\n{{color id=\"7\"}}{{string index=\"0\"}}{{color id=\"0\"}}\ngefunden?{{pause frames=\"10\"}} Wie nett von dir!\nDanke schön!{{pause frames=\"10\"}} Ich werde\nsorgsam damit umgehen,\n{{pause frames=\"5\"}}{{string value=\"Catchphrase\"}}!",
      "EUen": "What?{{pause frames=\"20\"}} {{reaction type=\"Distress\"}}You found some\n{{color id=\"7\"}}{{string index=\"0\"}}{{color id=\"0\"}}\njust for me?{{pause frames=\"10\"}} WOW! SO NICE!\nThank you!{{pause frames=\"10\"}} I'll totally take\ngood care of it,\n{{pause frames=\"5\"}}{{string value=\"Catchphrase\"}}!",
      "EUes": "¿Que{{pause frames=\"20\"}} {{reaction type=\"Distress\"}}me has encontrado\n{{color id=\"7\"}}{{string index=\"0\"}}{{color id=\"0\"}}?{{pause frames=\"10\"}}\n¡Qué GENIAL!\n¡Gracias muchas!{{pause frames=\"10\"}} ¡Me has\nhecho de lo más feliz,\n{{pause frames=\"5\"}}{{string value=\"Catchphrase\"}}!",
      "EUfr": "Quoi?{{pause frames=\"20\"}} {{reaction type=\"Distress\"}}Tu m'as apporté\n{{color id=\"7\"}}{{string index=\"0\"}}{{color id=\"0\"}}?{{pause frames=\"10\"}}\nC'EST SUPER GENTIL!\nMerci!{{pause frames=\"10\"}} Je vais y faire\ntrès attention,\n{{pause frames=\"5\"}}{{string value=\"Catchphrase\"}}!",
      "EUit": "Cosa?{{pause frames=\"20\"}} {{reaction type=\"Distress\"}}Hai trovato alcuni\n{{color id=\"7\"}}{{string index=\"0\"}}{{color id=\"0\"}}\ne me li hai portati?{{pause frames=\"10\"}} WOW!\nCHE GENTILE! Grazie!{{pause frames=\"10\"}} Ti\npenserò ogni volta che li\nguardo, {{pause frames=\"5\"}}{{string value=\"Catchphrase\"}}!",
      "JPja": "{{resetReaction}}えっ？{{pause frames=\"20\"}}　アタイのために\n{{color id=\"7\"}}{{string index=\"0\"}}{{color id=\"0\"}}を\nさがしてくれたの？\nありがとー！{{pause frames=\"20\"}}\n{{kanjiReplace charNum=\"2\" value=\"だいじ\"}}大事にするね、\n{{pause frames=\"5\"}}{{string value=\"Catchphrase\"}}！",
      "KRko": "어머？{{pause frames=\"20\"}} {{reaction type=\"Distress\"}}날 위해서\n{{color id=\"7\"}}{{string index=\"0\"}}{{color id=\"0\"}}{{fun_0B arg=\"0x0200\"}}\n찾아준 거야？\n고마워！{{pause frames=\"20\"}}\n소중히 간직할게！\n{{pause frames=\"5\"}}{{string value=\"Catchphrase\"}}！",
      "USen": "What?{{pause frames=\"20\"}} {{reaction type=\"Distress\"}}You found some\n{{color id=\"7\"}}{{string index=\"0\"}}{{color id=\"0\"}}\njust for me?{{pause frames=\"10\"}} WOW! SO NICE!\nThank you!{{pause frames=\"10\"}} I'll totally take\ngood care of it,\n{{pause frames=\"5\"}}{{string value=\"Catchphrase\"}}!"
    }
  },
  {
    "label": "2",
    "attribute": "0x000B0000FF000000",
    "locale": {
      "EUde": "{{pause frames=\"5\"}}.{{pause frames=\"5\"}}.{{pause frames=\"5\"}}.{{pause frames=\"5\"}}Ahhh!{{pause frames=\"10\"}} {{gender m=\"Mein kostbarer\" f=\"Meine kostbare\" n=\"Mein kostbares\"}}\n{{ignoreArticle}}{{itemName index=\"0\"}}!{{pause frames=\"10\"}}\nIch bin ganz überrascht!\nDu wirkst immer so cool...{{pause frames=\"10\"}}\nIch dachte schon, du\nhättest es vergessen.",
      "EUen": "{{pause frames=\"5\"}}.{{pause frames=\"5\"}}.{{pause frames=\"5\"}}.{{pause frames=\"5\"}}Ahh!{{pause frames=\"10\"}} It's my precious\n{{ignoreArticle}}{{itemName index=\"0\"}}!{{pause frames=\"10\"}}\nI'm kinda surprised!\nYou're always so chill...{{pause frames=\"10\"}}\nI figured that you forgot\nor something.",
      "EUes": "Mm{{pause frames=\"5\"}}.{{pause frames=\"5\"}}.{{pause frames=\"5\"}}.{{pause frames=\"5\"}} ¡Aah!{{pause frames=\"10\"}} ¡Pero si es mi\n{{ignoreArticle}}{{itemName index=\"0\"}}!{{pause frames=\"10\"}}\n¡Qué sorpresa tan grande!\nTe lo tomabas con tanta{{pause frames=\"10\"}}\ncalma que pensé que se te\nhabía olvidado del todo.",
      "EUfr": "{{pause frames=\"5\"}}.{{pause frames=\"5\"}}.{{pause frames=\"5\"}}.{{pause frames=\"5\"}} Ahh!{{pause frames=\"10\"}} Mais c'est\n{{itemName index=\"0\"}}!{{pause frames=\"10\"}}\nJe suis soufflée!\nTu es toujours si froid{{gender m=\"\" f=\"e\"}}...{{pause frames=\"10\"}}\nJe croyais que tu avais\noublié.",
      "EUit": "{{pause frames=\"5\"}}.{{pause frames=\"5\"}}.{{pause frames=\"5\"}}.{{pause frames=\"5\"}} Ahhh!{{pause frames=\"10\"}}\n{{capitalizeLetter}}{{itemName index=\"0\"}}\nmeraviglios{{gender m=\"o\" f=\"a\" n=\"\"}}!{{pause frames=\"10\"}}\nChe sorpresa! Non mi avevi\npiù detto niente...{{pause frames=\"10\"}} Pensavo\nche ti fossi dimenticat{{gender m=\"o\" f=\"a\"}}.",
      "JPja": "{{resetReaction}}{{pause frames=\"5\"}}・{{pause frames=\"5\"}}・{{pause frames=\"5\"}}・{{pause frames=\"5\"}}あっ！{{pause frames=\"10\"}}\n{{itemName index=\"0\"}}じゃん！{{pause frames=\"20\"}}\n{{kanjiReplace charNum=\"1\" value=\"おぼ\"}}覚えてて　くれたんだね\nアンタの　その\nさりげないトコロ、{{pause frames=\"5\"}}\nポイント{{kanjiReplace charNum=\"1\" value=\"たか\"}}高いよ！",
      "KRko": "{{pause frames=\"5\"}}・{{pause frames=\"5\"}}・{{pause frames=\"5\"}}・{{pause frames=\"5\"}}아！{{pause frames=\"10\"}}\n{{itemName index=\"0\"}}！{{pause frames=\"20\"}}\n기억하고 있었구나！\n너의 그 센스\n정말 {{pause frames=\"5\"}}\n마음에 들어！",
      "USen": "{{pause frames=\"5\"}}.{{pause frames=\"5\"}}.{{pause frames=\"5\"}}.{{pause frames=\"5\"}}Ahh!{{pause frames=\"10\"}} It's my precious\n{{ignoreArticle}}{{itemName index=\"0\"}}!{{pause frames=\"10\"}}\nI'm kinda surprised!\nYou're always so chill...{{pause frames=\"10\"}}\nI figured that you forgot\nor something."
    }
  }
]