[
  {
    "label": "00",
    "attribute": "0x00000000FE000000",
    "locale": {
      "EUde": "{{capitalizeLetter}}{{string value=\"PlayerNickname\"}}! {{pause frames=\"5\"}}Dieser\n{{color id=\"7\"}}Seurat {{color id=\"0\"}}ist...\n\n{{reaction type=\"Glee\"}}BEMERKENSWERT! {{pause frames=\"10\"}}Ich bin\nwirklich beeindruckt!\n{{pause frames=\"5\"}}{{capitalizeLetter}}{{string value=\"Catchphrase\"}}!",
      "EUen": "{{capitalizeLetter}}{{string value=\"PlayerNickname\"}}, {{pause frames=\"5\"}}that {{color id=\"7\"}}amazing\npainting {{color id=\"0\"}}is...\n\n{{reaction type=\"Glee\"}}AMAZING! {{pause frames=\"10\"}}Wow, it's a good\nthing that's what they\nnamed it, {{pause frames=\"5\"}}{{string value=\"Catchphrase\"}}!",
      "EUes": "{{capitalizeLetter}}{{string value=\"PlayerNickname\"}}, {{pause frames=\"5\"}}ese {{color id=\"7\"}}cuadro\nholandés {{color id=\"0\"}}es...\n\n{{reaction type=\"Glee\"}}¡Estupén! {{pause frames=\"10\"}}¡Si fuera comida,\nsería como un queso de\nbola, {{pause frames=\"5\"}}{{string value=\"Catchphrase\"}}!",
      "EUfr": "{{capitalizeLetter}}{{string value=\"PlayerNickname\"}}, {{pause frames=\"5\"}}ce {{color id=\"7\"}}Rembrandt\n{{color id=\"0\"}}est...\n\n{{reaction type=\"Glee\"}}GENIAL! {{pause frames=\"10\"}}Eh bien, je vais\ny faire attention,\n{{pause frames=\"5\"}}{{string value=\"Catchphrase\"}}!",
      "EUit": "{{capitalizeLetter}}{{string value=\"PlayerNickname\"}}, {{pause frames=\"5\"}}quel {{color id=\"7\"}}quadro\nstupendo {{color id=\"0\"}}è veramente...\n\n{{reaction type=\"Glee\"}}STUPENDO! {{pause frames=\"10\"}}Wow, di nome e di\nfatto, eh, {{pause frames=\"5\"}}{{string value=\"Catchphrase\"}}!",
      "JPja": "{{string value=\"PlayerNickname\"}}ちゃん{{pause frames=\"20\"}}\n{{color id=\"7\"}}すごいめいが{{color id=\"0\"}}ってさ、\n\n{{reaction type=\"Glee\"}}よく　{{kanjiReplace charNum=\"1\" value=\"わ\"}}分かんないけど{{pause frames=\"5\"}}\nすごいよねー！　{{pause frames=\"5\"}}{{string value=\"Catchphrase\"}}！",
      "KRko": "{{string value=\"PlayerNickname\"}}{{fun_0B arg=\"0x0400\"}}， {{pause frames=\"20\"}}\n{{color id=\"7\"}}대단한 명화{{color id=\"0\"}} 말야\n\n{{reaction type=\"Glee\"}}잘은 모르겠지만{{pause frames=\"5\"}} 대단하지\n않니？ {{pause frames=\"5\"}}{{string value=\"Catchphrase\"}}！",
      "USen": "{{capitalizeLetter}}{{string value=\"PlayerNickname\"}}, {{pause frames=\"5\"}}that {{color id=\"7\"}}amazing\npainting {{color id=\"0\"}}is...\n\n{{reaction type=\"Glee\"}}AMAZING! {{pause frames=\"10\"}}Wow, it's a good\nthing that's what they\nnamed it, {{pause frames=\"5\"}}{{string value=\"Catchphrase\"}}!"
    }
  },
  {
    "label": "01",
    "attribute": "0x00000000FE000000",
    "locale": {
      "EUde": "{{reaction type=\"Curiosity\"}}Wenn ich ein Dharma wäre,\ndann am liebsten ein\n{{color id=\"7\"}}Mini-Dharma{{color id=\"0\"}}.\n.{{pause frames=\"3\"}}.{{pause frames=\"3\"}}.{{pause frames=\"3\"}}Ich glaube allerdings\nnicht, dass ich sehr\ndharmamäßig drauf bin.{{pause frames=\"10\"}}\n{{reaction type=\"Thought\"}}So{{pause frames=\"10\"}} abgespaced und so.",
      "EUen": "{{reaction type=\"Curiosity\"}}If I were a dharma, I'd be\na {{color id=\"7\"}}mini-dharma{{color id=\"0\"}}.\n\n.{{pause frames=\"3\"}}.{{pause frames=\"3\"}}.{{pause frames=\"3\"}}Actually, I don't think I'm\nvery dharma-like at all.{{pause frames=\"10\"}}\n{{reaction type=\"Thought\"}}Like, huh.{{pause frames=\"10\"}} Totally weird.",
      "EUes": "{{reaction type=\"Curiosity\"}}Si yo fuera un daruma,\nsería un {{color id=\"7\"}}minidaruma{{color id=\"0\"}}.\n\nEn realidad.{{pause frames=\"3\"}}.{{pause frames=\"3\"}}.{{pause frames=\"3\"}} no me parezco\nen nada a un daruma.{{pause frames=\"10\"}} O sea,\n{{reaction type=\"Thought\"}}de verdad.{{pause frames=\"10\"}} ¿Te lo imaginas?",
      "EUfr": "{{reaction type=\"Curiosity\"}}Si j'étais un bouddha, je\nserais un {{color id=\"7\"}}mini-bouddha{{color id=\"0\"}}.\n\nMais d'un autre côté, je\nne pense pas ressembler à\nun bouddha.{{pause frames=\"10\"}} {{reaction type=\"Thought\"}}Bizarre, non?",
      "EUit": "{{reaction type=\"Curiosity\"}}Se fossi un dharma, sarei\nun {{color id=\"7\"}}minidharma{{color id=\"0\"}}.\n\n.{{pause frames=\"3\"}}.{{pause frames=\"3\"}}.{{pause frames=\"3\"}} In realtà, non credo di\nsomigliare molto a un\ndharma.{{pause frames=\"10\"}} {{reaction type=\"Thought\"}}{{pause frames=\"10\"}}Strano...",
      "JPja": "アタイって　ダルマでいうと\n{{reaction type=\"Curiosity\"}}{{color id=\"7\"}}ミニダルマ{{color id=\"0\"}}かな？\n\n{{reaction type=\"Intense\"}}・{{pause frames=\"3\"}}・{{pause frames=\"3\"}}・{{pause frames=\"3\"}}ま、{{reaction type=\"Happiness\"}}{{pause frames=\"5\"}}そこまで\nじぎゃく{{kanjiReplace charNum=\"1\" value=\"てき\"}}的に　ならなくても\nいっかー！　{{pause frames=\"5\"}}{{string value=\"Catchphrase\"}}！",
      "KRko": "날 달마라고 표현한다면\n{{reaction type=\"Curiosity\"}}{{color id=\"7\"}}미니 달마{{color id=\"0\"}}겠지？\n\n{{reaction type=\"Intense\"}}・{{pause frames=\"3\"}}・{{pause frames=\"3\"}}・{{pause frames=\"3\"}}흠， {{reaction type=\"Happiness\"}}{{pause frames=\"5\"}}내가\n내 입으로 이런 말 하는 것두\n좀 웃기다！ {{pause frames=\"5\"}}{{string value=\"Catchphrase\"}}！",
      "USen": "{{reaction type=\"Curiosity\"}}If I were a dharma, I'd be\na {{color id=\"7\"}}mini-dharma{{color id=\"0\"}}.\n\n.{{pause frames=\"3\"}}.{{pause frames=\"3\"}}.{{pause frames=\"3\"}}Actually, I don't think I'm\nvery dharma-like at all.{{pause frames=\"10\"}}\n{{reaction type=\"Thought\"}}Like, huh.{{pause frames=\"10\"}} Totally weird."
    }
  },
  {
    "label": "02",
    "attribute": "0x00000000FE000000",
    "locale": {
      "EUde": "{{reaction type=\"Curiosity\"}}Wenn ein {{color id=\"7\"}}Karussell{{color id=\"0\"}} sich\nnicht mehr dreht, nennt\nman es dann {{color id=\"7\"}}Kaputtell{{color id=\"0\"}}?\n{{reaction type=\"Thought\"}}Wow, das ist echt\ntiefsinnig{{pause frames=\"3\"}}.{{pause frames=\"3\"}}.{{pause frames=\"3\"}}. Jetzt bin ich\nverwirrt! {{pause frames=\"5\"}}{{capitalizeLetter}}{{string value=\"Catchphrase\"}}!",
      "EUen": "{{reaction type=\"Curiosity\"}}If your {{color id=\"7\"}}merry-go-round{{color id=\"0\"}} is\nbroken, do you just call it\na merry?\n{{reaction type=\"Thought\"}}Wow, that's kinda deep{{pause frames=\"3\"}}.{{pause frames=\"3\"}}.{{pause frames=\"3\"}}. OK,\nI'm REALLY confused now,\n{{pause frames=\"5\"}}{{string value=\"Catchphrase\"}}!",
      "EUes": "{{reaction type=\"Curiosity\"}}Nunca he entendido por qué\nponen un {{color id=\"7\"}}carrusel de cuna{{color id=\"0\"}} a\nlos bebés... ¿No se marean?\n{{reaction type=\"Thought\"}}Yo no recuerdo el mío. A lo\nmejor no tuve, ¡y por eso\nno sé conducir, {{pause frames=\"5\"}}{{string value=\"Catchphrase\"}}!",
      "EUfr": "{{reaction type=\"Curiosity\"}}Si ton {{color id=\"7\"}}manège{{color id=\"0\"}} est cassé,\ncomment vas-tu le faire\ntourner?\n{{reaction type=\"Thought\"}}Ouah, c'est profond{{pause frames=\"3\"}}.{{pause frames=\"3\"}}.{{pause frames=\"3\"}}. Ok,\nje suis un peu fatiguée,\n{{pause frames=\"5\"}}{{string value=\"Catchphrase\"}}!",
      "EUit": "{{reaction type=\"Curiosity\"}}Quando la {{color id=\"7\"}}giostra{{color id=\"0\"}} non gira\npiù è come se il mondo si\nfermasse... {{reaction type=\"Thought\"}}Wow, che\npensiero profondo{{pause frames=\"3\"}}.{{pause frames=\"3\"}}.{{pause frames=\"3\"}}. OK,\nora sono MOLTO confusa,\n{{pause frames=\"5\"}}{{string value=\"Catchphrase\"}}!",
      "JPja": "{{kanjiReplace charNum=\"1\" value=\"まわ\"}}回らない\n{{color id=\"7\"}}メリーゴーランド{{color id=\"0\"}}って　あったら\n{{reaction type=\"Curiosity\"}}{{kanjiReplace charNum=\"2\" value=\"おもしろ\"}}面白そーじゃない？\n{{reaction type=\"Thought\"}}{{kanjiReplace charNum=\"1\" value=\"の\"}}乗って　おしゃべりとか\nするだけなんだけど{{pause frames=\"3\"}}・{{pause frames=\"3\"}}・{{pause frames=\"3\"}}・\n\n{{reaction type=\"Happiness\"}}ちょい　{{kanjiReplace charNum=\"2\" value=\"じみ\"}}地味すぎるかな！\n{{pause frames=\"5\"}}{{string value=\"Catchphrase\"}}！",
      "KRko": "초고속으로 돌아가는\n{{color id=\"7\"}}모빌{{color id=\"0\"}}이 있으면\n{{reaction type=\"Curiosity\"}}재밌을 거 같지 않아？\n{{reaction type=\"Thought\"}}보고만 있어도\n눈이 팽팽 도는 거지{{pause frames=\"3\"}}・{{pause frames=\"3\"}}・{{pause frames=\"3\"}}・\n\n{{reaction type=\"Happiness\"}}멀미가 날지도 몰라！\n{{pause frames=\"5\"}}{{string value=\"Catchphrase\"}}！",
      "USen": "{{reaction type=\"Curiosity\"}}If your {{color id=\"7\"}}merry-go-round{{color id=\"0\"}} is\nbroken, do you just call it\na merry?\n{{reaction type=\"Thought\"}}Wow, that's kinda deep{{pause frames=\"3\"}}.{{pause frames=\"3\"}}.{{pause frames=\"3\"}}. OK,\nI'm REALLY confused now,\n{{pause frames=\"5\"}}{{string value=\"Catchphrase\"}}!"
    }
  },
  {
    "label": "03",
    "attribute": "0x00000000FF000000",
    "locale": {
      "EUde": "{{fun_06 arg=\"0x1415\"}}",
      "EUen": "{{fun_06 arg=\"0x1415\"}}",
      "EUes": "{{fun_06 arg=\"0x1415\"}}",
      "EUfr": "{{fun_06 arg=\"0x1415\"}}",
      "EUit": "{{fun_06 arg=\"0x1415\"}}",
      "JPja": "{{fun_06 arg=\"0x1415\"}}",
      "KRko": "{{fun_06 arg=\"0x1415\"}}",
      "USen": "{{fun_06 arg=\"0x1415\"}}"
    }
  },
  {
    "label": "04",
    "attribute": "0x00000000FE000000",
    "locale": {
      "EUde": "{{reaction type=\"Happiness\"}}So ein {{color id=\"7\"}}Herzchenstuhl{{color id=\"0\"}} macht\ndas Zimmer gleich viel\nfröhlicher! {{pause frames=\"5\"}}{{capitalizeLetter}}{{string value=\"Catchphrase\"}}!",
      "EUen": "{{reaction type=\"Happiness\"}}A {{color id=\"7\"}}lovely chair{{color id=\"0\"}} totally\nlivens up a room, doesn't\nit, {{pause frames=\"5\"}}{{string value=\"Catchphrase\"}}?",
      "EUes": "{{reaction type=\"Happiness\"}}Una {{color id=\"7\"}}silla corazón{{color id=\"0\"}} da mucho\nromanticismo a la casa,\n¿verdad, {{pause frames=\"5\"}}{{string value=\"Catchphrase\"}}?",
      "EUfr": "{{reaction type=\"Happiness\"}}Une {{color id=\"7\"}}chaise cœur, {{color id=\"0\"}}ça illumine\ncarrément une pièce, non,\n{{pause frames=\"5\"}}{{string value=\"Catchphrase\"}}?",
      "EUit": "{{reaction type=\"Happiness\"}}Certo che una {{color id=\"7\"}}sedia cuori\n{{color id=\"0\"}}rinnova proprio il look di\nuna stanza, {{pause frames=\"5\"}}{{string value=\"Catchphrase\"}}!",
      "JPja": "{{reaction type=\"Happiness\"}}{{color id=\"7\"}}ラブリーチェア{{color id=\"0\"}}って\n１コでもあると、\n\nお{{kanjiReplace charNum=\"2\" value=\"へや\"}}部屋のふんいき\nガラッと　{{kanjiReplace charNum=\"1\" value=\"か\"}}変わるよねー！\n{{pause frames=\"5\"}}{{string value=\"Catchphrase\"}}！",
      "KRko": "{{reaction type=\"Happiness\"}}{{color id=\"7\"}}러블리 체어{{color id=\"0\"}}가\n１개라도 있으면\n\n방 분위기가\n싹 달라질 텐데！\n{{pause frames=\"5\"}}{{string value=\"Catchphrase\"}}！",
      "USen": "{{reaction type=\"Happiness\"}}A {{color id=\"7\"}}lovely chair{{color id=\"0\"}} totally\nlivens up a room, doesn't\nit, {{pause frames=\"5\"}}{{string value=\"Catchphrase\"}}?"
    }
  },
  {
    "label": "05",
    "attribute": "0x00000000FE000000",
    "locale": {
      "EUde": "{{reaction type=\"Joy\"}}Wenn ich einen {{color id=\"7\"}}Herzchen-\nspiegel {{color id=\"0\"}}hätte, könnte ich\nmich viel besser schminken!\n{{resetReaction}}.{{pause frames=\"5\"}}.{{pause frames=\"5\"}}.{{pause frames=\"5\"}}Äh, ach so! {{pause frames=\"5\"}}{{capitalizeLetter}}{{string value=\"Catchphrase\"}}!\nIch TRAGE ja gar keine\nSchminke!{{pause frames=\"5\"}} {{reaction type=\"Laughter\"}}Wie DUMM von mir!",
      "EUen": "{{reaction type=\"Joy\"}}If I used a {{color id=\"7\"}}lovely vanity{{color id=\"0\"}},\nI bet I could put on my\nmakeup in half the time!\n{{resetReaction}}.{{pause frames=\"5\"}}.{{pause frames=\"5\"}}.{{pause frames=\"5\"}}Oh, wait, {{pause frames=\"5\"}}{{string value=\"Catchphrase\"}}!\nI don't even WEAR makeup!{{pause frames=\"5\"}}\n{{reaction type=\"Laughter\"}}Wow, that was TOO SILLY!",
      "EUes": "{{reaction type=\"Joy\"}}¡Si tuviera un {{color id=\"7\"}}tocador\ncorazón{{color id=\"0\"}}, tardaría la mitad\nde tiempo en maquillarme!\n{{resetReaction}}Aunque.{{pause frames=\"5\"}}.{{pause frames=\"5\"}}.{{pause frames=\"5\"}} ¡huy, {{pause frames=\"5\"}}{{string value=\"Catchphrase\"}}!\n¡Si yo no me maquillo!{{pause frames=\"5\"}}\n{{reaction type=\"Laughter\"}}¡Qué despiste tan tonto!",
      "EUfr": "{{reaction type=\"Joy\"}}Si j'avais une {{color id=\"7\"}}coiffeuse\ncœur{{color id=\"0\"}}, je pourrais me\nmaquiller super vite!\n{{resetReaction}}.{{pause frames=\"5\"}}.{{pause frames=\"5\"}}.{{pause frames=\"5\"}} Attends, {{pause frames=\"5\"}}{{string value=\"Catchphrase\"}}!\nJe ne me maquille jamais!{{pause frames=\"5\"}}\n{{reaction type=\"Laughter\"}}Ouah, quelle IDIOTE!",
      "EUit": "{{reaction type=\"Joy\"}}Se usassi una {{color id=\"7\"}}toeletta\ncuori{{color id=\"0\"}}, scommetto che mi\ntruccherei in metà tempo!\n{{resetReaction}}.{{pause frames=\"5\"}}.{{pause frames=\"5\"}}.{{pause frames=\"5\"}} Oh, aspetta, {{pause frames=\"5\"}}{{string value=\"Catchphrase\"}}!\nIo non mi trucco NEANCHE!{{pause frames=\"5\"}}\n{{reaction type=\"Laughter\"}}Che SCEMENZA che ho detto!",
      "JPja": "{{reaction type=\"Joy\"}}{{color id=\"7\"}}ラブリードレッサー{{color id=\"0\"}}とか　{{kanjiReplace charNum=\"1\" value=\"つか\"}}使うと\n{{kanjiReplace charNum=\"1\" value=\"あさ\"}}朝のメイクも\nうまくいきそうな　{{kanjiReplace charNum=\"1\" value=\"き\"}}気がする！\n{{resetReaction}}ま、{{pause frames=\"5\"}}アタイは\nノーメイクなんだけど、{{pause frames=\"5\"}}{{string value=\"Catchphrase\"}}",
      "KRko": "{{reaction type=\"Joy\"}}{{color id=\"7\"}}러블리 화장대{{color id=\"0\"}}가 있으면\n아침에 완벽하게\n화장할 수 있을 것 같아！\n{{resetReaction}}사실 {{pause frames=\"5\"}}난 화장은\n안하지만， {{pause frames=\"5\"}}{{string value=\"Catchphrase\"}}",
      "USen": "{{reaction type=\"Joy\"}}If I used a {{color id=\"7\"}}lovely vanity{{color id=\"0\"}},\nI bet I could put on my\nmakeup in half the time!\n{{resetReaction}}.{{pause frames=\"5\"}}.{{pause frames=\"5\"}}.{{pause frames=\"5\"}}Oh, wait, {{pause frames=\"5\"}}{{string value=\"Catchphrase\"}}!\nI don't even WEAR makeup!{{pause frames=\"5\"}}\n{{reaction type=\"Laughter\"}}Wow, that was TOO SILLY!"
    }
  },
  {
    "label": "06",
    "attribute": "0x00000000FF000000",
    "locale": {
      "EUde": "{{reaction type=\"Love\"}}Mein TRAUM wäre es, ein\n{{color id=\"7\"}}Herzchenbett{{color id=\"0\"}} zu haben und\nden ganzen Tag zu schlafen!{{fun_02 arg=\"0x1617\"}}\nWeg vom Bett!\nNur zu!",
      "EUen": "{{reaction type=\"Love\"}}You know, {{pause frames=\"5\"}}my DREAM LIFE is\nto have a {{color id=\"7\"}}lovely bed{{color id=\"0\"}} and\njust sleep in it all day!{{fun_02 arg=\"0x1617\"}}\nStay off my bed!\nHow nice.",
      "EUes": "{{reaction type=\"Love\"}}Sabes, {{pause frames=\"5\"}}¡el sueño de mi vida\nes tener una {{color id=\"7\"}}cama corazón{{color id=\"0\"}}\ny dormir todo el día!{{fun_02 arg=\"0x1617\"}}\n¡Fuera de mi cama!\nPues qué bien",
      "EUfr": "{{reaction type=\"Love\"}}Tu sais quoi? {{pause frames=\"5\"}}Je rêve d'un\n{{color id=\"7\"}}lit cœur{{color id=\"0\"}} dans lequel je\npasserais mes journées!{{fun_02 arg=\"0x1617\"}}\nC'est mon lit!\nC'est gentil.",
      "EUit": "{{reaction type=\"Love\"}}Sai, {{pause frames=\"5\"}}dormire tutto il giorno\nin un {{color id=\"7\"}}letto cuori{{color id=\"0\"}} è il SOGNO\nDELLA MIA VITA!{{fun_02 arg=\"0x1617\"}}\nDormi a casa tua!\nChe bello.",
      "JPja": "{{reaction type=\"Love\"}}アタイ、{{color id=\"7\"}}{{pause frames=\"5\"}}ラブリーベッド{{color id=\"0\"}}で\nゴロゴロするのが\n{{kanjiReplace charNum=\"1\" value=\"ゆめ\"}}夢なんだよねー！{{fun_02 arg=\"0x1617\"}}\nふーん\nよかったね",
      "KRko": "{{reaction type=\"Love\"}}나， {{color id=\"7\"}}{{pause frames=\"5\"}}러블리 침대{{color id=\"0\"}}에서\n뒹굴뒹굴하는 게\n꿈이었어！{{fun_02 arg=\"0x1617\"}}\n흐음\n잘 됐네",
      "USen": "{{reaction type=\"Love\"}}You know, {{pause frames=\"5\"}}my DREAM LIFE is\nto have a {{color id=\"7\"}}lovely bed{{color id=\"0\"}} and\njust sleep in it all day!{{fun_02 arg=\"0x1617\"}}\nStay off my bed!\nHow nice."
    }
  },
  {
    "label": "07",
    "attribute": "0x00000000FE000000",
    "locale": {
      "EUde": "{{resetReaction}}{{reaction type=\"Worry\"}}Dieser {{color id=\"7\"}}Grapefruittisch\n{{color id=\"0\"}}schmeckt bestimmt nicht so\ngut wie die echte Frucht!",
      "EUen": "{{resetReaction}}{{reaction type=\"Worry\"}}I bet this {{color id=\"7\"}}grapefruit table\n{{color id=\"0\"}}wouldn't taste as good as a\nREAL grapefruit!!",
      "EUes": "{{resetReaction}}{{reaction type=\"Worry\"}}¡Seguro que esta {{color id=\"7\"}}mesa\npomelo {{color id=\"0\"}}no es ni la mitad de\njugosa que un pomelo real!",
      "EUfr": "{{resetReaction}}{{reaction type=\"Worry\"}}Je parie que cette {{color id=\"7\"}}table\npomélo {{color id=\"0\"}}n'est pas aussi\nbonne qu'un VRAI pomélo!",
      "EUit": "{{resetReaction}}{{reaction type=\"Worry\"}}Scommetto che questo\n{{color id=\"7\"}}tavolo pompelmo {{color id=\"0\"}}non disseta\ncome un VERO pompelmo!",
      "JPja": "{{resetReaction}}{{color id=\"7\"}}グレープのテーブル{{color id=\"0\"}}って\nどっちかってーと、\n{{reaction type=\"Worry\"}}ただの　グレープフルーツだよね",
      "KRko": "{{resetReaction}}{{color id=\"7\"}}자몽 테이블{{color id=\"0\"}} 말인데\n테이블이라기보다\n{{reaction type=\"Worry\"}}그냥 자몽 같지 않니？",
      "USen": "{{resetReaction}}{{reaction type=\"Worry\"}}I bet this {{color id=\"7\"}}grapefruit table\n{{color id=\"0\"}}wouldn't taste as good as a\nREAL grapefruit!!"
    }
  },
  {
    "label": "08",
    "attribute": "0x00000000FE000000",
    "locale": {
      "EUde": "An diesem {{color id=\"7\"}}Zitrustisch{{color id=\"0\"}}\nschmecken wahrscheinlich\nselbst Süßigkeiten...\n{{reaction type=\"Worry\"}}...ganz sauer. {{pause frames=\"5\"}}{{capitalizeLetter}}{{string value=\"Catchphrase\"}}!\nEinfach wegen des Tischs!",
      "EUen": "Y'know, even if I ate the\nsweetest-tasting dessert\nat this {{color id=\"7\"}}lemon table{{color id=\"0\"}}...\n{{reaction type=\"Worry\"}}It would probably still\ntaste sour, {{pause frames=\"5\"}}{{string value=\"Catchphrase\"}}!\nJust 'cause of the table!",
      "EUes": "Sabes, soy tan despistada\nque si tuviera una {{color id=\"7\"}}mesa\nlimón {{color id=\"0\"}}como esta...\n{{reaction type=\"Worry\"}}¡intentaría exprimirla para\naliñar la ensalada! {{pause frames=\"5\"}}¡Imagina\nqué desastre, {{string value=\"Catchphrase\"}}!",
      "EUfr": "Tu sais quoi? Même si je\nmangeais un dessert sucré\nsur cette {{color id=\"7\"}}table citron{{color id=\"0\"}}...\n{{reaction type=\"Worry\"}}il serait vraiment\nacide, {{pause frames=\"5\"}}{{string value=\"Catchphrase\"}}!\nA cause de la table!",
      "EUit": "Sai, anche se mangiassi il\ndessert più dolce del mondo\nsu questo {{color id=\"7\"}}tavolo limone{{color id=\"0\"}}...\n{{reaction type=\"Worry\"}}probabilmente sarebbe\naspro, {{pause frames=\"5\"}}{{string value=\"Catchphrase\"}}!\nPer colpa del tavolo!",
      "JPja": "{{color id=\"7\"}}レモンのテーブル{{color id=\"0\"}}で\nあまいフルーツとか\n{{kanjiReplace charNum=\"1\" value=\"た\"}}食べても、\n{{reaction type=\"Worry\"}}なんとなく　すっぱく\n{{kanjiReplace charNum=\"1\" value=\"かん\"}}感じちゃう{{kanjiReplace charNum=\"1\" value=\"き\"}}気がする、{{pause frames=\"5\"}}{{string value=\"Catchphrase\"}}",
      "KRko": "{{color id=\"7\"}}레몬 테이블{{color id=\"0\"}}에서는\n단 과일을\n먹어도\n{{reaction type=\"Worry\"}}왠지 시게\n느껴져， {{pause frames=\"5\"}}{{string value=\"Catchphrase\"}}",
      "USen": "Y'know, even if I ate the\nsweetest-tasting dessert\nat this {{color id=\"7\"}}lemon table{{color id=\"0\"}}...\n{{reaction type=\"Worry\"}}It would probably still\ntaste sour, {{pause frames=\"5\"}}{{string value=\"Catchphrase\"}}!\nJust 'cause of the table!"
    }
  },
  {
    "label": "09",
    "attribute": "0x00000000FE000000",
    "locale": {
      "EUde": "{{resetReaction}}Schnupper{{pause frames=\"5\"}}.{{pause frames=\"5\"}}.{{pause frames=\"5\"}}.{{pause frames=\"5\"}} {{reaction type=\"Happiness\"}}Ich habe einen\n{{color id=\"7\"}}Orangenstuhl {{color id=\"0\"}}gefunden!{{pause frames=\"10\"}}\nIch habe eine Radarnase!",
      "EUen": "{{resetReaction}}Sniff{{pause frames=\"5\"}}.{{pause frames=\"5\"}}.{{pause frames=\"5\"}}.{{pause frames=\"5\"}} Sniff{{pause frames=\"5\"}}.{{pause frames=\"5\"}}.{{pause frames=\"5\"}}.{{pause frames=\"5\"}} Hey! {{reaction type=\"Happiness\"}}I found\nan {{color id=\"7\"}}orange chair{{color id=\"0\"}}!{{pause frames=\"10\"}} My nose is\nlike a big radar dish!",
      "EUes": "{{resetReaction}}Snif{{pause frames=\"5\"}}.{{pause frames=\"5\"}}.{{pause frames=\"5\"}}.{{pause frames=\"5\"}} Snif{{pause frames=\"5\"}}.{{pause frames=\"5\"}}.{{pause frames=\"5\"}}.{{pause frames=\"5\"}} ¡Ajá! {{reaction type=\"Happiness\"}}¡Tienes\nuna {{color id=\"7\"}}silla naranja{{color id=\"0\"}}!{{pause frames=\"10\"}} ¡Mi nariz\nes como un radarcito!",
      "EUfr": "{{resetReaction}}Sniff{{pause frames=\"5\"}}.{{pause frames=\"5\"}}.{{pause frames=\"5\"}}.{{pause frames=\"5\"}} sniff{{pause frames=\"5\"}}.{{pause frames=\"5\"}}.{{pause frames=\"5\"}}.{{pause frames=\"5\"}} Hé!\n{{reaction type=\"Happiness\"}}J'ai trouvé une {{color id=\"7\"}}chaise\norange{{color id=\"0\"}}!{{pause frames=\"10\"}}\nMon nez se comporte comme\nun vrai radar.",
      "EUit": "{{resetReaction}}Sniff{{pause frames=\"5\"}}.{{pause frames=\"5\"}}.{{pause frames=\"5\"}}.{{pause frames=\"5\"}} Sniff{{pause frames=\"5\"}}.{{pause frames=\"5\"}}.{{pause frames=\"5\"}}.{{pause frames=\"5\"}} Ehi! {{reaction type=\"Happiness\"}}Ho\ntrovato una {{color id=\"7\"}}sedia arancia{{color id=\"0\"}}!{{pause frames=\"10\"}}\nHo un fiuto eccezionale, eh!",
      "JPja": "{{resetReaction}}クンクン{{pause frames=\"5\"}}・{{pause frames=\"5\"}}・{{pause frames=\"5\"}}・{{pause frames=\"5\"}}\n{{reaction type=\"Happiness\"}}{{color id=\"7\"}}オレンジのイス{{color id=\"0\"}}　{{kanjiReplace charNum=\"2\" value=\"はっけん\"}}発見！{{pause frames=\"10\"}}\n\nアタイの　お{{kanjiReplace charNum=\"1\" value=\"はな\"}}鼻は\nレーダーだー！　{{pause frames=\"5\"}}{{string value=\"Catchphrase\"}}！",
      "KRko": "{{resetReaction}}킁킁{{pause frames=\"5\"}}・{{pause frames=\"5\"}}・{{pause frames=\"5\"}}・{{pause frames=\"5\"}}\n{{reaction type=\"Happiness\"}}{{color id=\"7\"}}오렌지 의자{{color id=\"0\"}} 발견！{{pause frames=\"10\"}}\n\n내 코는 완전\n개코라니까！ {{pause frames=\"5\"}}{{string value=\"Catchphrase\"}}！",
      "USen": "{{resetReaction}}Sniff{{pause frames=\"5\"}}.{{pause frames=\"5\"}}.{{pause frames=\"5\"}}.{{pause frames=\"5\"}} Sniff{{pause frames=\"5\"}}.{{pause frames=\"5\"}}.{{pause frames=\"5\"}}.{{pause frames=\"5\"}} Hey! {{reaction type=\"Happiness\"}}I found\nan {{color id=\"7\"}}orange chair{{color id=\"0\"}}!{{pause frames=\"10\"}} My nose is\nlike a big radar dish!"
    }
  },
  {
    "label": "10",
    "attribute": "0x00000000FE000000",
    "locale": {
      "EUde": "{{resetReaction}}Schnupper{{pause frames=\"5\"}}.{{pause frames=\"5\"}}.{{pause frames=\"5\"}}.{{pause frames=\"5\"}} Mmmmh! Ich\nhabe einen {{color id=\"7\"}}Limonenstuhl\n{{color id=\"0\"}}gefunden.{{pause frames=\"10\"}} Riecht gut!\nMeine Nase findet jeden\nSchatz! {{pause frames=\"5\"}}{{capitalizeLetter}}{{string value=\"Catchphrase\"}}!",
      "EUen": "{{resetReaction}}Sniff{{pause frames=\"5\"}}.{{pause frames=\"5\"}}.{{pause frames=\"5\"}}.{{pause frames=\"5\"}} Sniff{{pause frames=\"5\"}}.{{pause frames=\"5\"}}.{{pause frames=\"5\"}}.{{pause frames=\"5\"}} {{reaction type=\"Happiness\"}}Sweet! I\nfound a {{color id=\"7\"}}lime chair{{color id=\"0\"}}!{{pause frames=\"10\"}} Mmmm...{{pause frames=\"5\"}}\nIt smells totally limey!\nYou can't hide anything\nfrom my nose, {{pause frames=\"5\"}}{{string value=\"Catchphrase\"}}!",
      "EUes": "{{resetReaction}}Snif{{pause frames=\"5\"}}.{{pause frames=\"5\"}}.{{pause frames=\"5\"}}.{{pause frames=\"5\"}} Snif{{pause frames=\"5\"}}.{{pause frames=\"5\"}}.{{pause frames=\"5\"}}.{{pause frames=\"5\"}} {{reaction type=\"Happiness\"}}¡Yupi, tienes\nuna {{color id=\"7\"}}silla lima{{color id=\"0\"}}!{{pause frames=\"10\"}} Mmmm...{{pause frames=\"5\"}}\n¡Qué rico huele!\n¡Nada escapa a mi afilado\nolfato, {{pause frames=\"5\"}}{{string value=\"Catchphrase\"}}!",
      "EUfr": "{{resetReaction}}Sniff{{pause frames=\"5\"}}.{{pause frames=\"5\"}}.{{pause frames=\"5\"}}.{{pause frames=\"5\"}} sniff{{pause frames=\"5\"}}.{{pause frames=\"5\"}}.{{pause frames=\"5\"}}.{{pause frames=\"5\"}} {{reaction type=\"Happiness\"}}génial! J'ai\ntrouvé une {{color id=\"7\"}}chaise cédrat{{color id=\"0\"}}!{{pause frames=\"10\"}}\nMmmm...{{pause frames=\"5\"}}\nC'est trop fort! Rien ne\npeut échapper à mon nez,\n{{pause frames=\"5\"}}{{string value=\"Catchphrase\"}}!",
      "EUit": "{{resetReaction}}Sniff{{pause frames=\"5\"}}.{{pause frames=\"5\"}}.{{pause frames=\"5\"}}.{{pause frames=\"5\"}} Sniff{{pause frames=\"5\"}}.{{pause frames=\"5\"}}.{{pause frames=\"5\"}}.{{pause frames=\"5\"}} {{reaction type=\"Happiness\"}}Che bello!\nHo trovato una {{color id=\"7\"}}sedia lime{{color id=\"0\"}}!{{pause frames=\"10\"}}\nMmm...{{pause frames=\"5\"}} Odora di lime!\nCerto che al mio naso non\nsfugge proprio niente, eh,\n{{pause frames=\"5\"}}{{string value=\"Catchphrase\"}}!",
      "JPja": "{{resetReaction}}クンクン{{pause frames=\"5\"}}・{{pause frames=\"5\"}}・{{pause frames=\"5\"}}・{{pause frames=\"5\"}}\n{{reaction type=\"Happiness\"}}{{color id=\"7\"}}ライムのイス{{color id=\"0\"}}{{kanjiReplace charNum=\"2\" value=\"はっけん\"}}発見！{{pause frames=\"10\"}}\n\nアタイは　どんなニオイでも\nかぎ{{kanjiReplace charNum=\"1\" value=\"わ\"}}分けられちゃうのだー！\n{{pause frames=\"5\"}}{{string value=\"Catchphrase\"}}！",
      "KRko": "{{resetReaction}}킁킁{{pause frames=\"5\"}}・{{pause frames=\"5\"}}・{{pause frames=\"5\"}}・{{pause frames=\"5\"}}\n{{reaction type=\"Happiness\"}}{{color id=\"7\"}}라임 의자{{color id=\"0\"}} 발견！{{pause frames=\"10\"}}\n\n난 어떤 냄새라도\n구별할 수 있어！\n{{pause frames=\"5\"}}{{string value=\"Catchphrase\"}}！",
      "USen": "{{resetReaction}}Sniff{{pause frames=\"5\"}}.{{pause frames=\"5\"}}.{{pause frames=\"5\"}}.{{pause frames=\"5\"}} Sniff{{pause frames=\"5\"}}.{{pause frames=\"5\"}}.{{pause frames=\"5\"}}.{{pause frames=\"5\"}} {{reaction type=\"Happiness\"}}Sweet! I\nfound a {{color id=\"7\"}}lime chair{{color id=\"0\"}}!{{pause frames=\"10\"}} Mmmm...{{pause frames=\"5\"}}\nIt smells totally limey!\nYou can't hide anything\nfrom my nose, {{pause frames=\"5\"}}{{string value=\"Catchphrase\"}}!"
    }
  },
  {
    "label": "11",
    "attribute": "0x00000000FE000000",
    "locale": {
      "EUde": "{{resetReaction}}Zum Wechseln der Glühbirne\nsteige ich dann auf den\n{{color id=\"7\"}}Narzissentisch{{color id=\"0\"}}! {{pause frames=\"5\"}}{{capitalizeLetter}}{{string value=\"Catchphrase\"}}!\nIch liebe Blumen!{{pause frames=\"10\"}}\n{{reaction type=\"Curiosity\"}}Wieso soll das nicht sicher\nsein? {{pause frames=\"5\"}}{{capitalizeLetter}}{{string value=\"Catchphrase\"}}?",
      "EUen": "{{resetReaction}}If I ever change a light\nbulb, I'm gonna stand on a\n{{color id=\"7\"}}daffodil table{{color id=\"0\"}}, {{pause frames=\"5\"}}{{string value=\"Catchphrase\"}}!\nIt's 'cause I like flowers!{{pause frames=\"10\"}}\n{{reaction type=\"Curiosity\"}}...What do you mean, it's\nnot very safe, {{pause frames=\"5\"}}{{string value=\"Catchphrase\"}}?",
      "EUes": "{{resetReaction}}Si alguna vez tengo que\ncambiar una bombilla, ¡me\nsubiré a una {{color id=\"7\"}}mesa narciso{{color id=\"0\"}}!\n¡Me encantan las flores!{{pause frames=\"10\"}}\n{{reaction type=\"Curiosity\"}}¿Cómo que no son muy\nestables, {{pause frames=\"5\"}}{{string value=\"Catchphrase\"}}?",
      "EUfr": "{{resetReaction}}Si je devais changer une\nampoule, je monterais sur\nune {{color id=\"7\"}}table jonquille{{color id=\"0\"}}!\nC'est parce que j'aime les\nfleurs!{{pause frames=\"10\"}} {{reaction type=\"Curiosity\"}}Tu penses que c'est\ndangereux, {{pause frames=\"5\"}}{{string value=\"Catchphrase\"}}?",
      "EUit": "{{resetReaction}}Se dovrò mai cambiare una\nlampadina, salirò in piedi su\nun {{color id=\"7\"}}tavolo narciso{{color id=\"0\"}},\n{{pause frames=\"5\"}}{{string value=\"Catchphrase\"}}! Perché mi\npiacciono i fiori!{{pause frames=\"10\"}} {{reaction type=\"Curiosity\"}}... Non è\nstabile, dici, {{pause frames=\"5\"}}{{string value=\"Catchphrase\"}}?",
      "JPja": "{{resetReaction}}けいこうとうを　かえる{{kanjiReplace charNum=\"1\" value=\"とき\"}}時は\n{{color id=\"7\"}}きいろのはなテーブル{{color id=\"0\"}}に\n{{kanjiReplace charNum=\"1\" value=\"のぼ\"}}登りたいな、{{pause frames=\"5\"}}{{string value=\"Catchphrase\"}}\nだって　アタイ、{{pause frames=\"5\"}}\n{{reaction type=\"Curiosity\"}}お{{kanjiReplace charNum=\"1\" value=\"はな\"}}花みたいでしょ？　{{pause frames=\"5\"}}{{string value=\"Catchphrase\"}}？",
      "KRko": "{{resetReaction}}형광등을 바꿀 때는\n{{color id=\"7\"}}노란꽃 테이블{{color id=\"0\"}} 위에\n올라가고 싶어， {{pause frames=\"5\"}}{{string value=\"Catchphrase\"}}\n왜냐면 사실 내가{{pause frames=\"5\"}}\n{{reaction type=\"Curiosity\"}}좀 꽃 같잖니！ {{pause frames=\"5\"}}{{string value=\"Catchphrase\"}}？",
      "USen": "{{resetReaction}}If I ever change a light\nbulb, I'm gonna stand on a\n{{color id=\"7\"}}daffodil table{{color id=\"0\"}}, {{pause frames=\"5\"}}{{string value=\"Catchphrase\"}}!\nIt's 'cause I like flowers!{{pause frames=\"10\"}}\n{{reaction type=\"Curiosity\"}}...What do you mean, it's\nnot very safe, {{pause frames=\"5\"}}{{string value=\"Catchphrase\"}}?"
    }
  },
  {
    "label": "12",
    "attribute": "0x00000000FE000000",
    "locale": {
      "EUde": "Oh! {{pause frames=\"5\"}}Ein {{color id=\"7\"}}Narzissenstuhl{{color id=\"0\"}}!\nDer ist sooo supersüß!\n{{pause frames=\"5\"}}{{capitalizeLetter}}{{string value=\"Catchphrase\"}}!\n{{reaction type=\"Curiosity\"}}Ich bin ja auch wie eine\nBlume!{{pause frames=\"5\"}} {{resetReaction}}{{reaction type=\"Joy\"}}Hübsch und\nglücklich!",
      "EUen": "Oh yay! {{pause frames=\"5\"}}A {{color id=\"7\"}}daffodil chair{{color id=\"0\"}}!\nThis is soooo totally cute,\n{{pause frames=\"5\"}}{{string value=\"Catchphrase\"}}!\n{{reaction type=\"Curiosity\"}}Y'know, I'm kinda like a\nflower, too!{{pause frames=\"5\"}} {{resetReaction}}{{reaction type=\"Joy\"}}'Cause I'm so\npretty and happy!",
      "EUes": "Qué linda {{pause frames=\"5\"}}esta {{color id=\"7\"}}silla narciso{{color id=\"0\"}}.\n¡Me encantaría tener esta\nsilla, {{pause frames=\"5\"}}{{string value=\"Catchphrase\"}}!\n{{reaction type=\"Curiosity\"}}¡Es porque yo soy como\nuna flor!{{pause frames=\"5\"}} {{resetReaction}}{{reaction type=\"Joy\"}}¡Porque soy\nlinda y soy feliz!",
      "EUfr": "Super! {{pause frames=\"5\"}}Une {{color id=\"7\"}}chaise jonquille{{color id=\"0\"}}!\nC'est vraiment mignon,\n{{pause frames=\"5\"}}{{string value=\"Catchphrase\"}}!\n{{reaction type=\"Curiosity\"}}J'aime vraiment les fleurs!{{pause frames=\"5\"}}\n{{resetReaction}}{{reaction type=\"Joy\"}}C'est parce que je suis\njolie et gentille!",
      "EUit": "Oh, sì! {{pause frames=\"5\"}}Una {{color id=\"7\"}}sedia narciso{{color id=\"0\"}}!\nChe carina,\n{{pause frames=\"5\"}}{{string value=\"Catchphrase\"}}!\n{{reaction type=\"Curiosity\"}}Sai, io somiglio a un fiore!{{pause frames=\"5\"}}\n{{resetReaction}}{{reaction type=\"Joy\"}}Perché sono bella e felice!",
      "JPja": "おいしいスイーツは\n{{color id=\"7\"}}きいろのおはなのイス{{color id=\"0\"}}に\nすわって　{{kanjiReplace charNum=\"1\" value=\"た\"}}食べたいな\nだって　アタイ、{{pause frames=\"5\"}}\n{{reaction type=\"Curiosity\"}}お{{kanjiReplace charNum=\"1\" value=\"はな\"}}花みたいでしょ？　{{pause frames=\"5\"}}{{string value=\"Catchphrase\"}}？",
      "KRko": "맛있는 디저트는\n{{color id=\"7\"}}노란꽃 의자{{color id=\"0\"}}에\n앉아서 먹고 싶어，\n왜냐면 내가 좀 {{pause frames=\"5\"}}꽃을\n{{reaction type=\"Curiosity\"}}닮았잖니！ {{pause frames=\"5\"}}{{string value=\"Catchphrase\"}}？",
      "USen": "Oh yay! {{pause frames=\"5\"}}A {{color id=\"7\"}}daffodil chair{{color id=\"0\"}}!\nThis is soooo totally cute,\n{{pause frames=\"5\"}}{{string value=\"Catchphrase\"}}!\n{{reaction type=\"Curiosity\"}}Y'know, I'm kinda like a\nflower, too!{{pause frames=\"5\"}} {{resetReaction}}{{reaction type=\"Joy\"}}'Cause I'm so\npretty and happy!"
    }
  },
  {
    "label": "13",
    "attribute": "0x00000000FF000000",
    "locale": {
      "EUde": "{{reaction type=\"Mischief\"}}Machst du dann die Lichter\ndeines {{color id=\"7\"}}Tannenbaums{{color id=\"0\"}} an?\n{{capitalizeLetter}}{{string value=\"Catchphrase\"}}?\nDamit IRGENDJEMAND dir einen\nHaufen Geschenke vorbei-\nbringt? Ja, {{string value=\"PlayerNickname\"}}?{{fun_02 arg=\"0x1819\"}}\nGenau!\nBlödsinn!",
      "EUen": "{{reaction type=\"Mischief\"}}Are you gonna hang your\nstocking on this {{color id=\"7\"}}big festive\ntree{{color id=\"0\"}}, {{string value=\"Catchphrase\"}}?\nI bet you're hoping that\nSOMEBODY brings you a TON\nof presents, {{string value=\"PlayerNickname\"}}!{{fun_02 arg=\"0x1819\"}}\nThat's the plan!\nThat's silly!",
      "EUes": "{{reaction type=\"Mischief\"}}¿Para qué has colocado este\n{{color id=\"7\"}}árbol festivo{{color id=\"0\"}}, {{string value=\"Catchphrase\"}}?\n\n¿Esperas que aparezca un\nmuchillón de regalos debajo,\n{{string value=\"PlayerNickname\"}}?{{fun_02 arg=\"0x1819\"}}\n¡Me has calado!\n¿Pero qué dices?",
      "EUfr": "{{reaction type=\"Mischief\"}}Tu vas accrocher tes\nchaussettes sur le {{color id=\"7\"}}grand\nsapin{{color id=\"0\"}}, {{string value=\"Catchphrase\"}}?\nJe suis sûre que tu espères\nqu'on t'apportera des\ncadeaux, {{string value=\"PlayerNickname\"}}!{{fun_02 arg=\"0x1819\"}}\nC'est l'idée!\nMais non!",
      "EUit": "{{reaction type=\"Mischief\"}}Appenderai la calza a\nquesto {{color id=\"7\"}}albero jingle{{color id=\"0\"}},\n{{string value=\"Catchphrase\"}}?\nScommetto che speri di\nricevere un SACCO di regali\nda QUALCUNO, {{string value=\"PlayerNickname\"}}!{{fun_02 arg=\"0x1819\"}}\nL'idea era quella!\nChe sciocchezza!",
      "JPja": "{{reaction type=\"Intense\"}}アンタ　まさか\n{{color id=\"7\"}}おおきなＸマスツリー{{color id=\"0\"}}に\nおっきな　くつした{{kanjiReplace charNum=\"1\" value=\"さ\"}}下げて、\nサンタさんに　いっぱい\nプレゼント　もらおうなんて\n{{kanjiReplace charNum=\"1\" value=\"かんが\"}}考えてない？{{fun_02 arg=\"0x1819\"}}\nバレたか！\nそんなコトない",
      "KRko": "{{reaction type=\"Intense\"}}너 설마\n{{color id=\"7\"}}큰 X마스 트리{{color id=\"0\"}}에\n큰 양말 걸어놓고\n산타 할아버지한테\n선물 많이 받으려고\n하는 거 아니지？{{fun_02 arg=\"0x1819\"}}\n어떻게 알았어？\n절대 아냐！",
      "USen": "{{reaction type=\"Mischief\"}}Are you gonna hang your\nstocking on this {{color id=\"7\"}}big festive\ntree{{color id=\"0\"}}, {{string value=\"Catchphrase\"}}?\nI bet you're hoping that\nSOMEBODY brings you a TON\nof presents, {{string value=\"PlayerNickname\"}}!{{fun_02 arg=\"0x1819\"}}\nThat's the plan!\nThat's silly!"
    }
  },
  {
    "label": "14",
    "attribute": "0x00000000FE000000",
    "locale": {
      "EUde": "{{reaction type=\"Worry\"}}Weißt du,{{pause frames=\"5\"}} ein kleines\n{{resetReaction}}{{color id=\"7\"}}Tannenbäumchen {{color id=\"0\"}}würde mir\nja schon reichen!{{reaction type=\"Happiness\"}}",
      "EUen": "{{reaction type=\"Worry\"}}Y'know,{{pause frames=\"5\"}} I don't ask much.\n{{resetReaction}}I just want a small\n{{color id=\"7\"}}festive tree {{color id=\"0\"}}in my room!{{reaction type=\"Happiness\"}}",
      "EUes": "{{reaction type=\"Worry\"}}Yo soy{{pause frames=\"5\"}} una chica sencilla.\n{{resetReaction}}¡Yo solo quiero un\n{{color id=\"7\"}}arbolito festivo {{color id=\"0\"}}de nada!{{reaction type=\"Happiness\"}}",
      "EUfr": "{{reaction type=\"Worry\"}}Tu sais!{{pause frames=\"5\"}} Je ne demande pas\ngrand-chose. {{resetReaction}}Je veux juste\nun {{color id=\"7\"}}sapin {{color id=\"0\"}}chez moi!{{reaction type=\"Happiness\"}}",
      "EUit": "{{reaction type=\"Worry\"}}Sai,{{pause frames=\"5\"}} io non chiedo molto.\n{{resetReaction}}Voglio solo avere un\n{{color id=\"7\"}}alberello jingle {{color id=\"0\"}}in camera!{{reaction type=\"Happiness\"}}",
      "JPja": "{{reaction type=\"Worry\"}}アタイ、{{pause frames=\"5\"}}\n{{kanjiReplace charNum=\"1\" value=\"おお\"}}大きな{{kanjiReplace charNum=\"1\" value=\"しあわ\"}}幸せは　いらない\n\n{{resetReaction}}{{color id=\"7\"}}かわいいＸマスツリー{{color id=\"0\"}}が\nお{{kanjiReplace charNum=\"2\" value=\"へや\"}}部屋に　あるぐらいの\n\n{{reaction type=\"Agreement\"}}{{kanjiReplace charNum=\"1\" value=\"ちい\"}}小さくて　かわいい\n{{kanjiReplace charNum=\"1\" value=\"しあわ\"}}幸せが　あれば\nいいんだモン！　{{pause frames=\"5\"}}{{string value=\"Catchphrase\"}}！{{reaction type=\"Happiness\"}}",
      "KRko": "{{reaction type=\"Worry\"}}나，{{pause frames=\"5\"}}\n큰 행복은 필요 없어\n\n{{resetReaction}}{{color id=\"7\"}}귀여운 X마스 트리{{color id=\"0\"}}가\n집에 있는 정도의\n\n{{reaction type=\"Agreement\"}}작고 귀여운\n행복만 있다면\n좋겠어！ {{pause frames=\"5\"}}{{string value=\"Catchphrase\"}}！{{reaction type=\"Happiness\"}}",
      "USen": "{{reaction type=\"Worry\"}}Y'know,{{pause frames=\"5\"}} I don't ask much.\n{{resetReaction}}I just want a small\n{{color id=\"7\"}}festive tree {{color id=\"0\"}}in my room!{{reaction type=\"Happiness\"}}"
    }
  },
  {
    "label": "15",
    "attribute": "0x00000000FE000000",
    "locale": {
      "EUde": "{{resetReaction}}{{reaction type=\"Curiosity\"}}Findest du nicht auch, dass\nich wie ein {{color id=\"7\"}}Püppchen{{color id=\"0\"}}\naussehe? {{pause frames=\"5\"}}{{capitalizeLetter}}{{string value=\"Catchphrase\"}}?\n.{{pause frames=\"3\"}}.{{pause frames=\"3\"}}.{{pause frames=\"3\"}}{{reaction type=\"Shocked\"}}AAAH!{{pause frames=\"20\"}} {{reaction type=\"Distress\"}}Nicht, dass du\nmich irgendwo hinstellen\nund angucken sollst!\n{{reaction type=\"Happiness\"}}Ich meinte nur, dass ich\nklein und süß bin! Wie ein\n{{color id=\"7\"}}Püppchen{{color id=\"0\"}}! {{pause frames=\"5\"}}{{capitalizeLetter}}{{string value=\"Catchphrase\"}}!",
      "EUen": "{{resetReaction}}{{reaction type=\"Curiosity\"}}Don't you think I look just\nlike a {{color id=\"7\"}}dolly{{color id=\"0\"}}, {{pause frames=\"5\"}}{{string value=\"Catchphrase\"}}?\n\n.{{pause frames=\"3\"}}.{{pause frames=\"3\"}}.{{pause frames=\"3\"}}{{reaction type=\"Shocked\"}}YAAA!{{pause frames=\"20\"}} {{reaction type=\"Distress\"}}That doesn't mean\nyou can put me up in your\nroom and STARE all day!\n{{reaction type=\"Happiness\"}}It JUST means that I'm\nsmall and cute! Like a\n{{color id=\"7\"}}dolly{{color id=\"0\"}}, {{pause frames=\"5\"}}{{string value=\"Catchphrase\"}}!",
      "EUes": "{{resetReaction}}{{reaction type=\"Curiosity\"}}¿A que parezco una {{color id=\"7\"}}muñeca{{color id=\"0\"}},\n{{pause frames=\"5\"}}{{string value=\"Catchphrase\"}}?\n\n¿Oye.{{pause frames=\"3\"}}.{{pause frames=\"3\"}}.{{pause frames=\"3\"}}?{{reaction type=\"Shocked\"}} ¡AGH!{{pause frames=\"20\"}} {{reaction type=\"Distress\"}}¡No, no puedes\nponerme en un estante\ny mirarme todo el día!\n{{reaction type=\"Happiness\"}}¡Quería decir que soy mona\ny menudita, igual que una\n{{color id=\"7\"}}muñeca{{color id=\"0\"}}, {{pause frames=\"5\"}}{{string value=\"Catchphrase\"}}!",
      "EUfr": "{{resetReaction}}{{reaction type=\"Curiosity\"}}Tu ne trouves pas que j'ai\nl'air d'une {{color id=\"7\"}}poupée{{color id=\"0\"}},\n{{pause frames=\"5\"}}{{string value=\"Catchphrase\"}}?\n.{{pause frames=\"3\"}}.{{pause frames=\"3\"}}.{{pause frames=\"3\"}}{{reaction type=\"Shocked\"}} AAAH!{{pause frames=\"20\"}} {{reaction type=\"Distress\"}}Ça ne veut pas\ndire que tu peux jouer avec\nmoi toute la journée!\n{{reaction type=\"Happiness\"}}Je sous-entends que je suis\npetite et mignonne! Comme\nune {{color id=\"7\"}}poupée{{color id=\"0\"}}, {{pause frames=\"5\"}}{{string value=\"Catchphrase\"}}!",
      "EUit": "{{resetReaction}}{{reaction type=\"Curiosity\"}}Non pensi che io somigli a\nuna {{color id=\"7\"}}bambolina{{color id=\"0\"}}, {{pause frames=\"5\"}}{{string value=\"Catchphrase\"}}?\n\n.{{pause frames=\"3\"}}.{{pause frames=\"3\"}}.{{pause frames=\"3\"}}{{reaction type=\"Shocked\"}} EHI!{{pause frames=\"20\"}} {{reaction type=\"Distress\"}}Non per questo puoi\nmettermi in camera tua e\nFISSARMI tutto il giorno!\n{{reaction type=\"Happiness\"}}Intendo SOLO dire che sono\npiccola e carina! Come una\n{{color id=\"7\"}}bambolina{{color id=\"0\"}}, {{pause frames=\"5\"}}{{string value=\"Catchphrase\"}}!",
      "JPja": "{{resetReaction}}アタイって\n{{reaction type=\"Curiosity\"}}{{color id=\"7\"}}おにんぎょう{{color id=\"0\"}}さん\nみたいじゃない？　{{pause frames=\"5\"}}{{string value=\"Catchphrase\"}}？\n・{{pause frames=\"3\"}}・{{pause frames=\"3\"}}・{{pause frames=\"3\"}}{{reaction type=\"Shocked\"}}あ！{{pause frames=\"20\"}}　{{kanjiReplace charNum=\"1\" value=\"べつ\"}}別に　お{{kanjiReplace charNum=\"2\" value=\"へや\"}}部屋に\n{{reaction type=\"Distress\"}}かざれるってコトじゃないよ\n\n{{reaction type=\"Happiness\"}}それぐらい　ちっちゃくて\nカワイイって{{kanjiReplace charNum=\"2\" value=\"イミ\"}}意味！　{{pause frames=\"5\"}}{{string value=\"Catchphrase\"}}！",
      "KRko": "{{resetReaction}}나\n{{reaction type=\"Curiosity\"}}{{color id=\"7\"}}인형{{color id=\"0\"}}\n같지 않니？ {{pause frames=\"5\"}}{{string value=\"Catchphrase\"}}？\n・{{pause frames=\"3\"}}・{{pause frames=\"3\"}}・{{pause frames=\"3\"}}{{reaction type=\"Shocked\"}}앗！ {{pause frames=\"20\"}}집에다 장식으로\n{{reaction type=\"Distress\"}}놔 달란 얘긴 아냐\n\n{{reaction type=\"Happiness\"}}그 정도로 작고\n귀엽다구！ {{pause frames=\"5\"}}{{string value=\"Catchphrase\"}}！",
      "USen": "{{resetReaction}}{{reaction type=\"Curiosity\"}}Don't you think I look just\nlike a {{color id=\"7\"}}dolly{{color id=\"0\"}}, {{pause frames=\"5\"}}{{string value=\"Catchphrase\"}}?\n\n.{{pause frames=\"3\"}}.{{pause frames=\"3\"}}.{{pause frames=\"3\"}}{{reaction type=\"Shocked\"}}YAAA!{{pause frames=\"20\"}} {{reaction type=\"Distress\"}}That doesn't mean\nyou can put me up in your\nroom and STARE all day!\n{{reaction type=\"Happiness\"}}It JUST means that I'm\nsmall and cute! Like a\n{{color id=\"7\"}}dolly{{color id=\"0\"}}, {{pause frames=\"5\"}}{{string value=\"Catchphrase\"}}!"
    }
  },
  {
    "label": "16",
    "attribute": "0x00000000FE000000",
    "locale": {
      "EUde": "{{resetReaction}}{{reaction type=\"Thought\"}}Wow...{{pause frames=\"10\"}} Wie kann {{color id=\"7\"}}Mr. Flamingo{{color id=\"0\"}}\nmit diesen dünnen Beinchen\nüberhaupt stehen?",
      "EUen": "{{resetReaction}}{{reaction type=\"Thought\"}}Wow...{{pause frames=\"10\"}} How could you stand\nup if your legs were as\nskinny as {{color id=\"7\"}}Mr. Flamingo{{color id=\"0\"}}'s?",
      "EUes": "{{resetReaction}}{{reaction type=\"Thought\"}}No entiendo{{pause frames=\"10\"}} cómo se\naguanta el {{color id=\"7\"}}Sr. Flamenco{{color id=\"0\"}} en\npie con esas patitas...",
      "EUfr": "{{resetReaction}}{{reaction type=\"Thought\"}}Ouah!{{pause frames=\"10\"}} Imagine tenir sur tes\njambes si elles étaient\nmaigres comme...\ncelles de {{color id=\"7\"}}M. Flamant rose{{color id=\"0\"}}?",
      "EUit": "{{resetReaction}}{{reaction type=\"Thought\"}}Wow...{{pause frames=\"10\"}} Come ti reggeresti in\npiedi se avessi le gambe\nesili come il {{color id=\"7\"}}fenicottero 1{{color id=\"0\"}}?",
      "JPja": "{{resetReaction}}{{color id=\"7\"}}おすのフラミンゴ{{color id=\"0\"}}みたいに、\n{{reaction type=\"Sadness\"}}アタイの{{kanjiReplace charNum=\"1\" value=\"あし\"}}足も\n{{kanjiReplace charNum=\"1\" value=\"ほそ\"}}細くならないかなー、{{pause frames=\"5\"}}{{string value=\"Catchphrase\"}}",
      "KRko": "{{resetReaction}}{{color id=\"7\"}}수컷 플라밍고{{color id=\"0\"}}처럼\n{{reaction type=\"Sadness\"}}내 다리도 가늘면\n좋을 텐데， {{pause frames=\"5\"}}{{string value=\"Catchphrase\"}}",
      "USen": "{{resetReaction}}{{reaction type=\"Thought\"}}Wow...{{pause frames=\"10\"}} How could you stand\nup if your legs were as\nskinny as {{color id=\"7\"}}Mr. Flamingo{{color id=\"0\"}}'s?"
    }
  },
  {
    "label": "17",
    "attribute": "0x00000000FE000000",
    "locale": {
      "EUde": "{{reaction type=\"Happiness\"}}{{color id=\"7\"}}Mrs. Flamingo {{color id=\"0\"}}ist DAS\nSupermodel in der Welt der\nVögel!\nUnd sie hat wunderschöne,\nschlanke Beine... {{reaction type=\"Glee\"}}Genau wie\nich! {{pause frames=\"5\"}}{{capitalizeLetter}}{{string value=\"Catchphrase\"}}!!!",
      "EUen": "{{reaction type=\"Happiness\"}}{{color id=\"7\"}}Mrs. Flamingo {{color id=\"0\"}}is, like, the\nbird world's BIGGEST\nsupermodel!\nAnd she's got cute long\nlegs... {{reaction type=\"Glee\"}}Just like ME,\n{{pause frames=\"5\"}}{{string value=\"Catchphrase\"}}!!",
      "EUes": "{{reaction type=\"Happiness\"}}¡La {{color id=\"7\"}}Sra. Flamenco {{color id=\"0\"}}es la\nsupermodelo más estupenda\nde todo el mundo!\nY esas piernas larguísimas\nque tiene... {{reaction type=\"Glee\"}}¡Son como las\nmías, {{pause frames=\"5\"}}{{string value=\"Catchphrase\"}}!",
      "EUfr": "{{reaction type=\"Happiness\"}}{{color id=\"7\"}}Mme Flamant rose {{color id=\"0\"}}est le\nplus grand mannequin du\nmonde aviaire!\nEt elle a des super longues\njambes... {{reaction type=\"Glee\"}}tout comme moi,\n{{pause frames=\"5\"}}{{string value=\"Catchphrase\"}}!",
      "EUit": "{{reaction type=\"Happiness\"}}Il {{color id=\"7\"}}fenicottero 2 {{color id=\"0\"}}è tipo la\npiù GRANDE supermodel del\nmondo! Ha delle lunghissime\ngambe sottili... {{reaction type=\"Glee\"}}proprio\ncome ME, {{pause frames=\"5\"}}{{string value=\"Catchphrase\"}}!",
      "JPja": "{{reaction type=\"Happiness\"}}{{color id=\"7\"}}めすのフラミンゴ{{color id=\"0\"}}って\n{{kanjiReplace charNum=\"1\" value=\"とり\"}}鳥の　{{kanjiReplace charNum=\"2\" value=\"せかい\"}}世界の\nスーパーモデルだよー！\nアタイみたいに\n{{kanjiReplace charNum=\"1\" value=\"あし\"}}足が　{{kanjiReplace charNum=\"1\" value=\"なが\"}}長いんだよねー、\n{{pause frames=\"5\"}}{{string value=\"Catchphrase\"}}",
      "KRko": "{{reaction type=\"Happiness\"}}{{color id=\"7\"}}암컷 플라밍고{{color id=\"0\"}}는\n새들 세계에선\n슈퍼 모델이야！\n나처럼\n다리가 길잖아， \n{{pause frames=\"5\"}}{{string value=\"Catchphrase\"}}",
      "USen": "{{reaction type=\"Happiness\"}}{{color id=\"7\"}}Mrs. Flamingo {{color id=\"0\"}}is, like, the\nbird world's BIGGEST\nsupermodel!\nAnd she's got cute long\nlegs... {{reaction type=\"Glee\"}}Just like ME,\n{{pause frames=\"5\"}}{{string value=\"Catchphrase\"}}!!"
    }
  },
  {
    "label": "18",
    "attribute": "0x00000000FE000000",
    "locale": {
      "EUde": "{{resetReaction}}Oh!{{pause frames=\"5\"}} Ein Picknick wäre jetzt\ntoll{{pause frames=\"3\"}}.{{pause frames=\"3\"}}.{{pause frames=\"3\"}}.{{pause frames=\"3\"}} {{reaction type=\"Glee\"}}Mit einem süßen\nKleid am {{color id=\"7\"}}Picknicktisch{{color id=\"0\"}}...\n{{reaction type=\"Love\"}}Und dann esse ich, bis ich\nPLATZE!{{pause frames=\"5\"}} Mmmmh...{{pause frames=\"5\"}}\nLECKER!",
      "EUen": "{{resetReaction}}Oh, wow.{{pause frames=\"5\"}} I wish I was at a\npicnic{{pause frames=\"3\"}}.{{pause frames=\"3\"}}.{{pause frames=\"3\"}}.{{pause frames=\"3\"}} {{reaction type=\"Glee\"}}I'd wear a cute\ndress to the {{color id=\"7\"}}Picnic Table{{color id=\"0\"}}...\n{{reaction type=\"Love\"}}And then totally eat until I\nwas ready to BURST!{{pause frames=\"5\"}} Mmm...{{pause frames=\"5\"}}\nYUMMERS!",
      "EUes": "{{resetReaction}}Ay,{{pause frames=\"5\"}} me encantaría ir de\npicnic{{pause frames=\"3\"}}.{{pause frames=\"3\"}}.{{pause frames=\"3\"}}.{{pause frames=\"3\"}} {{reaction type=\"Glee\"}}Dejaría la ensalada\nen la {{color id=\"7\"}}mesa de picnic{{color id=\"0\"}}...\n{{reaction type=\"Love\"}}¡Y atacaría TODO lo que\nhubiera de comer!{{pause frames=\"5\"}} Mmm...{{pause frames=\"5\"}}\n¡Me encantan los picnics!",
      "EUfr": "{{resetReaction}}Je voudrais être à un\npique-nique{{pause frames=\"3\"}}.{{pause frames=\"3\"}}.{{pause frames=\"3\"}}.{{pause frames=\"3\"}} {{reaction type=\"Glee\"}}où je\nporterais une robe à la\n{{color id=\"7\"}}table pic-nic{{color id=\"0\"}}... {{reaction type=\"Love\"}}Et je me\ngaverais comme une oie!\n{{pause frames=\"5\"}}Mmm...{{pause frames=\"5\"}} MIAM!",
      "EUit": "{{resetReaction}}Oh, wow.{{pause frames=\"5\"}} Vorrei essere a un\npicnic{{pause frames=\"3\"}}.{{pause frames=\"3\"}}.{{pause frames=\"3\"}}.{{pause frames=\"3\"}} {{reaction type=\"Glee\"}}per indossare un\nbel vestitino seduta al\n{{color id=\"7\"}}tavolo da picnic{{color id=\"0\"}}... {{reaction type=\"Love\"}}e poi\nmangiare fino a SCOPPIARE!{{pause frames=\"5\"}}\nMmm...{{pause frames=\"5\"}} CHE FAME!",
      "JPja": "{{resetReaction}}アタイも　ピクニックに\n{{kanjiReplace charNum=\"1\" value=\"い\"}}行きたいなー{{pause frames=\"3\"}}・{{pause frames=\"3\"}}・{{pause frames=\"3\"}}・\n\n{{reaction type=\"Glee\"}}お{{kanjiReplace charNum=\"1\" value=\"き\"}}気に{{kanjiReplace charNum=\"1\" value=\"い\"}}入りの　シャツを{{kanjiReplace charNum=\"1\" value=\"き\"}}着て、\n{{color id=\"7\"}}ピクニックテーブル{{color id=\"0\"}}に　ついて、\n\n{{reaction type=\"Love\"}}ジュースとか　プハーッて\nしたいなー{{pause frames=\"3\"}}・{{pause frames=\"3\"}}・{{pause frames=\"3\"}}・",
      "KRko": "{{resetReaction}}나도 피크닉\n가고 싶어{{pause frames=\"3\"}}・{{pause frames=\"3\"}}・{{pause frames=\"3\"}}・\n\n{{reaction type=\"Glee\"}}마음에 드는 옷 입고\n{{color id=\"7\"}}피크닉 테이블{{color id=\"0\"}}에 앉아서\n\n{{reaction type=\"Love\"}}쥬스 같은 거 마시면서\n여유를 즐기고 싶어{{pause frames=\"3\"}}・{{pause frames=\"3\"}}・{{pause frames=\"3\"}}・",
      "USen": "{{resetReaction}}Oh, wow.{{pause frames=\"5\"}} I wish I was at a\npicnic{{pause frames=\"3\"}}.{{pause frames=\"3\"}}.{{pause frames=\"3\"}}.{{pause frames=\"3\"}} {{reaction type=\"Glee\"}}I'd wear a cute\ndress to the {{color id=\"7\"}}Picnic Table{{color id=\"0\"}}...\n{{reaction type=\"Love\"}}And then totally eat until I\nwas ready to BURST!{{pause frames=\"5\"}} Mmm...{{pause frames=\"5\"}}\nYUMMERS!"
    }
  },
  {
    "label": "19",
    "attribute": "0x00000000FE000000",
    "locale": {
      "EUde": "{{reaction type=\"Thought\"}}Oh, WOW!{{pause frames=\"5\"}} Ich stehe ja direkt\nneben dem {{color id=\"7\"}}Triumphbogen{{color id=\"0\"}}!\n{{pause frames=\"5\"}}{{capitalizeLetter}}{{string value=\"Catchphrase\"}}!\n{{reaction type=\"Amazed\"}}Oh, là, là!{{pause frames=\"5\"}} Jetzt denken\ndie Leute, ich wäre aus\nPARIS!{{pause frames=\"10\"}}{{resetReaction}}{{reaction type=\"Happiness\"}} Très chic!{{pause frames=\"5\"}} PARIS!!!",
      "EUen": "{{reaction type=\"Thought\"}}Like, OMIGOSH!{{pause frames=\"5\"}} I'm actually\nstanding next to the {{color id=\"7\"}}Arc\nde Triomphe{{color id=\"0\"}}, {{pause frames=\"5\"}}{{string value=\"Catchphrase\"}}!\n{{reaction type=\"Amazed\"}}Oh, snarkies!{{pause frames=\"5\"}} I wonder if\npeople will actually think\nI'm from PARIS!{{pause frames=\"10\"}}{{resetReaction}}{{reaction type=\"Happiness\"}} YAY!!{{pause frames=\"5\"}} PARIS!!",
      "EUes": "{{reaction type=\"Thought\"}}¡No puedo creerlo!{{pause frames=\"5\"}} ¡Heme\naquí, junto al {{color id=\"7\"}}Arco de\nTriunfo{{color id=\"0\"}}, {{pause frames=\"5\"}}{{string value=\"Catchphrase\"}}!\n{{reaction type=\"Amazed\"}}¡Huy!{{pause frames=\"5\"}} ¡A lo mejor la gente\ncree que soy una heroína y\n{{pause frames=\"10\"}}que se construyó por mí!",
      "EUfr": "{{reaction type=\"Thought\"}}INCROYABLE!{{pause frames=\"5\"}} Je suis à côté\nde l'{{color id=\"7\"}}Arc de Triomphe{{color id=\"0\"}},\n{{pause frames=\"5\"}}{{string value=\"Catchphrase\"}}!\n{{reaction type=\"Amazed\"}}Mais!{{pause frames=\"5\"}} Les gens penseront\npeut-être que je viens de\nPARIS!{{pause frames=\"10\"}}{{resetReaction}}{{reaction type=\"Happiness\"}} OUAIS!!{{pause frames=\"5\"}} DE PARIS!",
      "EUit": "{{reaction type=\"Thought\"}}WOW!{{pause frames=\"5\"}} Mi trovo accanto al\nfamoso {{color id=\"7\"}}arco di trionfo{{color id=\"0\"}},\n{{pause frames=\"5\"}}{{string value=\"Catchphrase\"}}!\n{{reaction type=\"Amazed\"}}Oh, cavoli!{{pause frames=\"5\"}} Chissà se la\ngente mi scambia per una\nvera PARIGINA!{{pause frames=\"10\"}}{{resetReaction}}{{reaction type=\"Happiness\"}} SÌ!{{pause frames=\"5\"}} PARIGI!",
      "JPja": "{{reaction type=\"Thought\"}}{{color id=\"7\"}}がいせんもん{{color id=\"0\"}}のとなりに\nたたずむ　アタイ{{pause frames=\"5\"}}・{{pause frames=\"5\"}}・{{pause frames=\"5\"}}・\n{{pause frames=\"5\"}}{{string value=\"Catchphrase\"}}\n{{reaction type=\"Distress\"}}あーん！{{pause frames=\"10\"}}　きっと\n{{kanjiReplace charNum=\"2\" value=\"ほんば\"}}本場の　パリジェンヌには\n{{kanjiReplace charNum=\"1\" value=\"か\"}}勝てないよー！",
      "KRko": "{{reaction type=\"Thought\"}}{{color id=\"7\"}}개선문 {{color id=\"0\"}}옆에\n서 있는 나{{pause frames=\"5\"}}・{{pause frames=\"5\"}}・{{pause frames=\"5\"}}・\n{{pause frames=\"5\"}}{{string value=\"Catchphrase\"}}\n{{reaction type=\"Distress\"}}우왕！ {{pause frames=\"10\"}}분명히\n파리지엔느\n느낌은 안 나겠지！",
      "USen": "{{reaction type=\"Thought\"}}Like, OMIGOSH!{{pause frames=\"5\"}} I'm actually\nstanding next to the {{color id=\"7\"}}Arc\nde Triomphe{{color id=\"0\"}}, {{pause frames=\"5\"}}{{string value=\"Catchphrase\"}}!\n{{reaction type=\"Amazed\"}}Oh, snarkies!{{pause frames=\"5\"}} I wonder if\npeople will actually think\nI'm from PARIS!{{pause frames=\"10\"}}{{resetReaction}}{{reaction type=\"Happiness\"}} YAY!!{{pause frames=\"5\"}} PARIS!!"
    }
  },
  {
    "label": "20",
    "attribute": "0x00000000FE000000",
    "locale": {
      "EUde": "{{reaction type=\"Amazed\"}}UNGLAUBLICH!{{pause frames=\"5\"}} Ist das ein\n{{color id=\"7\"}}Teddybär{{color id=\"0\"}}?!?{{pause frames=\"10\"}} Ich GLAUBS\nnicht!\n{{reaction type=\"Glee\"}}{{capitalizeLetter}}{{string value=\"PlayerNickname\"}}! Das ist\neinfach{{pause frames=\"5\"}} ZU SÜSS, um wahr\nzu sein! {{pause frames=\"5\"}}{{capitalizeLetter}}{{string value=\"Catchphrase\"}}!",
      "EUen": "{{reaction type=\"Amazed\"}}Oh, NO WAY!{{pause frames=\"5\"}} You have a\n{{color id=\"7\"}}teddy bear{{color id=\"0\"}}?!{{pause frames=\"10\"}} Omigosh, I\ndon't BELIEVE it!\n{{reaction type=\"Glee\"}}{{capitalizeLetter}}{{string value=\"PlayerNickname\"}}, that is just{{pause frames=\"5\"}}\nTOO CUTE, {{pause frames=\"5\"}}{{string value=\"Catchphrase\"}}!",
      "EUes": "{{reaction type=\"Amazed\"}}¡No puede ser!{{pause frames=\"5\"}} ¡¿Tienes un\n{{color id=\"7\"}}osito de peluche{{color id=\"0\"}}?!{{pause frames=\"10\"}} ¡Esto sí\nque no me lo esperaba!\n{{reaction type=\"Glee\"}}¡No te cortes, {{string value=\"PlayerNickname\"}}!{{pause frames=\"5\"}}\n¡Qué tierno, {{pause frames=\"5\"}}{{string value=\"Catchphrase\"}}!",
      "EUfr": "{{reaction type=\"Amazed\"}}OH NON!{{pause frames=\"5\"}} Tu as un \n{{color id=\"7\"}}nounours?!{{color id=\"0\"}}{{pause frames=\"10\"}} J'y crois pas!\n\n{{reaction type=\"Glee\"}}{{capitalizeLetter}}{{string value=\"PlayerNickname\"}}, il est\nvraiment{{pause frames=\"5\"}} TROP CHOU,\n{{pause frames=\"5\"}}{{string value=\"Catchphrase\"}}!",
      "EUit": "{{reaction type=\"Amazed\"}}Oh, NO!{{pause frames=\"5\"}} Hai un\n{{color id=\"7\"}}orsacchiotto{{color id=\"0\"}}?!{{pause frames=\"10\"}} NON CI CREDO!\n{{reaction type=\"Glee\"}}{{capitalizeLetter}}{{string value=\"PlayerNickname\"}}, sei\nveramente{{pause frames=\"5\"}} DOLCISSIM{{gender m=\"O\" f=\"A\"}},\n{{pause frames=\"5\"}}{{string value=\"Catchphrase\"}}!",
      "JPja": "{{reaction type=\"Amazed\"}}アンタ、{{pause frames=\"5\"}}\n{{kanjiReplace charNum=\"1\" value=\"おとこ\"}}男の{{kanjiReplace charNum=\"1\" value=\"コ\"}}子なのに　あんな\nぬいぐるみ　{{kanjiReplace charNum=\"1\" value=\"も\"}}持ってんだ！\n{{reaction type=\"Glee\"}}{{string value=\"PlayerNickname\"}}ちゃんって、{{pause frames=\"5\"}}\nカワイー！　{{pause frames=\"5\"}}{{string value=\"Catchphrase\"}}！",
      "KRko": "{{reaction type=\"Amazed\"}}너， {{pause frames=\"5\"}}\n남자 아이인데 그런\n인형 갖고 있어？\n{{reaction type=\"Glee\"}}{{string value=\"PlayerNickname\"}}， {{pause frames=\"5\"}}\n귀엽네！ {{pause frames=\"5\"}}{{string value=\"Catchphrase\"}}！",
      "USen": "{{reaction type=\"Amazed\"}}Oh, NO WAY!{{pause frames=\"5\"}} You have a\n{{color id=\"7\"}}teddy bear{{color id=\"0\"}}?!{{pause frames=\"10\"}} Omigosh, I\ndon't BELIEVE it!\n{{reaction type=\"Glee\"}}{{capitalizeLetter}}{{string value=\"PlayerNickname\"}}, that is just{{pause frames=\"5\"}}\nTOO CUTE, {{pause frames=\"5\"}}{{string value=\"Catchphrase\"}}!"
    }
  },
  {
    "label": "21",
    "attribute": "0x00000000FE000000",
    "locale": {
      "EUde": "{{reaction type=\"Happiness\"}}Ja, ja! Als Mädchen muss\nman einfach einen {{color id=\"7\"}}Teddybär{{color id=\"0\"}}\nhaben!",
      "EUen": "{{reaction type=\"Happiness\"}}Yep! A {{color id=\"7\"}}teddy bear{{color id=\"0\"}} is a\nmust-have for a girl!",
      "EUes": "{{reaction type=\"Happiness\"}}¡Sí! ¡Un {{color id=\"7\"}}osito de peluche{{color id=\"0\"}}\nes muy buena compañía!",
      "EUfr": "{{reaction type=\"Happiness\"}}Ouais! Toute jeune fille qui\nse respecte doit avoir un\n{{color id=\"7\"}}nounours!{{color id=\"0\"}} ",
      "EUit": "{{reaction type=\"Happiness\"}}Sì! Un {{color id=\"7\"}}orsacchiotto{{color id=\"0\"}} è un\naccessorio indispensabile\nper ogni ragazza!",
      "JPja": "{{reaction type=\"Happiness\"}}あの　くまちゃんは\n{{kanjiReplace charNum=\"1\" value=\"おんな\"}}女の{{kanjiReplace charNum=\"1\" value=\"コ\"}}子の\nひっすアイテムよね！",
      "KRko": "{{reaction type=\"Happiness\"}}그 곰인형은\n여자 아이의\n필수 아이템이지！",
      "USen": "{{reaction type=\"Happiness\"}}Yep! A {{color id=\"7\"}}teddy bear{{color id=\"0\"}} is a\nmust-have for a girl!"
    }
  },
  {
    "label": "22",
    "attribute": "0x00000000FE000000",
    "locale": {
      "EUde": "{{resetReaction}}{{reaction type=\"Shocked\"}}WAS?!? Wie meinst du das?!?\n{{pause frames=\"10\"}}Es tut mir Leid!{{pause frames=\"5\"}} Das war\ndoch nicht ernst gemeint!\n{{reaction type=\"Sorrow\"}}Wie dumm von mir!{{pause frames=\"10\"}} BITTE sei\nmir nicht böse, ja?\n{{pause frames=\"5\"}}{{capitalizeLetter}}{{string value=\"PlayerName\"}}!",
      "EUen": "{{resetReaction}}{{reaction type=\"Shocked\"}}WHAT?! What's that supposed\nto mean?!{{pause frames=\"10\"}} Oh, I'm SO sorry!{{pause frames=\"5\"}}\nI didn't mean it!\n{{reaction type=\"Sorrow\"}}I've ruined everything!{{pause frames=\"10\"}} Oh,\nPLEASE don't hate me,\n{{pause frames=\"5\"}}{{string value=\"PlayerName\"}}!",
      "EUes": "{{resetReaction}}{{reaction type=\"Shocked\"}}¡¿Qué?! ¡¿Qué quieres decir\ncon eso?!{{pause frames=\"10\"}} ¡Oh, lo siento!{{pause frames=\"5\"}}\n¡No quería decir eso!\n{{reaction type=\"Sorrow\"}}¡Qué metida de pata!{{pause frames=\"10\"}} ¡Ay, no\nme odies ni me lo tengas en\ncuenta, {{pause frames=\"5\"}}{{string value=\"PlayerName\"}}!",
      "EUfr": "{{resetReaction}}{{reaction type=\"Shocked\"}}QUOI?! Qu'est-ce que ça\nveut dire?!{{pause frames=\"10\"}} Je suis désolée!{{pause frames=\"5\"}}\nJe ne le pensais pas!\n{{reaction type=\"Sorrow\"}}J'ai tout cassé!{{pause frames=\"10\"}} Oh,\nne me fais pas la tête,\n{{pause frames=\"5\"}}{{string value=\"PlayerName\"}}!",
      "EUit": "{{resetReaction}}{{reaction type=\"Shocked\"}}COSA?! Cosa intendi dire?!{{pause frames=\"10\"}}\nOh, mi dispiace TANTISSIMO!{{pause frames=\"5\"}}\nNon volevo!\n{{reaction type=\"Sorrow\"}}Ho rovinato tutto!{{pause frames=\"10\"}} Oh,\nTI PREGO, non odiarmi,\n{{pause frames=\"5\"}}{{string value=\"PlayerName\"}}!",
      "JPja": "{{resetReaction}}ふーん{{pause frames=\"3\"}}・{{pause frames=\"3\"}}・{{pause frames=\"3\"}}・{{pause frames=\"3\"}}って、{{pause frames=\"20\"}}\n{{reaction type=\"Shocked\"}}{{kanjiReplace charNum=\"1\" value=\"なに\"}}何よ、{{pause frames=\"5\"}}それー？！\n\n{{reaction type=\"Distress\"}}アタイ、{{pause frames=\"5\"}}そんなに\n{{kanjiReplace charNum=\"2\" value=\"みくだ\"}}見下されるようなコト\nアンタに　{{kanjiReplace charNum=\"1\" value=\"い\"}}言ったー？！",
      "KRko": "{{resetReaction}}흐음{{pause frames=\"3\"}}・{{pause frames=\"3\"}}・{{pause frames=\"3\"}}・{{pause frames=\"3\"}}{{pause frames=\"20\"}}\n{{reaction type=\"Shocked\"}}뭐야， {{pause frames=\"5\"}}그게？！\n\n{{reaction type=\"Distress\"}}내가{{pause frames=\"5\"}} 왜\n이런 취급\n받아야 돼？",
      "USen": "{{resetReaction}}{{reaction type=\"Shocked\"}}WHAT?! What's that supposed\nto mean?!{{pause frames=\"10\"}} Oh, I'm SO sorry!{{pause frames=\"5\"}}\nI didn't mean it!\n{{reaction type=\"Sorrow\"}}I've ruined everything!{{pause frames=\"10\"}} Oh,\nPLEASE don't hate me,\n{{pause frames=\"5\"}}{{string value=\"PlayerName\"}}!"
    }
  },
  {
    "label": "23",
    "attribute": "0x00000000FE000000",
    "locale": {
      "EUde": "{{resetReaction}}.{{pause frames=\"5\"}}.{{pause frames=\"5\"}}.{{pause frames=\"5\"}}Das SAGST du doch nur so!\n{{pause frames=\"10\"}}{{reaction type=\"Mischief\"}}In Wirklichkeit wärst du\nbestimmt sauer auf mich!",
      "EUen": "{{resetReaction}}.{{pause frames=\"5\"}}.{{pause frames=\"5\"}}.{{pause frames=\"5\"}}You SAY that like you\nmean it...{{pause frames=\"10\"}}{{reaction type=\"Mischief\"}}but I bet you'd be\nmad if I slept on your bed!!",
      "EUes": "{{resetReaction}}Sí.{{pause frames=\"5\"}}.{{pause frames=\"5\"}}.{{pause frames=\"5\"}} Ahora dices eso, pero\n{{pause frames=\"10\"}}{{reaction type=\"Mischief\"}}¡a ver qué cara pondrías si\nme metiera en tu cama!",
      "EUfr": "{{resetReaction}}.{{pause frames=\"5\"}}.{{pause frames=\"5\"}}.{{pause frames=\"5\"}} Tu dis ça...{{pause frames=\"10\"}}{{reaction type=\"Mischief\"}} mais je suis\nsûre que tu serais fo{{gender m=\"u\" f=\"lle\"}} si\nje dormais sur ton lit!!",
      "EUit": "{{resetReaction}}.{{pause frames=\"5\"}}.{{pause frames=\"5\"}}.{{pause frames=\"5\"}} Ora dici così...{{pause frames=\"10\"}}{{reaction type=\"Mischief\"}} ma lo so\nche ti arrabbieresti se\nio dormissi nel tuo letto!",
      "JPja": "{{resetReaction}}・{{pause frames=\"5\"}}・{{pause frames=\"5\"}}・{{pause frames=\"5\"}}とか　{{kanjiReplace charNum=\"1\" value=\"い\"}}言ってるわりには\n{{reaction type=\"Worry\"}}{{kanjiReplace charNum=\"1\" value=\"め\"}}目が　{{kanjiReplace charNum=\"1\" value=\"わら\"}}笑ってないよ\n{{string value=\"PlayerNickname\"}}ちゃーん！",
      "KRko": "{{resetReaction}}・{{pause frames=\"5\"}}・{{pause frames=\"5\"}}・{{pause frames=\"5\"}}그렇게 말하는 것 치고는\n{{reaction type=\"Worry\"}}눈이 안 웃고 있잖아\n{{string value=\"PlayerNickname\"}}！",
      "USen": "{{resetReaction}}.{{pause frames=\"5\"}}.{{pause frames=\"5\"}}.{{pause frames=\"5\"}}You SAY that like you\nmean it...{{pause frames=\"10\"}}{{reaction type=\"Mischief\"}}but I bet you'd be\nmad if I slept on your bed!!"
    }
  },
  {
    "label": "24",
    "attribute": "0x00000000FE000000",
    "locale": {
      "EUde": "{{reaction type=\"Laughter\"}}Hihihi!{{pause frames=\"10\"}} Ich WUSSTE es! Du\nbist so leicht zu\ndurchschauen!",
      "EUen": "{{reaction type=\"Laughter\"}}Tee hee hee!{{pause frames=\"10\"}} I KNEW it!\nI can read you like an issue\nof {{color id=\"2\"}}Ms. Nintendique{{color id=\"0\"}}!",
      "EUes": "{{reaction type=\"Laughter\"}}¡Ja, ja,{{pause frames=\"10\"}} lo SABÍA! ¡Leo en\ntu cara como si fuera una\npágina de {{color id=\"2\"}}Miss Nintendique{{color id=\"0\"}}!",
      "EUfr": "{{reaction type=\"Laughter\"}}Hi, hi, hi!{{pause frames=\"10\"}} Je le savais! Je\nlis dans tes pensées comme\ndans un numéro de\n{{color id=\"2\"}}Madame Nintendo{{color id=\"0\"}}!",
      "EUit": "{{reaction type=\"Laughter\"}}Eh eh eh!{{pause frames=\"10\"}} Lo sapevo!\nOrmai ti conosco come una\ncopia di {{color id=\"2\"}}Donna Nintendique{{color id=\"0\"}}!",
      "JPja": "{{reaction type=\"Laughter\"}}キャハハ！{{pause frames=\"10\"}}\nアンタの{{kanjiReplace charNum=\"2\" value=\"こうどう\"}}行動パターンって\n{{kanjiReplace charNum=\"1\" value=\"わ\"}}分かりやすーい！　{{pause frames=\"5\"}}{{string value=\"Catchphrase\"}}！",
      "KRko": "{{reaction type=\"Laughter\"}}캬하하！{{pause frames=\"10\"}}\n너의 행동 패턴은\n너무 뻔해！ {{pause frames=\"5\"}}{{string value=\"Catchphrase\"}}！",
      "USen": "{{reaction type=\"Laughter\"}}Tee hee hee!{{pause frames=\"10\"}} I KNEW it!\nI can read you like an issue\nof {{color id=\"2\"}}Ms. Nintendique{{color id=\"0\"}}!"
    }
  },
  {
    "label": "25",
    "attribute": "0x00000000FE000000",
    "locale": {
      "EUde": "{{reaction type=\"Amazed\"}}ECHT?!?{{pause frames=\"20\"}} {{resetReaction}}{{capitalizeLetter}}{{string value=\"PlayerNickname\"}}...{{pause frames=\"5\"}} Mit\ndieser Antwort habe ich\njetzt nicht gerechnet!",
      "EUen": "{{reaction type=\"Amazed\"}}REALLY?!{{pause frames=\"20\"}} {{resetReaction}}Wow, that's, like,\nnot the answer I expected,{{pause frames=\"5\"}}\n{{string value=\"PlayerNickname\"}}!",
      "EUes": "{{reaction type=\"Amazed\"}}¡¿DE VERDAD?!{{pause frames=\"20\"}} {{resetReaction}}¡Esa respuesta\nsí que no me la esperaba{{pause frames=\"5\"}}\npara nada, {{string value=\"PlayerNickname\"}}!",
      "EUfr": "{{reaction type=\"Amazed\"}}VRAIMENT?!{{pause frames=\"20\"}} {{resetReaction}}Ouah, ce n'est\npas la réponse que\nj'attendais,{{pause frames=\"5\"}} {{string value=\"PlayerNickname\"}}!",
      "EUit": "{{reaction type=\"Amazed\"}}SUL SERIO?!{{pause frames=\"20\"}} {{resetReaction}}Wow, beh, cioè,\nnon mi aspettavo questa\nrisposta,{{pause frames=\"5\"}} {{string value=\"PlayerNickname\"}}!",
      "JPja": "{{reaction type=\"Amazed\"}}あ、{{pause frames=\"5\"}}そうなの？{{pause frames=\"20\"}}\n{{resetReaction}}{{kanjiReplace charNum=\"2\" value=\"いがい\"}}意外と　ケンキョなのね、{{pause frames=\"5\"}}\n{{string value=\"PlayerNickname\"}}ちゃんって！",
      "KRko": "{{reaction type=\"Amazed\"}}앗， {{pause frames=\"5\"}}그래？{{pause frames=\"20\"}}\n{{string value=\"PlayerNickname\"}}{{fun_0B arg=\"0x0100\"}} \n{{resetReaction}}의외로 겸손하네{{pause frames=\"5\"}}",
      "USen": "{{reaction type=\"Amazed\"}}REALLY?!{{pause frames=\"20\"}} {{resetReaction}}Wow, that's, like,\nnot the answer I expected,{{pause frames=\"5\"}}\n{{string value=\"PlayerNickname\"}}!"
    }
  }
]