[
  {
    "label": "0",
    "attribute": "0x00000000FE000000",
    "locale": {
      "EUde": "{{reaction type=\"Happiness\"}}Du bist mein HELD!\n\n\n{{reaction type=\"Amazed\"}}Held{{pause frames=\"5\"}}.{{pause frames=\"5\"}}.{{pause frames=\"5\"}}.{{pause frames=\"5\"}} {{reaction type=\"Distress\"}}So will ich auch mal\ngenannt werden,\n{{pause frames=\"5\"}}{{string value=\"Catchphrase\"}}!",
      "EUen": "{{reaction type=\"Happiness\"}}You are my HERO!\n\n\n{{reaction type=\"Amazed\"}}Hero{{pause frames=\"5\"}}.{{pause frames=\"5\"}}.{{pause frames=\"5\"}}.{{pause frames=\"5\"}} {{reaction type=\"Distress\"}}I wanna be called\nthat, too, {{pause frames=\"5\"}}{{string value=\"Catchphrase\"}}!",
      "EUes": "{{reaction type=\"Happiness\"}}¡Si es que eres más list{{gender m=\"o\" f=\"a\"}}\nque las personas!\n\n{{reaction type=\"Amazed\"}}La verdad{{pause frames=\"5\"}}.{{pause frames=\"5\"}}.{{pause frames=\"5\"}}.{{pause frames=\"5\"}} {{reaction type=\"Distress\"}}¡Yo de mayor\nquiero ser como tú,\n{{pause frames=\"5\"}}{{string value=\"Catchphrase\"}}!",
      "EUfr": "{{reaction type=\"Happiness\"}}T'es mon HERO{{gender m=\"S\" f=\"INE\"}}!\n\n\n{{reaction type=\"Amazed\"}}Héros{{pause frames=\"5\"}}.{{pause frames=\"5\"}}.{{pause frames=\"5\"}}.{{pause frames=\"5\"}} {{reaction type=\"Distress\"}}Moi aussi,\nje veux qu'on m'appelle\ncomme ça, {{pause frames=\"5\"}}{{string value=\"Catchphrase\"}}!",
      "EUit": "{{reaction type=\"Happiness\"}}Mi{{gender m=\"o\" f=\"a\"}} SALVAT{{gender m=\"ORE\" f=\"RICE\"}}!\n\n\n{{reaction type=\"Amazed\"}}Salvatore{{pause frames=\"5\"}}.{{pause frames=\"5\"}}.{{pause frames=\"5\"}}.{{pause frames=\"5\"}}{{reaction type=\"Distress\"}} voglio essere\nchiamato anch'io così,\n{{pause frames=\"5\"}}{{string value=\"Catchphrase\"}}!",
      "JPja": "{{reaction type=\"Happiness\"}}おまえこそ　おいらの\nキュウセイシュだよ！\n\n{{reaction type=\"Amazed\"}}キュウセイシュ{{pause frames=\"5\"}}・{{pause frames=\"5\"}}・{{pause frames=\"5\"}}・{{pause frames=\"5\"}}\n{{reaction type=\"Distress\"}}おいらも　よばれてー！\n{{pause frames=\"5\"}}{{string value=\"Catchphrase\"}}！",
      "KRko": "{{reaction type=\"Happiness\"}}넌 나의\n구세주야！\n\n{{reaction type=\"Amazed\"}}구세주{{pause frames=\"5\"}}・{{pause frames=\"5\"}}・{{pause frames=\"5\"}}・{{pause frames=\"5\"}}\n{{reaction type=\"Distress\"}}나도 구세주란 말 듣고 싶다ー！\n{{pause frames=\"5\"}}{{string value=\"Catchphrase\"}}！",
      "USen": "{{reaction type=\"Happiness\"}}You are my HERO!\n\n\n{{reaction type=\"Amazed\"}}Hero{{pause frames=\"5\"}}.{{pause frames=\"5\"}}.{{pause frames=\"5\"}}.{{pause frames=\"5\"}} {{reaction type=\"Distress\"}}I wanna be called\nthat, too, {{pause frames=\"5\"}}{{string value=\"Catchphrase\"}}!"
    }
  },
  {
    "label": "1",
    "attribute": "0x00000000FE000000",
    "locale": {
      "EUde": "{{reaction type=\"Worry\"}}Hey, {{string value=\"PlayerNickname\"}}, du hast\nmir echt total geholfen,\n{{pause frames=\"5\"}}{{string value=\"Catchphrase\"}}!\n{{reaction type=\"Inspiration\"}}Weißt du was?{{pause frames=\"20\"}} {{reaction type=\"Happiness\"}}Wenn du das\nnächste Mal krank wirst...\n\n{{reaction type=\"Glee\"}}Mache ich dir meine\nSuperspezialzwiebel-\nproteinsuppe, {{pause frames=\"5\"}}{{string value=\"Catchphrase\"}}!",
      "EUen": "{{reaction type=\"Worry\"}}Boy, {{string value=\"PlayerNickname\"}}, you've\nhooked me up big-time,\n{{pause frames=\"5\"}}{{string value=\"Catchphrase\"}}!\n{{reaction type=\"Inspiration\"}}Know what?!{{pause frames=\"20\"}} {{reaction type=\"Happiness\"}}Next time you\nget sick...\n\n{{reaction type=\"Glee\"}}I'll make you my special\nSuper Onion Glutenizer\nSoup, {{pause frames=\"5\"}}{{string value=\"Catchphrase\"}}!",
      "EUes": "{{reaction type=\"Worry\"}}Colega, {{string value=\"PlayerNickname\"}}, menudo\nfavor que me has hecho,\n{{pause frames=\"5\"}}¡{{string value=\"Catchphrase\"}}!\n{{reaction type=\"Inspiration\"}}Oye,{{pause frames=\"20\"}} {{reaction type=\"Happiness\"}}la próxima vez que\nestés enferm{{gender m=\"o\" f=\"a\"}}...\n\n{{reaction type=\"Glee\"}}¡prepararé mi batido de\naceite de hígado de bacalao,\n{{pause frames=\"5\"}}{{string value=\"Catchphrase\"}}!",
      "EUfr": "{{reaction type=\"Worry\"}}Ça alors, {{string value=\"PlayerNickname\"}}, je te\ndois une fière chandelle,\n{{pause frames=\"5\"}}{{string value=\"Catchphrase\"}}!\n{{reaction type=\"Inspiration\"}}Tu sais quoi?!{{pause frames=\"20\"}} {{reaction type=\"Happiness\"}}La prochaine\nfois que tu seras malade...\n\n{{reaction type=\"Glee\"}}je te préparerai ma super\nsoupe à l'oignon hyper\nprotéinée, {{pause frames=\"5\"}}{{string value=\"Catchphrase\"}}!",
      "EUit": "{{reaction type=\"Worry\"}}Ehi, {{string value=\"PlayerNickname\"}}, mi hai\naiutato tantissimo,\n{{pause frames=\"5\"}}{{string value=\"Catchphrase\"}}!\n{{reaction type=\"Inspiration\"}}Sai una cosa?!{{pause frames=\"20\"}} {{reaction type=\"Happiness\"}}Quando\nstarai male tu...\n\n{{reaction type=\"Glee\"}}Ti farò una delle mie\nsuper zuppe di cipolla\nglutinata, {{pause frames=\"5\"}}{{string value=\"Catchphrase\"}}!",
      "JPja": "{{reaction type=\"Worry\"}}{{string value=\"PlayerNickname\"}}には\n{{kanjiReplace charNum=\"2\" value=\"せわ\"}}世話に　なりっぱなしだよ！\n{{pause frames=\"5\"}}{{string value=\"Catchphrase\"}}！\n{{reaction type=\"Inspiration\"}}そうだ！{{pause frames=\"20\"}}\n{{reaction type=\"Happiness\"}}{{kanjiReplace charNum=\"2\" value=\"こんど\"}}今度は　おまえが\n{{kanjiReplace charNum=\"2\" value=\"びょうき\"}}病気になった{{kanjiReplace charNum=\"1\" value=\"とき\"}}時、\n{{reaction type=\"Glee\"}}おいらの　アセとナミダの\nとくせいスープを\n{{kanjiReplace charNum=\"2\" value=\"ようい\"}}用意しとくよ！　{{pause frames=\"5\"}}{{string value=\"Catchphrase\"}}！",
      "KRko": "{{reaction type=\"Worry\"}}{{string value=\"PlayerNickname\"}}한테는\n항상 신세만 지는구나！\n{{pause frames=\"5\"}}{{string value=\"Catchphrase\"}}！\n{{reaction type=\"Inspiration\"}}그래！{{pause frames=\"20\"}}\n{{reaction type=\"Happiness\"}}다음에 혹시\n너가 병에 걸리면\n{{reaction type=\"Glee\"}}내 땀과 눈물의\n스페셜 수프를\n만들어 줄게！ {{pause frames=\"5\"}}{{string value=\"Catchphrase\"}}！",
      "USen": "{{reaction type=\"Worry\"}}Boy, {{string value=\"PlayerNickname\"}}, you've\nhooked me up big-time,\n{{pause frames=\"5\"}}{{string value=\"Catchphrase\"}}!\n{{reaction type=\"Inspiration\"}}Know what?!{{pause frames=\"20\"}} {{reaction type=\"Happiness\"}}Next time you\nget sick...\n\n{{reaction type=\"Glee\"}}I'll make you my special\nSuper Onion Glutenizer\nSoup, {{pause frames=\"5\"}}{{string value=\"Catchphrase\"}}!"
    }
  },
  {
    "label": "2",
    "attribute": "0x00000000FE000000",
    "locale": {
      "EUde": "{{reaction type=\"Joy\"}}{{capitalizeLetter}}{{string value=\"PlayerNickname\"}}, du hast mir\ndas LEBEN gerettet,\n{{pause frames=\"5\"}}{{string value=\"Catchphrase\"}}!\n{{reaction type=\"Thought\"}}Lebensretter{{pause frames=\"5\"}}.{{pause frames=\"5\"}}.{{pause frames=\"5\"}}.{{pause frames=\"5\"}} Jaaaaa{{pause frames=\"5\"}}.{{pause frames=\"5\"}}.{{pause frames=\"5\"}}.{{pause frames=\"5\"}}\n{{reaction type=\"Happiness\"}}Das klingt verflixt GUT, \n{{pause frames=\"5\"}}{{string value=\"Catchphrase\"}}!",
      "EUen": "{{reaction type=\"Joy\"}}{{capitalizeLetter}}{{string value=\"PlayerNickname\"}}, you saved my\nLIFE, {{pause frames=\"5\"}}{{string value=\"Catchphrase\"}}!\n\n{{reaction type=\"Thought\"}}Lifesaver{{pause frames=\"5\"}}.{{pause frames=\"5\"}}.{{pause frames=\"5\"}}.{{pause frames=\"5\"}} Yeeeeeah{{pause frames=\"5\"}}.{{pause frames=\"5\"}}.{{pause frames=\"5\"}}.{{pause frames=\"5\"}}\n{{reaction type=\"Happiness\"}}That sounds pretty darn\nGOOD, {{pause frames=\"5\"}}{{string value=\"Catchphrase\"}}!",
      "EUes": "{{reaction type=\"Joy\"}}{{capitalizeLetter}}{{string value=\"PlayerNickname\"}}, me has salvado\nla vida, {{pause frames=\"5\"}}{{string value=\"Catchphrase\"}}.\n\n{{reaction type=\"Thought\"}}Salvavidas{{pause frames=\"5\"}}.{{pause frames=\"5\"}}.{{pause frames=\"5\"}}.{{pause frames=\"5\"}} Sí{{pause frames=\"5\"}}.{{pause frames=\"5\"}}.{{pause frames=\"5\"}}.{{pause frames=\"5\"}} {{reaction type=\"Happiness\"}}No suena\nmal, {{pause frames=\"5\"}}¡{{string value=\"Catchphrase\"}}!",
      "EUfr": "{{reaction type=\"Joy\"}}{{capitalizeLetter}}{{string value=\"PlayerNickname\"}}, tu m'as sauvé\nla VIE, {{pause frames=\"5\"}}{{string value=\"Catchphrase\"}}!\n\n{{reaction type=\"Thought\"}}Un sauvetage{{pause frames=\"5\"}}.{{pause frames=\"5\"}}.{{pause frames=\"5\"}}.{{pause frames=\"5\"}} Ouais{{pause frames=\"5\"}}.{{pause frames=\"5\"}}.{{pause frames=\"5\"}}.{{pause frames=\"5\"}}\n{{reaction type=\"Happiness\"}}Ça sonne bien ça,\n{{pause frames=\"5\"}}{{string value=\"Catchphrase\"}}!",
      "EUit": "{{reaction type=\"Joy\"}}{{capitalizeLetter}}{{string value=\"PlayerNickname\"}}, mi hai salvato\nla VITA, {{pause frames=\"5\"}}{{string value=\"Catchphrase\"}}!\n\n{{reaction type=\"Thought\"}}Salvat{{gender m=\"ore\" f=\"rice\"}}{{pause frames=\"5\"}}.{{pause frames=\"5\"}}.{{pause frames=\"5\"}}.{{pause frames=\"5\"}} Sìììììì{{pause frames=\"5\"}}.{{pause frames=\"5\"}}.{{pause frames=\"5\"}}.{{pause frames=\"5\"}}\n{{reaction type=\"Happiness\"}}Come suona BENE,\n{{pause frames=\"5\"}}{{string value=\"Catchphrase\"}}!",
      "JPja": "{{reaction type=\"Joy\"}}{{string value=\"PlayerNickname\"}}は\nおいらの　{{kanjiReplace charNum=\"1\" value=\"いのち\"}}命のおんじんだよ！\n{{pause frames=\"5\"}}{{string value=\"Catchphrase\"}}！\n{{reaction type=\"Thought\"}}おんじんかー{{pause frames=\"5\"}}・{{pause frames=\"5\"}}・{{pause frames=\"5\"}}・{{pause frames=\"5\"}}\n{{reaction type=\"Happiness\"}}それも　{{kanjiReplace charNum=\"1\" value=\"わる\"}}悪くないな！\n{{pause frames=\"5\"}}{{string value=\"Catchphrase\"}}！",
      "KRko": "{{reaction type=\"Joy\"}}{{string value=\"PlayerNickname\"}}{{fun_0B arg=\"0x0100\"}}\n내 생명의 은인이야！\n{{pause frames=\"5\"}}{{string value=\"Catchphrase\"}}！\n{{reaction type=\"Thought\"}}은인이라ー{{pause frames=\"5\"}}・{{pause frames=\"5\"}}・{{pause frames=\"5\"}}・{{pause frames=\"5\"}}\n{{reaction type=\"Happiness\"}}좋은걸！\n{{pause frames=\"5\"}}{{string value=\"Catchphrase\"}}！",
      "USen": "{{reaction type=\"Joy\"}}{{capitalizeLetter}}{{string value=\"PlayerNickname\"}}, you saved my\nLIFE, {{pause frames=\"5\"}}{{string value=\"Catchphrase\"}}!\n\n{{reaction type=\"Thought\"}}Lifesaver{{pause frames=\"5\"}}.{{pause frames=\"5\"}}.{{pause frames=\"5\"}}.{{pause frames=\"5\"}} Yeeeeeah{{pause frames=\"5\"}}.{{pause frames=\"5\"}}.{{pause frames=\"5\"}}.{{pause frames=\"5\"}}\n{{reaction type=\"Happiness\"}}That sounds pretty darn\nGOOD, {{pause frames=\"5\"}}{{string value=\"Catchphrase\"}}!"
    }
  }
]