[
  {
    "label": "0",
    "attribute": "0x00000000FE000000",
    "locale": {
      "EUde": "{{resetReaction}}{{color id=\"6\"}}Eugen{{color id=\"0\"}}{{pause frames=\"5\"}} hat mir von diesen\n{{color id=\"2\"}}{{string index=\"0\"}}-{{color id=\"0\"}}\nFossilien erzählt...\n{{reaction type=\"Happiness\"}}Du musst alle Teile finden,\ndamit das Set komplett ist,\n{{pause frames=\"5\"}}{{string value=\"Catchphrase\"}}!\n{{reaction type=\"Intense\"}}Da ich ja nur die coolsten\nSachen suche,{{pause frames=\"5\"}}\nwill ich sie alle finden!\n{{reaction type=\"Distress\"}}Na komm schon, {{string value=\"PlayerNickname\"}}!{{pause frames=\"20\"}}\nDu musst mir dabei helfen,\n{{pause frames=\"5\"}}{{string value=\"Catchphrase\"}}!",
      "EUen": "{{resetReaction}}{{color id=\"6\"}}Blathers{{color id=\"0\"}}{{pause frames=\"5\"}} just told me about\nthe {{color id=\"2\"}}{{string index=\"0\"}}{{color id=\"0\"}}\nfossils...\n{{reaction type=\"Happiness\"}}You gotta find a bunch of\npieces to make a whole set,\n{{pause frames=\"5\"}}{{string value=\"Catchphrase\"}}!\n{{reaction type=\"Intense\"}}As an animal who seeks only\nthe manliest of artifacts,{{pause frames=\"5\"}}\nI wanna find 'em all!\n{{reaction type=\"Distress\"}}So c'mon, {{string value=\"PlayerNickname\"}}!{{pause frames=\"20\"}}\nYou gotta help me find 'em,\n{{pause frames=\"5\"}}{{string value=\"Catchphrase\"}}!",
      "EUes": "{{resetReaction}}{{color id=\"6\"}}Sócrates{{color id=\"0\"}}{{pause frames=\"5\"}} me acaba de decir\nlo de los fósiles de\n{{color id=\"2\"}}{{string index=\"0\"}}{{color id=\"0\"}}...\n{{reaction type=\"Happiness\"}}Tienes que encontrar las\ndiferentes partes que lo\nforman, {{pause frames=\"5\"}}¡{{string value=\"Catchphrase\"}}!\n{{reaction type=\"Intense\"}}¡Me encantan los retos!{{pause frames=\"5\"}}\n¡No hay dolor! ¡Sé que puedo\nhacerlo!\n{{reaction type=\"Distress\"}}Anímate, ¡{{string value=\"PlayerNickname\"}}!{{pause frames=\"20\"}}\n¡Tienes que ayudarme,\n{{pause frames=\"5\"}}{{string value=\"Catchphrase\"}}!",
      "EUfr": "{{resetReaction}}{{color id=\"6\"}}Thibou{{color id=\"0\"}}{{pause frames=\"5\"}} vient de me parler\ndes fossiles de\n{{color id=\"2\"}}{{string index=\"0\"}}{{color id=\"0\"}}...\n{{reaction type=\"Happiness\"}}Il faut en trouver plusieurs\npour reconstituer tout le\nsquelette, {{pause frames=\"5\"}}{{string value=\"Catchphrase\"}}!\n{{reaction type=\"Intense\"}}Comme je suis un animal qui\nne cherche que ce qui est\nrare,{{pause frames=\"5\"}} je vais tous\nles trouver! {{reaction type=\"Distress\"}}Allez,\n{{string value=\"PlayerNickname\"}}!{{pause frames=\"20\"}} Tu dois m'aider\nà les trouver, {{pause frames=\"5\"}}{{string value=\"Catchphrase\"}}!",
      "EUit": "{{resetReaction}}{{color id=\"6\"}}Blatero{{color id=\"0\"}}{{pause frames=\"5\"}} mi ha parlato\ndei fossili di\n{{ignoreArticle}}{{color id=\"2\"}}{{string index=\"0\"}}{{color id=\"0\"}}...\n{{reaction type=\"Happiness\"}}Devi trovare diversi\npezzi per completare lo\nscheletro, {{pause frames=\"5\"}}{{string value=\"Catchphrase\"}}!\n{{reaction type=\"Intense\"}}E io sono un perfezionista,\nquindi voglio trovare{{pause frames=\"5\"}} tutti\ni pezzi, fino all'ultimo!\n{{reaction type=\"Distress\"}}Allora, forza, {{string value=\"PlayerNickname\"}}!{{pause frames=\"20\"}}\nDevi aiutarmi a trovarli,\n{{pause frames=\"5\"}}{{string value=\"Catchphrase\"}}!",
      "JPja": "{{resetReaction}}{{color id=\"6\"}}フータ{{color id=\"0\"}}に　{{kanjiReplace charNum=\"1\" value=\"き\"}}聞いたんだけど、{{pause frames=\"5\"}}\n{{color id=\"2\"}}{{string index=\"0\"}}{{color id=\"0\"}}の\n{{kanjiReplace charNum=\"2\" value=\"かせき\"}}化石って、\n{{reaction type=\"Happiness\"}}いくつかで　ワンセット\nなんだって！　{{pause frames=\"5\"}}{{string value=\"Catchphrase\"}}！\n\n{{reaction type=\"Intense\"}}{{kanjiReplace charNum=\"1\" value=\"オトコ\"}}男のマロンを　もとめる\nおいらとしたら、{{pause frames=\"5\"}}{{kanjiReplace charNum=\"2\" value=\"ぜんぶ\"}}全部\nそろえてみたいトコロだ！\n{{reaction type=\"Distress\"}}だから　{{string value=\"PlayerNickname\"}}！{{pause frames=\"20\"}}\nいっしょに　さがすの\n{{kanjiReplace charNum=\"2\" value=\"てつだ\"}}手伝ってくれー！　{{pause frames=\"5\"}}{{string value=\"Catchphrase\"}}！",
      "KRko": "{{resetReaction}}{{color id=\"6\"}}부엉{{color id=\"0\"}}한테 들었는데{{pause frames=\"5\"}}\n{{color id=\"2\"}}{{string index=\"0\"}}{{color id=\"0\"}}\n화석은\n{{reaction type=\"Happiness\"}}몇 개가 모여야 한 세트가\n완성된대！ {{pause frames=\"5\"}}{{string value=\"Catchphrase\"}}！\n\n{{reaction type=\"Intense\"}}남자의 로망을 추구하는\n나로선， {{pause frames=\"5\"}}전부\n모아야만 직성이 풀릴 거야！\n{{reaction type=\"Distress\"}}그래서 말인데 {{string value=\"PlayerNickname\"}}！{{pause frames=\"20\"}}\n찾는 거 같이\n도와 주라ー！ {{pause frames=\"5\"}}{{string value=\"Catchphrase\"}}！",
      "USen": "{{resetReaction}}{{color id=\"6\"}}Blathers{{color id=\"0\"}}{{pause frames=\"5\"}} just told me about\nthe {{color id=\"2\"}}{{string index=\"0\"}}{{color id=\"0\"}}\nfossils...\n{{reaction type=\"Happiness\"}}You gotta find a bunch of\npieces to make a whole set,\n{{pause frames=\"5\"}}{{string value=\"Catchphrase\"}}!\n{{reaction type=\"Intense\"}}As an animal who seeks only\nthe manliest of artifacts,{{pause frames=\"5\"}}\nI wanna find 'em all!\n{{reaction type=\"Distress\"}}So c'mon, {{string value=\"PlayerNickname\"}}!{{pause frames=\"20\"}}\nYou gotta help me find 'em,\n{{pause frames=\"5\"}}{{string value=\"Catchphrase\"}}!"
    }
  },
  {
    "label": "1",
    "attribute": "0x00000000FE000000",
    "locale": {
      "EUde": "{{reaction type=\"Glee\"}}Als ein RIESIGER Fossilienfan\nliebe ich {{gender m=\"den mächtigen\" f=\"die mächtige\" n=\"das mächtige\"}}\n{{color id=\"2\"}}{{string index=\"0\"}}{{color id=\"0\"}}!\n{{reaction type=\"Thought\"}}Aber ich habe noch kein\neinziges Teil gefunden,\n{{pause frames=\"5\"}}{{string value=\"Catchphrase\"}}.\n{{resetReaction}}Hey, {{pause frames=\"5\"}}{{string value=\"PlayerNickname\"}}...{{pause frames=\"10\"}} Ich\nwerde dich nie wieder um\nirgendetwas bitten, ehrlich!\n{{reaction type=\"Distress\"}}Hab Mitleid mit mir{{pause frames=\"5\"}} und gib\nmir ein Fossilienteil von\n{{gender m=\"dem\" f=\"der\" n=\"dem\"}} {{color id=\"2\"}}{{string index=\"0\"}}{{color id=\"0\"}}!",
      "EUen": "{{reaction type=\"Glee\"}}As a HUGE fossil fan, I just\ncan't ignore the mighty \n{{color id=\"2\"}}{{string index=\"0\"}}{{color id=\"0\"}}!\n{{reaction type=\"Thought\"}}Then again, I don't even\nhave a single piece yet,\n{{pause frames=\"5\"}}{{string value=\"Catchphrase\"}}.\n{{resetReaction}}Hey, {{pause frames=\"5\"}}{{string value=\"PlayerNickname\"}}...{{pause frames=\"10\"}}\nI'll never ask for anything\nagain, I promise!\n{{reaction type=\"Distress\"}}Take pity on me {{pause frames=\"5\"}}and give\nme one sweet fossil from\nthe {{color id=\"2\"}}{{string index=\"0\"}}{{color id=\"0\"}}!",
      "EUes": "{{reaction type=\"Glee\"}}Como buen aficionado a los\nfósiles, ¡adoro al legendario\n{{color id=\"2\"}}{{string index=\"0\"}}{{color id=\"0\"}}!\n{{reaction type=\"Thought\"}}Por desgracia, no he\nencontrado ni un trocito\nde uno, {{pause frames=\"5\"}}{{string value=\"Catchphrase\"}}.\n{{resetReaction}}Oye, {{pause frames=\"5\"}}{{string value=\"PlayerNickname\"}}...{{pause frames=\"10\"}} Te\nprometo que no te vuelvo\na pedir un favor...\n{{reaction type=\"Distress\"}}Pero apiádate de mí,{{pause frames=\"5\"}}\n¡y dame un trocito de\n{{color id=\"2\"}}{{string index=\"0\"}}{{color id=\"0\"}}!",
      "EUfr": "{{reaction type=\"Glee\"}}En tant que GRAND fan de\nfossiles, je ne peux pas\nignorer le magnifique\n{{color id=\"2\"}}{{string index=\"0\"}}{{color id=\"0\"}}! {{reaction type=\"Thought\"}}Mais\nje n'ai aucun morceau pour\nle moment, {{pause frames=\"5\"}}{{string value=\"Catchphrase\"}}.\n{{resetReaction}}Hé, {{pause frames=\"5\"}}{{string value=\"PlayerNickname\"}}...{{pause frames=\"10\"}}\nje ne te demanderai plus\njamais rien, promis!\n{{reaction type=\"Distress\"}}Aie pitié de moi et{{pause frames=\"5\"}}\ndonne-moi ton joli fossile\nde {{color id=\"2\"}}{{string index=\"0\"}}{{color id=\"0\"}}!",
      "EUit": "{{reaction type=\"Glee\"}}Vado PAZZO per i fossili,\nnon posso vivere senza\n{{color id=\"2\"}}{{string index=\"0\"}}{{color id=\"0\"}}!\n{{reaction type=\"Thought\"}}Ma non ne ho trovato\nneanche un pezzettino\nfinora, {{pause frames=\"5\"}}{{string value=\"Catchphrase\"}}.\n{{resetReaction}}Ehi, {{pause frames=\"5\"}}{{string value=\"PlayerNickname\"}}...{{pause frames=\"10\"}}\nGiuro che non ti chiederò\npiù nient'altro, però...\n{{reaction type=\"Distress\"}}Abbi pietà di me {{pause frames=\"5\"}}e dammi\nun fossile {{gender m=\"del mio amato\" f=\"della mia amata\" n=\"\"}}\n{{ignoreArticle}}{{color id=\"2\"}}{{string index=\"0\"}}{{color id=\"0\"}}!",
      "JPja": "{{reaction type=\"Glee\"}}{{kanjiReplace charNum=\"1\" value=\"だい\"}}大の　{{kanjiReplace charNum=\"2\" value=\"かせき\"}}化石{{kanjiReplace charNum=\"1\" value=\"ず\"}}好きとして\n{{color id=\"2\"}}{{string index=\"0\"}}{{color id=\"0\"}}の{{kanjiReplace charNum=\"2\" value=\"かせき\"}}化石は\n{{kanjiReplace charNum=\"1\" value=\"はず\"}}外せないぞー！\n{{reaction type=\"Thought\"}}でも　おいら、まだ\n１つも　{{kanjiReplace charNum=\"1\" value=\"も\"}}持ってないんだよね{{pause frames=\"5\"}}・{{pause frames=\"5\"}}・{{pause frames=\"5\"}}・\n{{pause frames=\"5\"}}{{string value=\"Catchphrase\"}}\n{{resetReaction}}なあ、{{pause frames=\"5\"}}{{string value=\"PlayerNickname\"}}{{pause frames=\"10\"}}\n{{kanjiReplace charNum=\"2\" value=\"いっしょう\"}}一生に　{{kanjiReplace charNum=\"2\" value=\"いちど\"}}一度の\nお{{kanjiReplace charNum=\"1\" value=\"ねが\"}}願いだ\n{{reaction type=\"Distress\"}}こんな　カワイソーな　おいらに、{{pause frames=\"5\"}}\n{{color id=\"2\"}}{{string index=\"0\"}}{{color id=\"0\"}}の{{kanjiReplace charNum=\"2\" value=\"かせき\"}}化石{{pause frames=\"5\"}}\nめぐんでくれよー！　{{pause frames=\"5\"}}{{string value=\"Catchphrase\"}}！",
      "KRko": "{{reaction type=\"Glee\"}}화석을 사랑해 마지않는 사람에게\n{{color id=\"2\"}}{{string index=\"0\"}}{{color id=\"0\"}}{{fun_0B arg=\"0x0100\"}}\n꿈의 화석이라고 할 수 있지ー！\n{{reaction type=\"Thought\"}}하지만 난 아직\n１개도 없어{{pause frames=\"5\"}}・{{pause frames=\"5\"}}・{{pause frames=\"5\"}}・\n{{pause frames=\"5\"}}{{string value=\"Catchphrase\"}}\n{{resetReaction}}저기 {{pause frames=\"5\"}}{{string value=\"PlayerNickname\"}}{{fun_0B arg=\"0x0400\"}}{{pause frames=\"10\"}}\n평생의 소원이야\n\n{{reaction type=\"Distress\"}}이렇게 불쌍한 나에게{{pause frames=\"5\"}}\n{{color id=\"2\"}}{{string index=\"0\"}} {{color id=\"0\"}}화석 좀{{pause frames=\"5\"}}\n주라ー！ {{pause frames=\"5\"}}{{string value=\"Catchphrase\"}}！",
      "USen": "{{reaction type=\"Glee\"}}As a HUGE fossil fan, I just\ncan't ignore the mighty \n{{color id=\"2\"}}{{string index=\"0\"}}{{color id=\"0\"}}!\n{{reaction type=\"Thought\"}}Then again, I don't even\nhave a single piece yet,\n{{pause frames=\"5\"}}{{string value=\"Catchphrase\"}}.\n{{resetReaction}}Hey, {{pause frames=\"5\"}}{{string value=\"PlayerNickname\"}}...{{pause frames=\"10\"}}\nI'll never ask for anything\nagain, I promise!\n{{reaction type=\"Distress\"}}Take pity on me {{pause frames=\"5\"}}and give\nme one sweet fossil from\nthe {{color id=\"2\"}}{{string index=\"0\"}}{{color id=\"0\"}}!"
    }
  },
  {
    "label": "2",
    "attribute": "0x00000000FE000000",
    "locale": {
      "EUde": "{{resetReaction}}Ich habe Fossilien\ngesammelt, wie immer,\naber...\n{{reaction type=\"Sadness\"}}Ich habe nichts Cooles mehr\ngefunden, und jetzt ist mir\nlangweilig{{pause frames=\"5\"}}.{{pause frames=\"5\"}}.{{pause frames=\"5\"}}.\n{{resetReaction}}Tun wir uns zusammen,\n{{pause frames=\"5\"}}{{color id=\"5\"}}{{string value=\"PlayerNickname\"}}{{color id=\"0\"}}!{{pause frames=\"20\"}} Gemeinsam\nfinden wir etwas Tolles!\n{{reaction type=\"Thought\"}}Mal sehen{{pause frames=\"5\"}}.{{pause frames=\"5\"}}.{{pause frames=\"5\"}}.{{pause frames=\"5\"}} {{reaction type=\"Curiosity\"}} Wie wärs mit\neinem Teil {{gender m=\"des\" f=\"der\" n=\"des\"}} großartigen\n{{color id=\"2\"}}{{string index=\"0\"}}{{color id=\"0\"}}?\n{{reaction type=\"Glee\"}}Suchen wir gemeinsam nach\nvergangenen Zeiten,\n{{pause frames=\"5\"}}{{string value=\"Catchphrase\"}}!",
      "EUen": "{{resetReaction}}I've been collecting fossils\nas always, but...\n\n{{reaction type=\"Sadness\"}}I haven't found anything \ncool lately, and I'm getting\nhugely bored{{pause frames=\"5\"}}.{{pause frames=\"5\"}}.{{pause frames=\"5\"}}.\n{{resetReaction}}Gotta man up, {{pause frames=\"5\"}}{{color id=\"5\"}}{{string value=\"PlayerNickname\"}}{{color id=\"0\"}}!{{pause frames=\"20\"}}\nLet's go find something\nreally cool together!\n{{reaction type=\"Thought\"}}Let's see{{pause frames=\"5\"}}.{{pause frames=\"5\"}}.{{pause frames=\"5\"}}.{{pause frames=\"5\"}} {{reaction type=\"Curiosity\"}}How about a \nfossil from the awesome\n{{color id=\"2\"}}{{string index=\"0\"}}{{color id=\"0\"}}?\n{{reaction type=\"Glee\"}}Let's seek ancient history\ntogether, {{pause frames=\"5\"}}{{string value=\"Catchphrase\"}}!",
      "EUes": "{{resetReaction}}Pues he estado buscando\nfósiles como siempre...\n\n{{reaction type=\"Sadness\"}}Pero no he encontrado\nninguno y empiezo a\ncansarme{{pause frames=\"5\"}}.{{pause frames=\"5\"}}.{{pause frames=\"5\"}}.\n{{resetReaction}}No puede ser, {{pause frames=\"5\"}}¡{{color id=\"5\"}}{{string value=\"PlayerNickname\"}}{{color id=\"0\"}}!{{pause frames=\"20\"}}\n¡Vayamos juntos a ver si\ntenemos más suerte!\n{{reaction type=\"Thought\"}}Veamos{{pause frames=\"5\"}}.{{pause frames=\"5\"}}.{{pause frames=\"5\"}}.{{pause frames=\"5\"}} {{reaction type=\"Curiosity\"}}¿Y si\nbuscamos un fósil\nde {{color id=\"2\"}}{{string index=\"0\"}}{{color id=\"0\"}}?\n{{reaction type=\"Glee\"}}Vamos, hagamos un poco de\nejercicio, {{pause frames=\"5\"}}¡{{string value=\"Catchphrase\"}}!",
      "EUfr": "{{resetReaction}}Je collectionne des fossiles\ncomme toujours, mais...\n\n{{reaction type=\"Sadness\"}}Je n'ai rien trouvé de bien\ndernièrement et je m'ennuie\nbeaucoup{{pause frames=\"5\"}}.{{pause frames=\"5\"}}.{{pause frames=\"5\"}}.\n{{resetReaction}}J'ai une idée, {{pause frames=\"5\"}}{{color id=\"5\"}}{{string value=\"PlayerNickname\"}}{{color id=\"0\"}}!{{pause frames=\"20\"}}\nAllons en chercher\nensemble!\n{{reaction type=\"Thought\"}}Voyons{{pause frames=\"5\"}}.{{pause frames=\"5\"}}.{{pause frames=\"5\"}}.{{pause frames=\"5\"}} {{reaction type=\"Curiosity\"}}Pourquoi pas un\nfossile de l'extraordinaire\n{{color id=\"2\"}}{{string index=\"0\"}}{{color id=\"0\"}}?\n{{reaction type=\"Glee\"}}Partons à la recherche de\nce vestige de la \npréhistoire, {{pause frames=\"5\"}}{{string value=\"Catchphrase\"}}!",
      "EUit": "{{resetReaction}}Continuo la mia ricerca di\nfossili, ma...\n\n{{reaction type=\"Sadness\"}}Ultimamente non ho\ntrovato niente\nd'interessante{{pause frames=\"5\"}}.{{pause frames=\"5\"}}.{{pause frames=\"5\"}}.\n{{resetReaction}}Devi aiutarmi, {{pause frames=\"5\"}}{{color id=\"5\"}}{{string value=\"PlayerNickname\"}}{{color id=\"0\"}}!{{pause frames=\"20\"}}\nAndiamo insieme a caccia di\nfossili mozzafiato!\n{{reaction type=\"Thought\"}}Vediamo{{pause frames=\"5\"}}.{{pause frames=\"5\"}}.{{pause frames=\"5\"}}.{{pause frames=\"5\"}} {{reaction type=\"Curiosity\"}}Che ne diresti di\nun fossile {{gender m=\"del famoso\" f=\"della famosa\" n=\"\"}}\n{{ignoreArticle}}{{color id=\"2\"}}{{string index=\"0\"}}{{color id=\"0\"}}?\n{{reaction type=\"Glee\"}}Insieme ricostruiremo la\npreistoria, {{pause frames=\"5\"}}{{string value=\"Catchphrase\"}}!",
      "JPja": "{{resetReaction}}おいら　{{kanjiReplace charNum=\"2\" value=\"あいか\"}}相変わらず\n{{kanjiReplace charNum=\"2\" value=\"かせき\"}}化石を　{{kanjiReplace charNum=\"1\" value=\"あつ\"}}集めてるんだけど、\n\n{{reaction type=\"Sadness\"}}さいきんは　ショボいヤツばっかで\nテンション　{{kanjiReplace charNum=\"1\" value=\"さ\"}}下がりっぱなし\nなんだよね{{pause frames=\"5\"}}・{{pause frames=\"5\"}}・{{pause frames=\"5\"}}・\n{{resetReaction}}だからさー、{{pause frames=\"5\"}}{{color id=\"5\"}}{{string value=\"PlayerNickname\"}}ー{{color id=\"0\"}}！{{pause frames=\"20\"}}\nここらで　{{kanjiReplace charNum=\"2\" value=\"いっぱつ\"}}一発、スゴいヤツを\nいっしょに　さがしてくんない？\n{{reaction type=\"Thought\"}}そうだな{{pause frames=\"5\"}}・{{pause frames=\"5\"}}・{{pause frames=\"5\"}}・{{pause frames=\"5\"}}\n{{reaction type=\"Curiosity\"}}{{color id=\"2\"}}{{string index=\"0\"}}{{color id=\"0\"}}の\n{{kanjiReplace charNum=\"2\" value=\"かせき\"}}化石なんて　どうだ？\n{{reaction type=\"Glee\"}}おいらと　いっしょに\n{{kanjiReplace charNum=\"2\" value=\"こだい\"}}古代のマロンを\n{{kanjiReplace charNum=\"1\" value=\"かん\"}}感じようぜー！　{{pause frames=\"5\"}}{{string value=\"Catchphrase\"}}！",
      "KRko": "{{resetReaction}}난 지금도\n화석을 모으는 중인데\n\n{{reaction type=\"Sadness\"}}요즘엔 찌질한 것만 보여서\n완전 기분이\n저조하단 말이지{{pause frames=\"5\"}}・{{pause frames=\"5\"}}・{{pause frames=\"5\"}}・\n{{resetReaction}}야ー {{pause frames=\"5\"}}{{color id=\"5\"}}{{string value=\"PlayerNickname\"}}ー{{color id=\"0\"}}！{{pause frames=\"20\"}}\n우리 같이\n끝내주는 놈 찾아보지 않을래？\n{{reaction type=\"Thought\"}}어디 보자{{pause frames=\"5\"}}・{{pause frames=\"5\"}}・{{pause frames=\"5\"}}・{{pause frames=\"5\"}}\n{{reaction type=\"Curiosity\"}}{{color id=\"2\"}}{{string index=\"0\"}}{{color id=\"0\"}}\n화석은 어때？\n{{reaction type=\"Glee\"}}나랑 같이\n고대의 로망을\n느껴 보는 거야ー！ {{pause frames=\"5\"}}{{string value=\"Catchphrase\"}}",
      "USen": "{{resetReaction}}I've been collecting fossils\nas always, but...\n\n{{reaction type=\"Sadness\"}}I haven't found anything \ncool lately, and I'm getting\nhugely bored{{pause frames=\"5\"}}.{{pause frames=\"5\"}}.{{pause frames=\"5\"}}.\n{{resetReaction}}Gotta man up, {{pause frames=\"5\"}}{{color id=\"5\"}}{{string value=\"PlayerNickname\"}}{{color id=\"0\"}}!{{pause frames=\"20\"}}\nLet's go find something\nreally cool together!\n{{reaction type=\"Thought\"}}Let's see{{pause frames=\"5\"}}.{{pause frames=\"5\"}}.{{pause frames=\"5\"}}.{{pause frames=\"5\"}} {{reaction type=\"Curiosity\"}}How about a \nfossil from the awesome\n{{color id=\"2\"}}{{string index=\"0\"}}{{color id=\"0\"}}?\n{{reaction type=\"Glee\"}}Let's seek ancient history\ntogether, {{pause frames=\"5\"}}{{string value=\"Catchphrase\"}}!"
    }
  }
]