[
  {
    "label": "0",
    "attribute": "",
    "locale": {
      "EUde": "Klein und gemein, \n!",
      "EUen": "Mean little \n,",
      "EUes": "\n, bicho:",
      "EUfr": "Petite saleté \n,",
      "EUit": "Terribile \n!",
      "JPja": "いじわるな　\nくんへ",
      "KRko": "장난꾸러기 \n에게",
      "USen": "Mean little \n,"
    }
  },
  {
    "label": "1",
    "attribute": "",
    "locale": {
      "EUde": "Hallo \n!",
      "EUen": "Dear \n,",
      "EUes": "Dime una cosa, \n:",
      "EUfr": "A \n,",
      "EUit": "Non così dolce \n!",
      "JPja": "イケズな　\nくん",
      "KRko": "최면술사 \n！",
      "USen": "Dear \n,"
    }
  },
  {
    "label": "2",
    "attribute": "",
    "locale": {
      "EUde": "An \n!",
      "EUen": "To the weird \n,",
      "EUes": "Oye, \n:",
      "EUfr": "A l'étrange \n,",
      "EUit": "Incomprensibile \n!",
      "JPja": "いじめっこの　\nくんへ",
      "KRko": "철학자 \n에게",
      "USen": "To the weird \n,"
    }
  },
  {
    "label": "3",
    "attribute": "",
    "locale": {
      "EUde": "",
      "EUen": "",
      "EUes": "",
      "EUfr": "",
      "EUit": "",
      "JPja": "",
      "KRko": "",
      "USen": ""
    }
  }
]