[
  {
    "label": "0",
    "attribute": "0x000F0000FF000000",
    "locale": {
      "EUde": "{{resetReaction}}Yesss!{{pause frames=\"20\"}} OK. Then I'll hide.\n{{resetReaction}}And you have to find me!{{pressButton}}\n{{reaction type=\"Happiness\"}}You've got {{color id=\"2\"}}five minutes{{color id=\"0\"}}.\n{{resetReaction}}If you can find me in {{color id=\"2\"}}five\nminutes{{color id=\"0\"}}, you win! {{pause frames=\"10\"}}{{reaction type=\"Happiness\"}}Are you\nready?",
      "EUen": "{{resetReaction}}Yesss!{{pause frames=\"20\"}} OK. Then I'll hide.\n{{resetReaction}}And you have to find me!{{pressButton}}\n{{reaction type=\"Happiness\"}}You've got {{color id=\"2\"}}five minutes{{color id=\"0\"}}.\n{{resetReaction}}If you can find me in {{color id=\"2\"}}five\nminutes{{color id=\"0\"}}, you win! {{pause frames=\"10\"}}{{reaction type=\"Happiness\"}}Are you\nready?",
      "EUes": "{{resetReaction}}Yesss!{{pause frames=\"20\"}} OK. Then I'll hide.\n{{resetReaction}}And you have to find me!{{pressButton}}\n{{reaction type=\"Happiness\"}}You've got {{color id=\"2\"}}five minutes{{color id=\"0\"}}.\n{{resetReaction}}If you can find me in {{color id=\"2\"}}five\nminutes{{color id=\"0\"}}, you win! {{pause frames=\"10\"}}{{reaction type=\"Happiness\"}}Are you\nready?",
      "EUfr": "{{resetReaction}}Yesss!{{pause frames=\"20\"}} OK. Then I'll hide.\n{{resetReaction}}And you have to find me!{{pressButton}}\n{{reaction type=\"Happiness\"}}You've got {{color id=\"2\"}}five minutes{{color id=\"0\"}}.\n{{resetReaction}}If you can find me in {{color id=\"2\"}}five\nminutes{{color id=\"0\"}}, you win! {{pause frames=\"10\"}}{{reaction type=\"Happiness\"}}Are you\nready?",
      "EUit": "{{resetReaction}}Yesss!{{pause frames=\"20\"}} OK. Then I'll hide.\n{{resetReaction}}And you have to find me!{{pressButton}}\n{{reaction type=\"Happiness\"}}You've got {{color id=\"2\"}}five minutes{{color id=\"0\"}}.\n{{resetReaction}}If you can find me in {{color id=\"2\"}}five\nminutes{{color id=\"0\"}}, you win! {{pause frames=\"10\"}}{{reaction type=\"Happiness\"}}Are you\nready?",
      "JPja": "{{resetReaction}}やったぁ～！{{pause frames=\"20\"}}\nそれじゃあ　ボクが\nかくれるから、\n{{resetReaction}}キミは　ボクをさがすやく！{{pressButton}}\n{{reaction type=\"Happiness\"}}どこかに　かくれたボクを\n{{color id=\"2\"}}５{{kanjiReplace charNum=\"1\" value=\"ふん\"}}分{{color id=\"0\"}}で　さがしだしてねぇ\n{{resetReaction}}{{color id=\"2\"}}５{{kanjiReplace charNum=\"1\" value=\"ふん\"}}分{{color id=\"0\"}}のうちに　ボクを\n{{kanjiReplace charNum=\"1\" value=\"み\"}}見つけられたら　\nキミの　かちだよぉ！\n{{reaction type=\"Happiness\"}}じゃあ、はじめるねぇ{{pause frames=\"3\"}}・{{pause frames=\"3\"}}・{{pause frames=\"3\"}}・",
      "KRko": "{{resetReaction}}やったぁ～！{{pause frames=\"20\"}}\nそれじゃあ　ボクが\nかくれるから、\n{{resetReaction}}キミは　ボクをさがすやく！{{pressButton}}\n{{reaction type=\"Happiness\"}}どこかに　かくれたボクを\n{{color id=\"2\"}}５{{kanjiReplace charNum=\"1\" value=\"ふん\"}}分{{color id=\"0\"}}で　さがしだしてねぇ\n{{resetReaction}}{{color id=\"2\"}}５{{kanjiReplace charNum=\"1\" value=\"ふん\"}}分{{color id=\"0\"}}のうちに　ボクを\n{{kanjiReplace charNum=\"1\" value=\"み\"}}見つけられたら　\nキミの　かちだよぉ！\n{{reaction type=\"Happiness\"}}じゃあ、はじめるねぇ{{pause frames=\"3\"}}・{{pause frames=\"3\"}}・{{pause frames=\"3\"}}・",
      "USen": "{{resetReaction}}Yesss!{{pause frames=\"20\"}} OK. Then I'll hide.\n{{resetReaction}}And you have to find me!{{pressButton}}\n{{reaction type=\"Happiness\"}}You've got {{color id=\"2\"}}five minutes{{color id=\"0\"}}.\n{{resetReaction}}If you can find me in {{color id=\"2\"}}five\nminutes{{color id=\"0\"}}, you win! {{pause frames=\"10\"}}{{reaction type=\"Happiness\"}}Are you\nready?"
    }
  },
  {
    "label": "1",
    "attribute": "0x000F0000FF000000",
    "locale": {
      "EUde": "{{reaction type=\"Happiness\"}}Sweeeet! You probably\nalready know this, but let\nme explain the rules.\n{{reaction type=\"Intense\"}}I'm gonna go hide\nsomewhere, and you have to\nfind in {{color id=\"2\"}}ten minutes{{color id=\"0\"}} or less.\n.{{pause frames=\"3\"}}.{{pause frames=\"3\"}}.{{pause frames=\"3\"}}{{reaction type=\"Curiosity\"}}What do you think?\nSimple, right?{{pressButton}} Then{{pause frames=\"5\"}} I'm\ngonna hide! See ya! {{pause frames=\"5\"}}Or not!",
      "EUen": "{{reaction type=\"Happiness\"}}Sweeeet! You probably\nalready know this, but let\nme explain the rules.\n{{reaction type=\"Intense\"}}I'm gonna go hide\nsomewhere, and you have to\nfind in {{color id=\"2\"}}ten minutes{{color id=\"0\"}} or less.\n.{{pause frames=\"3\"}}.{{pause frames=\"3\"}}.{{pause frames=\"3\"}}{{reaction type=\"Curiosity\"}}What do you think?\nSimple, right?{{pressButton}} Then{{pause frames=\"5\"}} I'm\ngonna hide! See ya! {{pause frames=\"5\"}}Or not!",
      "EUes": "{{reaction type=\"Happiness\"}}Sweeeet! You probably\nalready know this, but let\nme explain the rules.\n{{reaction type=\"Intense\"}}I'm gonna go hide\nsomewhere, and you have to\nfind in {{color id=\"2\"}}ten minutes{{color id=\"0\"}} or less.\n.{{pause frames=\"3\"}}.{{pause frames=\"3\"}}.{{pause frames=\"3\"}}{{reaction type=\"Curiosity\"}}What do you think?\nSimple, right?{{pressButton}} Then{{pause frames=\"5\"}} I'm\ngonna hide! See ya! {{pause frames=\"5\"}}Or not!",
      "EUfr": "{{reaction type=\"Happiness\"}}Sweeeet! You probably\nalready know this, but let\nme explain the rules.\n{{reaction type=\"Intense\"}}I'm gonna go hide\nsomewhere, and you have to\nfind in {{color id=\"2\"}}ten minutes{{color id=\"0\"}} or less.\n.{{pause frames=\"3\"}}.{{pause frames=\"3\"}}.{{pause frames=\"3\"}}{{reaction type=\"Curiosity\"}}What do you think?\nSimple, right?{{pressButton}} Then{{pause frames=\"5\"}} I'm\ngonna hide! See ya! {{pause frames=\"5\"}}Or not!",
      "EUit": "{{reaction type=\"Happiness\"}}Sweeeet! You probably\nalready know this, but let\nme explain the rules.\n{{reaction type=\"Intense\"}}I'm gonna go hide\nsomewhere, and you have to\nfind in {{color id=\"2\"}}ten minutes{{color id=\"0\"}} or less.\n.{{pause frames=\"3\"}}.{{pause frames=\"3\"}}.{{pause frames=\"3\"}}{{reaction type=\"Curiosity\"}}What do you think?\nSimple, right?{{pressButton}} Then{{pause frames=\"5\"}} I'm\ngonna hide! See ya! {{pause frames=\"5\"}}Or not!",
      "JPja": "{{reaction type=\"Happiness\"}}わぁ～い！\nそれじゃ　さっそく\nルールをせつめいするよぉ\n{{reaction type=\"Intense\"}}これから　ボクが　\nどこかに　かくれるから、\n{{color id=\"2\"}}１０{{kanjiReplace charNum=\"1\" value=\"ぷん\"}}分{{color id=\"0\"}}いないに　{{kanjiReplace charNum=\"1\" value=\"み\"}}見つけてねぇ\n・{{pause frames=\"3\"}}・{{pause frames=\"3\"}}・{{pause frames=\"3\"}}{{reaction type=\"Curiosity\"}}どう？\nカンタンなルールでしょ？{{pressButton}}\nではでは、{{pause frames=\"5\"}}かくれるのだぁ～！",
      "KRko": "{{reaction type=\"Happiness\"}}わぁ～い！\nそれじゃ　さっそく\nルールをせつめいするよぉ\n{{reaction type=\"Intense\"}}これから　ボクが　\nどこかに　かくれるから、\n{{color id=\"2\"}}１０{{kanjiReplace charNum=\"1\" value=\"ぷん\"}}分{{color id=\"0\"}}いないに　{{kanjiReplace charNum=\"1\" value=\"み\"}}見つけてねぇ\n・{{pause frames=\"3\"}}・{{pause frames=\"3\"}}・{{pause frames=\"3\"}}{{reaction type=\"Curiosity\"}}どう？\nカンタンなルールでしょ？{{pressButton}}\nではでは、{{pause frames=\"5\"}}かくれるのだぁ～！",
      "USen": "{{reaction type=\"Happiness\"}}Sweeeet! You probably\nalready know this, but let\nme explain the rules.\n{{reaction type=\"Intense\"}}I'm gonna go hide\nsomewhere, and you have to\nfind in {{color id=\"2\"}}ten minutes{{color id=\"0\"}} or less.\n.{{pause frames=\"3\"}}.{{pause frames=\"3\"}}.{{pause frames=\"3\"}}{{reaction type=\"Curiosity\"}}What do you think?\nSimple, right?{{pressButton}} Then{{pause frames=\"5\"}} I'm\ngonna hide! See ya! {{pause frames=\"5\"}}Or not!"
    }
  },
  {
    "label": "2",
    "attribute": "0x000F0000FF000000",
    "locale": {
      "EUde": "{{reaction type=\"Joy\"}}Woo-hoo! Awesome,\n{{string value=\"PlayerNickname\"}}. I knew there\nwas a reason I liked you!\n{{reaction type=\"Happiness\"}}OK. I'll hide,{{pause frames=\"5\"}} and you have\nto find me within {{color id=\"2\"}}fifteen\nminutes{{color id=\"0\"}}, OK?\n{{reaction type=\"Intense\"}}That's {{color id=\"2\"}}fifteen minutes{{color id=\"0\"}}!\nIf it takes you longer than\nthat{{reaction type=\"Mischief\"}} then you lose!\nI'm going to hide{{pause frames=\"3\"}}.{{pause frames=\"3\"}}.{{pause frames=\"3\"}}.{{pause frames=\"3\"}}\nSo start counting!",
      "EUen": "{{reaction type=\"Joy\"}}Woo-hoo! Awesome,\n{{string value=\"PlayerNickname\"}}. I knew there\nwas a reason I liked you!\n{{reaction type=\"Happiness\"}}OK. I'll hide,{{pause frames=\"5\"}} and you have\nto find me within {{color id=\"2\"}}fifteen\nminutes{{color id=\"0\"}}, OK?\n{{reaction type=\"Intense\"}}That's {{color id=\"2\"}}fifteen minutes{{color id=\"0\"}}!\nIf it takes you longer than\nthat{{reaction type=\"Mischief\"}} then you lose!\nI'm going to hide{{pause frames=\"3\"}}.{{pause frames=\"3\"}}.{{pause frames=\"3\"}}.{{pause frames=\"3\"}}\nSo start counting!",
      "EUes": "{{reaction type=\"Joy\"}}Woo-hoo! Awesome,\n{{string value=\"PlayerNickname\"}}. I knew there\nwas a reason I liked you!\n{{reaction type=\"Happiness\"}}OK. I'll hide,{{pause frames=\"5\"}} and you have\nto find me within {{color id=\"2\"}}fifteen\nminutes{{color id=\"0\"}}, OK?\n{{reaction type=\"Intense\"}}That's {{color id=\"2\"}}fifteen minutes{{color id=\"0\"}}!\nIf it takes you longer than\nthat{{reaction type=\"Mischief\"}} then you lose!\nI'm going to hide{{pause frames=\"3\"}}.{{pause frames=\"3\"}}.{{pause frames=\"3\"}}.{{pause frames=\"3\"}}\nSo start counting!",
      "EUfr": "{{reaction type=\"Joy\"}}Woo-hoo! Awesome,\n{{string value=\"PlayerNickname\"}}. I knew there\nwas a reason I liked you!\n{{reaction type=\"Happiness\"}}OK. I'll hide,{{pause frames=\"5\"}} and you have\nto find me within {{color id=\"2\"}}fifteen\nminutes{{color id=\"0\"}}, OK?\n{{reaction type=\"Intense\"}}That's {{color id=\"2\"}}fifteen minutes{{color id=\"0\"}}!\nIf it takes you longer than\nthat{{reaction type=\"Mischief\"}} then you lose!\nI'm going to hide{{pause frames=\"3\"}}.{{pause frames=\"3\"}}.{{pause frames=\"3\"}}.{{pause frames=\"3\"}}\nSo start counting!",
      "EUit": "{{reaction type=\"Joy\"}}Woo-hoo! Awesome,\n{{string value=\"PlayerNickname\"}}. I knew there\nwas a reason I liked you!\n{{reaction type=\"Happiness\"}}OK. I'll hide,{{pause frames=\"5\"}} and you have\nto find me within {{color id=\"2\"}}fifteen\nminutes{{color id=\"0\"}}, OK?\n{{reaction type=\"Intense\"}}That's {{color id=\"2\"}}fifteen minutes{{color id=\"0\"}}!\nIf it takes you longer than\nthat{{reaction type=\"Mischief\"}} then you lose!\nI'm going to hide{{pause frames=\"3\"}}.{{pause frames=\"3\"}}.{{pause frames=\"3\"}}.{{pause frames=\"3\"}}\nSo start counting!",
      "JPja": "{{reaction type=\"Joy\"}}わぁい！　{{string value=\"PlayerNickname\"}}くん\nだから　すきさぁ～！\n\n{{reaction type=\"Happiness\"}}じゃあ　ボクが\nかくれるから、{{pause frames=\"5\"}}\nキミは　オニのやく！　{{pause frames=\"5\"}}{{string value=\"Catchphrase\"}}！\n{{resetReaction}}{{color id=\"2\"}}１５{{kanjiReplace charNum=\"1\" value=\"ふん\"}}分{{color id=\"0\"}}いないに　{{kanjiReplace charNum=\"1\" value=\"み\"}}見つけてね！\n{{reaction type=\"Intense\"}}{{color id=\"2\"}}１５{{kanjiReplace charNum=\"1\" value=\"ふん\"}}分{{color id=\"0\"}}だよ、{{color id=\"2\"}}１５{{kanjiReplace charNum=\"1\" value=\"ふん\"}}分{{color id=\"0\"}}！\n\nそれいじょう　おそかったら、\n{{reaction type=\"Mischief\"}}しあいほうきで　キミのまけに\nしちゃうからねぇ～！\nそれじゃ　かくれるよぉ{{pause frames=\"3\"}}・{{pause frames=\"3\"}}・{{pause frames=\"3\"}}・{{pause frames=\"3\"}}\nチョエ～イ！　{{pause frames=\"5\"}}{{string value=\"Catchphrase\"}}！",
      "KRko": "{{reaction type=\"Joy\"}}わぁい！　{{string value=\"PlayerNickname\"}}くん\nだから　すきさぁ～！\n\n{{reaction type=\"Happiness\"}}じゃあ　ボクが\nかくれるから、{{pause frames=\"5\"}}\nキミは　オニのやく！　{{pause frames=\"5\"}}{{string value=\"Catchphrase\"}}！\n{{resetReaction}}{{color id=\"2\"}}１５{{kanjiReplace charNum=\"1\" value=\"ふん\"}}分{{color id=\"0\"}}いないに　{{kanjiReplace charNum=\"1\" value=\"み\"}}見つけてね！\n{{reaction type=\"Intense\"}}{{color id=\"2\"}}１５{{kanjiReplace charNum=\"1\" value=\"ふん\"}}分{{color id=\"0\"}}だよ、{{color id=\"2\"}}１５{{kanjiReplace charNum=\"1\" value=\"ふん\"}}分{{color id=\"0\"}}！\n\nそれいじょう　おそかったら、\n{{reaction type=\"Mischief\"}}しあいほうきで　キミのまけに\nしちゃうからねぇ～！\nそれじゃ　かくれるよぉ{{pause frames=\"3\"}}・{{pause frames=\"3\"}}・{{pause frames=\"3\"}}・{{pause frames=\"3\"}}\nチョエ～イ！　{{pause frames=\"5\"}}{{string value=\"Catchphrase\"}}！",
      "USen": "{{reaction type=\"Joy\"}}Woo-hoo! Awesome,\n{{string value=\"PlayerNickname\"}}. I knew there\nwas a reason I liked you!\n{{reaction type=\"Happiness\"}}OK. I'll hide,{{pause frames=\"5\"}} and you have\nto find me within {{color id=\"2\"}}fifteen\nminutes{{color id=\"0\"}}, OK?\n{{reaction type=\"Intense\"}}That's {{color id=\"2\"}}fifteen minutes{{color id=\"0\"}}!\nIf it takes you longer than\nthat{{reaction type=\"Mischief\"}} then you lose!\nI'm going to hide{{pause frames=\"3\"}}.{{pause frames=\"3\"}}.{{pause frames=\"3\"}}.{{pause frames=\"3\"}}\nSo start counting!"
    }
  }
]