[
  {
    "label": "0",
    "attribute": "",
    "locale": {
      "EUde": "Frei, allein, {{string index=\"1\"}}",
      "EUen": "Free at last, {{string index=\"1\"}}",
      "EUes": "¡No llores! {{string index=\"1\"}}",
      "EUfr": "Enfin libre, {{string index=\"1\"}}",
      "EUit": "W la libertà, {{string index=\"1\"}}",
      "JPja": "おとこいっぴき　{{string index=\"1\"}}より",
      "KRko": "진짜 남자 {{string index=\"1\"}}{{fun_0B arg=\"0x0300\"}}",
      "USen": "Free at last, {{string index=\"1\"}}"
    }
  },
  {
    "label": "1",
    "attribute": "",
    "locale": {
      "EUde": "Der Vagabund {{string index=\"1\"}}",
      "EUen": "Bye, chump. -{{string index=\"1\"}}",
      "EUes": "Nos vemos. {{string index=\"1\"}}",
      "EUfr": "Bye, butor. -{{string index=\"1\"}}",
      "EUit": "Addio, {{string index=\"1\"}}",
      "JPja": "ふうらいぼう　{{string index=\"1\"}}",
      "KRko": "방랑자 {{string index=\"1\"}}{{fun_0B arg=\"0x0300\"}}",
      "USen": "Bye, chump. -{{string index=\"1\"}}"
    }
  },
  {
    "label": "2",
    "attribute": "",
    "locale": {
      "EUde": "Im Fluss, {{string index=\"1\"}}",
      "EUen": "Good-bye! -{{string index=\"1\"}}",
      "EUes": "¡Adiós! {{string index=\"1\"}}",
      "EUfr": "Au revoir! -{{string index=\"1\"}}",
      "EUit": "Ci si vede! {{string index=\"1\"}}",
      "JPja": "ながれものの　{{string index=\"1\"}}より",
      "KRko": "떠돌이 {{string index=\"1\"}}{{fun_0B arg=\"0x0300\"}}",
      "USen": "Good-bye! -{{string index=\"1\"}}"
    }
  },
  {
    "label": "3",
    "attribute": "",
    "locale": {
      "EUde": "Nicht weinen, {{string index=\"1\"}}",
      "EUen": "Don't cry. -{{string index=\"1\"}}",
      "EUes": "Y no llores. {{string index=\"1\"}}",
      "EUfr": "Pleure pas. -{{string index=\"1\"}}",
      "EUit": "Non piangere. {{string index=\"1\"}}",
      "JPja": "ほれるなよ　{{string index=\"1\"}}",
      "KRko": "내게 반하지마 {{string index=\"1\"}}",
      "USen": "Don't cry. -{{string index=\"1\"}}"
    }
  },
  {
    "label": "4",
    "attribute": "",
    "locale": {
      "EUde": "Bis dann, {{string index=\"1\"}}",
      "EUen": "See-ya! From {{string index=\"1\"}}",
      "EUes": "¡Ya veremos! {{string index=\"1\"}}",
      "EUfr": "A plus tard! {{string index=\"1\"}}",
      "EUit": "Ci vediamo! {{string index=\"1\"}}",
      "JPja": "あばよ！　{{string index=\"1\"}}より",
      "KRko": "안녕！ {{string index=\"1\"}}{{fun_0B arg=\"0x0300\"}}",
      "USen": "See-ya! From {{string index=\"1\"}}"
    }
  }
]