[
  {
    "label": "0",
    "attribute": "",
    "locale": {
      "EUde": "Komm oder sei veerrückt!",
      "EUen": "Be there or be craaaaazy!",
      "EUes": "¿Te lo vas a perder?",
      "EUfr": "A ne surtout pas manquer!",
      "EUit": "Non fare paazzieee, vieni!",
      "JPja": "イナリかぐ　てんしゅ　つねきち",
      "KRko": "여욱 가구 주인 여욱",
      "USen": "Be there or be craaaaazy!"
    }
  },
  {
    "label": "1",
    "attribute": "",
    "locale": {
      "EUde": "Komm oder sei veerrückt!",
      "EUen": "Be there or be craaaaazy!",
      "EUes": "¡Grandes saldos!",
      "EUfr": "A ne surtout pas manquer!",
      "EUit": "Non fare paazzieee, vieni!",
      "JPja": "イナリかぐ　てんしゅ　つねきち",
      "KRko": "여욱 가구 주인 여욱",
      "USen": "Be there or be craaaaazy!"
    }
  },
  {
    "label": "2",
    "attribute": "",
    "locale": {
      "EUde": "Komm oder sei veerrückt!",
      "EUen": "Be there or be craaaaazy!",
      "EUes": "¡Precios de risa!",
      "EUfr": "A ne surtout pas manquer!",
      "EUit": "Non fare paazzieee, vieni!",
      "JPja": "イナリかぐ　てんしゅ　つねきち",
      "KRko": "여욱 가구 주인 여욱",
      "USen": "Be there or be craaaaazy!"
    }
  }
]