[
  {
    "label": "0",
    "attribute": "0x00000000FE000000",
    "locale": {
      "EUde": "{{reaction type=\"Happiness\"}}Hey, {{color id=\"5\"}}{{string value=\"PlayerNickname\"}}{{color id=\"0\"}}!{{pause frames=\"10\"}} Heute ist\n{{color id=\"3\"}}Frohmarkttag{{color id=\"0\"}},\n{{pause frames=\"5\"}}{{string value=\"Catchphrase\"}}!\n{{reaction type=\"Intense\"}}WAS? Der Markt macht nicht\nfroh? {{pause frames=\"5\"}}Warte, hast du gerade\nFLOH gesagt?{{pause frames=\"5\"}}\n{{reaction type=\"Worry\"}}Kumpel! Ich will keine Flöhe!{{pressButton}}\n{{reaction type=\"Distress\"}}LAHM! {{pause frames=\"5\"}}Ich war so wild\ndarauf, froh zu werden!",
      "EUen": "{{reaction type=\"Happiness\"}}Hey, {{color id=\"5\"}}{{string value=\"PlayerNickname\"}}{{color id=\"0\"}}!{{pause frames=\"10\"}} Today's\n{{color id=\"3\"}}Free Market {{color id=\"0\"}}day,\n{{pause frames=\"5\"}}{{string value=\"Catchphrase\"}}!\n{{reaction type=\"Intense\"}}HWHAT?! It's not a free\nmarket?! {{pause frames=\"5\"}}Wait, did you\njust say FLEA?!{{pause frames=\"5\"}}\n{{reaction type=\"Worry\"}}Dude! I don't want fleas!{{pressButton}}\n{{reaction type=\"Distress\"}}LAME! {{pause frames=\"5\"}}I was so pumped about\nscoring free gear!",
      "EUes": "{{reaction type=\"Happiness\"}}Hey, ¡{{color id=\"5\"}}{{string value=\"PlayerNickname\"}}{{color id=\"0\"}}!{{pause frames=\"10\"}} Me han\ndicho que hoy hay {{color id=\"3\"}}rastrillo{{color id=\"0\"}},\n{{pause frames=\"5\"}}¡{{string value=\"Catchphrase\"}}!\n{{reaction type=\"Intense\"}}¿Y de qué{{pause frames=\"5\"}} me puede servir\na mí un rastrillo?{{pause frames=\"5\"}} ¿Me han\nvisto cara de granjero?\n{{resetReaction}}Ah, que no se refieren a\nese tipo de rastrillo...{{pressButton}} {{reaction type=\"Distress\"}}¿Por\nqué le ponen ese nombre?",
      "EUfr": "{{reaction type=\"Happiness\"}}Hé, {{color id=\"5\"}}{{string value=\"PlayerNickname\"}}{{color id=\"0\"}}!{{pause frames=\"10\"}} Aujourd'hui\nc'est le {{color id=\"3\"}}marché aux bus{{color id=\"0\"}},\n{{pause frames=\"5\"}}{{string value=\"Catchphrase\"}}!\n{{reaction type=\"Intense\"}}QUOI?! C'est pas un marché\naux bus?! {{pause frames=\"5\"}}Attends, tu viens\nde dire PUCES?!{{pause frames=\"5\"}}\n{{reaction type=\"Worry\"}}La vache! Je veux pas avoir\nde puces, moi!{{pressButton}} {{reaction type=\"Distress\"}}C'est NUL!\n{{pause frames=\"5\"}}Je voulais conduire un bus!",
      "EUit": "{{reaction type=\"Happiness\"}}Ehi, {{color id=\"5\"}}{{string value=\"PlayerNickname\"}}{{color id=\"0\"}}!{{pause frames=\"10\"}} Oggi c'è il\n{{color id=\"3\"}}Mercato delle pulci{{color id=\"0\"}},\n{{pause frames=\"5\"}}{{string value=\"Catchphrase\"}}!\n{{reaction type=\"Intense\"}}EEEH?! Non è un mercatino\ngratuito?! {{pause frames=\"5\"}}Come? Delle\nPULCI?!{{pause frames=\"5\"}}\n{{reaction type=\"Worry\"}}Ehi! Non voglio pulci!{{pressButton}} {{reaction type=\"Distress\"}}CHE\nSCHIFO! {{pause frames=\"5\"}}E io che speravo di\ntrovare della roba gratis!",
      "JPja": "{{reaction type=\"Happiness\"}}{{color id=\"5\"}}{{string value=\"PlayerNickname\"}}ー{{color id=\"0\"}}！{{pause frames=\"10\"}}\n{{kanjiReplace charNum=\"2\" value=\"きょう\"}}今日は　{{color id=\"3\"}}フリーマーケット{{color id=\"0\"}}だ！\n{{pause frames=\"5\"}}{{string value=\"Catchphrase\"}}！\n{{reaction type=\"Intense\"}}ようするに、{{pause frames=\"5\"}}\nフリーな　マーケットのコトだぞ！\n\n{{reaction type=\"Worry\"}}えーっ？{{pause frames=\"5\"}}　よく{{kanjiReplace charNum=\"1\" value=\"わ\"}}分かんないの？{{pressButton}}\n{{reaction type=\"Distress\"}}{{kanjiReplace charNum=\"1\" value=\"せつ\"}}切ねーなー、\n{{pause frames=\"5\"}}{{string value=\"Catchphrase\"}}！",
      "KRko": "{{reaction type=\"Happiness\"}}{{color id=\"5\"}}{{string value=\"PlayerNickname\"}}ー{{color id=\"0\"}}！{{pause frames=\"10\"}}\n오늘은 {{color id=\"3\"}}벼룩시장{{color id=\"0\"}}의 날이야！\n{{pause frames=\"5\"}}{{string value=\"Catchphrase\"}}！\n{{reaction type=\"Intense\"}}말하자면{{pause frames=\"5\"}}\n벼룩들이 들끓는 시장을 말하지！\n\n{{reaction type=\"Worry\"}}뭐엇？{{pause frames=\"5\"}} 잘 모르겠다구？{{pressButton}}\n{{reaction type=\"Distress\"}}안타깝다ーー\n{{pause frames=\"5\"}}{{string value=\"Catchphrase\"}}！",
      "USen": "{{reaction type=\"Happiness\"}}Hey, {{color id=\"5\"}}{{string value=\"PlayerNickname\"}}{{color id=\"0\"}}!{{pause frames=\"10\"}} Today's\n{{color id=\"3\"}}Free Market {{color id=\"0\"}}day,\n{{pause frames=\"5\"}}{{string value=\"Catchphrase\"}}!\n{{reaction type=\"Intense\"}}HWHAT?! It's not a free\nmarket?! {{pause frames=\"5\"}}Wait, did you\njust say FLEA?!{{pause frames=\"5\"}}\n{{reaction type=\"Worry\"}}Dude! I don't want fleas!{{pressButton}}\n{{reaction type=\"Distress\"}}LAME! {{pause frames=\"5\"}}I was so pumped about\nscoring free gear!"
    }
  },
  {
    "label": "1",
    "attribute": "0x00000000FE000000",
    "locale": {
      "EUde": "{{resetReaction}}{{capitalizeLetter}}{{string value=\"PlayerNickname\"}}!{{pause frames=\"5\"}} Wie läufts mit\ndem {{color id=\"3\"}}Flohmarkt{{color id=\"0\"}}?\n\n{{reaction type=\"Amazed\"}}Bei mir?{{pressButton}} {{reaction type=\"Happiness\"}}Ach, ich habe\neigentlich noch gar nichts\ndafür getan, {{pause frames=\"5\"}}{{string value=\"Catchphrase\"}}.",
      "EUen": "{{resetReaction}}{{capitalizeLetter}}{{string value=\"PlayerNickname\"}}!{{pause frames=\"5\"}} How's the\n{{color id=\"3\"}}Flea Market{{color id=\"0\"}} treating you?\n\n{{reaction type=\"Amazed\"}}Me?{{pressButton}} {{reaction type=\"Happiness\"}}Oh yeah, I haven't\nreally done anything at all\nfor it yet, {{pause frames=\"5\"}}{{string value=\"Catchphrase\"}}.",
      "EUes": "{{resetReaction}}¡{{capitalizeLetter}}{{string value=\"PlayerNickname\"}}! ¿Has visto\nalgo interesante en\nel {{color id=\"3\"}}mercadillo{{color id=\"0\"}}?\n{{reaction type=\"Amazed\"}}¿Yo?{{pressButton}} {{reaction type=\"Happiness\"}}La verdad es que aún\nno me he puesto a buscar\na fondo, {{pause frames=\"5\"}}{{string value=\"Catchphrase\"}}.",
      "EUfr": "{{resetReaction}}{{capitalizeLetter}}{{string value=\"PlayerNickname\"}}!{{pause frames=\"5\"}} Ça te plaît\nle {{color id=\"3\"}}marché aux puces{{color id=\"0\"}}?\n\n{{reaction type=\"Amazed\"}}Moi?{{pressButton}} {{reaction type=\"Happiness\"}}Ben, j'ai pas fait\ngrand-chose pour tout te\ndire, {{pause frames=\"5\"}}{{string value=\"Catchphrase\"}}.",
      "EUit": "{{resetReaction}}{{capitalizeLetter}}{{string value=\"PlayerNickname\"}}!{{pause frames=\"5\"}} Come va il\ntuo {{color id=\"3\"}}Mercato delle pulci{{color id=\"0\"}}?\n\n{{reaction type=\"Amazed\"}}Il mio?{{pressButton}} {{reaction type=\"Happiness\"}}Oh, sì, non ho\nancora fatto niente,\n{{pause frames=\"5\"}}{{string value=\"Catchphrase\"}}.",
      "JPja": "{{resetReaction}}{{string value=\"PlayerNickname\"}}！{{pause frames=\"5\"}}\n{{color id=\"3\"}}フリーマーケット{{color id=\"0\"}}の\nチョーシは　どうだ？\n{{reaction type=\"Amazed\"}}おいら？{{pressButton}}\n{{reaction type=\"Happiness\"}}おいらは　まだまだ\nこれからだー！　{{pause frames=\"5\"}}{{string value=\"Catchphrase\"}}！",
      "KRko": "{{resetReaction}}{{string value=\"PlayerNickname\"}}！{{pause frames=\"5\"}}\n{{color id=\"3\"}}벼룩시장{{color id=\"0\"}}은\n잘되고 있냐？\n{{reaction type=\"Amazed\"}}나？{{pressButton}}\n{{reaction type=\"Happiness\"}}난 아직이야\n지금부터지ー！ {{pause frames=\"5\"}}{{string value=\"Catchphrase\"}}！",
      "USen": "{{resetReaction}}{{capitalizeLetter}}{{string value=\"PlayerNickname\"}}!{{pause frames=\"5\"}} How's the\n{{color id=\"3\"}}Flea Market{{color id=\"0\"}} treating you?\n\n{{reaction type=\"Amazed\"}}Me?{{pressButton}} {{reaction type=\"Happiness\"}}Oh yeah, I haven't\nreally done anything at all\nfor it yet, {{pause frames=\"5\"}}{{string value=\"Catchphrase\"}}."
    }
  },
  {
    "label": "2",
    "attribute": "0x00000000FE000000",
    "locale": {
      "EUde": "{{resetReaction}}Ich komme vielleicht mal\nvorbei und kaufe ein paar\ndeiner Möbel.\n{{reaction type=\"Intense\"}}Du solltest besser nichts\nKlebriges darauf\nverschütten, {{pause frames=\"5\"}}{{string value=\"Catchphrase\"}}!",
      "EUen": "{{resetReaction}}I might stop by your place\nand buy a bunch of your\nfurniture.\n{{reaction type=\"Intense\"}}So you better not spill\nanything sticky on it,\n{{pause frames=\"5\"}}{{string value=\"Catchphrase\"}}!",
      "EUes": "{{resetReaction}}Puede que me pase por tu\ncasa a comprar algunos\nmuebles.\n{{reaction type=\"Intense\"}}Más te vale que estén\nen perfecto estado,\n{{pause frames=\"5\"}}¡{{string value=\"Catchphrase\"}}!",
      "EUfr": "{{resetReaction}}Je passerai peut-être\nchez toi pour acheter des\nmeubles.\n{{reaction type=\"Intense\"}}Tu ferais bien de ne pas\nlaisser des machins collants\ndessus, {{pause frames=\"5\"}}{{string value=\"Catchphrase\"}}!",
      "EUit": "{{resetReaction}}Più tardi passerò a casa\ntua a dare un'occhiata ai\ntuoi mobili.\n{{reaction type=\"Intense\"}}Cerca di non rovinarli\nnel frattempo, {{pause frames=\"5\"}}{{string value=\"Catchphrase\"}}!",
      "JPja": "{{resetReaction}}ひょっとしたら　\nおまえんちの　{{kanjiReplace charNum=\"2\" value=\"かぐ\"}}家具、{{pause frames=\"5\"}}\nおいらが　{{kanjiReplace charNum=\"1\" value=\"か\"}}買うかもしんないから、\n{{reaction type=\"Intense\"}}{{kanjiReplace charNum=\"2\" value=\"じぶん\"}}自分のモンでも\nていねいに　{{kanjiReplace charNum=\"1\" value=\"つか\"}}使ってくれよー！\n{{pause frames=\"5\"}}{{string value=\"Catchphrase\"}}！",
      "KRko": "{{resetReaction}}어쩌면\n니네 집에 있는 가구를{{pause frames=\"5\"}}\n내가 살지도 모르니까\n{{reaction type=\"Intense\"}}자기 물건이라고\n막 다루지 마ー！\n{{pause frames=\"5\"}}{{string value=\"Catchphrase\"}}！",
      "USen": "{{resetReaction}}I might stop by your place\nand buy a bunch of your\nfurniture.\n{{reaction type=\"Intense\"}}So you better not spill\nanything sticky on it,\n{{pause frames=\"5\"}}{{string value=\"Catchphrase\"}}!"
    }
  },
  {
    "label": "3",
    "attribute": "0x00000000FE000000",
    "locale": {
      "EUde": "{{reaction type=\"Intense\"}}{{capitalizeLetter}}{{color id=\"5\"}}{{string value=\"PlayerNickname\"}}{{color id=\"0\"}}!{{pause frames=\"10\"}} Du bist noch\nhier? {{reaction type=\"Worry\"}}Aber ich wollte gerade\nzu deinem Haus!\n{{reaction type=\"Distress\"}}Und wenn du nicht da bist,\nkann ich kein Zeug von dir\nkaufen, {{pause frames=\"5\"}}{{string value=\"Catchphrase\"}}!\n{{reaction type=\"Intense\"}}Denk doch mal mit! {{pause frames=\"5\"}}Ich muss\nmir hier doch nicht die\nFersen wund laufen, oder!?!",
      "EUen": "{{reaction type=\"Intense\"}}{{capitalizeLetter}}{{color id=\"5\"}}{{string value=\"PlayerNickname\"}}{{color id=\"0\"}}!{{pause frames=\"10\"}} You're still\nhere?! {{reaction type=\"Worry\"}}But I was on my way\nto your house!\n{{reaction type=\"Distress\"}}And if you're not at your\npad, I can't buy stuff from\nyou, {{pause frames=\"5\"}}{{string value=\"Catchphrase\"}}!\n{{reaction type=\"Intense\"}}Show some hustle, kid!\n{{pause frames=\"5\"}}I don't need to bust out my\nwhistle, do I?!",
      "EUes": "{{reaction type=\"Intense\"}}¡{{capitalizeLetter}}{{color id=\"5\"}}{{string value=\"PlayerNickname\"}}{{color id=\"0\"}}!{{pause frames=\"10\"}} ¿Aún aquí?\n{{reaction type=\"Worry\"}}¡Iba de camino a tu casa!\n\n{{reaction type=\"Distress\"}}Si no estás en casa, no\npuedo ir a ver lo que\nvendes, {{pause frames=\"5\"}}¡{{string value=\"Catchphrase\"}}!\n{{reaction type=\"Intense\"}}¡Mueve el trasero! {{pause frames=\"5\"}}¿O es\nque tengo que sacar el\nsilbato?",
      "EUfr": "{{reaction type=\"Intense\"}}{{capitalizeLetter}}{{color id=\"5\"}}{{string value=\"PlayerNickname\"}}{{color id=\"0\"}}!{{pause frames=\"10\"}} Encore là?!\n{{reaction type=\"Worry\"}}J'allais chez toi, tu sais!\n\n{{reaction type=\"Distress\"}}Et si tu n'es pas là, je ne\npeux pas t'acheter quoi\nque ce soit, {{pause frames=\"5\"}}{{string value=\"Catchphrase\"}}!\n{{reaction type=\"Intense\"}}Dépêche-toi de rentrer!\n{{pause frames=\"5\"}}Et que je n'ai pas à te\ncourir après, hein?!",
      "EUit": "{{reaction type=\"Intense\"}}{{capitalizeLetter}}{{color id=\"5\"}}{{string value=\"PlayerNickname\"}}{{color id=\"0\"}}!{{pause frames=\"10\"}} Sei ancora\nqui?! {{reaction type=\"Worry\"}}Stavo venendo a\ncasa tua!\n{{reaction type=\"Distress\"}}Se non sei in casa, non\nposso comprare niente\nda te, {{pause frames=\"5\"}}{{string value=\"Catchphrase\"}}!\n{{reaction type=\"Intense\"}}Forza, animo! Scattare!\n{{pause frames=\"5\"}}Vuoi che tiri fuori il\nmio fischietto?!",
      "JPja": "{{reaction type=\"Intense\"}}{{color id=\"5\"}}{{string value=\"PlayerNickname\"}}ー{{color id=\"0\"}}！{{pause frames=\"10\"}}\nまだ　ここにいたのかー！\n{{pause frames=\"5\"}}{{string value=\"Catchphrase\"}}！\n{{reaction type=\"Worry\"}}これから　おまえんちに\n{{kanjiReplace charNum=\"1\" value=\"い\"}}行くつもりだったのに、\n\n{{reaction type=\"Distress\"}}おまえが　{{kanjiReplace charNum=\"1\" value=\"いえ\"}}家にいなきゃ\n{{kanjiReplace charNum=\"2\" value=\"かぐ\"}}家具　{{kanjiReplace charNum=\"1\" value=\"か\"}}買えないだろー！\n{{pause frames=\"5\"}}{{string value=\"Catchphrase\"}}！",
      "KRko": "{{reaction type=\"Intense\"}}{{color id=\"5\"}}{{string value=\"PlayerNickname\"}}ー{{color id=\"0\"}}！{{pause frames=\"10\"}}\n아직도 여기 있었냐ー！\n{{pause frames=\"5\"}}{{string value=\"Catchphrase\"}}！\n{{reaction type=\"Worry\"}}지금 너네 집에\n가는 길이었는데\n\n{{reaction type=\"Distress\"}}너가 집에 없으면\n가구를 살 수 없잖아ー！\n{{pause frames=\"5\"}}{{string value=\"Catchphrase\"}}！",
      "USen": "{{reaction type=\"Intense\"}}{{capitalizeLetter}}{{color id=\"5\"}}{{string value=\"PlayerNickname\"}}{{color id=\"0\"}}!{{pause frames=\"10\"}} You're still\nhere?! {{reaction type=\"Worry\"}}But I was on my way\nto your house!\n{{reaction type=\"Distress\"}}And if you're not at your\npad, I can't buy stuff from\nyou, {{pause frames=\"5\"}}{{string value=\"Catchphrase\"}}!\n{{reaction type=\"Intense\"}}Show some hustle, kid!\n{{pause frames=\"5\"}}I don't need to bust out my\nwhistle, do I?!"
    }
  },
  {
    "label": "4",
    "attribute": "0x00000000FE000000",
    "locale": {
      "EUde": "{{reaction type=\"Happiness\"}}Hey, schön, dich zu sehen!\nSchau dir meine heißen\nSachen an, {{pause frames=\"5\"}}{{string value=\"Catchphrase\"}}!\n{{resetReaction}}.{{pause frames=\"5\"}}.{{pause frames=\"5\"}}.{{pause frames=\"5\"}}{{reaction type=\"Amazed\"}}Oh! Kumpel!{{pause frames=\"10\"}} Ich bin noch\nnicht mal zu Hause!\n\n{{reaction type=\"Worry\"}}Wow. {{pause frames=\"5\"}}Ich war wohl etwas zu\noft auf dem {{color id=\"3\"}}Flohmarkt{{color id=\"0\"}} in\nletzter Zeit!",
      "EUen": "{{reaction type=\"Happiness\"}}Hey, good to see you! You\ngotta see my hot new\nwares, {{pause frames=\"5\"}}{{string value=\"Catchphrase\"}}!\n{{resetReaction}}.{{pause frames=\"5\"}}.{{pause frames=\"5\"}}.{{pause frames=\"5\"}}{{reaction type=\"Amazed\"}}Oh! Dude!{{pause frames=\"10\"}} I'm not even\nin my house!\n\n{{reaction type=\"Worry\"}}Whoa. {{pause frames=\"5\"}}I guess I've just been\nin the {{color id=\"3\"}}Flea Market{{color id=\"0\"}} zone\nlately.",
      "EUes": "{{reaction type=\"Happiness\"}}Hola, ¡qué alegría! Tienes\nque ver la nueva mercancía,\n{{pause frames=\"5\"}}¡{{string value=\"Catchphrase\"}}!\n{{resetReaction}}{{reaction type=\"Amazed\"}}¡Ops!{{pause frames=\"10\"}} ¡Pero si ni siquiera\nestamos en mi casa!\n\n{{reaction type=\"Worry\"}}Uau. {{pause frames=\"5\"}}Creo que paso\ndemasiado tiempo en el\n{{color id=\"3\"}}mercadillo{{color id=\"0\"}}.",
      "EUfr": "{{reaction type=\"Happiness\"}}Hé, content de te voir! Faut\nque tu voies mes nouveaux\nobjets, {{pause frames=\"5\"}}{{string value=\"Catchphrase\"}}!\n{{resetReaction}}.{{pause frames=\"5\"}}.{{pause frames=\"5\"}}.{{pause frames=\"5\"}}{{reaction type=\"Amazed\"}} Mais! Pfff!{{pause frames=\"10\"}} Je ne suis\nmême pas chez moi!\n\n{{reaction type=\"Worry\"}}Waouh. {{pause frames=\"5\"}}Je crois que\nle {{color id=\"3\"}}marché aux puces{{color id=\"0\"}} me\nmonte à la tête.",
      "EUit": "{{reaction type=\"Happiness\"}}Ehi, ciao! Devi vedere la\nmia nuova mercanzia,\n{{pause frames=\"5\"}}{{string value=\"Catchphrase\"}}!\n{{resetReaction}}.{{pause frames=\"5\"}}.{{pause frames=\"5\"}}.{{pause frames=\"5\"}}{{reaction type=\"Amazed\"}} Oh! Amic{{gender m=\"o\" f=\"a\"}}!{{pause frames=\"10\"}} Non sono\nnemmeno a casa mia!\n\n{{reaction type=\"Worry\"}}Whoa. {{pause frames=\"5\"}}Si vede che sono sta-\nto nella zona del {{color id=\"3\"}}Mercato\ndelle pulci {{color id=\"0\"}}ultimamente!",
      "JPja": "{{reaction type=\"Happiness\"}}イラッシャイマセー！\n{{pause frames=\"5\"}}{{string value=\"Catchphrase\"}}！\n\n{{resetReaction}}・{{pause frames=\"5\"}}・{{pause frames=\"5\"}}・{{pause frames=\"5\"}}{{reaction type=\"Amazed\"}}あっ！{{pause frames=\"10\"}}\nここは　{{kanjiReplace charNum=\"1\" value=\"そと\"}}外だったよ！\n\n{{reaction type=\"Worry\"}}{{color id=\"3\"}}フリーマーケット{{color id=\"0\"}}のクセが\n{{kanjiReplace charNum=\"1\" value=\"で\"}}出ちゃったみたい！{{pause frames=\"20\"}}\n{{reaction type=\"Distress\"}}ハズカシー！　{{pause frames=\"5\"}}{{string value=\"Catchphrase\"}}！",
      "KRko": "{{reaction type=\"Happiness\"}}어서 오세요ー！\n{{pause frames=\"5\"}}{{string value=\"Catchphrase\"}}！\n\n{{resetReaction}}・{{pause frames=\"5\"}}・{{pause frames=\"5\"}}・{{pause frames=\"5\"}}{{reaction type=\"Amazed\"}}앗！{{pause frames=\"10\"}}\n여긴 밖이었지！\n\n{{reaction type=\"Worry\"}}{{color id=\"3\"}}벼룩시장{{color id=\"0\"}}에서 손님을 대하던 버릇이\n나도 모르게 튀어나왔네！{{pause frames=\"20\"}}\n{{reaction type=\"Distress\"}}부끄럽다ー！ {{pause frames=\"5\"}}{{string value=\"Catchphrase\"}}！",
      "USen": "{{reaction type=\"Happiness\"}}Hey, good to see you! You\ngotta see my hot new\nwares, {{pause frames=\"5\"}}{{string value=\"Catchphrase\"}}!\n{{resetReaction}}.{{pause frames=\"5\"}}.{{pause frames=\"5\"}}.{{pause frames=\"5\"}}{{reaction type=\"Amazed\"}}Oh! Dude!{{pause frames=\"10\"}} I'm not even\nin my house!\n\n{{reaction type=\"Worry\"}}Whoa. {{pause frames=\"5\"}}I guess I've just been\nin the {{color id=\"3\"}}Flea Market{{color id=\"0\"}} zone\nlately."
    }
  },
  {
    "label": "5",
    "attribute": "0x00000000FE000000",
    "locale": {
      "EUde": "{{resetReaction}}Heute ist {{color id=\"3\"}}Flohmarkttag{{color id=\"0\"}},\nrichtig? {{pause frames=\"5\"}}Will denn niemand\nbei dir einkaufen?\n{{reaction type=\"Distress\"}}Ich meine, {{pause frames=\"5\"}}genau DORTHIN\nwill ich gerade, {{pause frames=\"5\"}}{{string value=\"Catchphrase\"}}.{{pause frames=\"5\"}}\n{{reaction type=\"Curiosity\"}}Warum bist du nicht dort?!?",
      "EUen": "{{resetReaction}}Today is {{color id=\"3\"}}Flea Market {{color id=\"0\"}}day,\nright? {{pause frames=\"5\"}}Aren't people gonna\nstart shopping at your pad?\n{{reaction type=\"Distress\"}}I mean, {{pause frames=\"5\"}}I'm headed there\nRIGHT NOW, {{pause frames=\"5\"}}{{string value=\"Catchphrase\"}}.{{pause frames=\"5\"}}\n{{reaction type=\"Curiosity\"}}So why aren't you there?!",
      "EUes": "{{resetReaction}}Hoy es el {{color id=\"3\"}}mercadillo{{color id=\"0\"}}, ¿no?\n{{pause frames=\"5\"}}¿Ya has tenido muchas\nvisitas en tu casa?\n{{reaction type=\"Distress\"}}La verdad, {{pause frames=\"5\"}}yo iba hacia allí\nAHORA, {{pause frames=\"5\"}}{{string value=\"Catchphrase\"}}.{{pause frames=\"5\"}} {{reaction type=\"Curiosity\"}}No sé\nqué haces aquí...",
      "EUfr": "{{resetReaction}}C'est le {{color id=\"3\"}}marché aux puces{{color id=\"0\"}}\naujourd'hui! {{pause frames=\"5\"}}Les gens vont\nvenir acheter chez toi!\n{{reaction type=\"Distress\"}}Moi, {{pause frames=\"5\"}}j'y vais MAINTENANT,\n{{pause frames=\"5\"}}{{string value=\"Catchphrase\"}}.{{pause frames=\"5\"}} {{reaction type=\"Curiosity\"}}Alors pourquoi\nt'es pas là-bas toi?!",
      "EUit": "{{resetReaction}}Oggi c'è il {{color id=\"3\"}}Mercato delle\npulci{{color id=\"0\"}}, vero? {{pause frames=\"5\"}}Non c'è nessuno\na fare spese a casa tua?\n{{reaction type=\"Distress\"}}Voglio dire, {{pause frames=\"5\"}}ci sto andando\nADESSO, {{pause frames=\"5\"}}{{string value=\"Catchphrase\"}}.{{pause frames=\"5\"}} {{reaction type=\"Curiosity\"}}E\nperché tu non sei là?!",
      "JPja": "{{resetReaction}}{{kanjiReplace charNum=\"2\" value=\"きょう\"}}今日って\n{{color id=\"3\"}}フリーマーケット{{color id=\"0\"}}だろ？\n{{pause frames=\"5\"}}{{string value=\"Catchphrase\"}}？\nじゃあ　そろそろ\n{{string value=\"PlayerNickname\"}}んちにも\n{{reaction type=\"Curiosity\"}}{{kanjiReplace charNum=\"1\" value=\"きゃく\"}}客が　{{kanjiReplace charNum=\"1\" value=\"く\"}}来るんじゃない？\n{{reaction type=\"Distress\"}}ってゆーか、{{pause frames=\"5\"}}おいらが\n{{kanjiReplace charNum=\"1\" value=\"い\"}}行きたいだけなんだけどさ、\n{{pause frames=\"5\"}}{{string value=\"Catchphrase\"}}！",
      "KRko": "{{resetReaction}}오늘\n{{color id=\"3\"}}벼룩시장{{color id=\"0\"}}이었지？\n{{pause frames=\"5\"}}{{string value=\"Catchphrase\"}}？\n그럼 이제 곧\n{{string value=\"PlayerNickname\"}} 집에도\n{{reaction type=\"Curiosity\"}}손님이 오겠네？\n{{reaction type=\"Distress\"}}사실은 {{pause frames=\"5\"}}내가\n너무 가 보고 싶어\n{{pause frames=\"5\"}}{{string value=\"Catchphrase\"}}！",
      "USen": "{{resetReaction}}Today is {{color id=\"3\"}}Flea Market {{color id=\"0\"}}day,\nright? {{pause frames=\"5\"}}Aren't people gonna\nstart shopping at your pad?\n{{reaction type=\"Distress\"}}I mean, {{pause frames=\"5\"}}I'm headed there\nRIGHT NOW, {{pause frames=\"5\"}}{{string value=\"Catchphrase\"}}.{{pause frames=\"5\"}}\n{{reaction type=\"Curiosity\"}}So why aren't you there?!"
    }
  }
]