[
  {
    "label": "0",
    "attribute": "0x00000000FE000000",
    "locale": {
      "EUde": "{{resetReaction}}Es tut mir Leid, wenn du\ndir Sorgen gemacht hast. {{pause frames=\"15\"}}\n{{reaction type=\"Joy\"}}Ich fühle mich viel besser!\n{{reaction type=\"Happiness\"}}Das liegt bestimmt an der\n{{color id=\"7\"}}Medizin{{color id=\"0\"}}, die du mir ge-\nbracht hast!\n{{reaction type=\"Glee\"}}Was täte ich nur ohne\ndich, {{string value=\"PlayerNickname\"}}!\nVielen, vielen Dank!",
      "EUen": "{{resetReaction}}I'm sorry if I had you\nworried about me. {{pause frames=\"15\"}}{{reaction type=\"Joy\"}}I feel\n100% better now!\n{{reaction type=\"Happiness\"}}It's all because you brought\nme that {{color id=\"7\"}}medicine{{color id=\"0\"}}!\n\n{{reaction type=\"Glee\"}}I don't know what I'd do\nwithout you, {{string value=\"PlayerNickname\"}}!\nThank you so much!",
      "EUes": "{{resetReaction}}Muchisísimas gracias por\npreocuparte por mí. {{pause frames=\"15\"}}{{reaction type=\"Joy\"}}¡Ahora\nestoy muchisísimo mejor!\n{{reaction type=\"Happiness\"}}¡Y es gracias a la {{color id=\"7\"}}medicina\n{{color id=\"0\"}}que trajiste, {{string value=\"Catchphrase\"}}!\n\n{{reaction type=\"Glee\"}}¡No sé qué haría sin ti,\n{{string value=\"PlayerNickname\"}}! ¡Gracias!",
      "EUfr": "{{resetReaction}}Désolée de t'avoir\ninquiété{{gender m=\"\" f=\"e\"}}. {{pause frames=\"15\"}}{{reaction type=\"Joy\"}}Je me sens 100%\nmieux, maintenant!\n{{reaction type=\"Happiness\"}}Tout ça parce que tu m'as\napporté ce {{color id=\"7\"}}médicament{{color id=\"0\"}}!\n\n{{reaction type=\"Glee\"}}Je ne sais pas ce que je\nferais sans toi,\n{{string value=\"PlayerNickname\"}}! Merci!",
      "EUit": "{{resetReaction}}Mi dispiace se ti ho fatto\npreoccupare. {{pause frames=\"15\"}}{{reaction type=\"Joy\"}}Ma ora\nmi sento come rinata!\n{{reaction type=\"Happiness\"}}E tutto grazie alla {{color id=\"7\"}}medicina{{color id=\"0\"}}\nche mi hai portato!\n\n{{reaction type=\"Glee\"}}Non so cosa farei senza\ndi te, {{string value=\"PlayerNickname\"}}!\nGrazie, grazie mille!",
      "JPja": "{{resetReaction}}そうそう、{{pause frames=\"15\"}}\nご{{kanjiReplace charNum=\"2\" value=\"しんぱい\"}}心配を　おかけしましたが、\n\n{{reaction type=\"Joy\"}}わたし　この{{kanjiReplace charNum=\"1\" value=\"とお\"}}通り\nすっかり　{{kanjiReplace charNum=\"2\" value=\"げんき\"}}元気になりました\n\n{{reaction type=\"Happiness\"}}{{string value=\"PlayerNickname\"}}さんも　{{color id=\"7\"}}おくすり{{color id=\"0\"}}を\n{{kanjiReplace charNum=\"1\" value=\"とど\"}}届けてくれましたよね\n\n{{reaction type=\"Glee\"}}かんびょうしてくれた\nみなさんの　おかげです{{pause frames=\"20\"}}\nありがとうございました！",
      "KRko": "{{resetReaction}}아， 맞다！{{pause frames=\"15\"}}\n걱정 끼쳐 드려 죄송했어요\n\n{{reaction type=\"Joy\"}}저 이제\n다 나았어요\n\n{{reaction type=\"Happiness\"}}{{string value=\"PlayerNickname\"}}님도 {{color id=\"7\"}}약{{color id=\"0\"}}을\n주셨었죠？\n\n{{reaction type=\"Glee\"}}열심히 간병해 주신\n여러분 덕분이에요！{{pause frames=\"20\"}}\n감사합니다！",
      "USen": "{{resetReaction}}I'm sorry if I had you\nworried about me. {{pause frames=\"15\"}}{{reaction type=\"Joy\"}}I feel\n100% better now!\n{{reaction type=\"Happiness\"}}It's all because you brought\nme that {{color id=\"7\"}}medicine{{color id=\"0\"}}!\n\n{{reaction type=\"Glee\"}}I don't know what I'd do\nwithout you, {{string value=\"PlayerNickname\"}}!\nThank you so much!"
    }
  },
  {
    "label": "1",
    "attribute": "0x00000000FE000000",
    "locale": {
      "EUde": "{{reaction type=\"Happiness\"}}Danke, dass du mir neulich\ndiese {{color id=\"7\"}}Medizin{{color id=\"0\"}} gebracht hast.\n\n{{reaction type=\"Joy\"}}Ich glaube, ich bin wieder\nganz gesund, {{string value=\"PlayerNickname\"}}!",
      "EUen": "{{reaction type=\"Happiness\"}}Thanks a bunch for getting\nme {{color id=\"7\"}}medicine{{color id=\"0\"}} the other day.\n\n{{reaction type=\"Joy\"}}I think I'm totally over\nthat cold now, {{string value=\"PlayerNickname\"}}!",
      "EUes": "{{reaction type=\"Happiness\"}}Muchisísimas gracias por\ntraerme la {{color id=\"7\"}}medicina{{color id=\"0\"}} cuando\nestuve tan malita.\n{{reaction type=\"Joy\"}}¡Creo que ya me curé\ndel todo, {{string value=\"PlayerNickname\"}}!",
      "EUfr": "{{reaction type=\"Happiness\"}}Merci de m'avoir apporté ce\n{{color id=\"7\"}}médicament{{color id=\"0\"}}, l'autre jour.\n\n{{reaction type=\"Joy\"}}J'ai totalement récupéré\nde ce rhume, maintenant,\n{{string value=\"PlayerNickname\"}}!",
      "EUit": "{{reaction type=\"Happiness\"}}Grazie infinite per la\n{{color id=\"7\"}}medicina{{color id=\"0\"}} che mi hai\nportato l'altro giorno!\n{{reaction type=\"Joy\"}}Il raffreddore è passato!\nOra sto bene, {{string value=\"PlayerNickname\"}}!",
      "JPja": "{{reaction type=\"Happiness\"}}あ、{{pause frames=\"5\"}}{{kanjiReplace charNum=\"2\" value=\"せんじつ\"}}先日は\n{{color id=\"7\"}}おくすり{{color id=\"0\"}}を　{{kanjiReplace charNum=\"1\" value=\"とど\"}}届けてくださって\nありがとうございました！\n{{reaction type=\"Joy\"}}{{string value=\"PlayerNickname\"}}さん{{kanjiReplace charNum=\"1\" value=\"たち\"}}達の　おかげで\n{{kanjiReplace charNum=\"1\" value=\"いま\"}}今はもう　この{{kanjiReplace charNum=\"1\" value=\"とお\"}}通り、{{pause frames=\"15\"}}\nすっかり{{kanjiReplace charNum=\"2\" value=\"げんき\"}}元気に　なりましたよ！",
      "KRko": "{{reaction type=\"Happiness\"}}아， {{pause frames=\"5\"}}저번에\n{{color id=\"7\"}}약{{color id=\"0\"}}을 사 주셔서\n고맙습니다！\n{{reaction type=\"Joy\"}}{{string value=\"PlayerNickname\"}}님과 여러분 덕에\n지금은 이렇게{{pause frames=\"15\"}}\n완전히 건강해졌어요！",
      "USen": "{{reaction type=\"Happiness\"}}Thanks a bunch for getting\nme {{color id=\"7\"}}medicine{{color id=\"0\"}} the other day.\n\n{{reaction type=\"Joy\"}}I think I'm totally over\nthat cold now, {{string value=\"PlayerNickname\"}}!"
    }
  },
  {
    "label": "2",
    "attribute": "0x00000000FE000000",
    "locale": {
      "EUde": "{{reaction type=\"Happiness\"}}Ich bin so froh! {{pause frames=\"5\"}}Mir geht\nes dank meiner Freunde\nwieder richtig gut!\n{{reaction type=\"Glee\"}}Es war eine schlimme Zeit,\naber deine {{color id=\"7\"}}Medizin{{color id=\"0\"}} hat mich\ngerade noch gerettet.",
      "EUen": "{{reaction type=\"Happiness\"}}I feel so happy! {{pause frames=\"5\"}}Thanks to\nall of my friends,\nI'm totally recovered!\n{{reaction type=\"Glee\"}}It was a bad cold, but your\n{{color id=\"7\"}}medicine{{color id=\"0\"}} saved me from\nbecoming a snot factory!",
      "EUes": "{{reaction type=\"Happiness\"}}¡Estoy muy contenta! {{pause frames=\"5\"}}¡Me\ncuré del todo gracias a mis\namigos, {{string value=\"Catchphrase\"}}!\n{{reaction type=\"Glee\"}}¡Tenía un catarro terrible,\npero tu {{color id=\"7\"}}medicina{{color id=\"0\"}} me salvó\ndel ataque de los mocos!",
      "EUfr": "{{reaction type=\"Happiness\"}}Je suis si heureuse! {{pause frames=\"5\"}}Grâce\nà tous mes amis, j'ai\nrécupéré complètement!\n{{reaction type=\"Glee\"}}C'était un mauvais rhume,\nmais ton {{color id=\"7\"}}médicament{{color id=\"0\"}} a\nsoigné mon nez bouché!",
      "EUit": "{{reaction type=\"Happiness\"}}Sono contentissima! {{pause frames=\"5\"}}Grazie\na tutti i miei amici, ora\nsono guarita!\n{{reaction type=\"Glee\"}}È stato un brutto\nraffreddore, ma la {{color id=\"7\"}}medicina{{color id=\"0\"}}\nmi ha salvata dal muco!!!",
      "JPja": "{{reaction type=\"Happiness\"}}ふふふ、{{pause frames=\"5\"}}みなさんの\nかんびょうのおかげで\n{{kanjiReplace charNum=\"2\" value=\"びょうき\"}}病気　{{kanjiReplace charNum=\"1\" value=\"なお\"}}治っちゃいました！\n{{reaction type=\"Glee\"}}{{string value=\"PlayerNickname\"}}さんが\n{{kanjiReplace charNum=\"1\" value=\"も\"}}持ってきてくれた　{{color id=\"7\"}}おくすり{{color id=\"0\"}}も\nすっごく　{{kanjiReplace charNum=\"1\" value=\"き\"}}効きましたよ！",
      "KRko": "{{reaction type=\"Happiness\"}}헤헤헤！ {{pause frames=\"5\"}}여러분이\n간병해 주신 덕분에\n병이 나았어요！\n{{reaction type=\"Glee\"}}{{string value=\"PlayerNickname\"}}님이\n주신 {{color id=\"7\"}}약{{color id=\"0\"}}도\n잘 들었답니다！",
      "USen": "{{reaction type=\"Happiness\"}}I feel so happy! {{pause frames=\"5\"}}Thanks to\nall of my friends,\nI'm totally recovered!\n{{reaction type=\"Glee\"}}It was a bad cold, but your\n{{color id=\"7\"}}medicine{{color id=\"0\"}} saved me from\nbecoming a snot factory!"
    }
  }
]