[
  {
    "label": "00",
    "attribute": "0x00000000FF000000",
    "locale": {
      "EUde": "{{reaction type=\"Happiness\"}}{{capitalizeLetter}}{{string value=\"PlayerNickname\"}},{{pause frames=\"5\"}} {{gender m=\"der\" f=\"die\" n=\"das\"}} \n{{ignoreArticle}}{{itemName index=\"0\"}},\n{{gender m=\"den\" f=\"die\" n=\"das\"}} du da hast, ist toll.\n{{resetReaction}}Ich könnte {{gender m=\"einen\" f=\"eine\" n=\"eins\"}} brauchen.\nWürdest du {{gender m=\"ihn\" f=\"sie\" n=\"es\"}} für, äh, \n{{reaction type=\"Curiosity\"}}{{string index=\"1\"}} Sternis verkaufen?{{fun_02 arg=\"0x0304\"}}\nSicher!\nOh nein!",
      "EUen": "{{reaction type=\"Happiness\"}}{{capitalizeLetter}}{{string value=\"PlayerNickname\"}},{{pause frames=\"5\"}} I really like\n{{fun_0B}}{{itemName index=\"0\"}}\nyou've got there.\n{{resetReaction}}I could sure use one. Would\nyou consider selling it for,\noh, {{reaction type=\"Curiosity\"}}{{string index=\"1\"}} Bells?{{fun_02 arg=\"0x0304\"}}\nSure!\nNot this one...",
      "EUes": "{{reaction type=\"Happiness\"}}{{capitalizeLetter}}{{string value=\"PlayerNickname\"}},{{pause frames=\"5\"}} me gusta es{{gender m=\"e\" f=\"a\" n=\"x\"}}\n{{ignoreArticle}}{{itemName index=\"0\"}}\nque tienes ahí.\n{{resetReaction}}A mí me vendría muy bien.\n¿Te apetecería venderl{{gender m=\"o\" f=\"a\" n=\"x\"}} por\n{{reaction type=\"Curiosity\"}}{{string index=\"1\"}} bayas?{{fun_02 arg=\"0x0304\"}}\n¡Claro!\nNo, lo siento...",
      "EUfr": "{{reaction type=\"Happiness\"}}{{capitalizeLetter}}{{string value=\"PlayerNickname\"}},{{pause frames=\"5\"}} j'adore\n{{fun_0B}}{{itemName index=\"0\"}}\nque tu as là.\n{{resetReaction}}Je pourrais en avoir besoin.\nTu veux bien me l{{gender m=\"e\" f=\"a\" n=\"\"}} vendre,\n{{reaction type=\"Curiosity\"}}{{string index=\"1\"}} clochettes?{{fun_02 arg=\"0x0304\"}}\nBien sûr!\nPas ça, non...",
      "EUit": "{{reaction type=\"Happiness\"}}{{capitalizeLetter}}{{string value=\"PlayerNickname\"}},{{pause frames=\"5\"}} mi piace tanto\n{{fun_0B}}{{itemName index=\"0\"}}\nche hai.\n{{resetReaction}}Servirebbe anche a me. Non\nè che è in vendita...\nOh, {{reaction type=\"Curiosity\"}}{{string index=\"1\"}} stelline?{{fun_02 arg=\"0x0304\"}}\nCerto!\nNo...",
      "JPja": "{{reaction type=\"Happiness\"}}{{string value=\"PlayerNickname\"}}さん、{{pause frames=\"5\"}}\nステキな{{kanjiReplace charNum=\"1\" value=\"もの\"}}物を　お{{kanjiReplace charNum=\"1\" value=\"も\"}}持ちですね！\n{{pause frames=\"5\"}}{{string value=\"Catchphrase\"}}！\n{{resetReaction}}その　{{itemName index=\"0\"}}、{{pause frames=\"15\"}}\n{{reaction type=\"Curiosity\"}}{{string index=\"1\"}}ベルで\nゆずって　いただけませんか？{{fun_02 arg=\"0x0304\"}}\nいいよー！\nこれはちょっと",
      "KRko": "{{reaction type=\"Happiness\"}}{{string value=\"PlayerNickname\"}}님{{pause frames=\"5\"}}\n멋진 물건을 갖고 계시네요！\n{{pause frames=\"5\"}}{{string value=\"Catchphrase\"}}！\n{{resetReaction}}{{itemName index=\"0\"}}，{{pause frames=\"15\"}}\n{{reaction type=\"Curiosity\"}}{{string index=\"1\"}}벨에\n저에게 팔지 않으실래요？{{fun_02 arg=\"0x0304\"}}\n그래ー！\n글쎄",
      "USen": "{{reaction type=\"Happiness\"}}{{capitalizeLetter}}{{string value=\"PlayerNickname\"}},{{pause frames=\"5\"}} I really like\n{{fun_0B}}{{itemName index=\"0\"}}\nyou've got there.\n{{resetReaction}}I could sure use one. Would\nyou consider selling it for,\noh, {{reaction type=\"Curiosity\"}}{{string index=\"1\"}} Bells?{{fun_02 arg=\"0x0304\"}}\nSure!\nNot this one..."
    }
  },
  {
    "label": "01",
    "attribute": "0x00000000FF000000",
    "locale": {
      "EUde": "{{reaction type=\"Distress\"}}Keine Zeit für Erklärungen,\n{{pause frames=\"5\"}}und sicher kommt es etwas \nplötzlich, aber{{pause frames=\"3\"}}.{{pause frames=\"3\"}}.{{pause frames=\"3\"}}.\n{{reaction type=\"Worry\"}}Würdest du mir {{gender m=\"deinen\" f=\"deine\" n=\"dein\"}}\n{{ignoreArticle}}{{itemName index=\"0\"}}\nfür {{pause frames=\"15\"}}{{reaction type=\"Curiosity\"}}{{string index=\"1\"}} Sternis geben?{{fun_02 arg=\"0x0304\"}}\nMit Vergnügen!\nNee, lass mal!",
      "EUen": "{{reaction type=\"Distress\"}}I don't have time to\nexplain,{{pause frames=\"5\"}} and I know it's a\nbit sudden, but{{pause frames=\"3\"}}.{{pause frames=\"3\"}}.{{pause frames=\"3\"}}.\n{{reaction type=\"Worry\"}}Would you want to sell your\n{{ignoreArticle}}{{itemName index=\"0\"}}\nfor {{pause frames=\"15\"}}{{reaction type=\"Curiosity\"}}{{string index=\"1\"}} Bells?{{fun_02 arg=\"0x0304\"}}\nGladly!\nNot a chance!",
      "EUes": "{{reaction type=\"Distress\"}}No tengo tiempo para\nexplicarte gran cosa,{{pause frames=\"5\"}} y sé\nque te va a sorprender{{pause frames=\"3\"}}.{{pause frames=\"3\"}}.{{pause frames=\"3\"}}.\n{{reaction type=\"Worry\"}}¿Me venderías tu\n{{ignoreArticle}}{{itemName index=\"0\"}}\npor {{pause frames=\"15\"}}{{reaction type=\"Curiosity\"}}{{string index=\"1\"}} bayas?{{fun_02 arg=\"0x0304\"}}\n¡Claro!\n¡Ni hablar!",
      "EUfr": "{{reaction type=\"Distress\"}}Je n'ai pas le temps de\nt'expliquer{{pause frames=\"5\"}} et je sais que\nc'est surprenant, mais{{pause frames=\"3\"}}.{{pause frames=\"3\"}}.{{pause frames=\"3\"}}.\n{{reaction type=\"Worry\"}}je veux que tu me vendes\n{{itemName index=\"0\"}}\n{{pause frames=\"15\"}}{{reaction type=\"Curiosity\"}}{{string index=\"1\"}} clochettes!{{fun_02 arg=\"0x0304\"}}\nD'accord!\nPas question!",
      "EUit": "{{reaction type=\"Distress\"}}Non ho tempo per spiegare\ne{{pause frames=\"5\"}} so che non te l'aspettavi,\nma{{pause frames=\"3\"}}.{{pause frames=\"3\"}}.{{pause frames=\"3\"}}.\n{{reaction type=\"Worry\"}}Mi venderesti\n{{fun_0B}}{{itemName index=\"0\"}}\nper {{pause frames=\"15\"}}{{reaction type=\"Curiosity\"}}{{string index=\"1\"}} stelline?{{fun_02 arg=\"0x0304\"}}\nCerto!\nNo davvero!",
      "JPja": "{{reaction type=\"Distress\"}}あ、{{pause frames=\"15\"}}あのっ！{{pause frames=\"15\"}}\nとつぜん　こんな{{kanjiReplace charNum=\"1\" value=\"こと\"}}事を{{kanjiReplace charNum=\"1\" value=\"い\"}}言うのも\nどうかと{{kanjiReplace charNum=\"1\" value=\"おも\"}}思うのですが{{pause frames=\"5\"}}・{{pause frames=\"5\"}}・{{pause frames=\"5\"}}・\n{{reaction type=\"Worry\"}}その　{{itemName index=\"0\"}}、{{pause frames=\"15\"}}\n{{reaction type=\"Curiosity\"}}{{string index=\"1\"}}ベルで\n{{kanjiReplace charNum=\"1\" value=\"う\"}}売って　いただけないでしょうか？{{fun_02 arg=\"0x0304\"}}\nオッケー！\n{{kanjiReplace charNum=\"2\" value=\"ざんねん\"}}残念ながら・・・",
      "KRko": "{{reaction type=\"Distress\"}}저， {{pause frames=\"15\"}}저기！{{pause frames=\"15\"}}\n갑자기 이런 말씀을 드려도\n되는지 모르겠지만{{pause frames=\"5\"}}・{{pause frames=\"5\"}}・{{pause frames=\"5\"}}・\n{{reaction type=\"Worry\"}}그 {{itemName index=\"0\"}}{{pause frames=\"15\"}}\n{{reaction type=\"Curiosity\"}}{{string index=\"1\"}}벨에\n저에게 파실래요？{{fun_02 arg=\"0x0304\"}}\n오케이ー！\n미안하지만・・・",
      "USen": "{{reaction type=\"Distress\"}}I don't have time to\nexplain,{{pause frames=\"5\"}} and I know it's a\nbit sudden, but{{pause frames=\"3\"}}.{{pause frames=\"3\"}}.{{pause frames=\"3\"}}.\n{{reaction type=\"Worry\"}}Would you want to sell your\n{{ignoreArticle}}{{itemName index=\"0\"}}\nfor {{pause frames=\"15\"}}{{reaction type=\"Curiosity\"}}{{string index=\"1\"}} Bells?{{fun_02 arg=\"0x0304\"}}\nGladly!\nNot a chance!"
    }
  },
  {
    "label": "02",
    "attribute": "0x00000000FF000000",
    "locale": {
      "EUde": "{{reaction type=\"Worry\"}}Würdest du mir einen Ge-\nfallen tun, {{string value=\"PlayerNickname\"}},\nohne lange Erklärungen?\nVerkaufst{{pause frames=\"10\"}}{{reaction type=\"Curiosity\"}} du mir {{gender m=\"deinen\" f=\"deine\" n=\"dein\"}}\n{{ignoreArticle}}{{itemName index=\"0\"}}\nfür {{string index=\"1\"}} Sternis?{{fun_02 arg=\"0x0304\"}}\nWarum nicht?\nWarum sollte ich?",
      "EUen": "{{reaction type=\"Worry\"}}I've got a bit of a favor\nto ask, {{string value=\"PlayerNickname\"}}, and I\ndon't have time to explain.\nWould you {{pause frames=\"10\"}}{{reaction type=\"Curiosity\"}}sell me your\n{{ignoreArticle}}{{itemName index=\"0\"}}\nfor {{string index=\"1\"}} Bells?{{fun_02 arg=\"0x0304\"}}\nWhy not?\nWhy should I?",
      "EUes": "{{reaction type=\"Worry\"}}Tengo que pedirte un favor,\n{{string value=\"PlayerNickname\"}}, pero no tengo\ntiempo para explicaciones.\n¿Me venderías {{pause frames=\"10\"}}{{reaction type=\"Curiosity\"}}tu\n{{ignoreArticle}}{{itemName index=\"0\"}}\npor {{string index=\"1\"}} bayas?{{fun_02 arg=\"0x0304\"}}\n¿Por qué no?\n¿Por qué?",
      "EUfr": "{{reaction type=\"Worry\"}}{{capitalizeLetter}}{{string value=\"PlayerNickname\"}}, j'ai un service\nà te demander et je n'ai\npas le temps de t'expliquer.\nEst-ce que tu {{pause frames=\"10\"}}{{reaction type=\"Curiosity\"}}me vendrais\n{{itemName index=\"0\"}}\n{{string index=\"1\"}} clochettes?{{fun_02 arg=\"0x0304\"}}\nPourquoi pas!\nPourquoi donc?",
      "EUit": "{{reaction type=\"Worry\"}}Devo chiederti un\nfavore, {{string value=\"PlayerNickname\"}}, ma non\nho tempo per spiegarti.\nMi{{pause frames=\"10\"}}{{reaction type=\"Curiosity\"}} venderesti\n{{fun_0B}}{{itemName index=\"0\"}}\nper {{string index=\"1\"}} stelline?{{fun_02 arg=\"0x0304\"}}\nE perché no!\nE perché mai?",
      "JPja": "{{reaction type=\"Worry\"}}お{{kanjiReplace charNum=\"1\" value=\"ねが\"}}願いがあるんです、{{pause frames=\"10\"}}\n{{string value=\"PlayerNickname\"}}さん！\n\n{{resetReaction}}{{kanjiReplace charNum=\"1\" value=\"なに\"}}何も{{kanjiReplace charNum=\"1\" value=\"い\"}}言わずに\n{{string value=\"PlayerNickname\"}}さんの　{{kanjiReplace charNum=\"1\" value=\"も\"}}持っている\n{{itemName index=\"0\"}}を、\n{{reaction type=\"Curiosity\"}}{{string index=\"1\"}}ベルで　ゆずって\nいただけないでしょうか？！\n{{pause frames=\"5\"}}{{string value=\"Catchphrase\"}}？！{{fun_02 arg=\"0x0304\"}}\nかまわないよ\nこれはダメー！",
      "KRko": "{{reaction type=\"Worry\"}}부탁이 있어요{{pause frames=\"10\"}}\n{{string value=\"PlayerNickname\"}}님！\n\n{{resetReaction}}아무 말 마시고\n{{string value=\"PlayerNickname\"}}님한테 있는\n{{itemName index=\"0\"}}{{fun_0B arg=\"0x0200\"}}\n{{reaction type=\"Curiosity\"}}{{string index=\"1\"}}벨에\n넘겨주세요！！\n{{pause frames=\"5\"}}{{string value=\"Catchphrase\"}}！！{{fun_02 arg=\"0x0304\"}}\n그러지， 뭐\n이건 안돼ー！",
      "USen": "{{reaction type=\"Worry\"}}I've got a bit of a favor\nto ask, {{string value=\"PlayerNickname\"}}, and I\ndon't have time to explain.\nWould you {{pause frames=\"10\"}}{{reaction type=\"Curiosity\"}}sell me your\n{{ignoreArticle}}{{itemName index=\"0\"}}\nfor {{string index=\"1\"}} Bells?{{fun_02 arg=\"0x0304\"}}\nWhy not?\nWhy should I?"
    }
  },
  {
    "label": "03",
    "attribute": "0x0000000D05000000",
    "locale": {
      "EUde": "{{reaction type=\"Happiness\"}}Oh, klasse. So was wollte \nich schon lange haben, \n{{pause frames=\"5\"}}{{string value=\"Catchphrase\"}}.\nDas ist für dich. Genau\n{{string index=\"1\"}} Sternis, wie ver-\nsprochen.",
      "EUen": "{{reaction type=\"Happiness\"}}Oh, that's great. I've been\nwanting one of those for\na long time, {{pause frames=\"5\"}}{{string value=\"Catchphrase\"}}.\nHere you go. Exactly\n{{string index=\"1\"}} Bells, just like I\npromised.",
      "EUes": "{{reaction type=\"Happiness\"}}Oh, qué bien. Hace mucho\ntiempo que quería una cosa\nasí, {{pause frames=\"5\"}}{{string value=\"Catchphrase\"}}.\nTen. {{string index=\"1\"}} bayas\nexactamente, tal y como\nprometí.",
      "EUfr": "{{reaction type=\"Happiness\"}}Oh, c'est génial. Ça fait\nlongtemps que je veux cet\nobjet, {{pause frames=\"5\"}}{{string value=\"Catchphrase\"}}.\nTiens. {{string index=\"1\"}} clochettes,\ncomme promis.",
      "EUit": "{{reaction type=\"Happiness\"}}Oh, magnifico. È da tanto\nche mi serviva,\n{{pause frames=\"5\"}}{{string value=\"Catchphrase\"}}.\nEcco qua. Sono esattamente\n{{string index=\"1\"}} stelline, come\npromesso.",
      "JPja": "{{reaction type=\"Happiness\"}}{{kanjiReplace charNum=\"1\" value=\"よ\"}}良かったぁー！{{pause frames=\"15\"}}\nゆずって　いただけるんですね\n\nそれじゃ　やくそくの\n{{string index=\"1\"}}ベルです、\n{{pause frames=\"5\"}}{{string value=\"Catchphrase\"}}",
      "KRko": "{{reaction type=\"Happiness\"}}야호ー！{{pause frames=\"15\"}}\n저에게 정말로 파실 거죠？\n\n여기요， 약속대로\n{{string index=\"1\"}}벨입니다\n{{pause frames=\"5\"}}{{string value=\"Catchphrase\"}}",
      "USen": "{{reaction type=\"Happiness\"}}Oh, that's great. I've been\nwanting one of those for\na long time, {{pause frames=\"5\"}}{{string value=\"Catchphrase\"}}.\nHere you go. Exactly\n{{string index=\"1\"}} Bells, just like I\npromised."
    }
  },
  {
    "label": "04",
    "attribute": "0x00000000FF000000",
    "locale": {
      "EUde": "{{fun_06 arg=\"0x060708\"}}",
      "EUen": "{{fun_06 arg=\"0x060708\"}}",
      "EUes": "{{fun_06 arg=\"0x060708\"}}",
      "EUfr": "{{fun_06 arg=\"0x060708\"}}",
      "EUit": "{{fun_06 arg=\"0x060708\"}}",
      "JPja": "{{fun_06 arg=\"0x060708\"}}",
      "KRko": "{{fun_06 arg=\"0x06070800\"}}",
      "USen": "{{fun_06 arg=\"0x060708\"}}"
    }
  },
  {
    "label": "05",
    "attribute": "0x00000000FF000000",
    "locale": {
      "EUde": "{{fun_06 arg=\"0x090A0B\"}}",
      "EUen": "{{fun_06 arg=\"0x090A0B\"}}",
      "EUes": "{{fun_06 arg=\"0x090A0B\"}}",
      "EUfr": "{{fun_06 arg=\"0x090A0B\"}}",
      "EUit": "{{fun_06 arg=\"0x090A0B\"}}",
      "JPja": "{{fun_06 arg=\"0x090A0B\"}}",
      "KRko": "{{fun_06 arg=\"0x090A0B00\"}}",
      "USen": "{{fun_06 arg=\"0x090A0B\"}}"
    }
  },
  {
    "label": "06",
    "attribute": "0x00000000FE000000",
    "locale": {
      "EUde": "{{reaction type=\"Worry\"}}Tut mir Leid - war das zu \ndirekt?{{pause frames=\"5\"}} Hätte ich netter \nfragen sollen?\n{{reaction type=\"Distress\"}}Ich war so oft\n{{string value=\"Hobby\"}}, ich\nvergaß meine Erziehung!",
      "EUen": "{{reaction type=\"Worry\"}}I'm sorry--was that too\nforward?{{pause frames=\"5\"}} Should I have\nasked more nicely?\n{{reaction type=\"Distress\"}}I've been going out to\n{{string value=\"Hobby\"}} so much\nthat I've lost my manners!",
      "EUes": "{{reaction type=\"Worry\"}}Perdona, ¿he sido demasiado\ndirecta?{{pause frames=\"5\"}} ¿Tenía que haberlo\npedido más \"por favor\"?\n{{reaction type=\"Distress\"}}¡Últimamente voy tanto a\n{{string value=\"Hobby\"}} que he\nperdido mis modales!",
      "EUfr": "{{reaction type=\"Worry\"}}Désolée, c'était peut-être\nun peu direct...{{pause frames=\"5\"}}\n\nEst-ce que\nj'aurais dû demander plus\ngentiment?\n{{reaction type=\"Distress\"}}Je vais tellement\n{{string value=\"Hobby\"}} que\nj'en oublie mes manières!",
      "EUit": "{{reaction type=\"Worry\"}}Scusa, sono stata troppo\ndiretta?{{pause frames=\"5\"}} Avrei dovuto\nessere più gentile?\n{{reaction type=\"Distress\"}}Passo troppo tempo a\n{{string value=\"Hobby\"}} e\ndimentico le buone maniere!",
      "JPja": "{{reaction type=\"Worry\"}}{{kanjiReplace charNum=\"2\" value=\"さいきん\"}}最近　{{string value=\"Hobby\"}}に\nハマっているものですから\nつい{{pause frames=\"5\"}}・{{pause frames=\"5\"}}・{{pause frames=\"5\"}}・{{pause frames=\"5\"}}\n{{reaction type=\"Distress\"}}とつぜん　ずうずうしい{{kanjiReplace charNum=\"1\" value=\"こと\"}}事を\nお{{kanjiReplace charNum=\"1\" value=\"ねが\"}}願いしてしまって\nすみませんでした、{{pause frames=\"5\"}}{{string value=\"Catchphrase\"}}",
      "KRko": "{{reaction type=\"Worry\"}}요즘 {{string value=\"Hobby\"}}에\n빠져 지내다 보니\n저도 모르게{{pause frames=\"5\"}}・{{pause frames=\"5\"}}・{{pause frames=\"5\"}}・{{pause frames=\"5\"}}\n{{reaction type=\"Distress\"}}갑자기 난처한 부탁을\n하고 말았네요\n죄송합니다， {{pause frames=\"5\"}}{{string value=\"Catchphrase\"}}",
      "USen": "{{reaction type=\"Worry\"}}I'm sorry--was that too\nforward?{{pause frames=\"5\"}} Should I have\nasked more nicely?\n{{reaction type=\"Distress\"}}I've been going out to\n{{string value=\"Hobby\"}} so much\nthat I've lost my manners!"
    }
  },
  {
    "label": "07",
    "attribute": "0x00000000FE000000",
    "locale": {
      "EUde": "{{reaction type=\"Sighing\"}}Nun, es gehört dir{{pause frames=\"5\"}}.{{pause frames=\"5\"}}.{{pause frames=\"5\"}}.{{pause frames=\"5\"}}\nDu kannst damit anstellen, \nwas du willst, {{pause frames=\"5\"}}{{string value=\"Catchphrase\"}}.",
      "EUen": "{{reaction type=\"Sighing\"}}Well, I guess it is yours{{pause frames=\"5\"}}.{{pause frames=\"5\"}}.{{pause frames=\"5\"}}.{{pause frames=\"5\"}}\nYou can do whatever you\nwant with it, {{pause frames=\"5\"}}{{string value=\"Catchphrase\"}}.",
      "EUes": "{{reaction type=\"Sighing\"}}Bueno. Tú eres {{gender m=\"el dueño\" f=\"la dueña\"}}{{pause frames=\"5\"}}.{{pause frames=\"5\"}}.{{pause frames=\"5\"}}.{{pause frames=\"5\"}}\nY cada uno hace lo que\nquiere con sus cosas.",
      "EUfr": "{{reaction type=\"Sighing\"}}C'est à toi après tout{{pause frames=\"5\"}}.{{pause frames=\"5\"}}.{{pause frames=\"5\"}}.{{pause frames=\"5\"}}\nTu peux en faire ce que tu\nveux, {{pause frames=\"5\"}}{{string value=\"Catchphrase\"}}.",
      "EUit": "{{reaction type=\"Sighing\"}}Effettivamente, delle cose\ntue{{pause frames=\"5\"}}.{{pause frames=\"5\"}}.{{pause frames=\"5\"}}.{{pause frames=\"5\"}} puoi farne ciò che\nvuoi, {{pause frames=\"5\"}}{{string value=\"Catchphrase\"}}.",
      "JPja": "{{reaction type=\"Sighing\"}}{{kanjiReplace charNum=\"2\" value=\"ざんねん\"}}残念です{{pause frames=\"5\"}}・{{pause frames=\"5\"}}・{{pause frames=\"5\"}}・{{pause frames=\"5\"}}{{string value=\"Catchphrase\"}}",
      "KRko": "{{reaction type=\"Sighing\"}}알겠습니다{{pause frames=\"5\"}}・{{pause frames=\"5\"}}・{{pause frames=\"5\"}}・{{pause frames=\"5\"}} {{string value=\"Catchphrase\"}}",
      "USen": "{{reaction type=\"Sighing\"}}Well, I guess it is yours{{pause frames=\"5\"}}.{{pause frames=\"5\"}}.{{pause frames=\"5\"}}.{{pause frames=\"5\"}}\nYou can do whatever you\nwant with it, {{pause frames=\"5\"}}{{string value=\"Catchphrase\"}}."
    }
  },
  {
    "label": "08",
    "attribute": "0x00000000FE000000",
    "locale": {
      "EUde": "{{reaction type=\"Worry\"}}Oh{{pause frames=\"5\"}}.{{pause frames=\"5\"}}.{{pause frames=\"5\"}}.{{pause frames=\"10\"}} O.K. Das ist wohl\neinfach Pech für mich, \noder?\n{{resetReaction}}Aber ich verstehe.{{pause frames=\"15\"}} Ich halte\neinfach weiter Ausschau, \n{{pause frames=\"5\"}}{{string value=\"Catchphrase\"}}.",
      "EUen": "{{reaction type=\"Worry\"}}Oh{{pause frames=\"5\"}}.{{pause frames=\"5\"}}.{{pause frames=\"5\"}}.{{pause frames=\"10\"}} OK. I guess that's\njust too bad for me,\nisn't it?\n{{resetReaction}}But I understand.{{pause frames=\"15\"}} I'll just\nkeep looking for one on my\nown, {{pause frames=\"5\"}}{{string value=\"Catchphrase\"}}.",
      "EUes": "{{reaction type=\"Worry\"}}Oh{{pause frames=\"5\"}}.{{pause frames=\"5\"}}.{{pause frames=\"5\"}}.{{pause frames=\"10\"}} Bueno. Pues es una\npena para mí, ¿verdad?\n\n{{resetReaction}}Pero lo entiendo.{{pause frames=\"15\"}}\nSencillamente, seguiré\nbuscando, {{pause frames=\"5\"}}{{string value=\"Catchphrase\"}}.",
      "EUfr": "{{reaction type=\"Worry\"}}Oh{{pause frames=\"5\"}}.{{pause frames=\"5\"}}.{{pause frames=\"5\"}}.{{pause frames=\"10\"}} Bon, ben tant pis\npour moi alors, hein?\n{{resetReaction}}Mais je comprends.\n{{pause frames=\"15\"}}Je vais voir si je peux\ntrouver cet objet ailleurs,\n{{pause frames=\"5\"}}{{string value=\"Catchphrase\"}}.",
      "EUit": "{{reaction type=\"Worry\"}}Oh{{pause frames=\"5\"}}.{{pause frames=\"5\"}}.{{pause frames=\"5\"}}.{{pause frames=\"10\"}} che peccato!\nCi tenevo davvero\ntanto!\n{{resetReaction}}Ma ti capisco.{{pause frames=\"15\"}} Continuerò a\ncercare, non preoccuparti,\n{{pause frames=\"5\"}}{{string value=\"Catchphrase\"}}.",
      "JPja": "{{reaction type=\"Worry\"}}あら{{pause frames=\"5\"}}・{{pause frames=\"5\"}}・{{pause frames=\"5\"}}・{{pause frames=\"10\"}}{{kanjiReplace charNum=\"2\" value=\"ざんねん\"}}残念です\n\n\n{{resetReaction}}{{kanjiReplace charNum=\"2\" value=\"しかた\"}}仕方ありません{{pause frames=\"15\"}}\n{{kanjiReplace charNum=\"2\" value=\"じみち\"}}地道に　{{kanjiReplace charNum=\"2\" value=\"じぶん\"}}自分で\nさがす{{kanjiReplace charNum=\"1\" value=\"こと\"}}事にします、{{pause frames=\"5\"}}{{string value=\"Catchphrase\"}}",
      "KRko": "{{reaction type=\"Worry\"}}흑{{pause frames=\"5\"}}・{{pause frames=\"5\"}}・{{pause frames=\"5\"}}・{{pause frames=\"10\"}} 알겠습니다\n\n\n{{resetReaction}}할 수 없죠{{pause frames=\"15\"}}\n제 힘으로 찾아볼게요\n{{pause frames=\"5\"}}{{string value=\"Catchphrase\"}}",
      "USen": "{{reaction type=\"Worry\"}}Oh{{pause frames=\"5\"}}.{{pause frames=\"5\"}}.{{pause frames=\"5\"}}.{{pause frames=\"10\"}} OK. I guess that's\njust too bad for me,\nisn't it?\n{{resetReaction}}But I understand.{{pause frames=\"15\"}} I'll just\nkeep looking for one on my\nown, {{pause frames=\"5\"}}{{string value=\"Catchphrase\"}}."
    }
  },
  {
    "label": "09",
    "attribute": "0x00000000FE000000",
    "locale": {
      "EUde": "{{reaction type=\"Happiness\"}}Vielen, vielen Dank!\n{{pause frames=\"5\"}}{{capitalizeLetter}}{{string value=\"Catchphrase\"}}!",
      "EUen": "{{reaction type=\"Happiness\"}}Thank you so very much!\n{{pause frames=\"5\"}}{{capitalizeLetter}}{{string value=\"Catchphrase\"}}!",
      "EUes": "{{reaction type=\"Happiness\"}}¡Muchísimas gracias!\n{{pause frames=\"5\"}}¡{{capitalizeLetter}}{{string value=\"Catchphrase\"}}!",
      "EUfr": "{{reaction type=\"Happiness\"}}Merci beaucoup!\n{{pause frames=\"5\"}}{{capitalizeLetter}}{{string value=\"Catchphrase\"}}!",
      "EUit": "{{reaction type=\"Happiness\"}}Grazie infinite!\n{{pause frames=\"5\"}}{{capitalizeLetter}}{{string value=\"Catchphrase\"}}!",
      "JPja": "{{reaction type=\"Happiness\"}}どうも　ありがとうございました！\n{{pause frames=\"5\"}}{{string value=\"Catchphrase\"}}！",
      "KRko": "{{reaction type=\"Happiness\"}}정말 고맙습니다！\n{{pause frames=\"5\"}}{{string value=\"Catchphrase\"}}！",
      "USen": "{{reaction type=\"Happiness\"}}Thank you so very much!\n{{pause frames=\"5\"}}{{capitalizeLetter}}{{string value=\"Catchphrase\"}}!"
    }
  },
  {
    "label": "10",
    "attribute": "0x00000000FE000000",
    "locale": {
      "EUde": "{{reaction type=\"Happiness\"}}Ich werde gut darauf auf-\npassen, {{pause frames=\"5\"}}{{string value=\"Catchphrase\"}}!",
      "EUen": "{{reaction type=\"Happiness\"}}I'll take good care of it,\n{{pause frames=\"5\"}}{{string value=\"Catchphrase\"}}!",
      "EUes": "{{reaction type=\"Happiness\"}}¡Yo cuido muy bien mis\ncosas, {{pause frames=\"5\"}}{{string value=\"Catchphrase\"}}!",
      "EUfr": "{{reaction type=\"Happiness\"}}J'en prendrai bien soin,\n{{pause frames=\"5\"}}{{string value=\"Catchphrase\"}}!",
      "EUit": "{{reaction type=\"Happiness\"}}Ne farò buon uso,\n{{pause frames=\"5\"}}{{string value=\"Catchphrase\"}}!",
      "JPja": "{{reaction type=\"Happiness\"}}{{kanjiReplace charNum=\"2\" value=\"たいせつ\"}}大切に　させて\nいただきますね、{{pause frames=\"5\"}}{{string value=\"Catchphrase\"}}！",
      "KRko": "{{reaction type=\"Happiness\"}}소중히 간직할게요\n{{pause frames=\"5\"}}{{string value=\"Catchphrase\"}}！",
      "USen": "{{reaction type=\"Happiness\"}}I'll take good care of it,\n{{pause frames=\"5\"}}{{string value=\"Catchphrase\"}}!"
    }
  },
  {
    "label": "11",
    "attribute": "0x00000000FE000000",
    "locale": {
      "EUde": "{{reaction type=\"Happiness\"}}Danke!{{pause frames=\"15\"}} {{reaction type=\"Joy\"}}Ich wusste immer, \ndass du eine nette Person \nbist, {{string value=\"PlayerNickname\"}}!",
      "EUen": "{{reaction type=\"Happiness\"}}Thank you!{{pause frames=\"15\"}} {{reaction type=\"Joy\"}}I've always said\nwhat a nice person you are,\n{{string value=\"PlayerNickname\"}}!",
      "EUes": "{{reaction type=\"Happiness\"}}¡Gracias!{{pause frames=\"15\"}} {{reaction type=\"Joy\"}}¡Siempre he\npensado que eras una buena\npersona, {{string value=\"PlayerNickname\"}}!",
      "EUfr": "{{reaction type=\"Happiness\"}}Merci!{{pause frames=\"15\"}} {{reaction type=\"Joy\"}}Tu es vraiment\nquelqu'un de gentil,\n{{string value=\"PlayerNickname\"}}!",
      "EUit": "{{reaction type=\"Happiness\"}}Grazie!{{pause frames=\"15\"}} {{reaction type=\"Joy\"}}Ho sempre saputo\nche sei tanto gentile,\n{{string value=\"PlayerNickname\"}}!",
      "JPja": "{{reaction type=\"Happiness\"}}ありがとうございます！{{pause frames=\"15\"}}\n{{reaction type=\"Joy\"}}やっぱり　{{string value=\"PlayerNickname\"}}さんって\nいい{{kanjiReplace charNum=\"1\" value=\"ひと\"}}人ですぅ、{{pause frames=\"5\"}}{{string value=\"Catchphrase\"}}！",
      "KRko": "{{reaction type=\"Happiness\"}}감사합니다！{{pause frames=\"15\"}}\n{{reaction type=\"Joy\"}}역시 {{string value=\"PlayerNickname\"}}님은 좋은\n사람이에요， {{pause frames=\"5\"}}{{string value=\"Catchphrase\"}}！",
      "USen": "{{reaction type=\"Happiness\"}}Thank you!{{pause frames=\"15\"}} {{reaction type=\"Joy\"}}I've always said\nwhat a nice person you are,\n{{string value=\"PlayerNickname\"}}!"
    }
  }
]