[
  {
    "label": "00",
    "attribute": "0x00000000FF000000",
    "locale": {
      "EUde": "{{fun_06 arg=\"0x0304\"}}",
      "EUen": "{{fun_06 arg=\"0x0304\"}}",
      "EUes": "{{fun_06 arg=\"0x0304\"}}",
      "EUfr": "{{fun_06 arg=\"0x0304\"}}",
      "EUit": "{{fun_06 arg=\"0x0304\"}}",
      "JPja": "{{fun_06 arg=\"0x0304\"}}",
      "KRko": "{{fun_06 arg=\"0x0304\"}}",
      "USen": "{{fun_06 arg=\"0x0304\"}}"
    }
  },
  {
    "label": "01",
    "attribute": "0x00000000FF000000",
    "locale": {
      "EUde": "{{reaction type=\"Happiness\"}}{{fun_01}}Entschuldige{{fun_01}}{{pause frames=\"15\"}},\n{{string value=\"PlayerNickname\"}}.\n{{reaction type=\"Curiosity\"}}Gehört das dir?\n{{pause frames=\"15\"}}Das habe ich nämlich dort\nvorne gefunden. Es ist nicht\nmeins.{{fun_02 arg=\"0x0E0F\"}}\nEs gehört mir.\nKenne ich nicht.",
      "EUen": "{{reaction type=\"Happiness\"}}{{fun_01}}Excuse me{{fun_01}}{{pause frames=\"15\"}},\n{{string value=\"PlayerNickname\"}}.\n\n{{reaction type=\"Curiosity\"}}Is this yours?{{pause frames=\"15\"}} Because I\nfound it right over there,\nand I know it's not mine.{{fun_02 arg=\"0x0E0F\"}}\nThat's mine.\nNever seen it.",
      "EUes": "{{reaction type=\"Happiness\"}}{{capitalizeLetter}}{{fun_01}}Perdona{{fun_01}}{{pause frames=\"15\"}},\n{{string value=\"PlayerNickname\"}}.\n\n{{reaction type=\"Curiosity\"}}¿Esto es tuyo?{{pause frames=\"15\"}} Porque lo\nencontré ahí y sé que mío\nno es.{{fun_02 arg=\"0x0E0F\"}}\nEs mío\nNo es mío",
      "EUfr": "{{reaction type=\"Happiness\"}}{{capitalizeLetter}}{{fun_01}}Excuse-moi{{fun_01}}{{pause frames=\"15\"}},\n{{string value=\"PlayerNickname\"}}.\n\n{{reaction type=\"Curiosity\"}}C'est à toi?{{pause frames=\"15\"}} Parce que j'ai\ntrouvé ça là et je sais que\nce n'est pas à moi.{{fun_02 arg=\"0x0E0F\"}}\nC'est à moi.\nPas du tout.",
      "EUit": "{{reaction type=\"Happiness\"}}{{fun_01}}Scusami{{fun_01}}{{pause frames=\"15\"}},\n{{string value=\"PlayerNickname\"}}.\n\n{{reaction type=\"Curiosity\"}}È roba tua?{{pause frames=\"15\"}}\nPerché era là e\nnon so di chi sia.{{fun_02 arg=\"0x0E0F\"}}\nSì, è roba mia.\nNo davvero!",
      "JPja": "{{reaction type=\"Happiness\"}}{{fun_01}}あのっ{{fun_01}}{{pause frames=\"15\"}}\n{{string value=\"PlayerNickname\"}}さん！　{{pause frames=\"5\"}}{{string value=\"Catchphrase\"}}！\n\n{{resetReaction}}さっき　そこで\n{{kanjiReplace charNum=\"1\" value=\"お\"}}落とし{{kanjiReplace charNum=\"1\" value=\"もの\"}}物を　{{kanjiReplace charNum=\"1\" value=\"ひろ\"}}拾ったのですが\n{{reaction type=\"Curiosity\"}}{{string value=\"PlayerNickname\"}}さんのかしら？{{fun_02 arg=\"0x0E0F\"}}\nたぶんそう\nちがうと{{kanjiReplace charNum=\"1\" value=\"おも\"}}思う",
      "KRko": "{{reaction type=\"Happiness\"}}{{fun_01}}저{{fun_01}}{{pause frames=\"15\"}}\n{{string value=\"PlayerNickname\"}}님！ {{pause frames=\"5\"}}{{string value=\"Catchphrase\"}}\n\n{{resetReaction}}아까 저쪽에서\n물건을 주웠는데\n{{reaction type=\"Curiosity\"}}{{string value=\"PlayerNickname\"}}님 것인가요？{{fun_02 arg=\"0x0E0F\"}}\n아마도！\n아니！",
      "USen": "{{reaction type=\"Happiness\"}}{{fun_01}}Excuse me{{fun_01}}{{pause frames=\"15\"}},\n{{string value=\"PlayerNickname\"}}.\n\n{{reaction type=\"Curiosity\"}}Is this yours?{{pause frames=\"15\"}} Because I\nfound it right over there,\nand I know it's not mine.{{fun_02 arg=\"0x0E0F\"}}\nThat's mine.\nNever seen it."
    }
  },
  {
    "label": "02",
    "attribute": "0x0000000114000000",
    "locale": {
      "EUde": "{{reaction type=\"Happiness\"}}{{fun_01}}{{capitalizeLetter}}{{string value=\"PlayerNickname\"}}{{fun_01}}!{{pause frames=\"20\"}}\nWelch tadelloses Timing,\n{{pause frames=\"5\"}}{{string value=\"Catchphrase\"}}!\nIch muss das loswerden. Es \ngehört dir, wenn du keine \nFragen stellst.",
      "EUen": "{{reaction type=\"Happiness\"}}{{fun_01}}{{capitalizeLetter}}{{string value=\"PlayerNickname\"}}{{fun_01}}!{{pause frames=\"20\"}}\nWhat impeccable timing,\n{{pause frames=\"5\"}}{{string value=\"Catchphrase\"}}!\nI need to get rid of this.\nIt's yours, as long as you\ndon't ask any questions.",
      "EUes": "{{reaction type=\"Happiness\"}}¡{{capitalizeLetter}}{{fun_01}}{{string value=\"PlayerNickname\"}}{{fun_01}}!{{pause frames=\"20\"}}\n¡Llegas en el momento\njusto, {{pause frames=\"5\"}}{{string value=\"Catchphrase\"}}!\nQuiero deshacerme de esto.\nSi no me haces preguntas,\nte lo puedes quedar tú.",
      "EUfr": "{{reaction type=\"Happiness\"}}{{capitalizeLetter}}{{fun_01}}{{string value=\"PlayerNickname\"}}{{fun_01}}!{{pause frames=\"20\"}}\nTu tombes à pic,\n{{pause frames=\"5\"}}{{string value=\"Catchphrase\"}}!\nTu dois me débarrasser de\nça. C'est à toi tant que tu\nne poses pas de questions.",
      "EUit": "{{reaction type=\"Happiness\"}}{{capitalizeLetter}}{{fun_01}}{{capitalizeLetter}}{{string value=\"PlayerNickname\"}}{{fun_01}}!{{pause frames=\"20\"}}\nChe tempismo,\n{{pause frames=\"5\"}}{{string value=\"Catchphrase\"}}!\nDevo sbarazzarmene!\nEcco, prendi, ma non\nfare domande!",
      "JPja": "{{reaction type=\"Happiness\"}}{{fun_01}}{{string value=\"PlayerNickname\"}}さん{{fun_01}}！{{pause frames=\"20\"}}\nちょうど　いいところに\n{{kanjiReplace charNum=\"1\" value=\"き\"}}来てくださいました、{{pause frames=\"5\"}}{{string value=\"Catchphrase\"}}\n{{kanjiReplace charNum=\"1\" value=\"なに\"}}何も　{{kanjiReplace charNum=\"1\" value=\"い\"}}言わずに\nこれを　{{kanjiReplace charNum=\"1\" value=\"う\"}}受け{{kanjiReplace charNum=\"1\" value=\"と\"}}取ってください、\n{{pause frames=\"5\"}}{{string value=\"Catchphrase\"}}！",
      "KRko": "{{reaction type=\"Happiness\"}}{{fun_01}}{{string value=\"PlayerNickname\"}}님{{fun_01}}！{{pause frames=\"20\"}}\n마침 잘\n오셨어요， {{pause frames=\"5\"}}{{string value=\"Catchphrase\"}}\n아무 말 마시고\n이걸 받아 주세요！\n{{pause frames=\"5\"}}{{string value=\"Catchphrase\"}}！",
      "USen": "{{reaction type=\"Happiness\"}}{{fun_01}}{{capitalizeLetter}}{{string value=\"PlayerNickname\"}}{{fun_01}}!{{pause frames=\"20\"}}\nWhat impeccable timing,\n{{pause frames=\"5\"}}{{string value=\"Catchphrase\"}}!\nI need to get rid of this.\nIt's yours, as long as you\ndon't ask any questions."
    }
  },
  {
    "label": "03",
    "attribute": "0x00000000FF000000",
    "locale": {
      "EUde": "{{reaction type=\"Happiness\"}}{{capitalizeLetter}}{{fun_01}}Hallo{{fun_01}}!\n\n\n{{capitalizeLetter}}{{string value=\"PlayerNickname\"}}!{{pause frames=\"10\"}} Du\nsiehst aus, als hättest du\nLust auf ein Quiz!\n{{reaction type=\"Glee\"}}Wenn deine Antwort\nkorrekt ist, gebe ich dir\neinen Preis!\n{{resetReaction}}Und hier kommt\ndie Frage!\n\nWenn ich jetzt eine Kugel\nEis haben wollte,{{reaction type=\"Curiosity\"}} welche\nGröße müsste es sein?{{fun_05 arg=\"0x0405040504050405\"}}\nNormale Kugel!\nKleine Kugel!",
      "EUen": "{{reaction type=\"Happiness\"}}{{fun_01}}Hello there,{{fun_01}}\n{{string value=\"PlayerNickname\"}}!{{pause frames=\"10\"}} What you could\nuse is a pop quiz!\n{{reaction type=\"Glee\"}}If you answer correctly, I'll\ngive you a prize!\n\n{{resetReaction}}Here come the questions!\n\n\nIf I were to get a scoop\nof ice cream right now,{{reaction type=\"Curiosity\"}}\nwhat size would I want?{{fun_05 arg=\"0x0405040504050405\"}}\nNormal scoop!\nTiny scoop!",
      "EUes": "{{reaction type=\"Happiness\"}}¡{{capitalizeLetter}}{{fun_01}}Hola, hola{{fun_01}},\n{{string value=\"PlayerNickname\"}}!{{pause frames=\"10\"}} ¡Te voy a\nhacer una pregunta!\n{{reaction type=\"Glee\"}}Si contestas bien, te\ndaré un premio.\n\n{{resetReaction}}¡Ahí va la pregunta!\n\n\nSi yo fuera a pedir un\nhelado ahora mismo,{{reaction type=\"Curiosity\"}} ¿de qué\ntamaño lo pediría?{{fun_05 arg=\"0x0405040504050405\"}}\n¡Normal!\n¡Pequeño!",
      "EUfr": "{{reaction type=\"Happiness\"}}{{capitalizeLetter}}{{fun_01}}Salut, salut{{fun_01}},\n{{string value=\"PlayerNickname\"}}!{{pause frames=\"10\"}} Tu as besoin\nd'un petit quiz, toi!\n{{reaction type=\"Glee\"}}Je te donnerai une\nrécompense si tu réponds\ncorrectement!\n\n{{resetReaction}}Voici la question!\n\nSi je m'achetais une glace\nmaintenant,{{reaction type=\"Curiosity\"}} quelle taille je\nprendrais à ton avis?{{fun_05 arg=\"0x0405040504050405\"}}\nNormale!\nPetite!",
      "EUit": "{{reaction type=\"Happiness\"}}{{fun_01}}Ciao,{{fun_01}}\n{{string value=\"PlayerNickname\"}}!{{pause frames=\"10\"}} Si vede che\nhai voglia di un quiz!\n{{reaction type=\"Glee\"}}Se rispondi correttamente,\nti darò un premio!\n\n{{resetReaction}}Ecco la domanda!\n\n\nSe potessi avere un\ncono di gelato,{{reaction type=\"Curiosity\"}}\nche dimensione sceglierei?{{fun_05 arg=\"0x0405040504050405\"}}\nCono normale!\nCono piccolo!",
      "JPja": "{{reaction type=\"Happiness\"}}{{fun_01}}とつぜんですが{{fun_01}}{{pause frames=\"10\"}}\n{{string value=\"PlayerNickname\"}}さん、{{pause frames=\"15\"}}\nクイズです、{{pause frames=\"5\"}}{{string value=\"Catchphrase\"}}\n{{reaction type=\"Glee\"}}{{kanjiReplace charNum=\"2\" value=\"みごと\"}}見事　{{kanjiReplace charNum=\"2\" value=\"せいかい\"}}正解したら\n{{kanjiReplace charNum=\"2\" value=\"しょうひん\"}}賞品を　さしあげますので\nふるって　お{{kanjiReplace charNum=\"1\" value=\"こた\"}}答えください！\n{{resetReaction}}では　{{kanjiReplace charNum=\"2\" value=\"もんだい\"}}問題です、{{pause frames=\"5\"}}{{string value=\"Catchphrase\"}}\n\n\n{{kanjiReplace charNum=\"1\" value=\"いま\"}}今、{{pause frames=\"5\"}}お{{kanjiReplace charNum=\"2\" value=\"しょくじ\"}}食事するとしたら\nわたしは　おわんに　どれぐらい\n{{reaction type=\"Curiosity\"}}ごはんを{{kanjiReplace charNum=\"1\" value=\"た\"}}食べたいでしょう？{{fun_05 arg=\"0x0405040504050405\"}}\nふつうもり\n{{kanjiReplace charNum=\"1\" value=\"こ\"}}小もり",
      "KRko": "{{reaction type=\"Happiness\"}}{{fun_01}}뜬금없지만{{fun_01}}{{pause frames=\"10\"}}\n{{string value=\"PlayerNickname\"}}님！{{pause frames=\"15\"}}\n질문입니다， {{pause frames=\"5\"}}{{string value=\"Catchphrase\"}}\n{{reaction type=\"Glee\"}}정답을 맞추신다면\n선물을 드릴 테니\n주저 말고 대답해 주세요！\n{{resetReaction}}자， 그럼 갑니다 {{pause frames=\"5\"}}{{string value=\"Catchphrase\"}}\n\n\n지금 {{pause frames=\"5\"}}식사를 한다면\n전 그릇에 밥을 얼만큼\n{{reaction type=\"Curiosity\"}}담을까요？{{fun_05 arg=\"0x0405040504050405\"}}\n보통\n적게",
      "USen": "{{reaction type=\"Happiness\"}}{{fun_01}}Hello there,{{fun_01}}\n{{string value=\"PlayerNickname\"}}!{{pause frames=\"10\"}} What you could\nuse is a pop quiz!\n{{reaction type=\"Glee\"}}If you answer correctly, I'll\ngive you a prize!\n\n{{resetReaction}}Here come the questions!\n\n\nIf I were to get a scoop\nof ice cream right now,{{reaction type=\"Curiosity\"}}\nwhat size would I want?{{fun_05 arg=\"0x0405040504050405\"}}\nNormal scoop!\nTiny scoop!"
    }
  },
  {
    "label": "04",
    "attribute": "0x00000000FF000000",
    "locale": {
      "EUde": "{{resetReaction}}{{fun_01}}Oh, wie gehts dir{{fun_01}},\n{{string value=\"PlayerNickname\"}}? Hast du mal\nne Sekunde Zeit?{{pause frames=\"10\"}}\n{{reaction type=\"Worry\"}}Ich frag nicht gern, aber{{pause frames=\"5\"}}.{{pause frames=\"5\"}}.{{pause frames=\"5\"}}.{{pause frames=\"5\"}}\nWas für eine Art Mädchen\nbin ich wohl?{{fun_05 arg=\"0x040B040B040B040B\"}}\nEine süße Maus!\nVöllig normal!",
      "EUen": "{{resetReaction}}{{fun_01}}Oh, well, hi there{{fun_01}}!\n{{capitalizeLetter}}{{string value=\"PlayerNickname\"}}, got a sec?{{pause frames=\"10\"}}\n\n{{reaction type=\"Worry\"}}I hate to ask, but{{pause frames=\"5\"}}.{{pause frames=\"5\"}}.{{pause frames=\"5\"}}.{{pause frames=\"5\"}}\nwhat kind of girl would\nyou say I am?{{fun_05 arg=\"0x040B040B040B040B\"}}\nYou're cute!\nTotally normal!",
      "EUes": "{{resetReaction}}{{capitalizeLetter}}{{fun_01}}Oh, hola{{fun_01}},\n{{string value=\"PlayerNickname\"}}. ¿Tienes un\nminuto?{{pause frames=\"10\"}}\n{{reaction type=\"Worry\"}}Odio preguntar estas cosas,\npero{{pause frames=\"5\"}}.{{pause frames=\"5\"}}.{{pause frames=\"5\"}}.{{pause frames=\"5\"}} ¿qué tipo de chica\ndirías que soy?{{fun_05 arg=\"0x040B040B040B040B\"}}\n¡Muy maja!\n¡Muy normal!",
      "EUfr": "{{resetReaction}}{{capitalizeLetter}}{{fun_01}}Oh, salut{{fun_01}},\n{{string value=\"PlayerNickname\"}}! Tu as une\nminute?{{pause frames=\"10\"}}\n{{reaction type=\"Worry\"}}Ça me gêne de demander ça,\nmais{{pause frames=\"5\"}}.{{pause frames=\"5\"}}.{{pause frames=\"5\"}}.{{pause frames=\"5\"}} quel genre de fille\ndirais-tu que je suis?{{fun_05 arg=\"0x040B040B040B040B\"}}\nMignonne!\nNormale!",
      "EUit": "{{resetReaction}}{{fun_01}}Oh, come va{{fun_01}},\n{{string value=\"PlayerNickname\"}}?\nHai un secondo?{{pause frames=\"10\"}}\n{{reaction type=\"Worry\"}}Scusa la domanda, ma{{pause frames=\"5\"}}.{{pause frames=\"5\"}}.{{pause frames=\"5\"}}.{{pause frames=\"5\"}}\nche tipo di ragazza credi\nche io sia?{{fun_05 arg=\"0x040B040B040B040B\"}}\nCarina!\nNormalissima!",
      "JPja": "{{resetReaction}}{{fun_01}}あ、あのっ{{fun_01}}！{{pause frames=\"10\"}}\n{{string value=\"PlayerNickname\"}}さん\n\n{{reaction type=\"Worry\"}}どうしても\n{{kanjiReplace charNum=\"1\" value=\"き\"}}聞きたいコトが　あるんです{{pause frames=\"5\"}}・{{pause frames=\"5\"}}・{{pause frames=\"5\"}}・{{pause frames=\"5\"}}\n\n{{resetReaction}}わたしって{{pause frames=\"5\"}}・{{pause frames=\"5\"}}・{{pause frames=\"5\"}}・{{pause frames=\"5\"}}\n{{reaction type=\"Curiosity\"}}{{string value=\"PlayerNickname\"}}さんから{{kanjiReplace charNum=\"1\" value=\"み\"}}見て\nどんな　{{kanjiReplace charNum=\"1\" value=\"おんな\"}}女の{{kanjiReplace charNum=\"1\" value=\"こ\"}}子ですか？{{fun_05 arg=\"0x040B040B040B040B\"}}\nかわいい\nふつう",
      "KRko": "{{resetReaction}}{{fun_01}}저， 저기{{fun_01}}！{{pause frames=\"10\"}}\n{{string value=\"PlayerNickname\"}}님\n\n{{reaction type=\"Worry\"}}꼭 물어보고 싶은 게 있어요\n{{pause frames=\"5\"}}・{{pause frames=\"5\"}}・{{pause frames=\"5\"}}・{{pause frames=\"5\"}}\n\n{{resetReaction}}{{string value=\"PlayerNickname\"}}님이 보기에{{pause frames=\"5\"}}・{{pause frames=\"5\"}}・{{pause frames=\"5\"}}・{{pause frames=\"5\"}}\n{{reaction type=\"Curiosity\"}}저는 어떤\n여자인가요？{{fun_05 arg=\"0x040B040B040B040B\"}}\n귀여운 여자\n평범한 여자",
      "USen": "{{resetReaction}}{{fun_01}}Oh, well, hi there{{fun_01}}!\n{{capitalizeLetter}}{{string value=\"PlayerNickname\"}}, got a sec?{{pause frames=\"10\"}}\n\n{{reaction type=\"Worry\"}}I hate to ask, but{{pause frames=\"5\"}}.{{pause frames=\"5\"}}.{{pause frames=\"5\"}}.{{pause frames=\"5\"}}\nwhat kind of girl would\nyou say I am?{{fun_05 arg=\"0x040B040B040B040B\"}}\nYou're cute!\nTotally normal!"
    }
  },
  {
    "label": "05",
    "attribute": "0x00000000FF000000",
    "locale": {
      "EUde": "{{fun_06 arg=\"0x060706\"}}",
      "EUen": "{{fun_06 arg=\"0x060706\"}}",
      "EUes": "{{fun_06 arg=\"0x060706\"}}",
      "EUfr": "{{fun_06 arg=\"0x060706\"}}",
      "EUit": "{{fun_06 arg=\"0x060706\"}}",
      "JPja": "{{fun_06 arg=\"0x060706\"}}",
      "KRko": "{{fun_06 arg=\"0x06070600\"}}",
      "USen": "{{fun_06 arg=\"0x060706\"}}"
    }
  },
  {
    "label": "06",
    "attribute": "0x0000000114000000",
    "locale": {
      "EUde": "{{reaction type=\"Shocked\"}}Komisch! Das ist wirklich\nbeeindruckend, {{pause frames=\"5\"}}{{string value=\"Catchphrase\"}}!\n\nDu kannst auf Anhieb sehen,\nwie hungrig ich bin,\n{{string value=\"PlayerNickname\"}}?\n{{reaction type=\"Distress\"}}Iiieh! Hast du den Röntgen-\nblick? Kannst du meinen\nMagen sehen?!?\n{{reaction type=\"Happiness\"}}Oder war das nur gut ge-\nraten?{{pause frames=\"5\"}} Wie auch immer, du\ngewinnst!{{pause frames=\"5\"}} Hier, dein Preis.",
      "EUen": "{{reaction type=\"Shocked\"}}Weird! That's really\nimpressive, {{pause frames=\"5\"}}{{string value=\"Catchphrase\"}}!\n\nYou can tell how hungry I\nam just by looking at me,\n{{string value=\"PlayerNickname\"}}?\n{{reaction type=\"Distress\"}}Ew! Do you have X-ray\nvision? Can you see my\nstomach right now!?\n{{reaction type=\"Happiness\"}}Or was that just a lucky\nguess?{{pause frames=\"5\"}} Either way, you win!{{pause frames=\"5\"}}\nSo here's your prize.",
      "EUes": "{{reaction type=\"Shocked\"}}¡Qué raro! ¡Es muy\nimpresionante, {{pause frames=\"5\"}}{{string value=\"Catchphrase\"}}!\n\n¿Puedes decirme cuánta\nhambre tengo solo con\nmirarme, {{string value=\"PlayerNickname\"}}?\n{{reaction type=\"Distress\"}}¡Vaya! ¿Tienes visión de\nrayos X? ¡¿Puedes ver mi\nestómago ahora?!\n{{reaction type=\"Happiness\"}}¿O simplemente tuviste\nsuerte?{{pause frames=\"5\"}} Da igual, ¡ganaste!{{pause frames=\"5\"}}\nAquí tienes tu premio.",
      "EUfr": "{{reaction type=\"Shocked\"}}Bizarre! C'est vraiment\nimpressionnant, {{pause frames=\"5\"}}{{string value=\"Catchphrase\"}}!\n\nTu peux dire à quel point\nj'ai faim rien qu'en me\nregardant, {{string value=\"PlayerNickname\"}}?\n{{reaction type=\"Distress\"}}Waouh! T'as des lunettes à\nrayons X? Tu peux voir dans\nmon estomac là!?\n{{reaction type=\"Happiness\"}}Ou c'est juste un coup de\nchance?{{pause frames=\"5\"}} Mais bon, tu as\ngagné!{{pause frames=\"5\"}} Voici ta récompense.",
      "EUit": "{{reaction type=\"Shocked\"}}Strano! Impressionante\ndavvero, {{pause frames=\"5\"}}{{string value=\"Catchphrase\"}}!\n\nTi basta guardarmi per\ncapire quanta fame ho,\n{{string value=\"PlayerNickname\"}}?\n{{reaction type=\"Distress\"}}Oh! Hai la vista a raggi\nX? Non dirmi che stai\nvedendo il mio stomaco?\n{{reaction type=\"Happiness\"}}Oppure hai tirato a\nindovinare?{{pause frames=\"5\"}} Però hai vinto!{{pause frames=\"5\"}}\nEcco il tuo premio.",
      "JPja": "{{reaction type=\"Shocked\"}}えぇーっ？！{{pause frames=\"10\"}}\n{{kanjiReplace charNum=\"1\" value=\"しん\"}}信じられないっ、{{pause frames=\"5\"}}{{string value=\"Catchphrase\"}}！\n\n{{reaction type=\"Worry\"}}わたしのおなかの　すき{{kanjiReplace charNum=\"2\" value=\"ぐあい\"}}具合が\nどうして　{{string value=\"PlayerNickname\"}}さんに\n{{kanjiReplace charNum=\"1\" value=\"わ\"}}分かるんですか、{{pause frames=\"5\"}}{{string value=\"Catchphrase\"}}？！\n{{reaction type=\"Distress\"}}いろんなコトを\n{{kanjiReplace charNum=\"1\" value=\"み\"}}見すかされてるみたいで\nハズカシイですぅ{{pause frames=\"5\"}}・{{pause frames=\"5\"}}・{{pause frames=\"5\"}}・\n{{reaction type=\"Happiness\"}}でも　クイズはクイズ、{{pause frames=\"5\"}}\n{{kanjiReplace charNum=\"2\" value=\"せいかい\"}}正解は　{{kanjiReplace charNum=\"2\" value=\"せいかい\"}}正解ですので{{pause frames=\"5\"}}\n{{kanjiReplace charNum=\"2\" value=\"しょうひん\"}}賞品をさしあげますね",
      "KRko": "{{reaction type=\"Shocked\"}}네엣？！{{pause frames=\"10\"}}\n믿을 수 없어요！ {{pause frames=\"5\"}}{{string value=\"Catchphrase\"}}\n\n{{reaction type=\"Worry\"}}제 배가 어떤 상태인지\n{{string value=\"PlayerNickname\"}}님이 어떻게\n아셨나요？ {{pause frames=\"5\"}}{{string value=\"Catchphrase\"}}？！\n{{reaction type=\"Distress\"}}제 속을 훤히\n들여다보고 계신 것 같아\n부끄러워요{{pause frames=\"5\"}}・{{pause frames=\"5\"}}・{{pause frames=\"5\"}}・\n{{reaction type=\"Happiness\"}}하지만 약속은 약속{{pause frames=\"5\"}}\n정답은 정답이니{{pause frames=\"5\"}}\n선물을 드릴게요",
      "USen": "{{reaction type=\"Shocked\"}}Weird! That's really\nimpressive, {{pause frames=\"5\"}}{{string value=\"Catchphrase\"}}!\n\nYou can tell how hungry I\nam just by looking at me,\n{{string value=\"PlayerNickname\"}}?\n{{reaction type=\"Distress\"}}Ew! Do you have X-ray\nvision? Can you see my\nstomach right now!?\n{{reaction type=\"Happiness\"}}Or was that just a lucky\nguess?{{pause frames=\"5\"}} Either way, you win!{{pause frames=\"5\"}}\nSo here's your prize."
    }
  },
  {
    "label": "07",
    "attribute": "0x00000000FE000000",
    "locale": {
      "EUde": "{{reaction type=\"Worry\"}}Nö! Nah dran, aber immer\nnoch falsch geraten,\n{{pause frames=\"5\"}}{{string value=\"Catchphrase\"}}.\n{{resetReaction}}Es war aber eigentlich eine\nFangfrage. Schau, momentan\nbin ich nicht sooo hungrig...\n{{reaction type=\"Thought\"}}Aber wenn ich erstmal an-\nfange zu essen, möchte ich\nsicher mehr, als ich dachte.\n{{reaction type=\"Distress\"}}Also schätze ich, es hätte \nbeides sein können.",
      "EUen": "{{reaction type=\"Worry\"}}Nope! That's close, but\nclose is a long way from\nright, {{pause frames=\"5\"}}{{string value=\"Catchphrase\"}}.\n{{resetReaction}}It was a bit of a trick\nquestion, though. See, I'm\nnot TOO hungry just yet...\n{{reaction type=\"Thought\"}}But once I start eating, I\nmight want to have more\nthan I felt like having.\n{{reaction type=\"Distress\"}}So I suppose it could have\ngone either way.",
      "EUes": "{{reaction type=\"Worry\"}}¡No! Casi, pero \"casi\"\npuede estar muy lejos de\n\"correcto\", {{pause frames=\"5\"}}{{string value=\"Catchphrase\"}}.\n{{resetReaction}}Era una pregunta con\ntruco. Es que todavía no\ntengo MUCHA hambre...\n{{reaction type=\"Thought\"}}Pero cuando empiezo a\ncomer, puedo comer mucho\nmás de lo que quiero.\n{{reaction type=\"Distress\"}}Así que supongo que podrías\nhaber contestado de\ncualquier forma.",
      "EUfr": "{{reaction type=\"Worry\"}}Faux! Presque, mais quand\nmême loin de la réalité,\n{{pause frames=\"5\"}}{{string value=\"Catchphrase\"}}.\n{{resetReaction}}Mais c'était une drôle de\nquestion. En fait, je n'ai\npas très faim maintenant...\n{{reaction type=\"Thought\"}}mais quand j'aurai commencé\nà manger, j'aurais les yeux\nplus gros que le ventre.\n{{reaction type=\"Distress\"}}Bah, ça aurait pu être les\ndeux réponses en fait.",
      "EUit": "{{reaction type=\"Worry\"}}No! Ci sei andat{{gender m=\"o\" f=\"a\"}} vicino,\nma non è la risposta\nesatta, {{pause frames=\"5\"}}{{string value=\"Catchphrase\"}}.\n{{resetReaction}}Era una domanda a\ntrabocchetto... Ora come\nora non ho FAMISSIMA, ma...\n{{reaction type=\"Thought\"}}quando mi metto a mangiare\nho sempre gli occhi più\ngrandi della pancia.\n{{reaction type=\"Distress\"}}Quindi forse sono giuste\nentrambe le risposte.",
      "JPja": "{{reaction type=\"Worry\"}}うーん{{pause frames=\"5\"}}・{{pause frames=\"5\"}}・{{pause frames=\"5\"}}・{{pause frames=\"5\"}}{{kanjiReplace charNum=\"2\" value=\"ざんねん\"}}残念！{{pause frames=\"15\"}}\nおしいんですけど\nハズレです、{{pause frames=\"5\"}}{{string value=\"Catchphrase\"}}\n{{resetReaction}}{{kanjiReplace charNum=\"1\" value=\"たし\"}}確かに　わたし、{{pause frames=\"5\"}}\n{{kanjiReplace charNum=\"1\" value=\"いま\"}}今、{{pause frames=\"5\"}}ちょっと\nこばらが　すいていて、\n{{reaction type=\"Thought\"}}それでいて　やっぱり\nふつうに　ゴハンが\n{{kanjiReplace charNum=\"1\" value=\"た\"}}食べたいような{{kanjiReplace charNum=\"1\" value=\"き\"}}気もして、\n{{reaction type=\"Distress\"}}とっても　ビミョーな\nカンジだったんです、{{pause frames=\"5\"}}{{string value=\"Catchphrase\"}}",
      "KRko": "{{reaction type=\"Worry\"}}우ー웅{{pause frames=\"5\"}}・{{pause frames=\"5\"}}・{{pause frames=\"5\"}}・{{pause frames=\"5\"}} 땡！{{pause frames=\"15\"}}\n아까워요\n틀리셨어요， {{pause frames=\"5\"}}{{string value=\"Catchphrase\"}}\n{{resetReaction}}솔직히 말하자면{{pause frames=\"5\"}}\n지금 {{pause frames=\"5\"}}살짝\n배가 고파서\n{{reaction type=\"Thought\"}}그래서\n적게 먹긴 싫고\n역시 보통은 먹고 싶은\n{{reaction type=\"Distress\"}}굉장히 애매한\n상태랍니다！ {{pause frames=\"5\"}}{{string value=\"Catchphrase\"}}",
      "USen": "{{reaction type=\"Worry\"}}Nope! That's close, but\nclose is a long way from\nright, {{pause frames=\"5\"}}{{string value=\"Catchphrase\"}}.\n{{resetReaction}}It was a bit of a trick\nquestion, though. See, I'm\nnot TOO hungry just yet...\n{{reaction type=\"Thought\"}}But once I start eating, I\nmight want to have more\nthan I felt like having.\n{{reaction type=\"Distress\"}}So I suppose it could have\ngone either way."
    }
  },
  {
    "label": "08",
    "attribute": "0x00000000FE000000",
    "locale": {
      "EUde": "{{reaction type=\"Happiness\"}}Ich dachte, {{gender m=\"ein\" f=\"eine\" n=\"ein\"}}\n{{ignoreArticle}}{{itemName index=\"1\"}} \nkönnte dir gefallen{{pause frames=\"5\"}}.{{pause frames=\"5\"}}.{{pause frames=\"5\"}}. \n{{gender m=\"Er\" f=\"Sie\" n=\"Es\"}} gehört dir. {{reaction type=\"Glee\"}}Ich hoffe, \n{{gender m=\"er\" f=\"sie\" n=\"es\"}} macht dir viel Freude, \n{{pause frames=\"5\"}}{{string value=\"Catchphrase\"}}!",
      "EUen": "{{reaction type=\"Happiness\"}}I thought you could use\n{{itemName index=\"1\"}}, so\nhere{{pause frames=\"5\"}}.{{pause frames=\"5\"}}.{{pause frames=\"5\"}}. It's all yours.\n{{reaction type=\"Glee\"}}I hope it brings you lots\nof happiness, {{pause frames=\"5\"}}{{string value=\"Catchphrase\"}}!",
      "EUes": "{{reaction type=\"Happiness\"}}Podría venirte bien\n{{itemName index=\"1\"}},\nasí que toma{{pause frames=\"5\"}}.{{pause frames=\"5\"}}.{{pause frames=\"5\"}}. Para ti.\n{{reaction type=\"Glee\"}}¡Espero que te traiga mucha\nfelicidad, {{pause frames=\"5\"}}{{string value=\"Catchphrase\"}}!",
      "EUfr": "{{reaction type=\"Happiness\"}}J'ai pensé que tu voulais\n{{itemName index=\"1\"}},\ndonc voici{{pause frames=\"5\"}}.{{pause frames=\"5\"}}.{{pause frames=\"5\"}}. C'est pour toi.\n{{reaction type=\"Glee\"}}J'espère que tu es\ncontent{{gender m=\"\" f=\"e\"}}, {{pause frames=\"5\"}}{{string value=\"Catchphrase\"}}!",
      "EUit": "{{reaction type=\"Happiness\"}}Può servirti\n{{itemName index=\"1\"}}?\nEcco a te{{pause frames=\"5\"}}.{{pause frames=\"5\"}}.{{pause frames=\"5\"}}. Prendi pure.\n{{reaction type=\"Glee\"}}Spero che ti\npiaccia, {{pause frames=\"5\"}}{{string value=\"Catchphrase\"}}!",
      "JPja": "{{reaction type=\"Happiness\"}}それ、{{pause frames=\"15\"}}{{itemName index=\"1\"}}です{{pause frames=\"20\"}}\n{{string value=\"PlayerNickname\"}}さんに　{{kanjiReplace charNum=\"1\" value=\"つか\"}}使って\nもらえれば、\n{{reaction type=\"Glee\"}}{{itemName index=\"1\"}}も\n{{kanjiReplace charNum=\"1\" value=\"よろこ\"}}喜ぶはずです、{{pause frames=\"5\"}}{{string value=\"Catchphrase\"}}！",
      "KRko": "{{reaction type=\"Happiness\"}}{{pause frames=\"15\"}}{{itemName index=\"1\"}}！！{{pause frames=\"20\"}}\n{{string value=\"PlayerNickname\"}}님이 사용해\n주신다면\n{{reaction type=\"Glee\"}}{{itemName index=\"1\"}}도\n기뻐할 거예요！ {{pause frames=\"5\"}}{{string value=\"Catchphrase\"}}",
      "USen": "{{reaction type=\"Happiness\"}}I thought you could use\n{{itemName index=\"1\"}}, so\nhere{{pause frames=\"5\"}}.{{pause frames=\"5\"}}.{{pause frames=\"5\"}}. It's all yours.\n{{reaction type=\"Glee\"}}I hope it brings you lots\nof happiness, {{pause frames=\"5\"}}{{string value=\"Catchphrase\"}}!"
    }
  },
  {
    "label": "09",
    "attribute": "0x00000000FE000000",
    "locale": {
      "EUde": "{{resetReaction}}Es ist, äh... Ich kann es\nnicht erklären, hier ist {{gender m=\"er\" f=\"sie\" n=\"es\"}}:\n{{ignoreArticle}}{{itemName index=\"1\"}}!\n{{reaction type=\"Happiness\"}}Um ehrlich zu sein, ich habe\nnie herausgefunden, wie man\n{{gender m=\"ihn\" f=\"sie\" n=\"es\"}} benutzt.",
      "EUen": "{{resetReaction}}It's a, uh... I can't really\nexplain this, so here it is:\n{{itemName index=\"1\"}}!\n{{reaction type=\"Happiness\"}}To tell you the truth, I\ncouldn't think of a use for\nit at all!",
      "EUes": "{{resetReaction}}Es... eh... Bueno, no sé\nexplicarlo, así que toma:\n¡{{itemName index=\"1\"}}!\n{{reaction type=\"Happiness\"}}Si quieres que te diga la\nverdad, nunca he sabido\ncómo se usa.",
      "EUfr": "{{resetReaction}}C'est, euh... je ne vois pas\ntrop comment t'expliquer,\ndonc tiens:\n{{itemName index=\"1\"}}!\n{{reaction type=\"Happiness\"}}Pour tout te dire, je n'ai\njamais su quoi en faire.",
      "EUit": "{{resetReaction}}Si tratta di eh... non\nsaprei di preciso. Ecco, è\n{{itemName index=\"1\"}}!\n{{reaction type=\"Happiness\"}}A dire il vero, non\nho mai capito come\nfunziona.",
      "JPja": "{{resetReaction}}ナントカが{{pause frames=\"5\"}}　ナントカっぽい{{pause frames=\"5\"}}\n{{itemName index=\"1\"}}です\n\n{{reaction type=\"Happiness\"}}くわしい{{kanjiReplace charNum=\"1\" value=\"こと\"}}事は、{{pause frames=\"5\"}}\nわたしも　よく\n{{kanjiReplace charNum=\"1\" value=\"し\"}}知らないんですけどね、{{pause frames=\"5\"}}{{string value=\"Catchphrase\"}}",
      "KRko": "{{resetReaction}}이리 쓰고{{pause frames=\"5\"}} 저리 쓰는{{pause frames=\"5\"}}\n{{itemName index=\"1\"}}！！\n\n{{reaction type=\"Happiness\"}}자세한 건{{pause frames=\"5\"}}\n저도 잘\n모른답니다！ {{pause frames=\"5\"}}{{string value=\"Catchphrase\"}}",
      "USen": "{{resetReaction}}It's a, uh... I can't really\nexplain this, so here it is:\n{{itemName index=\"1\"}}!\n{{reaction type=\"Happiness\"}}To tell you the truth, I\ncouldn't think of a use for\nit at all!"
    }
  },
  {
    "label": "10",
    "attribute": "0x00000000FE000000",
    "locale": {
      "EUde": "{{reaction type=\"Happiness\"}}Ich dachte, dir würde {{gender m=\"ein\" f=\"eine\" n=\"ein\"}}\n{{ignoreArticle}}{{itemName index=\"1\"}}\nim Haus gefallen.\nTu damit, was du willst. Ich\nhoffe aber, {{gender m=\"er\" f=\"sie\" n=\"es\"}} gefällt dir, \n{{pause frames=\"5\"}}{{string value=\"Catchphrase\"}}.",
      "EUen": "{{reaction type=\"Happiness\"}}I thought you'd like having\n{{itemName index=\"1\"}}\naround the house.\nJust do whatever you want\nwith it. I hope you like\nit, though, {{pause frames=\"5\"}}{{string value=\"Catchphrase\"}}.",
      "EUes": "{{reaction type=\"Happiness\"}}Pensé que te gustaría tener\n{{itemName index=\"1\"}} por\ncasa, ya me entiendes.\nEspero que te guste, {{pause frames=\"5\"}}\n{{string value=\"Catchphrase\"}}. Si no, haz lo\nque quieras.",
      "EUfr": "{{reaction type=\"Happiness\"}}J'ai pensé que tu voudrais\n{{itemName index=\"1\"}}\nchez toi.\nFais-en ce que tu veux. En\ntout cas, j'espère que ça\nte plaît, {{pause frames=\"5\"}}{{string value=\"Catchphrase\"}}.",
      "EUit": "{{reaction type=\"Happiness\"}}Ho pensato che\n{{itemName index=\"1\"}}\npotrebbe farti comodo.\nFanne quello che vuoi.\nSpero che ti\npiaccia, {{pause frames=\"5\"}}{{string value=\"Catchphrase\"}}.",
      "JPja": "{{reaction type=\"Happiness\"}}ちょっと　すてきな\n{{itemName index=\"1\"}}です\n\nあなたの　{{kanjiReplace charNum=\"1\" value=\"す\"}}好きに\n{{kanjiReplace charNum=\"1\" value=\"つか\"}}使ってくださいね、{{pause frames=\"5\"}}{{string value=\"Catchphrase\"}}！",
      "KRko": "{{reaction type=\"Happiness\"}}살짝 멋들어진\n{{itemName index=\"1\"}}！！\n\n당신 마음대로\n사용하세요！ {{pause frames=\"5\"}}{{string value=\"Catchphrase\"}}！",
      "USen": "{{reaction type=\"Happiness\"}}I thought you'd like having\n{{itemName index=\"1\"}}\naround the house.\nJust do whatever you want\nwith it. I hope you like\nit, though, {{pause frames=\"5\"}}{{string value=\"Catchphrase\"}}."
    }
  },
  {
    "label": "11",
    "attribute": "0x00000000FE000000",
    "locale": {
      "EUde": "{{fun_06 arg=\"0x0C0C0D\"}}",
      "EUen": "{{fun_06 arg=\"0x0C0C0D\"}}",
      "EUes": "{{fun_06 arg=\"0x0C0C0D\"}}",
      "EUfr": "{{fun_06 arg=\"0x0C0C0D\"}}",
      "EUit": "{{fun_06 arg=\"0x0C0C0D\"}}",
      "JPja": "{{fun_06 arg=\"0x0C0C0D\"}}",
      "KRko": "{{fun_06 arg=\"0x0C0C0D00\"}}",
      "USen": "{{fun_06 arg=\"0x0C0C0D\"}}"
    }
  },
  {
    "label": "12",
    "attribute": "0x0000000114000000",
    "locale": {
      "EUde": "{{resetReaction}}Beeindruckend! Es gibt\nzwar keine richtige Antwort,\naber nicht schlecht.\nDu bist süß, {{string value=\"PlayerNickname\"}}, \ndas weiß ich zu schätzen,\n{{pause frames=\"5\"}}{{string value=\"Catchphrase\"}}.\nDas macht mich {{reaction type=\"Happiness\"}}echt glück-\nlich. \n\nIch bin froh, dass ich\nFreunde habe, auf die ich\nzählen kann.\nHier. Das ist nichts be-\nsonderes, aber{{pause frames=\"5\"}}.{{pause frames=\"5\"}}.{{pause frames=\"5\"}}.{{pause frames=\"5\"}} Ich will, \ndass du es bekommst.",
      "EUen": "{{resetReaction}}I'm impressed! There really\nwas no right answer, but\nyou answered well.\nYou really are sweet,\n{{string value=\"PlayerNickname\"}}, and I\nappreciate it, {{pause frames=\"5\"}}{{string value=\"Catchphrase\"}}.\nThat makes me {{reaction type=\"Happiness\"}}really\nhappy. I'm glad I've got\nfriends I can count on.\nHere. It's nothing special,\nbut{{pause frames=\"5\"}}.{{pause frames=\"5\"}}.{{pause frames=\"5\"}}.{{pause frames=\"5\"}}I want you to have it.",
      "EUes": "{{resetReaction}}¡Estoy impresionadísima! ¡No\nhabía respuesta correcta,\npero tú la encontraste!\n¡Eres maravillos{{gender m=\"o\" f=\"a\"}},\n{{string value=\"PlayerNickname\"}}! ¡De verdad te\nlo digo, {{pause frames=\"5\"}}{{string value=\"Catchphrase\"}}!\nMe has hecho muy{{reaction type=\"Happiness\"}} feliz.\nMe gusta saber que tengo\namig{{gender m=\"o\" f=\"a\"}}s en quien confiar.\nTen. No es gran cosa,\npero{{pause frames=\"5\"}}.{{pause frames=\"5\"}}.{{pause frames=\"5\"}}.{{pause frames=\"5\"}} es un regalito.",
      "EUfr": "{{resetReaction}}Impressionnant! Il n'y avait\npas de bonne réponse, mais\ntu as bien répondu.\nTu es vraiment gentil{{gender m=\"\" f=\"le\"}},\n{{string value=\"PlayerNickname\"}} et j'adore\nça, {{pause frames=\"5\"}}{{string value=\"Catchphrase\"}}.\nÇa me rend {{reaction type=\"Happiness\"}}vraiment\nheureuse. Je suis contente\nd'avoir des ami{{gender m=\"s\" f=\"es\"}} sur qui je\npeux compter. Tiens. Ce\nn'est pas grand-chose,\nmais{{pause frames=\"5\"}}.{{pause frames=\"5\"}}.{{pause frames=\"5\"}}.{{pause frames=\"5\"}} c'est pour toi.",
      "EUit": "{{resetReaction}}Impressionante! In effetti\nnon c'è una risposta esatta\nperò hai dato quella giusta.\nSei molto dolce,\n{{string value=\"PlayerNickname\"}}, e io\nl'apprezzo, {{pause frames=\"5\"}}{{string value=\"Catchphrase\"}}.\nMi rende {{reaction type=\"Happiness\"}}davvero\nfelice. Sono contenta di\navere amici su cui contare.\nEcco. Niente di speciale,\nma{{pause frames=\"5\"}}.{{pause frames=\"5\"}}.{{pause frames=\"5\"}}.{{pause frames=\"5\"}} è per te.",
      "JPja": "{{resetReaction}}{{kanjiReplace charNum=\"1\" value=\"こた\"}}答えにくい　しつもんに\nしんけんに　{{kanjiReplace charNum=\"1\" value=\"こた\"}}答えていただいて\nありがとうございました\n{{string value=\"PlayerNickname\"}}さんの\nあたたかい{{kanjiReplace charNum=\"2\" value=\"きも\"}}気持ちが\n{{kanjiReplace charNum=\"1\" value=\"つた\"}}伝わってくるようで、\n{{reaction type=\"Happiness\"}}わたし、{{pause frames=\"5\"}}{{kanjiReplace charNum=\"1\" value=\"おも\"}}思わず\n{{kanjiReplace charNum=\"2\" value=\"かんどう\"}}感動です、{{pause frames=\"5\"}}{{string value=\"Catchphrase\"}}！\n\nこんな{{kanjiReplace charNum=\"1\" value=\"もの\"}}物で　よければ\n{{kanjiReplace charNum=\"1\" value=\"う\"}}受け{{kanjiReplace charNum=\"1\" value=\"と\"}}取ってください{{pause frames=\"20\"}}\nほんの　{{kanjiReplace charNum=\"2\" value=\"きも\"}}気持ちです！",
      "KRko": "{{resetReaction}}대답하기 어려운 질문에\n성심성의껏 답변해 주셔서\n고맙습니다\n{{string value=\"PlayerNickname\"}}님의\n따뜻한 마음이\n전달되는 것 같아\n{{reaction type=\"Happiness\"}}저도 {{pause frames=\"5\"}}모르게 그만\n감동먹었어요！ {{pause frames=\"5\"}}{{string value=\"Catchphrase\"}}\n\n별 건 아니지만\n이걸 받아 주세요{{pause frames=\"20\"}}\n제 작은 마음이에요！！",
      "USen": "{{resetReaction}}I'm impressed! There really\nwas no right answer, but\nyou answered well.\nYou really are sweet,\n{{string value=\"PlayerNickname\"}}, and I\nappreciate it, {{pause frames=\"5\"}}{{string value=\"Catchphrase\"}}.\nThat makes me {{reaction type=\"Happiness\"}}really\nhappy. I'm glad I've got\nfriends I can count on.\nHere. It's nothing special,\nbut{{pause frames=\"5\"}}.{{pause frames=\"5\"}}.{{pause frames=\"5\"}}.{{pause frames=\"5\"}}I want you to have it."
    }
  },
  {
    "label": "13",
    "attribute": "0x00000000FE000000",
    "locale": {
      "EUde": "{{resetReaction}}.{{pause frames=\"5\"}}.{{pause frames=\"5\"}}.{{pause frames=\"5\"}}{{reaction type=\"Worry\"}}Ich sehe schon, was los\nist, {{pause frames=\"5\"}}{{string value=\"Catchphrase\"}}.\n\nIch dachte, von allen Leuten\nverstündest du mich am \nehesten, {{string value=\"PlayerNickname\"}}!\nAber ich glaube, ich habe\n{{pause frames=\"5\"}}{{reaction type=\"Sadness\"}}meinen Freunden zu viel\nzugetraut.{{pause frames=\"5\"}}.{{pause frames=\"5\"}}.{{pause frames=\"5\"}} {{string value=\"Catchphrase\"}}.",
      "EUen": "{{resetReaction}}.{{pause frames=\"5\"}}.{{pause frames=\"5\"}}.{{pause frames=\"5\"}}{{reaction type=\"Worry\"}}I see how it is with you,\n{{pause frames=\"5\"}}{{string value=\"Catchphrase\"}}.\n\nI thought you, out of\neveryone in town, could\nunderstand me, {{string value=\"PlayerNickname\"}}!\nBut I guess I was just{{pause frames=\"5\"}}\n{{reaction type=\"Sadness\"}}hoping for too much from\nmy friends.{{pause frames=\"5\"}}.{{pause frames=\"5\"}}.{{pause frames=\"5\"}}{{string value=\"Catchphrase\"}}.",
      "EUes": "{{resetReaction}}Mm.{{pause frames=\"5\"}}.{{pause frames=\"5\"}}.{{pause frames=\"5\"}}{{reaction type=\"Worry\"}} Ya veo por dónde\nvas, {{pause frames=\"5\"}}{{string value=\"Catchphrase\"}}.\n\n¡Pensaba que tú podrías\nentenderme más que nadie\nen el pueblo, {{string value=\"PlayerNickname\"}}!\nPero supongo que exijo{{pause frames=\"5\"}}\n{{reaction type=\"Sadness\"}}demasiado a mis amig{{gender m=\"o\" f=\"a\"}}s.{{pause frames=\"5\"}}.{{pause frames=\"5\"}}.{{pause frames=\"5\"}}\n",
      "EUfr": "{{resetReaction}}.{{pause frames=\"5\"}}.{{pause frames=\"5\"}}.{{pause frames=\"5\"}}{{reaction type=\"Worry\"}} Ah, c'est comme ça,\n{{pause frames=\"5\"}}{{string value=\"Catchphrase\"}}.\n\nJe pensais que tu me\ncomprenais mieux que\npersonne, {{string value=\"PlayerNickname\"}}!\nMais je dois {{pause frames=\"5\"}}{{reaction type=\"Sadness\"}}en attendre\ntrop de mes amis.{{pause frames=\"5\"}}.{{pause frames=\"5\"}}.{{pause frames=\"5\"}}\n{{string value=\"Catchphrase\"}}.",
      "EUit": "{{resetReaction}}.{{pause frames=\"5\"}}.{{pause frames=\"5\"}}.{{pause frames=\"5\"}}{{reaction type=\"Worry\"}} Oh, ho capito come sei,\n{{pause frames=\"5\"}}{{string value=\"Catchphrase\"}}.\n\nPensavo che in questa città\nsolo tu potessi\ncapirmi, {{string value=\"PlayerNickname\"}}!\nMa credo che le{{pause frames=\"5\"}}\n{{reaction type=\"Sadness\"}}mie aspettative fossero\ntroppo alte.{{pause frames=\"5\"}}.{{pause frames=\"5\"}}.{{pause frames=\"5\"}} {{string value=\"Catchphrase\"}}.",
      "JPja": "{{resetReaction}}・{{pause frames=\"5\"}}・{{pause frames=\"5\"}}・{{pause frames=\"5\"}}{{reaction type=\"Worry\"}}そうですか、{{pause frames=\"5\"}}{{string value=\"Catchphrase\"}}\n\n\n{{string value=\"PlayerNickname\"}}さんなら\nわたしの　ビミョーな{{kanjiReplace charNum=\"2\" value=\"きも\"}}気持ちを\n{{kanjiReplace charNum=\"1\" value=\"わ\"}}分かってくださる{{pause frames=\"5\"}}・{{pause frames=\"5\"}}・{{pause frames=\"5\"}}・{{pause frames=\"5\"}}\nそう　{{kanjiReplace charNum=\"1\" value=\"おも\"}}思っていたのですが、{{pause frames=\"15\"}}\n{{reaction type=\"Sadness\"}}やっぱり　ビミョー\nすぎますよね・{{pause frames=\"5\"}}・{{pause frames=\"5\"}}・{{pause frames=\"5\"}}{{string value=\"Catchphrase\"}}",
      "KRko": "{{resetReaction}}・{{pause frames=\"5\"}}・{{pause frames=\"5\"}}・{{pause frames=\"5\"}}{{reaction type=\"Worry\"}}그렇군요 {{pause frames=\"5\"}}{{string value=\"Catchphrase\"}}\n\n\n{{string value=\"PlayerNickname\"}}님이라면\n제 애매한 기분을\n알아주실 줄{{pause frames=\"5\"}}・{{pause frames=\"5\"}}・{{pause frames=\"5\"}}・{{pause frames=\"5\"}}\n알았는데{{pause frames=\"15\"}}\n{{reaction type=\"Sadness\"}}역시 너무\n애매했어요・{{pause frames=\"5\"}}・{{pause frames=\"5\"}}・{{pause frames=\"5\"}} {{string value=\"Catchphrase\"}}",
      "USen": "{{resetReaction}}.{{pause frames=\"5\"}}.{{pause frames=\"5\"}}.{{pause frames=\"5\"}}{{reaction type=\"Worry\"}}I see how it is with you,\n{{pause frames=\"5\"}}{{string value=\"Catchphrase\"}}.\n\nI thought you, out of\neveryone in town, could\nunderstand me, {{string value=\"PlayerNickname\"}}!\nBut I guess I was just{{pause frames=\"5\"}}\n{{reaction type=\"Sadness\"}}hoping for too much from\nmy friends.{{pause frames=\"5\"}}.{{pause frames=\"5\"}}.{{pause frames=\"5\"}}{{string value=\"Catchphrase\"}}."
    }
  },
  {
    "label": "14",
    "attribute": "0x00000000FE000000",
    "locale": {
      "EUde": "{{fun_06 arg=\"0x1011\"}}",
      "EUen": "{{fun_06 arg=\"0x1011\"}}",
      "EUes": "{{fun_06 arg=\"0x1011\"}}",
      "EUfr": "{{fun_06 arg=\"0x1011\"}}",
      "EUit": "{{fun_06 arg=\"0x1011\"}}",
      "JPja": "{{fun_06 arg=\"0x1011\"}}",
      "KRko": "{{fun_06 arg=\"0x1011\"}}",
      "USen": "{{fun_06 arg=\"0x1011\"}}"
    }
  },
  {
    "label": "15",
    "attribute": "0x00000000FE000000",
    "locale": {
      "EUde": "{{fun_06 arg=\"0x121313\"}}",
      "EUen": "{{fun_06 arg=\"0x121313\"}}",
      "EUes": "{{fun_06 arg=\"0x121313\"}}",
      "EUfr": "{{fun_06 arg=\"0x121313\"}}",
      "EUit": "{{fun_06 arg=\"0x121313\"}}",
      "JPja": "{{fun_06 arg=\"0x121313\"}}",
      "KRko": "{{fun_06 arg=\"0x12131300\"}}",
      "USen": "{{fun_06 arg=\"0x121313\"}}"
    }
  },
  {
    "label": "16",
    "attribute": "0x00000000FE000000",
    "locale": {
      "EUde": "{{reaction type=\"Amazed\"}}Es ist also deins?{{pause frames=\"15\"}}\nSeeehr interessant. Da ist\nnämlich ein Name drauf.\n{{resetReaction}}Er steht auf der Unter-\nseite: \"{{string value=\"GossipVillager3\"}}.\"\n\n{{reaction type=\"Amazed\"}}Das ist doch nicht dein\nName, oder, {{pause frames=\"5\"}}{{string value=\"Catchphrase\"}}?\n{{reaction type=\"Worry\"}}Warum lügst du mich an?\n{{reaction type=\"Distress\"}}Das wars. Ich kann jetzt\nnicht mit dir reden. Ich bin\nzu verstört, {{pause frames=\"5\"}}{{string value=\"Catchphrase\"}}!",
      "EUen": "{{reaction type=\"Amazed\"}}So, it's yours, is it?{{pause frames=\"15\"}}\nVerrry interesting. Because\nthere's a name on it.\n{{resetReaction}}It's written right on the\nbottom: \"{{string value=\"GossipVillager3\"}}.\"\n\n{{reaction type=\"Amazed\"}}That's not your name at\nall, is it, {{pause frames=\"5\"}}{{string value=\"Catchphrase\"}}?\n{{reaction type=\"Worry\"}}Why would you lie to me?\n{{reaction type=\"Distress\"}}That's it. I can't talk\nto you right now. I'm too\ncreeped out, {{pause frames=\"5\"}}{{string value=\"Catchphrase\"}}!",
      "EUes": "{{reaction type=\"Amazed\"}}¿Así que esto es tuyo?{{pause frames=\"15\"}}\nMuy interesante. Porque hay\nuna etiqueta con un nombre.\n{{resetReaction}}Justo debajo.\nPone: \"{{string value=\"GossipVillager3\"}}\".\n\n{{reaction type=\"Amazed\"}}Y tú no te llamas así,\n¿verdad, {{pause frames=\"5\"}}{{string value=\"Catchphrase\"}}?\n{{reaction type=\"Worry\"}}¿Por qué me has mentido?\n{{reaction type=\"Distress\"}}Me voy. No puedo seguir\nhablando contigo. ¡Estoy muy\ndisgustada, {{pause frames=\"5\"}}{{string value=\"Catchphrase\"}}!",
      "EUfr": "{{reaction type=\"Amazed\"}}Donc c'est à toi, hein?{{pause frames=\"15\"}}\nTrrrès intéressant. Parce\nqu'il y a un nom dessus.\n{{resetReaction}}Il est écrit juste\nen dessous: \"{{string value=\"GossipVillager3\"}}.\"\n\n{{reaction type=\"Amazed\"}}Tu ne t'appelles pas du tout\ncomme ça, n'est-ce pas,\n{{pause frames=\"5\"}}{{string value=\"Catchphrase\"}}?\n{{reaction type=\"Worry\"}}Pourquoi tu me mens?\n{{reaction type=\"Distress\"}}C'est bon. J'arrête de te\nparler.\nJe suis vraiment déçue,\n{{pause frames=\"5\"}}{{string value=\"Catchphrase\"}}!",
      "EUit": "{{reaction type=\"Amazed\"}}Ah, è roba tua, eh?{{pause frames=\"15\"}}\nInteressante. Perché sopra\nc'è scritto il nome.\n{{resetReaction}}E il nome\nè: \"{{string value=\"GossipVillager3\"}}\".\n\n{{reaction type=\"Amazed\"}}E tu non ti chiami\ncosì, {{pause frames=\"5\"}}{{string value=\"Catchphrase\"}}!\n{{reaction type=\"Worry\"}}Perché dici le bugie?\n{{reaction type=\"Distress\"}}Ecco. Non voglio più\nparlarti. Sono troppo\nsconcertata, {{pause frames=\"5\"}}{{string value=\"Catchphrase\"}}!",
      "JPja": "{{reaction type=\"Amazed\"}}あら？{{pause frames=\"15\"}}\nでも　よくよく{{kanjiReplace charNum=\"1\" value=\"み\"}}見たら\n{{kanjiReplace charNum=\"2\" value=\"なまえ\"}}名前が　{{kanjiReplace charNum=\"1\" value=\"か\"}}書いてます\n{{resetReaction}}えぇっと{{pause frames=\"15\"}}\n{{string value=\"GossipVillager3\"}}{{pause frames=\"5\"}}・{{pause frames=\"5\"}}・{{pause frames=\"5\"}}・{{pause frames=\"5\"}}\n{{reaction type=\"Amazed\"}}ですって、{{pause frames=\"5\"}}{{string value=\"Catchphrase\"}}\n{{reaction type=\"Worry\"}}{{string value=\"PlayerNickname\"}}さんのじゃ\nなかったみたいですね\n\n{{reaction type=\"Distress\"}}{{kanjiReplace charNum=\"1\" value=\"はや\"}}早とちりしちゃって\nどうも　すみませんでした！\n{{pause frames=\"5\"}}{{string value=\"Catchphrase\"}}！",
      "KRko": "{{reaction type=\"Amazed\"}}어머？{{pause frames=\"15\"}}\n그런데 자세히 보니\n이름이 적혀 있네요\n{{resetReaction}}으음{{pause frames=\"15\"}}\n{{string value=\"GossipVillager3\"}}{{pause frames=\"5\"}}・{{pause frames=\"5\"}}・{{pause frames=\"5\"}}・{{pause frames=\"5\"}}\n{{reaction type=\"Amazed\"}}{{fun_0B arg=\"0x0500\"}}래요， {{pause frames=\"5\"}}{{string value=\"Catchphrase\"}}\n{{reaction type=\"Worry\"}}{{string value=\"PlayerNickname\"}}님 것이\n아니었나 봐요\n\n{{reaction type=\"Distress\"}}제 성격이 너무 급해서\n정말 죄송합니다！\n{{pause frames=\"5\"}}{{string value=\"Catchphrase\"}}！",
      "USen": "{{reaction type=\"Amazed\"}}So, it's yours, is it?{{pause frames=\"15\"}}\nVerrry interesting. Because\nthere's a name on it.\n{{resetReaction}}It's written right on the\nbottom: \"{{string value=\"GossipVillager3\"}}.\"\n\n{{reaction type=\"Amazed\"}}That's not your name at\nall, is it, {{pause frames=\"5\"}}{{string value=\"Catchphrase\"}}?\n{{reaction type=\"Worry\"}}Why would you lie to me?\n{{reaction type=\"Distress\"}}That's it. I can't talk\nto you right now. I'm too\ncreeped out, {{pause frames=\"5\"}}{{string value=\"Catchphrase\"}}!"
    }
  },
  {
    "label": "17",
    "attribute": "0x0000000114000000",
    "locale": {
      "EUde": "{{reaction type=\"Amazed\"}}Ah!{{pause frames=\"5\"}} Dachte ich mir! Es sah\naus wie etwas, das dir ge-\nhören könnte. {{pause frames=\"15\"}}{{reaction type=\"Happiness\"}}Hier, bitte.",
      "EUen": "{{reaction type=\"Amazed\"}}Ah!{{pause frames=\"5\"}} I thought so! It looked\nlike something you'd have\naround. {{pause frames=\"15\"}}{{reaction type=\"Happiness\"}}Here it is.",
      "EUes": "{{reaction type=\"Amazed\"}}¡Ah!{{pause frames=\"5\"}} ¡Eso pensaba! Sí que\nparece algo tuyo. {{pause frames=\"15\"}}{{reaction type=\"Happiness\"}}Toma.",
      "EUfr": "{{reaction type=\"Amazed\"}}Ah!{{pause frames=\"5\"}} C'est ce que je pensais!\nTu es bien le genre de\npersonne à avoir ça. {{pause frames=\"15\"}}{{reaction type=\"Happiness\"}}Tiens.",
      "EUit": "{{reaction type=\"Amazed\"}}Ah!{{pause frames=\"5\"}} Mi pareva! Sembra\nproprio roba tua.\nEcco {{pause frames=\"15\"}}{{reaction type=\"Happiness\"}}a te!",
      "JPja": "{{reaction type=\"Amazed\"}}まあ！{{pause frames=\"5\"}}\nやっぱりそうでしたか{{pause frames=\"15\"}}\n{{reaction type=\"Happiness\"}}では、{{kanjiReplace charNum=\"1\" value=\"う\"}}受け{{kanjiReplace charNum=\"1\" value=\"と\"}}取ってください",
      "KRko": "{{reaction type=\"Amazed\"}}와！{{pause frames=\"5\"}}\n역시 그랬군요{{pause frames=\"15\"}}\n{{reaction type=\"Happiness\"}}자요， 여기 있어요",
      "USen": "{{reaction type=\"Amazed\"}}Ah!{{pause frames=\"5\"}} I thought so! It looked\nlike something you'd have\naround. {{pause frames=\"15\"}}{{reaction type=\"Happiness\"}}Here it is."
    }
  },
  {
    "label": "18",
    "attribute": "0x00000000FE000000",
    "locale": {
      "EUde": "{{reaction type=\"Worry\"}}Es ist nicht deins?{{pause frames=\"15\"}} Aber{{pause frames=\"5\"}}{{reaction type=\"Curiosity\"}}\nwem könnte es gehören?\n\n{{reaction type=\"Inspiration\"}}Du glaubst doch nicht, dass\n{{string value=\"GossipVillager3\"}} es verloren\nhaben könnte, oder?\n{{reaction type=\"Agreement\"}}Manche Leute würden ihren\nKopf verlieren, wenn der\nnicht angewachsen wäre.",
      "EUen": "{{reaction type=\"Worry\"}}It's not yours?{{pause frames=\"15\"}} But {{pause frames=\"5\"}}{{reaction type=\"Curiosity\"}}whose\ncould it be?\n\n{{reaction type=\"Inspiration\"}}You don't suppose it\nbelongs to old {{string value=\"GossipVillager3\"}},\ndo you?\n{{reaction type=\"Agreement\"}}I swear, some people would\nforget their heads if they\nweren't stapled on.",
      "EUes": "{{reaction type=\"Worry\"}}¿No es tuyo?{{pause frames=\"15\"}} ¿Y{{pause frames=\"5\"}}{{reaction type=\"Curiosity\"}} de quién\nserá?\n\n{{reaction type=\"Inspiration\"}}¿No será de {{string value=\"GossipVillager3\"}},\nverdad?\n\n{{reaction type=\"Agreement\"}}De verdad, hay gente que\nperdería la cabeza si no la\ntuviera bien pegadita.",
      "EUfr": "{{reaction type=\"Worry\"}}Ce n'est pas à toi?{{pause frames=\"15\"}} Mais {{pause frames=\"5\"}}{{reaction type=\"Curiosity\"}}à\nqui ça peut être alors?\n\n{{reaction type=\"Inspiration\"}}Tu crois que ça appartient\nà {{string value=\"GossipVillager3\"}}?\n\n{{reaction type=\"Agreement\"}}Je me dis que certains\npourraient oublier leur tête\nparfois.",
      "EUit": "{{reaction type=\"Worry\"}}Non è roba tua?{{pause frames=\"15\"}} Ma {{pause frames=\"5\"}}{{reaction type=\"Curiosity\"}}allora\ndi chi è?\n\n{{reaction type=\"Inspiration\"}}Non dirmi che è\ndi {{string value=\"GossipVillager3\"}}!\nÈ così?\n{{reaction type=\"Agreement\"}}Certa gente perderebbe\nanche la testa se non fosse\nattaccata al collo!",
      "JPja": "{{reaction type=\"Worry\"}}あら、{{pause frames=\"10\"}}そうなのですか？{{pause frames=\"15\"}}\n{{reaction type=\"Curiosity\"}}だったら　{{kanjiReplace charNum=\"1\" value=\"だれ\"}}誰の\n{{kanjiReplace charNum=\"1\" value=\"お\"}}落とし{{kanjiReplace charNum=\"1\" value=\"もの\"}}物なのかしら{{pause frames=\"5\"}}・{{pause frames=\"5\"}}・{{pause frames=\"5\"}}・\n{{reaction type=\"Inspiration\"}}ひょっとしたら\n{{string value=\"GossipVillager3\"}}さんのかも{{pause frames=\"3\"}}・{{pause frames=\"3\"}}・{{pause frames=\"3\"}}・\n\n{{reaction type=\"Agreement\"}}あの{{kanjiReplace charNum=\"1\" value=\"ひと\"}}人、{{pause frames=\"10\"}}ちょっと\nうっかりしたところが\nありますからね、{{pause frames=\"5\"}}{{string value=\"Catchphrase\"}}",
      "KRko": "{{reaction type=\"Worry\"}}어머， {{pause frames=\"10\"}}그래요？{{pause frames=\"15\"}}\n{{reaction type=\"Curiosity\"}}그럼 누가\n흘린 물건일까요？{{pause frames=\"5\"}}・{{pause frames=\"5\"}}・{{pause frames=\"5\"}}・\n{{reaction type=\"Inspiration\"}}어쩌면 {{string value=\"GossipVillager3\"}}님\n것일지도 모르겠네요{{pause frames=\"3\"}}・{{pause frames=\"3\"}}・{{pause frames=\"3\"}}・\n\n{{reaction type=\"Agreement\"}}그분， {{pause frames=\"10\"}}가끔\n깜빡하는 경향이\n있더라구요！ {{pause frames=\"5\"}}{{string value=\"Catchphrase\"}}",
      "USen": "{{reaction type=\"Worry\"}}It's not yours?{{pause frames=\"15\"}} But {{pause frames=\"5\"}}{{reaction type=\"Curiosity\"}}whose\ncould it be?\n\n{{reaction type=\"Inspiration\"}}You don't suppose it\nbelongs to old {{string value=\"GossipVillager3\"}},\ndo you?\n{{reaction type=\"Agreement\"}}I swear, some people would\nforget their heads if they\nweren't stapled on."
    }
  },
  {
    "label": "19",
    "attribute": "0x0000000114000000",
    "locale": {
      "EUde": "{{reaction type=\"Happiness\"}}Ich bin sicher, es ist deins.\nEs muss dir versehentlich\nruntergefallen sein.\nDas ist genau die Sache, die\nich mir in deinem Haus vor-\nstellen könnte, {{string value=\"PlayerNickname\"}}.\n{{resetReaction}}Bitte, nimm es. Keine\nweitere Diskussion mehr,\n{{pause frames=\"5\"}}{{string value=\"Catchphrase\"}}!",
      "EUen": "{{reaction type=\"Happiness\"}}No, I'm sure it's yours. You\nmust have dropped it\nwithout noticing.\nThis is exactly the sort of\nthing I'd picture in your\nhouse, {{string value=\"PlayerNickname\"}}.\n{{resetReaction}}Please, take it. I won't\nhear another word on the\nsubject, {{pause frames=\"5\"}}{{string value=\"Catchphrase\"}}!",
      "EUes": "{{reaction type=\"Happiness\"}}No, estoy segura de que\nesto es tuyo. Seguro que se\nte cayó y no te enteraste.\nEs una cosa que encajaría\nperfectamente en tu\ncasa, {{string value=\"PlayerNickname\"}}.\n{{resetReaction}}Por favor, cógela.\n¡Y no quiero oír ni una\npalabra más, {{pause frames=\"5\"}}{{string value=\"Catchphrase\"}}!",
      "EUfr": "{{reaction type=\"Happiness\"}}Non, je suis sûre que c'est\nà toi. Tu as dû le laisser\ntomber sans faire exprès.\nC'est exactement le genre\nde choses que je verrais\nbien chez toi, {{string value=\"PlayerNickname\"}}.\n{{resetReaction}}Allez, prends. Et pas de\ndiscussion, {{pause frames=\"5\"}}{{string value=\"Catchphrase\"}}!",
      "EUit": "{{reaction type=\"Happiness\"}}No, sono sicura che è roba\ntua. Ti è caduta e non te\nne sei accort{{gender m=\"o\" f=\"a\"}}.\nÈ proprio il tipo di cose\nche si addicono a te e a\ncasa tua, {{string value=\"PlayerNickname\"}}.\n{{resetReaction}}Prendi, coraggio!\nNon accetto altri\nNO, {{pause frames=\"5\"}}{{string value=\"Catchphrase\"}}!",
      "JPja": "{{reaction type=\"Happiness\"}}ふふふ、{{pause frames=\"15\"}}きっと\n{{kanjiReplace charNum=\"1\" value=\"お\"}}落として　そのまま\n{{kanjiReplace charNum=\"1\" value=\"わす\"}}忘れてしまったんでしょう？\nこういうのが　{{kanjiReplace charNum=\"1\" value=\"す\"}}好きなのは\n{{string value=\"PlayerNickname\"}}さんだって\n{{kanjiReplace charNum=\"1\" value=\"わ\"}}分かってるんですよ、{{pause frames=\"5\"}}{{string value=\"Catchphrase\"}}\n{{resetReaction}}{{kanjiReplace charNum=\"1\" value=\"なに\"}}何も　{{kanjiReplace charNum=\"1\" value=\"い\"}}言わないで\n{{kanjiReplace charNum=\"1\" value=\"う\"}}受け{{kanjiReplace charNum=\"1\" value=\"と\"}}取ってください、{{pause frames=\"5\"}}{{string value=\"Catchphrase\"}}",
      "KRko": "{{reaction type=\"Happiness\"}}헤헤헤， {{pause frames=\"15\"}}분명히\n잃어버린 다음에\n계속 까먹고 계셨죠？\n그럴 사람은\n{{string value=\"PlayerNickname\"}}님 밖에 없다는 거\n알고 있어요， {{pause frames=\"5\"}}{{string value=\"Catchphrase\"}}\n{{resetReaction}}아무 말 마시고 부디\n받아 주세요， {{pause frames=\"5\"}}{{string value=\"Catchphrase\"}}",
      "USen": "{{reaction type=\"Happiness\"}}No, I'm sure it's yours. You\nmust have dropped it\nwithout noticing.\nThis is exactly the sort of\nthing I'd picture in your\nhouse, {{string value=\"PlayerNickname\"}}.\n{{resetReaction}}Please, take it. I won't\nhear another word on the\nsubject, {{pause frames=\"5\"}}{{string value=\"Catchphrase\"}}!"
    }
  },
  {
    "label": "20",
    "attribute": "0x00000000FF000000",
    "locale": {
      "EUde": "{{fun_06 arg=\"0x08090A\"}}",
      "EUen": "{{fun_06 arg=\"0x08090A\"}}",
      "EUes": "{{fun_06 arg=\"0x08090A\"}}",
      "EUfr": "{{fun_06 arg=\"0x08090A\"}}",
      "EUit": "{{fun_06 arg=\"0x08090A\"}}",
      "JPja": "{{fun_06 arg=\"0x08090A\"}}",
      "KRko": "{{fun_06 arg=\"0x08090A00\"}}",
      "USen": "{{fun_06 arg=\"0x08090A\"}}"
    }
  }
]