[
  {
    "label": "0",
    "attribute": "0x00000000FE000000",
    "locale": {
      "EUde": "{{resetReaction}}Ha ha!{{pause frames=\"5\"}} Ein schönes Stück,\noder, {{pause frames=\"5\"}}{{string value=\"Catchphrase\"}}!\n\n{{reaction type=\"Happiness\"}}Leider ist dieses Teil\nabsolut unverkäuflich!",
      "EUen": "{{resetReaction}}Har har!{{pause frames=\"5\"}} That's a really\nnice piece, {{pause frames=\"5\"}}{{string value=\"Catchphrase\"}}!\n\n{{reaction type=\"Happiness\"}}And I wasn't planning on\nselling it, either!",
      "EUes": "{{resetReaction}}¡Jar, jar!{{pause frames=\"5\"}} ¡Buena elección,\n{{pause frames=\"5\"}}{{string value=\"Catchphrase\"}}!\n\n{{reaction type=\"Happiness\"}}¡Fíjate que tampoco tengo\npensado deshacerme de ese\nmueble!",
      "EUfr": "{{resetReaction}}Ha, ha!{{pause frames=\"5\"}} C'est vraiment une\nbelle pièce, {{pause frames=\"5\"}}{{string value=\"Catchphrase\"}}!\n\n{{reaction type=\"Happiness\"}}Et je ne comptais pas\nla vendre, en fait!",
      "EUit": "{{resetReaction}}Ah ah!{{pause frames=\"5\"}} Eh, sì, quello è\nproprio un bell'oggettino,\n{{pause frames=\"5\"}}{{string value=\"Catchphrase\"}}!\n{{reaction type=\"Happiness\"}}E non ho alcuna\nintenzione di venderlo!",
      "JPja": "{{resetReaction}}ヘヘッ、{{pause frames=\"5\"}}\nそいつは　なかなか\nいいモンだろ、{{pause frames=\"5\"}}{{string value=\"Catchphrase\"}}\n{{reaction type=\"Happiness\"}}{{kanjiReplace charNum=\"1\" value=\"いま\"}}今んとこ　{{kanjiReplace charNum=\"1\" value=\"だれ\"}}誰にも\n{{kanjiReplace charNum=\"1\" value=\"う\"}}売る{{kanjiReplace charNum=\"1\" value=\"き\"}}気は　ねぇよ！",
      "KRko": "{{resetReaction}}헤헷{{pause frames=\"5\"}}\n그거 완전\n끝내주지， {{pause frames=\"5\"}}{{string value=\"Catchphrase\"}}\n{{reaction type=\"Happiness\"}}지금은 누구한테두\n팔 생각 없어！",
      "USen": "{{resetReaction}}Har har!{{pause frames=\"5\"}} That's a really\nnice piece, {{pause frames=\"5\"}}{{string value=\"Catchphrase\"}}!\n\n{{reaction type=\"Happiness\"}}And I wasn't planning on\nselling it, either!"
    }
  },
  {
    "label": "1",
    "attribute": "0x00000000FE000000",
    "locale": {
      "EUde": "{{reaction type=\"Amazed\"}}Du kennst dich wirklich aus,\n{{pause frames=\"5\"}}{{string value=\"Catchphrase\"}}! Das ist eine\nfantastische Auswahl.\n{{reaction type=\"Annoyed\"}}Dieses Teil sieht zwar nicht\nnach viel aus{{pause frames=\"5\"}}.{{pause frames=\"5\"}}.{{pause frames=\"5\"}}.{{pause frames=\"5\"}} {{resetReaction}}ist aber\nabsolut großartig!",
      "EUen": "{{reaction type=\"Amazed\"}}You really know your stuff,\n{{pause frames=\"5\"}}{{string value=\"Catchphrase\"}}! That's a great\nchoice right there.\n{{reaction type=\"Annoyed\"}}Even though it doesn't look\nlike much{{pause frames=\"5\"}}.{{pause frames=\"5\"}}.{{pause frames=\"5\"}}.{{pause frames=\"5\"}} {{resetReaction}}It's great, I\ntells ya! Great!",
      "EUes": "{{reaction type=\"Amazed\"}}¡Tienes buen gusto,\n{{pause frames=\"5\"}}{{string value=\"Catchphrase\"}}! Has hecho\nuna buena elección.\n{{reaction type=\"Annoyed\"}}Aunque tampoco es que\nsea muy{{pause frames=\"5\"}}.{{pause frames=\"5\"}}.{{pause frames=\"5\"}}.{{pause frames=\"5\"}} {{resetReaction}}¡Es genial, sabes!\n¡Genial!",
      "EUfr": "{{reaction type=\"Amazed\"}}Tu t'y connais,\n{{pause frames=\"5\"}}{{string value=\"Catchphrase\"}}! C'est un sacré\nbon choix.\n{{reaction type=\"Annoyed\"}}Même si ça ne paie pas de\nmine{{pause frames=\"5\"}}.{{pause frames=\"5\"}}.{{pause frames=\"5\"}}.{{pause frames=\"5\"}} {{resetReaction}}c'est vraiment pas\nmal! Je t'assure!",
      "EUit": "{{reaction type=\"Amazed\"}}Ma sei un'intendit{{gender m=\"ore\" f=\"rice\"}},\n{{pause frames=\"5\"}}{{string value=\"Catchphrase\"}}! Ottima scelta,\nbravissim{{gender m=\"o\" f=\"a\"}}.\n{{reaction type=\"Annoyed\"}}Anche se non si presenta\nbenissimo{{pause frames=\"5\"}}.{{pause frames=\"5\"}}.{{pause frames=\"5\"}}.{{pause frames=\"5\"}} {{resetReaction}}è un oggetto\nsopraffino, devi credermi!",
      "JPja": "{{reaction type=\"Amazed\"}}おめぇ、{{pause frames=\"5\"}}{{kanjiReplace charNum=\"2\" value=\"いがい\"}}意外と\nスミに{{kanjiReplace charNum=\"1\" value=\"お\"}}置けねぇ\n{{kanjiReplace charNum=\"2\" value=\"めき\"}}目利きだな、{{pause frames=\"5\"}}{{string value=\"Catchphrase\"}}！\n{{reaction type=\"Happiness\"}}そいつは　{{kanjiReplace charNum=\"1\" value=\"たし\"}}確かに\nいいもんだぜ！　{{pause frames=\"5\"}}{{string value=\"Catchphrase\"}}！{{pressButton}}\n{{reaction type=\"Mischief\"}}{{kanjiReplace charNum=\"1\" value=\"み\"}}見た{{kanjiReplace charNum=\"1\" value=\"め\"}}目はそうでも　ねぇんだがよ",
      "KRko": "{{reaction type=\"Amazed\"}}너 {{pause frames=\"5\"}}의외로\n물건 보는 눈이\n있구나， {{pause frames=\"5\"}}{{string value=\"Catchphrase\"}}！\n{{reaction type=\"Happiness\"}}그거 굉장히\n좋은 거야！ {{pause frames=\"5\"}}{{string value=\"Catchphrase\"}}！{{pressButton}}\n{{reaction type=\"Mischief\"}}그렇게 보이진 않지만",
      "USen": "{{reaction type=\"Amazed\"}}You really know your stuff,\n{{pause frames=\"5\"}}{{string value=\"Catchphrase\"}}! That's a great\nchoice right there.\n{{reaction type=\"Annoyed\"}}Even though it doesn't look\nlike much{{pause frames=\"5\"}}.{{pause frames=\"5\"}}.{{pause frames=\"5\"}}.{{pause frames=\"5\"}} {{resetReaction}}It's great, I\ntells ya! Great!"
    }
  },
  {
    "label": "2",
    "attribute": "0x00000000FE000000",
    "locale": {
      "EUde": "{{reaction type=\"Curiosity\"}}Ziemlich gut, oder,\n{{pause frames=\"5\"}}{{string value=\"Catchphrase\"}}?\n\nUnsere Geschmäcker sind\nsich ähnlich!{{pause frames=\"10\"}} {{reaction type=\"Happiness\"}}Das heißt,\ndu hast ein Auge für Möbel!",
      "EUen": "{{reaction type=\"Curiosity\"}}Yeah, that one's pretty\ncool, huh, {{pause frames=\"5\"}}{{string value=\"Catchphrase\"}}?\n\nOur taste is pretty\nsimilar!{{pause frames=\"10\"}} {{reaction type=\"Happiness\"}}And that means\nit's good!",
      "EUes": "{{reaction type=\"Curiosity\"}}Sí, ese mola mucho,\n¿eh, {{pause frames=\"5\"}}{{string value=\"Catchphrase\"}}?\n\n¡Tenemos gustos afines!{{pause frames=\"10\"}}\n{{reaction type=\"Happiness\"}}¡Y eso es buena señal!",
      "EUfr": "{{reaction type=\"Curiosity\"}}Eh bah, tu as fait une\nbonne affaire, {{pause frames=\"5\"}}{{string value=\"Catchphrase\"}}?\n\nOn a à peu près les mêmes\ngoûts!{{pause frames=\"10\"}} {{reaction type=\"Happiness\"}}Tu as de la chance!",
      "EUit": "{{reaction type=\"Curiosity\"}}Eh, sì, quell'oggettino è\nbellino forte, eh,\n{{pause frames=\"5\"}}{{string value=\"Catchphrase\"}}?\nAbbiamo dei gusti molto\nsimili noi due!{{pause frames=\"10\"}} {{reaction type=\"Happiness\"}}Il che\nsignifica eccellenti!",
      "JPja": "それ、{{pause frames=\"5\"}}けっこう\n{{reaction type=\"Curiosity\"}}いいだろ、{{pause frames=\"5\"}}{{string value=\"Catchphrase\"}}？\n\nおめぇとは　けっこう\nシュミとか　{{kanjiReplace charNum=\"1\" value=\"あ\"}}合うのかもな、\n{{pause frames=\"5\"}}{{string value=\"Catchphrase\"}}！",
      "KRko": "그거 {{pause frames=\"5\"}}꽤\n{{reaction type=\"Curiosity\"}}좋지， {{pause frames=\"5\"}}{{string value=\"Catchphrase\"}}？\n\n너랑은 취향이\n잘 맞을지도 모르겠다\n{{pause frames=\"5\"}}{{string value=\"Catchphrase\"}}！",
      "USen": "{{reaction type=\"Curiosity\"}}Yeah, that one's pretty\ncool, huh, {{pause frames=\"5\"}}{{string value=\"Catchphrase\"}}?\n\nOur taste is pretty\nsimilar!{{pause frames=\"10\"}} {{reaction type=\"Happiness\"}}And that means\nit's good!"
    }
  }
]