[
  {
    "label": "0",
    "attribute": "0x00000000FF000000",
    "locale": {
      "EUde": "{{reaction type=\"Fearful\"}}Brrr{{pause frames=\"5\"}}.{{pause frames=\"5\"}}.{{pause frames=\"5\"}}. Diese verflixte\nErkältung! {{pause frames=\"5\"}}Ich würde mich\nam liebsten ins Bett legen.\nAber eine echte Erkältung\nwürde mich wenigstens ins\nKrankenhaus bringen!\n{{pause frames=\"5\"}}{{capitalizeLetter}}{{string value=\"Catchphrase\"}}. {{pause frames=\"5\"}}WÜRKS!!!\nBlöde Virenbande! {{pause frames=\"5\"}}Oooh...\n",
      "EUen": "{{reaction type=\"Fearful\"}}Yeck{{pause frames=\"5\"}}.{{pause frames=\"5\"}}.{{pause frames=\"5\"}}. You pathetic\ncold! {{pause frames=\"5\"}}All you could do\nwas make me wanna hurl?\nA real cold woulda put\nme in the hospital,\n{{pause frames=\"5\"}}{{string value=\"Catchphrase\"}}. {{pause frames=\"5\"}}HACKGH!!!\nYou're nothin' but a junior\nvarsity virus! {{pause frames=\"5\"}}Ooooooghh...\n{{vibrateWeak}}HACKGH {{pause frames=\"5\"}}HACKGH {{pause frames=\"5\"}}HACKGH!",
      "EUes": "{{reaction type=\"Fearful\"}}Cof{{pause frames=\"5\"}}.{{pause frames=\"5\"}}.{{pause frames=\"5\"}}. ¡Qué nenaza de\ngripe! {{pause frames=\"5\"}}¿Eso es todo, un poco\nde náuseas y ya está?\nUna gripe de verdad me\nmandaría derechito al\nhospital, {{pause frames=\"5\"}}{{string value=\"Catchphrase\"}}. {{pause frames=\"5\"}}¡COF!\n¡¿Y tú te consideras un\nvirus?! {{pause frames=\"5\"}}No me hagas reír...\n{{vibrateWeak}}¡COF, {{pause frames=\"5\"}}COF, {{pause frames=\"5\"}}COF!",
      "EUfr": "{{reaction type=\"Fearful\"}}Pff{{pause frames=\"5\"}}.{{pause frames=\"5\"}}.{{pause frames=\"5\"}}. un pauvre rhume\nde rien du tout! {{pause frames=\"5\"}}Même pas\nenvie de l'insulter!\nUn vrai rhume m'aurait\nconduit à l'hosto,\n{{pause frames=\"5\"}}{{string value=\"Catchphrase\"}}. {{pause frames=\"5\"}}BRRRR!!!\nC'est rien qu'un petit virus\nde rien du tout! {{pause frames=\"5\"}}Oooooohh...\n{{vibrateWeak}}BRRR {{pause frames=\"5\"}}BRRR{{pause frames=\"5\"}} BRRR!",
      "EUit": "{{reaction type=\"Fearful\"}}Aaah{{pause frames=\"5\"}}.{{pause frames=\"5\"}}.{{pause frames=\"5\"}}. Sei il virus più\npenoso che abbia mai avuto!\n{{pause frames=\"5\"}}Sei riuscito a malapena a\nfarmi starnutire... con un\nraffreddore vero sarei\nfinito in ospedale,\n{{pause frames=\"5\"}}{{string value=\"Catchphrase\"}}. {{pause frames=\"5\"}}AAAGH!!!\nBacillo da strapazzo! {{pause frames=\"5\"}}\nOoogh... {{vibrateWeak}}AAAGH {{pause frames=\"5\"}}AAAGH {{pause frames=\"5\"}}AAAGH!",
      "JPja": "{{reaction type=\"Fearful\"}}ゼー、{{pause frames=\"5\"}}ゼー{{pause frames=\"5\"}}・{{pause frames=\"5\"}}・{{pause frames=\"5\"}}・\nオレは　このまま\nしんじまうのか、{{pause frames=\"5\"}}{{string value=\"Catchphrase\"}}？",
      "KRko": "{{reaction type=\"Fearful\"}}헉， {{pause frames=\"5\"}}헉{{pause frames=\"5\"}}.{{pause frames=\"5\"}}.{{pause frames=\"5\"}}.\n난 이대로\n죽는 걸까， {{pause frames=\"5\"}}{{string value=\"Catchphrase\"}}？",
      "USen": "{{reaction type=\"Fearful\"}}Yeck{{pause frames=\"5\"}}.{{pause frames=\"5\"}}.{{pause frames=\"5\"}}. You pathetic\ncold! {{pause frames=\"5\"}}All you could do\nwas make me wanna hurl?\nA real cold woulda put\nme in the hospital,\n{{pause frames=\"5\"}}{{string value=\"Catchphrase\"}}. {{pause frames=\"5\"}}HACKGH!!!\nYou're nothin' but a junior\nvarsity virus! {{pause frames=\"5\"}}Ooooooghh...\n{{vibrateWeak}}HACKGH {{pause frames=\"5\"}}HACKGH {{pause frames=\"5\"}}HACKGH!"
    }
  },
  {
    "label": "1",
    "attribute": "0x00000000FF000000",
    "locale": {
      "EUde": "{{reaction type=\"Fearful\"}}Du musst{{pause frames=\"5\"}}.{{pause frames=\"5\"}}.{{pause frames=\"5\"}}.{{pause frames=\"5\"}} mir\nhelfen, {{string value=\"PlayerNickname\"}}{{pause frames=\"5\"}}.{{pause frames=\"5\"}}.{{pause frames=\"5\"}}.\n\nIch kriege diese Erkältung\n{{pause frames=\"5\"}}einfach nicht in\nden Griff. {{pause frames=\"5\"}}Oooh...",
      "EUen": "{{reaction type=\"Fearful\"}}It burns{{pause frames=\"5\"}}.{{pause frames=\"5\"}}.{{pause frames=\"5\"}}.{{pause frames=\"5\"}} You gotta\nhelp me, {{string value=\"PlayerNickname\"}}{{pause frames=\"5\"}}.{{pause frames=\"5\"}}.{{pause frames=\"5\"}}.\n\nI tried to fight it with\ninsults, {{pause frames=\"5\"}}but it's not\nworking. {{pause frames=\"5\"}}Ooooggghhh.",
      "EUes": "{{reaction type=\"Fearful\"}}Tengo calor{{pause frames=\"5\"}}.{{pause frames=\"5\"}}.{{pause frames=\"5\"}}.{{pause frames=\"5\"}} Tienes que\nayudarme, {{string value=\"PlayerNickname\"}}{{pause frames=\"5\"}}.{{pause frames=\"5\"}}.{{pause frames=\"5\"}}.\n\nHe intentado combatirlo con\ninsultos, {{pause frames=\"5\"}}pero no funciona.{{pause frames=\"5\"}}\nAaaaaarg.",
      "EUfr": "{{reaction type=\"Fearful\"}}Quelle fièvre{{pause frames=\"5\"}}.{{pause frames=\"5\"}}.{{pause frames=\"5\"}}.{{pause frames=\"5\"}} il faut que\ntu m'aides, {{string value=\"PlayerNickname\"}}{{pause frames=\"5\"}}.{{pause frames=\"5\"}}.{{pause frames=\"5\"}}.\n\nJ'ai déjà essayé les\ninsultes, {{pause frames=\"5\"}}mais ça ne\nmarche pas. {{pause frames=\"5\"}}Oooohhh.",
      "EUit": "{{reaction type=\"Fearful\"}}Brucia{{pause frames=\"5\"}}.{{pause frames=\"5\"}}.{{pause frames=\"5\"}}.{{pause frames=\"5\"}} Devi aiutarmi,\n{{string value=\"PlayerNickname\"}}{{pause frames=\"5\"}}.{{pause frames=\"5\"}}.{{pause frames=\"5\"}}.\nHo tentato di lottare\ncontro il bruciore\nimprecando, {{pause frames=\"5\"}}ma non\nfunziona. {{pause frames=\"5\"}}Oooggghhh.",
      "JPja": "{{reaction type=\"Fearful\"}}く、{{pause frames=\"5\"}}くるしい・{{pause frames=\"5\"}}・{{pause frames=\"5\"}}・{{pause frames=\"5\"}}\nなんとかしてくれ\n{{string value=\"PlayerNickname\"}}{{pause frames=\"5\"}}・{{pause frames=\"5\"}}・{{pause frames=\"5\"}}・",
      "KRko": "{{reaction type=\"Fearful\"}}괴， {{pause frames=\"5\"}}괴로워.{{pause frames=\"5\"}}.{{pause frames=\"5\"}}.{{pause frames=\"5\"}}\n어떻게 좀 해봐\n{{string value=\"PlayerNickname\"}}{{pause frames=\"5\"}}.{{pause frames=\"5\"}}.{{pause frames=\"5\"}}.",
      "USen": "{{reaction type=\"Fearful\"}}It burns{{pause frames=\"5\"}}.{{pause frames=\"5\"}}.{{pause frames=\"5\"}}.{{pause frames=\"5\"}} You gotta\nhelp me, {{string value=\"PlayerNickname\"}}{{pause frames=\"5\"}}.{{pause frames=\"5\"}}.{{pause frames=\"5\"}}.\n\nI tried to fight it with\ninsults, {{pause frames=\"5\"}}but it's not\nworking. {{pause frames=\"5\"}}Ooooggghhh."
    }
  },
  {
    "label": "2",
    "attribute": "0x00000000FF000000",
    "locale": {
      "EUde": "{{reaction type=\"Fearful\"}}Ich muss diese Erkältung in\nden Griff kriegen{{pause frames=\"5\"}}.{{pause frames=\"5\"}}.{{pause frames=\"5\"}}.{{pause frames=\"5\"}} Wer ist\ndenn hier der Boss...{{pause frames=\"5\"}} WÜRKS!\nKrank sein passt doch gar\nnicht zu mir{{pause frames=\"5\"}}.{{pause frames=\"5\"}}.{{pause frames=\"5\"}}.{{pause frames=\"5\"}} WÜRKS!{{pause frames=\"5\"}}\n\nIst ja widerlich{{pause frames=\"5\"}}.{{pause frames=\"5\"}}.{{pause frames=\"5\"}}.\n{{vibrateWeak}}WÜRKS!",
      "EUen": "{{reaction type=\"Fearful\"}}Ughhh{{pause frames=\"5\"}}.{{pause frames=\"5\"}}.{{pause frames=\"5\"}}. I've got to fight\nback with{{pause frames=\"5\"}}.{{pause frames=\"5\"}}.{{pause frames=\"5\"}}.{{pause frames=\"5\"}}insults.\nShow it who's boss...{{pause frames=\"5\"}}HACKGH!\nYou call yourself{{pause frames=\"5\"}}.{{pause frames=\"5\"}}.{{pause frames=\"5\"}}.{{pause frames=\"5\"}} HACKGH!{{pause frames=\"5\"}}\na cold? {{pause frames=\"5\"}}HACKGH {{pause frames=\"5\"}}HACKGH!\n\nYou're just a disgrace{{pause frames=\"5\"}}.{{pause frames=\"5\"}}.{{pause frames=\"5\"}}.\n{{vibrateWeak}}HACKGH {{pause frames=\"5\"}}HACKGH {{pause frames=\"5\"}}HACKGH!",
      "EUes": "{{reaction type=\"Fearful\"}}Aaarg{{pause frames=\"5\"}}.{{pause frames=\"5\"}}.{{pause frames=\"5\"}}. Tengo que luchar\ncontra él{{pause frames=\"5\"}}.{{pause frames=\"5\"}}.{{pause frames=\"5\"}}.{{pause frames=\"5\"}} con insultos. A\nver quién manda aquí...{{pause frames=\"5\"}} ¡COF!\n¿Y tú te consideras{{pause frames=\"5\"}}.{{pause frames=\"5\"}}.{{pause frames=\"5\"}}.{{pause frames=\"5\"}}? ¡COF!{{pause frames=\"5\"}}\n¿Una gripe? {{pause frames=\"5\"}}¡COF, {{pause frames=\"5\"}}COF!\n\nPero si das pena{{pause frames=\"5\"}}.{{pause frames=\"5\"}}.{{pause frames=\"5\"}}.\n{{vibrateWeak}}¡COF, {{pause frames=\"5\"}}COF, {{pause frames=\"5\"}}COF!",
      "EUfr": "{{reaction type=\"Fearful\"}}Ahhhh{{pause frames=\"5\"}}.{{pause frames=\"5\"}}.{{pause frames=\"5\"}}. je dois lutter à\ncoup{{pause frames=\"5\"}}.{{pause frames=\"5\"}}.{{pause frames=\"5\"}}.{{pause frames=\"5\"}} d'insultes. Pour lui\nmontrer qui est le chef...\nÇa mérite pas le nom{{pause frames=\"5\"}}.{{pause frames=\"5\"}}.{{pause frames=\"5\"}}.{{pause frames=\"5\"}}\nde rhume! {{pause frames=\"5\"}}BRRR {{pause frames=\"5\"}}BRRR!\n\nC'est un faux rhume{{pause frames=\"5\"}}.{{pause frames=\"5\"}}.{{pause frames=\"5\"}}.\n{{vibrateWeak}}BRRR {{pause frames=\"5\"}}BRRR {{pause frames=\"5\"}}BRRR!",
      "EUit": "{{reaction type=\"Fearful\"}}Ughhh{{pause frames=\"5\"}}.{{pause frames=\"5\"}}.{{pause frames=\"5\"}}. Devo reagire con\ntutti i miei migliori{{pause frames=\"5\"}}.{{pause frames=\"5\"}}.{{pause frames=\"5\"}}.{{pause frames=\"5\"}}\ninsulti. Che sia chiaro chi\ncomanda, qui... {{pause frames=\"5\"}}AAAGH!\nE tu hai il coraggio di\ndefinirti{{pause frames=\"5\"}}.{{pause frames=\"5\"}}.{{pause frames=\"5\"}}.{{pause frames=\"5\"}} AAAGH...{{pause frames=\"5\"}}\nun raffreddore? {{pause frames=\"5\"}}AGH {{pause frames=\"5\"}}AAAGH!\nSei solo un inconveniente di\npassaggio{{pause frames=\"5\"}}.{{pause frames=\"5\"}}.{{pause frames=\"5\"}}. {{vibrateWeak}}AGH {{pause frames=\"5\"}}AAAGH {{pause frames=\"5\"}}AGH!",
      "JPja": "{{reaction type=\"Fearful\"}}うぅ{{pause frames=\"5\"}}・{{pause frames=\"5\"}}・{{pause frames=\"5\"}}・{{pause frames=\"5\"}}\nふるえが　{{kanjiReplace charNum=\"1\" value=\"と\"}}止まらねぇよ{{pause frames=\"5\"}}・{{pause frames=\"5\"}}・{{pause frames=\"5\"}}・\n\nオレも　そろそろ\nねんぐの　おさめ{{kanjiReplace charNum=\"1\" value=\"どき\"}}時か{{pause frames=\"5\"}}・{{pause frames=\"5\"}}・{{pause frames=\"5\"}}・",
      "KRko": "{{reaction type=\"Fearful\"}}으{{pause frames=\"5\"}}.{{pause frames=\"5\"}}.{{pause frames=\"5\"}}.{{pause frames=\"5\"}}\n몸이 으슬으슬 떨려{{pause frames=\"5\"}}.{{pause frames=\"5\"}}.{{pause frames=\"5\"}}.\n\n나 이제 슬슬\n죽을 때가 된 건가{{pause frames=\"5\"}}.{{pause frames=\"5\"}}.{{pause frames=\"5\"}}.",
      "USen": "{{reaction type=\"Fearful\"}}Ughhh{{pause frames=\"5\"}}.{{pause frames=\"5\"}}.{{pause frames=\"5\"}}. I've got to fight\nback with{{pause frames=\"5\"}}.{{pause frames=\"5\"}}.{{pause frames=\"5\"}}.{{pause frames=\"5\"}}insults.\nShow it who's boss...{{pause frames=\"5\"}}HACKGH!\nYou call yourself{{pause frames=\"5\"}}.{{pause frames=\"5\"}}.{{pause frames=\"5\"}}.{{pause frames=\"5\"}} HACKGH!{{pause frames=\"5\"}}\na cold? {{pause frames=\"5\"}}HACKGH {{pause frames=\"5\"}}HACKGH!\n\nYou're just a disgrace{{pause frames=\"5\"}}.{{pause frames=\"5\"}}.{{pause frames=\"5\"}}.\n{{vibrateWeak}}HACKGH {{pause frames=\"5\"}}HACKGH {{pause frames=\"5\"}}HACKGH!"
    }
  },
  {
    "label": "3",
    "attribute": "0x00000000FF000000",
    "locale": {
      "EUde": "{{resetReaction}}Hey, die {{color id=\"2\"}}Medizin {{color id=\"0\"}}von\n{{color id=\"5\"}}{{string index=\"0\"}} {{color id=\"0\"}}wirkt\nanscheinend!\nNa, was so fies schmeckt,\ndas muss ja auch helfen{{pause frames=\"5\"}}.{{pause frames=\"5\"}}.{{pause frames=\"5\"}}.{{pause frames=\"5\"}}",
      "EUen": "{{resetReaction}}Whoa, the {{color id=\"7\"}}medicine {{color id=\"0\"}}is\nstarting to work. {{pause frames=\"20\"}}It burns\nworse than the cold, but{{pause frames=\"5\"}}.{{pause frames=\"5\"}}.{{pause frames=\"5\"}}.{{pause frames=\"5\"}}\nI have one person to thank\nfor all this. {{pause frames=\"10\"}}{{capitalizeLetter}}{{color id=\"5\"}}{{string index=\"0\"}}{{color id=\"0\"}},\nthat's who!",
      "EUes": "{{resetReaction}}Rayos, la {{color id=\"2\"}}medicina{{color id=\"0\"}} de\n{{color id=\"5\"}}{{string index=\"0\"}}{{color id=\"0\"}} está empezando\na hacer efecto.\nMe quema la garganta más\nque antes, pero{{pause frames=\"5\"}}.{{pause frames=\"5\"}}.{{pause frames=\"5\"}}.{{pause frames=\"5\"}}",
      "EUfr": "{{resetReaction}}Waouh, ton {{color id=\"2\"}}médicament{{color id=\"0\"}}\ncommence à agir.\n\nÇa brûle encore plus que le\nfroid, mais{{pause frames=\"5\"}}.{{pause frames=\"5\"}}.{{pause frames=\"5\"}}.{{pause frames=\"5\"}}",
      "EUit": "{{resetReaction}}Whoa, la {{color id=\"2\"}}medicina {{color id=\"0\"}}di\n{{color id=\"5\"}}{{string index=\"0\"}} {{color id=\"0\"}}inizia a fare\neffetto.\nFa bruciare la gola più\ndel raffreddore, però{{pause frames=\"5\"}}.{{pause frames=\"5\"}}.{{pause frames=\"5\"}}.{{pause frames=\"5\"}}",
      "JPja": "{{resetReaction}}{{color id=\"5\"}}{{string index=\"0\"}}{{color id=\"0\"}}の　くすりが\n{{kanjiReplace charNum=\"1\" value=\"すこ\"}}少し　きいたみてぇだ",
      "KRko": "{{resetReaction}}{{color id=\"5\"}}{{string index=\"0\"}}{{color id=\"0\"}}{{fun_0B arg=\"0x0300\"}} 준 {{color id=\"7\"}}약{{color id=\"0\"}}이\n조금 효과가 있었나 봐",
      "USen": "{{resetReaction}}Whoa, the {{color id=\"7\"}}medicine {{color id=\"0\"}}is\nstarting to work. {{pause frames=\"20\"}}It burns\nworse than the cold, but{{pause frames=\"5\"}}.{{pause frames=\"5\"}}.{{pause frames=\"5\"}}.{{pause frames=\"5\"}}\nI have one person to thank\nfor all this. {{pause frames=\"10\"}}{{capitalizeLetter}}{{color id=\"5\"}}{{string index=\"0\"}}{{color id=\"0\"}},\nthat's who!"
    }
  },
  {
    "label": "4",
    "attribute": "0x00000000FF000000",
    "locale": {
      "EUde": "{{resetReaction}}Ich hab diese {{color id=\"2\"}}Medizin{{color id=\"0\"}}\nvon {{color id=\"5\"}}{{string index=\"0\"}} {{color id=\"0\"}}genommen\nund es geht mir besser.{{pause frames=\"5\"}}.{{pause frames=\"5\"}}.",
      "EUen": "{{resetReaction}}I took that {{color id=\"7\"}}medicine {{color id=\"0\"}}and\nI'm feeling a little\nbetter.{{pause frames=\"5\"}}.{{pause frames=\"5\"}}.\n{{reaction type=\"Aggravation\"}}{{vibrateWeak}}Hey, world! {{pause frames=\"20\"}}{{capitalizeLetter}}{{color id=\"5\"}}{{string index=\"0\"}} {{color id=\"0\"}}is\nthe only one who cares\nabout me!",
      "EUes": "{{resetReaction}}Me tomé la {{color id=\"2\"}}medicina{{color id=\"0\"}}\nque me trajo {{color id=\"5\"}}{{string index=\"0\"}}\n{{color id=\"0\"}}y ya me siento mejor.{{pause frames=\"5\"}}.{{pause frames=\"5\"}}.",
      "EUfr": "{{resetReaction}}J'ai pris le {{color id=\"2\"}}médicament {{color id=\"0\"}}que\ntu{{color id=\"5\"}} {{color id=\"0\"}}m'as donné et je\nme sens un peu mieux.{{pause frames=\"5\"}}.{{pause frames=\"5\"}}.",
      "EUit": "{{resetReaction}}Ho preso la {{color id=\"2\"}}medicina{{color id=\"0\"}}\nche mi ha portato\n{{color id=\"5\"}}{{string index=\"0\"}} {{color id=\"0\"}}e sto meglio.{{pause frames=\"5\"}}.{{pause frames=\"5\"}}.",
      "JPja": "{{resetReaction}}{{color id=\"5\"}}{{string index=\"0\"}}{{color id=\"0\"}}が　くれた\nくすりを{{kanjiReplace charNum=\"1\" value=\"の\"}}飲んだら\n{{kanjiReplace charNum=\"1\" value=\"すこ\"}}少しマシに・{{pause frames=\"5\"}}・{{pause frames=\"5\"}}・{{pause frames=\"5\"}}{{string value=\"Catchphrase\"}}",
      "KRko": "{{resetReaction}}{{color id=\"5\"}}{{string index=\"0\"}}{{color id=\"0\"}}{{fun_0B arg=\"0x0300\"}} 준\n{{color id=\"7\"}}약{{color id=\"0\"}}을 먹었더니\n좀 괜찮아.{{pause frames=\"5\"}}.{{pause frames=\"5\"}}.{{pause frames=\"5\"}} {{string value=\"Catchphrase\"}}",
      "USen": "{{resetReaction}}I took that {{color id=\"7\"}}medicine {{color id=\"0\"}}and\nI'm feeling a little\nbetter.{{pause frames=\"5\"}}.{{pause frames=\"5\"}}.\n{{reaction type=\"Aggravation\"}}{{vibrateWeak}}Hey, world! {{pause frames=\"20\"}}{{capitalizeLetter}}{{color id=\"5\"}}{{string index=\"0\"}} {{color id=\"0\"}}is\nthe only one who cares\nabout me!"
    }
  },
  {
    "label": "5",
    "attribute": "0x00000000FF000000",
    "locale": {
      "EUde": "{{resetReaction}}Diese {{color id=\"2\"}}Medizin{{color id=\"0\"}} von\n{{color id=\"5\"}}{{string index=\"0\"}}{{color id=\"0\"}} hat mir\nwirklich geholfen{{pause frames=\"5\"}}.{{pause frames=\"5\"}}.{{pause frames=\"5\"}}.",
      "EUen": "{{resetReaction}}That {{color id=\"7\"}}medicine {{color id=\"0\"}}has got me\nfeeling a little better{{pause frames=\"5\"}}.{{pause frames=\"5\"}}.{{pause frames=\"5\"}}.\n\nThere's one name that's\ncrawled to the top of my\nbuddy list: {{pause frames=\"5\"}}{{color id=\"5\"}}{{string index=\"0\"}}{{color id=\"0\"}}!",
      "EUes": "{{resetReaction}}La {{color id=\"2\"}}medicina{{color id=\"0\"}} de {{color id=\"5\"}}{{string index=\"0\"}} \n{{color id=\"0\"}}ha hecho que me mejore\nbastante{{pause frames=\"5\"}}.{{pause frames=\"5\"}}.{{pause frames=\"5\"}}.",
      "EUfr": "{{resetReaction}}Le {{color id=\"2\"}}médicament {{color id=\"0\"}}que\ntu{{color id=\"5\"}} {{color id=\"0\"}}m'as apporté\ndoit faire effet{{pause frames=\"5\"}}.{{pause frames=\"5\"}}.{{pause frames=\"5\"}}.",
      "EUit": "{{resetReaction}}La {{color id=\"2\"}}medicina {{color id=\"0\"}}che mi ha\nportato {{color id=\"5\"}}{{string index=\"0\"}} {{color id=\"0\"}}sta\nfacendo effetto{{pause frames=\"5\"}}.{{pause frames=\"5\"}}.{{pause frames=\"5\"}}.",
      "JPja": "{{resetReaction}}{{color id=\"5\"}}{{string index=\"0\"}}{{color id=\"0\"}}のくれた\nくすりを{{kanjiReplace charNum=\"1\" value=\"の\"}}飲んだおかげか\nラクに　なってきたぜ{{pause frames=\"5\"}}・{{pause frames=\"5\"}}・{{pause frames=\"5\"}}・",
      "KRko": "{{resetReaction}}{{color id=\"5\"}}{{string index=\"0\"}}{{color id=\"0\"}}{{fun_0B arg=\"0x0300\"}} 준\n{{color id=\"7\"}}약{{color id=\"0\"}}을 먹어서 그런지\n좀 나아졌어{{pause frames=\"5\"}}.{{pause frames=\"5\"}}.{{pause frames=\"5\"}}.",
      "USen": "{{resetReaction}}That {{color id=\"7\"}}medicine {{color id=\"0\"}}has got me\nfeeling a little better{{pause frames=\"5\"}}.{{pause frames=\"5\"}}.{{pause frames=\"5\"}}.\n\nThere's one name that's\ncrawled to the top of my\nbuddy list: {{pause frames=\"5\"}}{{color id=\"5\"}}{{string index=\"0\"}}{{color id=\"0\"}}!"
    }
  }
]