[
  {
    "label": "0",
    "attribute": "0x00000000FE000000",
    "locale": {
      "EUde": "{{reaction type=\"Surprise\"}}Hä?{{pause frames=\"20\"}} {{capitalizeLetter}}{{string value=\"PlayerNickname\"}}, du hast {{gender m=\"ihn\" f=\"sie\" n=\"es\"}}\nnoch nicht gefangen, oder?\n\n{{gender m=\"Der\" f=\"Die\" n=\"Das\"}} {{ignoreArticle}}{{itemName index=\"0\"}}\ngehört mir,{{pause frames=\"10\"}} {{string value=\"Catchphrase\"}}!",
      "EUen": "{{reaction type=\"Surprise\"}}Eh?{{pause frames=\"20\"}} {{capitalizeLetter}}{{string value=\"PlayerNickname\"}}, you haven't\ncaught it yet, have you?!?\n\n{{capitalizeLetter}}{{fun_0B}}{{itemName index=\"0\"}}\nis mine,{{pause frames=\"10\"}} {{string value=\"Catchphrase\"}}!",
      "EUes": "{{reaction type=\"Surprise\"}}¿Eh?{{pause frames=\"20\"}} {{capitalizeLetter}}{{string value=\"PlayerNickname\"}}, todavía\nno l{{gender m=\"o\" f=\"a\" n=\"\"}} has cogido, ¿verdad?\n\n¡Es{{gender m=\"e\" f=\"a\" n=\"\"}} {{ignoreArticle}}{{itemName index=\"0\"}}\nes mí{{gender m=\"o\" f=\"a\" n=\"\"}},{{pause frames=\"10\"}} {{string value=\"Catchphrase\"}}!",
      "EUfr": "{{reaction type=\"Surprise\"}}Hein?{{pause frames=\"20\"}} {{capitalizeLetter}}{{string value=\"PlayerNickname\"}}, tu ne\nl'as pas encore {{gender m=\"attrapé\" f=\"attrapée\" n=\"\"}}, \nn'est-ce pas?!?\n{{gender m=\"Ce\" f=\"Cette\" n=\"\"}} magnifique\n{{ignoreArticle}}{{itemName index=\"0\"}}\nm'appartient,{{pause frames=\"10\"}} {{string value=\"Catchphrase\"}}!",
      "EUit": "{{reaction type=\"Surprise\"}}Eh?{{pause frames=\"20\"}} {{capitalizeLetter}}{{string value=\"PlayerNickname\"}}, non ne hai\nancora pres{{gender m=\"o\" f=\"a\" n=\"\"}} un{{gender m=\"o\" f=\"a\" n=\"\"}}?!\n\n{{capitalizeLetter}}{{fun_0B}}{{itemName index=\"0\"}}\nè mi{{gender m=\"o\" f=\"a\" n=\"\"}},{{pause frames=\"10\"}} {{string value=\"Catchphrase\"}}!",
      "JPja": "{{reaction type=\"Surprise\"}}エッ？{{pause frames=\"20\"}}\n{{string value=\"PlayerNickname\"}}くんだって\nまだ　つかまえてないでしょぉ！？\n{{itemName index=\"0\"}}は\nボクのモノなのだぁ～！\n{{pause frames=\"10\"}}{{string value=\"Catchphrase\"}}！",
      "KRko": "{{reaction type=\"Surprise\"}}응？{{pause frames=\"20\"}}\n{{string value=\"PlayerNickname\"}}도\n아직 잡지 못했지！？\n{{itemName index=\"0\"}}{{fun_0B arg=\"0x0100\"}}\n내가 잡을꺼야아～！！\n{{pause frames=\"10\"}}{{string value=\"Catchphrase\"}}！",
      "USen": "{{reaction type=\"Surprise\"}}Eh?{{pause frames=\"20\"}} {{capitalizeLetter}}{{string value=\"PlayerNickname\"}}, you haven't\ncaught it yet, have you?!?\n\n{{capitalizeLetter}}{{fun_0B}}{{itemName index=\"0\"}}\nis mine,{{pause frames=\"10\"}} {{string value=\"Catchphrase\"}}!"
    }
  },
  {
    "label": "1",
    "attribute": "0x00000000FE000000",
    "locale": {
      "EUde": "{{reaction type=\"Worry\"}}Aber sonst verstehen wir\nuns doch so gut{{pause frames=\"5\"}}.{{pause frames=\"5\"}}.{{pause frames=\"5\"}}.{{pause frames=\"5\"}}\n\n{{reaction type=\"Sorrow\"}}Warum kommst du nicht\nraus, {{gender m=\"mein kleiner\" f=\"meine kleine\" n=\"mein kleines\"}}\n{{ignoreArticle}}{{itemName index=\"0\"}}?\nKomm schon, Kumpel!",
      "EUen": "{{reaction type=\"Worry\"}}But we usually get along so\nwell{{pause frames=\"5\"}}.{{pause frames=\"5\"}}.{{pause frames=\"5\"}}.{{pause frames=\"5\"}}\n\n{{reaction type=\"Sorrow\"}}Why won't you come out,\n{{ignoreArticle}}{{itemName index=\"0\"}}?\nC'mon, be a pal!",
      "EUes": "{{reaction type=\"Worry\"}}Si nos llevamos fenomenal{{pause frames=\"5\"}}.{{pause frames=\"5\"}}.{{pause frames=\"5\"}}.{{pause frames=\"5\"}}\n\n\n{{reaction type=\"Sorrow\"}}¿Por qué no sales,\n{{ignoreArticle}}{{itemName index=\"0\"}}?\n¡Venga, sé buen{{gender m=\"o\" f=\"a\" n=\"\"}}!",
      "EUfr": "{{reaction type=\"Worry\"}}Mais on s'entend si bien,\nd'habitude{{pause frames=\"5\"}}.{{pause frames=\"5\"}}.{{pause frames=\"5\"}}.{{pause frames=\"5\"}}\n\n{{reaction type=\"Sorrow\"}}Sors de ta cachette,\n{{ignoreArticle}}{{itemName index=\"0\"}}!\nAllez, sois chic!",
      "EUit": "{{reaction type=\"Worry\"}}Di solito andiamo d'amore e\nd'accordo{{pause frames=\"5\"}}.{{pause frames=\"5\"}}.{{pause frames=\"5\"}}.{{pause frames=\"5\"}}\n\n{{reaction type=\"Sorrow\"}}Perché non vieni fuori,\n{{ignoreArticle}}{{itemName index=\"0\"}}?\nForza, comportati bene!",
      "JPja": "{{reaction type=\"Worry\"}}ふだんは　あんなに\nなかよくしてくれるのに\n{{pause frames=\"5\"}}・{{pause frames=\"5\"}}・{{pause frames=\"5\"}}・{{pause frames=\"5\"}}\n{{reaction type=\"Sorrow\"}}どうして　こんな{{kanjiReplace charNum=\"1\" value=\"とき\"}}時だけ\n{{kanjiReplace charNum=\"1\" value=\"で\"}}出てきてくれないんだよぉ！\n{{itemName index=\"0\"}}！",
      "KRko": "{{reaction type=\"Worry\"}}평소에는 그렇게\n친하게 지냈으면서\n{{pause frames=\"5\"}}・{{pause frames=\"5\"}}・{{pause frames=\"5\"}}・{{pause frames=\"5\"}}\n{{reaction type=\"Sorrow\"}}왜 이럴 땐\n나오지 않는 거야！！\n{{itemName index=\"0\"}}！",
      "USen": "{{reaction type=\"Worry\"}}But we usually get along so\nwell{{pause frames=\"5\"}}.{{pause frames=\"5\"}}.{{pause frames=\"5\"}}.{{pause frames=\"5\"}}\n\n{{reaction type=\"Sorrow\"}}Why won't you come out,\n{{ignoreArticle}}{{itemName index=\"0\"}}?\nC'mon, be a pal!"
    }
  },
  {
    "label": "2",
    "attribute": "0x00000000FE000000",
    "locale": {
      "EUde": "{{reaction type=\"Sighing\"}}Seufz...{{pause frames=\"10\"}} {{gender m=\"Er\" f=\"Sie\" n=\"Es\"}} ist nicht da!\n{{gender m=\"Mein\" f=\"Meine\" n=\"Mein\"}} {{ignoreArticle}}{{itemName index=\"0\"}}\nist weg,{{pause frames=\"10\"}} {{string value=\"Catchphrase\"}}!",
      "EUen": "{{reaction type=\"Sighing\"}}{{pause frames=\"5\"}}Sigh...{{pause frames=\"10\"}} He's gone.\nMy {{ignoreArticle}}{{itemName index=\"0\"}}\nis gone,{{pause frames=\"10\"}} {{string value=\"Catchphrase\"}}.",
      "EUes": "{{reaction type=\"Sighing\"}}{{pause frames=\"5\"}}Aaayyyy...{{pause frames=\"10\"}} Se ha ido.\nMi {{ignoreArticle}}{{itemName index=\"0\"}}\nse ha ido,{{pause frames=\"10\"}} {{string value=\"Catchphrase\"}}.",
      "EUfr": "{{reaction type=\"Sighing\"}}{{pause frames=\"5\"}}*Soupir*{{pause frames=\"10\"}} Plus personne.\n{{capitalizeLetter}}{{fun_0B}}{{itemName index=\"0\"}}\na disparu,{{pause frames=\"10\"}} {{string value=\"Catchphrase\"}}.",
      "EUit": "{{reaction type=\"Sighing\"}}{{pause frames=\"5\"}}Sigh...{{pause frames=\"10\"}} Non c'è più. {{gender m=\"Il mio\" f=\"La mia\" n=\"\"}}\n{{ignoreArticle}}{{itemName index=\"0\"}},\nnon c'è più, {{pause frames=\"10\"}}{{string value=\"Catchphrase\"}}.",
      "JPja": "{{reaction type=\"Sighing\"}}{{pause frames=\"5\"}}はぁ～、{{pause frames=\"10\"}}いないねぇ\n{{itemName index=\"0\"}}、{{pause frames=\"10\"}}{{string value=\"Catchphrase\"}}",
      "KRko": "{{reaction type=\"Sighing\"}}{{pause frames=\"5\"}}{{itemName index=\"0\"}}{{pause frames=\"10\"}}\n너무 없어～ {{pause frames=\"10\"}}{{string value=\"Catchphrase\"}}",
      "USen": "{{reaction type=\"Sighing\"}}{{pause frames=\"5\"}}Sigh...{{pause frames=\"10\"}} He's gone.\nMy {{ignoreArticle}}{{itemName index=\"0\"}}\nis gone,{{pause frames=\"10\"}} {{string value=\"Catchphrase\"}}."
    }
  }
]