[
  {
    "label": "00",
    "attribute": "0x00000000FE000000",
    "locale": {
      "EUde": "{{resetReaction}}Hi, {{pause frames=\"5\"}}{{string value=\"PlayerNickname\"}}.{{pause frames=\"5\"}} Ist dir\nklar, dass heute das {{color id=\"3\"}}Blu-\nmenfest {{color id=\"0\"}}anfängt?\nIch frage mich, wer von uns\nzum {{color id=\"2\"}}grünsten Daumen{{color id=\"0\"}}\ngewählt wird?\nNächsten Sonntag ist Preis-\nverleihung, {{reaction type=\"Distress\"}}und ich bin\njetzt schon nervös!",
      "EUen": "{{resetReaction}}Heya, {{pause frames=\"5\"}}{{string value=\"PlayerNickname\"}}.{{pause frames=\"5\"}} Didja\nknow the {{color id=\"3\"}}Flower Fest{{color id=\"0\"}} starts\ntoday, {{pause frames=\"5\"}}{{string value=\"Catchphrase\"}}?\nI'm wondering who among us\nwill be chosen as the\n{{color id=\"2\"}}greenest of thumbs{{color id=\"0\"}}.\nWe'll be picking the winner\nnext Sunday, {{reaction type=\"Distress\"}}and I can't\nwait, {{pause frames=\"5\"}}{{string value=\"Catchphrase\"}}!",
      "EUes": "{{resetReaction}}Oye, {{pause frames=\"5\"}}{{string value=\"PlayerNickname\"}}.{{pause frames=\"5\"}} ¿Sabías\nque hoy empieza el {{color id=\"3\"}}Festival\nde las Flores{{color id=\"0\"}}?\nMe pregunto quién será\n{{color id=\"2\"}}Florista Mayor{{color id=\"0\"}} este año,\n{{pause frames=\"5\"}}{{string value=\"Catchphrase\"}}.\n¡El próximo domingo lo\nsabremos! {{reaction type=\"Distress\"}}¡Estoy tan\nimpaciente, {{pause frames=\"5\"}}{{string value=\"Catchphrase\"}}!",
      "EUfr": "{{resetReaction}}Salut, {{pause frames=\"5\"}}{{string value=\"PlayerNickname\"}}.{{pause frames=\"5\"}} Tu sais\nque le {{color id=\"3\"}}festival floral\n{{color id=\"0\"}}commence aujourd'hui,\npas vrai, {{pause frames=\"5\"}}{{string value=\"Catchphrase\"}}?\nJe me demande qui va être\ndésigné comme {{color id=\"2\"}}Pouce vert{{color id=\"0\"}}.\nOn choisira le vainqueur\ndimanche prochain {{reaction type=\"Distress\"}}et j'ai\nvraiment hâte, {{pause frames=\"5\"}}{{string value=\"Catchphrase\"}}!",
      "EUit": "{{resetReaction}}Ehi, {{pause frames=\"5\"}}{{string value=\"PlayerNickname\"}}.{{pause frames=\"5\"}} Lo sapevi\nche oggi inizia il {{color id=\"3\"}}Festival\ndei fiori{{color id=\"0\"}}, {{pause frames=\"5\"}}{{string value=\"Catchphrase\"}}?\nChissà chi vincerà\nil titolo di\n{{color id=\"2\"}}Pollice verde{{color id=\"0\"}}?\nIl vincitore sarà deciso\ndomenica prossima, {{reaction type=\"Distress\"}}non\nvedo l'ora, {{pause frames=\"5\"}}{{string value=\"Catchphrase\"}}!",
      "JPja": "{{resetReaction}}あ、{{pause frames=\"5\"}}{{string value=\"PlayerNickname\"}}さん{{pause frames=\"5\"}}\n{{kanjiReplace charNum=\"2\" value=\"きょう\"}}今日から　\n{{color id=\"3\"}}ガーデニングたいかい{{color id=\"0\"}}ですよ\n{{kanjiReplace charNum=\"2\" value=\"らいしゅう\"}}来週の　{{kanjiReplace charNum=\"2\" value=\"にちよう\"}}日曜に\n{{color id=\"2\"}}ベスト・オブ・ガーデニング{{color id=\"0\"}}に\n{{kanjiReplace charNum=\"1\" value=\"えら\"}}選ばれるのは　{{kanjiReplace charNum=\"1\" value=\"だれ\"}}誰なのか、\n{{reaction type=\"Distress\"}}わたし、{{kanjiReplace charNum=\"1\" value=\"いま\"}}今から\n{{kanjiReplace charNum=\"1\" value=\"ま\"}}待ちきれません、{{pause frames=\"5\"}}{{string value=\"Catchphrase\"}}！",
      "KRko": "{{resetReaction}}아，{{pause frames=\"5\"}} {{string value=\"PlayerNickname\"}}님{{pause frames=\"5\"}}\n오늘부터\n{{color id=\"3\"}}정원가꾸기대회{{color id=\"0\"}}예요\n{{color id=\"2\"}}베스트 오브 정원{{color id=\"0\"}}으로\n누가 뽑힐지\n\n{{reaction type=\"Distress\"}}전 벌써부터\n이번 주 일요일이\n기대돼요，{{pause frames=\"5\"}} {{string value=\"Catchphrase\"}}！",
      "USen": "{{resetReaction}}Heya, {{pause frames=\"5\"}}{{string value=\"PlayerNickname\"}}.{{pause frames=\"5\"}} Didja\nknow the {{color id=\"3\"}}Flower Fest{{color id=\"0\"}} starts\ntoday, {{pause frames=\"5\"}}{{string value=\"Catchphrase\"}}?\nI'm wondering who among us\nwill be chosen as the\n{{color id=\"2\"}}greenest of thumbs{{color id=\"0\"}}.\nWe'll be picking the winner\nnext Sunday, {{reaction type=\"Distress\"}}and I can't\nwait, {{pause frames=\"5\"}}{{string value=\"Catchphrase\"}}!"
    }
  },
  {
    "label": "01",
    "attribute": "0x00000000FE000000",
    "locale": {
      "EUde": "{{reaction type=\"Happiness\"}}Zeit, den Garten in Schuss\nzu bringen! Bald beginnt das\njährliche {{color id=\"3\"}}Blumenfest{{color id=\"0\"}}!\nIn einer Woche wird\nder schönste Garten der\nStadt bewertet.\nAm Sonntag wird der\nSieger ermittelt!\n\nUnd er erhält eine Trophäe,\nden begehrten {{color id=\"2\"}}Grünen\nDaumen{{color id=\"0\"}}, {{pause frames=\"5\"}}{{string value=\"Catchphrase\"}}!\n{{reaction type=\"Happiness\"}}Du fängst am besten\ndirekt an zu planen und\nzu pflanzen!",
      "EUen": "{{reaction type=\"Happiness\"}}Time to get your gardening\ngloves on, 'cause it's time\nfor the annual {{color id=\"3\"}}Flower Fest{{color id=\"0\"}}!\nWe've got a week to make\nthe most fabulous garden\nwe can.\nWhen Sunday rolls around,\nwe'll find out who's got the\nbest garden in town.\nThe winner gets a {{color id=\"7\"}}trophy{{color id=\"0\"}}\nand the coveted title of\n{{color id=\"2\"}}Green Thumb{{color id=\"0\"}}, {{pause frames=\"5\"}}{{string value=\"Catchphrase\"}}!\n{{reaction type=\"Happiness\"}}I recommend you start\nplanning and planting your\ngarden now!",
      "EUes": "{{reaction type=\"Happiness\"}}¡Ponte los guantes de\njardiner{{gender m=\"o\" f=\"a\"}}, que ya empieza\nel {{color id=\"3\"}}Festival de las Flores{{color id=\"0\"}}!\nTenemos una semana para\ncrear el jardín más bonito\nque podamos.\nEl domingo sabremos quién\nha creado el jardín más\nbonito del pueblo.\nEl ganador consigue un\ntrofeo ¡y el ambicionado\ntítulo de {{color id=\"2\"}}Florista Mayor{{color id=\"0\"}}!\n{{reaction type=\"Happiness\"}}¡Yo que tú empezaría ya a\npensar qué vas a hacer con\ntu jardín, {{pause frames=\"5\"}}{{string value=\"Catchphrase\"}}!",
      "EUfr": "{{reaction type=\"Happiness\"}}C'est l'heure de mettre tes\ngants de jardinage pour le\n{{color id=\"3\"}}festival floral{{color id=\"0\"}} annuel!\nOn a une semaine pour\navoir le plus beau jardin\nde tous les temps.\nEt dimanche, on saura qui a\nle jardin le plus magique\nde toute la ville.\nLe vainqueur recevra un\ntrophée et le titre de\n{{color id=\"2\"}}Pouce vert{{color id=\"0\"}}, {{pause frames=\"5\"}}{{string value=\"Catchphrase\"}}!\n{{reaction type=\"Happiness\"}}Je te conseille de\ncommencer à jardiner sans\nplus attendre!",
      "EUit": "{{reaction type=\"Happiness\"}}Ehi, mettiti i guanti da\ngiardinaggio perché c'è\nil {{color id=\"3\"}}Festival dei fiori{{color id=\"0\"}}!\nAbbiamo una settimana\ndi tempo per creare il\ngiardino più bello.\nDomenica scopriremo\nchi è il vincitore della\ngara di quest'anno.\nIl vincitore otterrà un\ntrofeo e il titolo di\n{{color id=\"2\"}}Pollice verde{{color id=\"0\"}}, {{pause frames=\"5\"}}{{string value=\"Catchphrase\"}}!\n{{reaction type=\"Happiness\"}}Ti consiglio di\ncurare bene il tuo giardino\ne di piantare tanti fiori!",
      "JPja": "{{reaction type=\"Happiness\"}}{{kanjiReplace charNum=\"2\" value=\"きょう\"}}今日から\n{{color id=\"3\"}}ガーデニングたいかい{{color id=\"0\"}}ですね！\n\n{{resetReaction}}{{kanjiReplace charNum=\"2\" value=\"いちばん\"}}一番ステキな　お{{kanjiReplace charNum=\"1\" value=\"にわ\"}}庭を\n{{kanjiReplace charNum=\"1\" value=\"つく\"}}作り{{kanjiReplace charNum=\"1\" value=\"あ\"}}上げた{{kanjiReplace charNum=\"1\" value=\"かた\"}}方には、\n\n{{kanjiReplace charNum=\"3\" value=\"さいしゅうび\"}}最終日に\n{{kanjiReplace charNum=\"2\" value=\"ゆうしょう\"}}優勝の{{color id=\"7\"}}トロフィー{{color id=\"0\"}}が\n{{kanjiReplace charNum=\"1\" value=\"おく\"}}贈られますから、\n{{reaction type=\"Happiness\"}}それまでに\nたくさん　お{{kanjiReplace charNum=\"1\" value=\"はな\"}}花を\nうえておくと　いいですよ！",
      "KRko": "{{reaction type=\"Happiness\"}}오늘부터\n{{color id=\"3\"}}정원가꾸기대회{{color id=\"0\"}}예요！\n\n{{resetReaction}}마지막 날에는\n정원을 가장 아름답게\n꾸민 분에게\n우승 {{color id=\"7\"}}트로피{{color id=\"0\"}}가\n수여된대요\n\n{{reaction type=\"Happiness\"}}그때까지\n꽃을 잔뜩 심어야겠어요！",
      "USen": "{{reaction type=\"Happiness\"}}Time to get your gardening\ngloves on, 'cause it's time\nfor the annual {{color id=\"3\"}}Flower Fest{{color id=\"0\"}}!\nWe've got a week to make\nthe most fabulous garden\nwe can.\nWhen Sunday rolls around,\nwe'll find out who's got the\nbest garden in town.\nThe winner gets a {{color id=\"7\"}}trophy{{color id=\"0\"}}\nand the coveted title of\n{{color id=\"2\"}}Green Thumb{{color id=\"0\"}}, {{pause frames=\"5\"}}{{string value=\"Catchphrase\"}}!\n{{reaction type=\"Happiness\"}}I recommend you start\nplanning and planting your\ngarden now!"
    }
  },
  {
    "label": "02",
    "attribute": "0x00000000FE000000",
    "locale": {
      "EUde": "{{reaction type=\"Happiness\"}}{{capitalizeLetter}}{{string value=\"PlayerNickname\"}},{{pause frames=\"5\"}} hallo!{{pause frames=\"5\"}} Wie geht\nes deinem Garten?\nSchon viel gepflanzt?\nDu weißt doch, am Sonntag\nwird der Sieger ermittelt,\n{{pause frames=\"5\"}}{{string value=\"Catchphrase\"}}!",
      "EUen": "{{reaction type=\"Happiness\"}}{{capitalizeLetter}}{{string value=\"PlayerNickname\"}},{{pause frames=\"5\"}} hi!{{pause frames=\"5\"}} How's your\ngarden coming along?\nPlanted lots of flowers?\nYou know, Sunday's when\nwe hold the final judging,\n{{pause frames=\"5\"}}{{string value=\"Catchphrase\"}}!",
      "EUes": "{{reaction type=\"Happiness\"}}¡Hola, {{string value=\"PlayerNickname\"}}!{{pause frames=\"5\"}} ¿Qué tal\nte está quedando el jardín?\n¿Plantaste muchas flores?\nYa sabes que el domingo\ntenemos el veredicto final,\n¿no, {{pause frames=\"5\"}}{{string value=\"Catchphrase\"}}?",
      "EUfr": "{{reaction type=\"Happiness\"}}{{capitalizeLetter}}{{string value=\"PlayerNickname\"}},{{pause frames=\"5\"}} salut!{{pause frames=\"5\"}} Comment\navance ton jardin? Tu y as\nplanté plein de fleurs?\nTu sais, c'est dimanche que\nles juges délibèrent,\n{{pause frames=\"5\"}}{{string value=\"Catchphrase\"}}!",
      "EUit": "{{reaction type=\"Happiness\"}}{{capitalizeLetter}}{{string value=\"PlayerNickname\"}},{{pause frames=\"5\"}} ciao!{{pause frames=\"5\"}} Come\nsta venendo il tuo giardino?\nHai piantato tanti fiori?\nSai, sapremo chi vincerà\nsolo domenica,\n{{pause frames=\"5\"}}{{string value=\"Catchphrase\"}}!",
      "JPja": "{{reaction type=\"Happiness\"}}あら、{{pause frames=\"5\"}}{{string value=\"PlayerNickname\"}}さん{{pause frames=\"10\"}}\nガーデニングは　{{kanjiReplace charNum=\"1\" value=\"すす\"}}進んでますか？\n\n{{resetReaction}}{{kanjiReplace charNum=\"3\" value=\"さいしゅうび\"}}最終日は\n{{kanjiReplace charNum=\"2\" value=\"らいしゅう\"}}来週の　{{kanjiReplace charNum=\"2\" value=\"にちよう\"}}日曜ですよ！\n{{pause frames=\"5\"}}{{string value=\"Catchphrase\"}}！",
      "KRko": "{{reaction type=\"Happiness\"}}어머，{{pause frames=\"5\"}} {{string value=\"PlayerNickname\"}}님{{pause frames=\"10\"}}\n정원가꾸기는 잘 되어 가나요？\n\n{{resetReaction}}이번 주 일요일에\n끝나 버려요！\n{{pause frames=\"5\"}}{{string value=\"Catchphrase\"}}！",
      "USen": "{{reaction type=\"Happiness\"}}{{capitalizeLetter}}{{string value=\"PlayerNickname\"}},{{pause frames=\"5\"}} hi!{{pause frames=\"5\"}} How's your\ngarden coming along?\nPlanted lots of flowers?\nYou know, Sunday's when\nwe hold the final judging,\n{{pause frames=\"5\"}}{{string value=\"Catchphrase\"}}!"
    }
  },
  {
    "label": "03",
    "attribute": "0x00000000FE000000",
    "locale": {
      "EUde": "{{reaction type=\"Happiness\"}}So, {{pause frames=\"5\"}}{{string value=\"PlayerNickname\"}},{{pause frames=\"10\"}} du hast\ninzwischen einen schönen,\ngroßen Garten, {{pause frames=\"5\"}}{{string value=\"Catchphrase\"}}?\nWie läuft es denn?{{pause frames=\"5\"}} Du weißt,\ndass am Sonntag der {{color id=\"2\"}}Grüne\nDaumen{{color id=\"0\"}} verliehen wird?\n{{reaction type=\"Happiness\"}}Und ICH werde gewinnen!\nUnter dem Dreck sind meine\nDaumen sowas von grün...",
      "EUen": "{{reaction type=\"Happiness\"}}So, {{pause frames=\"5\"}}{{string value=\"PlayerNickname\"}},{{pause frames=\"10\"}} you've\nprobably got a nice, big\ngarden by now, {{pause frames=\"5\"}}{{string value=\"Catchphrase\"}}.\nHow's it coming along?{{pause frames=\"5\"}} You\nknow the {{color id=\"2\"}}Green Thumb{{color id=\"0\"}} will\nbe announced Sunday, right?\n{{reaction type=\"Happiness\"}}I'm SO going to win. Beneath\nthese dirty fingers lurk\nthumbs of purest green!",
      "EUes": "{{reaction type=\"Happiness\"}}Supongo que ya tendrás\nun jardín estupendo,\n¿no, {{pause frames=\"5\"}}{{string value=\"PlayerNickname\"}}?\n¿Qué tal te está quedando?\n¿Te está quedando de lo\nmás bonito, {{pause frames=\"5\"}}{{string value=\"Catchphrase\"}}?\nYa sabes que el domingo se\ndecide quién será {{color id=\"2\"}}Florista\nMayor{{color id=\"0\"}} este año, ¿verdad?\n{{reaction type=\"Happiness\"}}Voy a ser yo. ¡Estas manos\nllenas de tierra tienen\nmucha magia jardinera!",
      "EUfr": "{{reaction type=\"Happiness\"}}Alors, {{pause frames=\"5\"}}{{string value=\"PlayerNickname\"}},{{pause frames=\"10\"}} tu dois\navoir un jardin magnifique\nmaintenant, {{pause frames=\"5\"}}{{string value=\"Catchphrase\"}}.\nComment ça se passe?{{pause frames=\"5\"}} Tu\nsais que le {{color id=\"2\"}}Pouce vert{{color id=\"0\"}} sera\ndésigné dimanche, pas vrai?\n{{reaction type=\"Happiness\"}}C'est moi qui vais gagner,\ncar sous ces petits doigts\nsales, se cachent des\npouces d'un vert éclatant!",
      "EUit": "{{reaction type=\"Happiness\"}}Allora, {{pause frames=\"5\"}}{{string value=\"PlayerNickname\"}},{{pause frames=\"10\"}} sei\nriuscit{{gender m=\"o\" f=\"a\"}} a creare un\nbel giardino, {{pause frames=\"5\"}}{{string value=\"Catchphrase\"}}?\nSei soddisfatt{{gender m=\"o\" f=\"a\"}}?{{pause frames=\"5\"}} Il\n{{color id=\"2\"}}Pollice verde{{color id=\"0\"}} di quest'anno\nsarà proclamato domenica!\n{{reaction type=\"Happiness\"}}Tanto vincerò IO. Mi sono\nsporcata tutte le zampe...\ndevo vincere per forza!",
      "JPja": "{{reaction type=\"Happiness\"}}あら、{{pause frames=\"5\"}}{{string value=\"PlayerNickname\"}}さん{{pause frames=\"10\"}}\nガーデニングの　{{kanjiReplace charNum=\"2\" value=\"ちょうし\"}}調子は\nいかがですか、{{pause frames=\"5\"}}{{string value=\"Catchphrase\"}}？\n{{resetReaction}}{{kanjiReplace charNum=\"2\" value=\"けっか\"}}結果{{kanjiReplace charNum=\"2\" value=\"はっぴょう\"}}発表は\n{{kanjiReplace charNum=\"2\" value=\"らいしゅう\"}}来週の　{{kanjiReplace charNum=\"3\" value=\"にちようび\"}}日曜日{{pause frames=\"3\"}}・{{pause frames=\"3\"}}・{{pause frames=\"3\"}}・\n\n{{reaction type=\"Happiness\"}}{{kanjiReplace charNum=\"2\" value=\"ゆうしょう\"}}優勝の　{{color id=\"7\"}}トロフィー{{color id=\"0\"}}は\nわたしが　いただきますよ！\n{{pause frames=\"5\"}}{{string value=\"Catchphrase\"}}！",
      "KRko": "{{reaction type=\"Happiness\"}}어머，{{pause frames=\"5\"}} {{string value=\"PlayerNickname\"}}님{{pause frames=\"10\"}}\n정원가꾸기는 어떻게 되어 가고\n있나요？{{pause frames=\"5\"}} {{string value=\"Catchphrase\"}}？\n{{resetReaction}}이번 주 일요일에 있을\n결과발표{{pause frames=\"3\"}}・{{pause frames=\"3\"}}・{{pause frames=\"3\"}}・\n\n{{reaction type=\"Happiness\"}}우승 {{color id=\"7\"}}트로피{{color id=\"0\"}}는\n제가 받고 말겠어요！\n{{pause frames=\"5\"}}{{string value=\"Catchphrase\"}}！",
      "USen": "{{reaction type=\"Happiness\"}}So, {{pause frames=\"5\"}}{{string value=\"PlayerNickname\"}},{{pause frames=\"10\"}} you've\nprobably got a nice, big\ngarden by now, {{pause frames=\"5\"}}{{string value=\"Catchphrase\"}}.\nHow's it coming along?{{pause frames=\"5\"}} You\nknow the {{color id=\"2\"}}Green Thumb{{color id=\"0\"}} will\nbe announced Sunday, right?\n{{reaction type=\"Happiness\"}}I'm SO going to win. Beneath\nthese dirty fingers lurk\nthumbs of purest green!"
    }
  },
  {
    "label": "04",
    "attribute": "0x00000000FE000000",
    "locale": {
      "EUde": "{{reaction type=\"Happiness\"}}Oh, hey, {{pause frames=\"5\"}}{{string value=\"PlayerNickname\"}}!{{pause frames=\"10\"}} Und,\nwie grün ist dein Garten\ninzwischen, {{pause frames=\"5\"}}{{string value=\"Catchphrase\"}}?\n{{resetReaction}}Wie wäre es denn damit?\nAnstatt nur Blumen von\neiner Sorte zu pflanzen,\n{{reaction type=\"Joy\"}}könntest du doch verschie-\ndene Pflanzentypen gemischt\npflanzen!",
      "EUen": "{{reaction type=\"Happiness\"}}Oh, heya, {{pause frames=\"5\"}}{{string value=\"PlayerNickname\"}}!{{pause frames=\"10\"}} So,\nhow green does your garden\ngrow, {{pause frames=\"5\"}}{{string value=\"Catchphrase\"}}?\n{{resetReaction}}Here's a little tip for you:\ninstead of planting tons\nof the same flowers,\n{{reaction type=\"Joy\"}}why don't you try mixing it\nup by planting all sorts of\ndifferent flowers?",
      "EUes": "{{reaction type=\"Happiness\"}}¡Eh, {{pause frames=\"5\"}}{{string value=\"PlayerNickname\"}}!{{pause frames=\"10\"}} Dime,\n¿qué tal te está quedando\nel jardín, {{pause frames=\"5\"}}{{string value=\"Catchphrase\"}}?\n{{resetReaction}}Tengo un consejo para ti:\nen lugar de plantar un\nmontón de flores iguales...\n{{reaction type=\"Joy\"}}¿por qué no haces un jardín\nvariado con montones de\nflores diferentes?",
      "EUfr": "{{reaction type=\"Happiness\"}}Oh, salut, {{pause frames=\"5\"}}{{string value=\"PlayerNickname\"}}!{{pause frames=\"10\"}}\nAlors, ton jardin avance\nbien, {{pause frames=\"5\"}}{{string value=\"Catchphrase\"}}?\n{{resetReaction}}Un conseil: au lieu de\nplanter plein de fleurs\nsemblables,\n{{reaction type=\"Joy\"}}pourquoi ne pas en planter\nde toutes les sortes?",
      "EUit": "{{reaction type=\"Happiness\"}}Oh, ehi, {{pause frames=\"5\"}}{{string value=\"PlayerNickname\"}}!{{pause frames=\"10\"}} Il\ntuo giardino cresce bello\nfiorito, {{pause frames=\"5\"}}{{string value=\"Catchphrase\"}}?\n{{resetReaction}}Voglio darti un consiglio:\ninvece di piantare quintali\ndi fiori uguali, cerca di\nfare una{{reaction type=\"Joy\"}} combinazione di\ntante varietà diverse!",
      "JPja": "{{reaction type=\"Happiness\"}}あら、{{pause frames=\"5\"}}{{string value=\"PlayerNickname\"}}さん{{pause frames=\"10\"}}\n{{kanjiReplace charNum=\"2\" value=\"ちょうし\"}}調子は　どうかしら？\n\n{{resetReaction}}お{{kanjiReplace charNum=\"1\" value=\"はな\"}}花は　１つの{{kanjiReplace charNum=\"2\" value=\"しゅるい\"}}種類を\nたくさん　うえるより、\n\n{{reaction type=\"Joy\"}}いろんな　{{kanjiReplace charNum=\"2\" value=\"しゅるい\"}}種類を\nまんべんなく　うえた{{kanjiReplace charNum=\"1\" value=\"ほう\"}}方が\nはなやかに　{{kanjiReplace charNum=\"1\" value=\"み\"}}見えますよ",
      "KRko": "{{reaction type=\"Happiness\"}}어머，{{pause frames=\"5\"}} {{string value=\"PlayerNickname\"}}님{{pause frames=\"10\"}}\n요새 어떻게 지내세요？\n\n{{resetReaction}}꽃은 １가지 종류를\n많이 심는 것보다，\n\n{{reaction type=\"Joy\"}}여러 가지 종류를\n두루두루 심어야\n더 화려해 보여요",
      "USen": "{{reaction type=\"Happiness\"}}Oh, heya, {{pause frames=\"5\"}}{{string value=\"PlayerNickname\"}}!{{pause frames=\"10\"}} So,\nhow green does your garden\ngrow, {{pause frames=\"5\"}}{{string value=\"Catchphrase\"}}?\n{{resetReaction}}Here's a little tip for you:\ninstead of planting tons\nof the same flowers,\n{{reaction type=\"Joy\"}}why don't you try mixing it\nup by planting all sorts of\ndifferent flowers?"
    }
  },
  {
    "label": "05",
    "attribute": "0x00000000FE000000",
    "locale": {
      "EUde": "{{reaction type=\"Happiness\"}}Oh, {{pause frames=\"5\"}}{{string value=\"PlayerNickname\"}},{{pause frames=\"10\"}} wie geht\nes deinen Blumen? Sind sie\nnoch{{pause frames=\"5\"}}.{{pause frames=\"5\"}}.{{pause frames=\"5\"}}.{{pause frames=\"5\"}} gesund und munter?\n{{resetReaction}}Bis nächsten Sonntag\nsolltest du sie besser gut\nin Form bringen!\n{{reaction type=\"Happiness\"}}Gieß sie jeden Tag,\nwenn du keine Trocken-\nblumen haben willst!",
      "EUen": "{{reaction type=\"Happiness\"}}Oh, {{pause frames=\"5\"}}{{string value=\"PlayerNickname\"}},{{pause frames=\"10\"}} how are\nyour flowers doing? Are\nthey{{pause frames=\"5\"}}.{{pause frames=\"5\"}}.{{pause frames=\"5\"}}.{{pause frames=\"5\"}}still alive?\n{{resetReaction}}You have until next Sunday,\nso you'd better take good\ncare of them.\n{{reaction type=\"Happiness\"}}Keep watering them every\nday, unless you like your\nflowers crunchy.",
      "EUes": "{{reaction type=\"Happiness\"}}Oh, {{pause frames=\"5\"}}{{string value=\"PlayerNickname\"}},{{pause frames=\"10\"}}\n¿qué tal van tus flores?\n¿Siguen{{pause frames=\"5\"}}.{{pause frames=\"5\"}}.{{pause frames=\"5\"}}.{{pause frames=\"5\"}} vivas?\n{{resetReaction}}Tienen que aguantar hasta\nel domingo, así que más te\nvale cuidarlas bien.\n{{reaction type=\"Happiness\"}}Riégalas a diario, a no ser\nque te gusten las flores\nmarrones y crujientes.",
      "EUfr": "{{reaction type=\"Happiness\"}}Oh, {{pause frames=\"5\"}}{{string value=\"PlayerNickname\"}},{{pause frames=\"10\"}} comment\nvont tes fleurs? Elles\nsont{{pause frames=\"5\"}}.{{pause frames=\"5\"}}.{{pause frames=\"5\"}}.{{pause frames=\"5\"}} encore vivantes?\n{{resetReaction}}Tu as jusqu'à dimanche\nprochain donc prends-en\nbien soin jusque-là.\n{{reaction type=\"Happiness\"}}Arrose-les tous les jours,\nà moins que tu ne veuilles\nqu'elles fanent.",
      "EUit": "{{reaction type=\"Happiness\"}}Oh, {{pause frames=\"5\"}}{{string value=\"PlayerNickname\"}},{{pause frames=\"10\"}} come\nstanno i tuoi fiori? Sono\nancora{{pause frames=\"5\"}}.{{pause frames=\"5\"}}.{{pause frames=\"5\"}}.{{pause frames=\"5\"}} tutti vivi?\n{{resetReaction}}Devono resistere fino a\ndomenica, quindi ricordati\ndi trattarli con amore.\n{{reaction type=\"Happiness\"}}Annaffiali ogni giorno...\na meno che tu non ami\ni fiori secchi.",
      "JPja": "{{reaction type=\"Happiness\"}}あら、{{pause frames=\"5\"}}{{string value=\"PlayerNickname\"}}さん{{pause frames=\"10\"}}\nお{{kanjiReplace charNum=\"1\" value=\"はな\"}}花の{{kanjiReplace charNum=\"2\" value=\"ちょうし\"}}調子は\nいかがですか？\n{{resetReaction}}{{kanjiReplace charNum=\"2\" value=\"らいしゅう\"}}来週の　{{kanjiReplace charNum=\"2\" value=\"にちよう\"}}日曜が\n{{kanjiReplace charNum=\"3\" value=\"さいしゅうび\"}}最終日ですから、\n\n{{reaction type=\"Happiness\"}}お{{kanjiReplace charNum=\"1\" value=\"はな\"}}花には　{{kanjiReplace charNum=\"2\" value=\"まいにち\"}}毎日かかさず\nお{{kanjiReplace charNum=\"1\" value=\"みず\"}}水を　あげた{{kanjiReplace charNum=\"1\" value=\"ほう\"}}方が\nいいですよ、{{pause frames=\"5\"}}{{string value=\"Catchphrase\"}}！",
      "KRko": "{{reaction type=\"Happiness\"}}어맛，{{pause frames=\"5\"}} {{string value=\"PlayerNickname\"}}님{{pause frames=\"10\"}}\n꽃들은 다\n안녕하신가요？\n{{resetReaction}}이번 주 일요일이\n마지막 날이니까，\n\n{{reaction type=\"Happiness\"}}매일 매일 잊지 말고\n꽃에 물을 주세요\n{{pause frames=\"5\"}}{{string value=\"Catchphrase\"}}！",
      "USen": "{{reaction type=\"Happiness\"}}Oh, {{pause frames=\"5\"}}{{string value=\"PlayerNickname\"}},{{pause frames=\"10\"}} how are\nyour flowers doing? Are\nthey{{pause frames=\"5\"}}.{{pause frames=\"5\"}}.{{pause frames=\"5\"}}.{{pause frames=\"5\"}}still alive?\n{{resetReaction}}You have until next Sunday,\nso you'd better take good\ncare of them.\n{{reaction type=\"Happiness\"}}Keep watering them every\nday, unless you like your\nflowers crunchy."
    }
  },
  {
    "label": "06",
    "attribute": "0x00000000FE000000",
    "locale": {
      "EUde": "{{resetReaction}}Das {{color id=\"3\"}}Blumenfest{{color id=\"0\"}} endet\nnächsten Sonntag,\n{{pause frames=\"5\"}}{{string value=\"Catchphrase\"}}!\n{{reaction type=\"Agreement\"}}Versuch wenigstens, deine\nBlumen bis dahin am Leben\nzu erhalten.\n{{reaction type=\"Happiness\"}}Schließlich ist das deine\nChance, einen grünen Daumen\nzu zeigen, {{pause frames=\"5\"}}{{string value=\"Catchphrase\"}}!",
      "EUen": "{{resetReaction}}The {{color id=\"3\"}}Flower Fest{{color id=\"0\"}} wraps up\nnext Sunday, {{pause frames=\"5\"}}{{string value=\"Catchphrase\"}}!\n\n{{reaction type=\"Agreement\"}}At the very least, you\nshould try to keep your\nflowers alive until then.\n{{reaction type=\"Happiness\"}}After all, this is your big\nchance to show off your\ngreen thumb, {{pause frames=\"5\"}}{{string value=\"Catchphrase\"}}!",
      "EUes": "{{resetReaction}}¡El {{color id=\"3\"}}Festival de las Flores\n{{color id=\"0\"}}termina el próximo\ndomingo, {{pause frames=\"5\"}}{{string value=\"Catchphrase\"}}!\n{{reaction type=\"Agreement\"}}A ver si consigues que tus\nflores aguanten vivas hasta\nentonces{{pause frames=\"3\"}}.{{pause frames=\"3\"}}.{{pause frames=\"3\"}}.\n{{reaction type=\"Happiness\"}}¡Esta es tu oportunidad\npara demostrar que sabes\nde jardinería, {{pause frames=\"5\"}}{{string value=\"Catchphrase\"}}!",
      "EUfr": "{{resetReaction}}Le {{color id=\"3\"}}festival floral{{color id=\"0\"}} se\ntermine dimanche prochain,\n{{pause frames=\"5\"}}{{string value=\"Catchphrase\"}}!\n{{reaction type=\"Agreement\"}}Tu devrais au moins essayer\nde garder tes plantes en\nvie jusque-là.\n{{reaction type=\"Happiness\"}}Après tout, c'est l'occasion\nde montrer que tu as la\nmain verte, {{pause frames=\"5\"}}{{string value=\"Catchphrase\"}}!",
      "EUit": "{{resetReaction}}Il {{color id=\"3\"}}Festival dei fiori{{color id=\"0\"}} finisce\ndomenica, {{pause frames=\"5\"}}{{string value=\"Catchphrase\"}}!\n\n{{reaction type=\"Agreement\"}}Cerca per lo meno di\nmantenere in vita i tuoi\nfiori fino a quel giorno!\n{{reaction type=\"Happiness\"}}Questa è l'unica occasione\nper mostrare il tuo pollice\nverde, {{pause frames=\"5\"}}{{string value=\"Catchphrase\"}}!",
      "JPja": "{{resetReaction}}{{color id=\"3\"}}ガーデニングたいかい{{color id=\"0\"}}は\n{{kanjiReplace charNum=\"1\" value=\"つぎ\"}}次の　{{kanjiReplace charNum=\"3\" value=\"にちようび\"}}日曜日が\n{{kanjiReplace charNum=\"3\" value=\"さいしゅうび\"}}最終日ですよ\n{{reaction type=\"Agreement\"}}{{kanjiReplace charNum=\"1\" value=\"のこ\"}}残りの　{{kanjiReplace charNum=\"2\" value=\"きかん\"}}期間、{{pause frames=\"5\"}}\nお{{kanjiReplace charNum=\"1\" value=\"はな\"}}花のコンディションを\nどれだけ　{{kanjiReplace charNum=\"1\" value=\"ととの\"}}整えられるか、\n{{reaction type=\"Happiness\"}}あなたの　うでの\n{{kanjiReplace charNum=\"1\" value=\"み\"}}見せどころです、{{pause frames=\"5\"}}{{string value=\"Catchphrase\"}}！",
      "KRko": "{{resetReaction}}{{color id=\"3\"}}정원가꾸기대회{{color id=\"0\"}}는\n이번 주 일요일에\n끝난대요\n{{reaction type=\"Agreement\"}}남은 기간 동안{{pause frames=\"5\"}}\n꽃 컨디션을 얼마나 잘\n유지해 주는지\n{{reaction type=\"Happiness\"}}당신이 하기에\n달렸어요，{{pause frames=\"5\"}} {{string value=\"Catchphrase\"}}！",
      "USen": "{{resetReaction}}The {{color id=\"3\"}}Flower Fest{{color id=\"0\"}} wraps up\nnext Sunday, {{pause frames=\"5\"}}{{string value=\"Catchphrase\"}}!\n\n{{reaction type=\"Agreement\"}}At the very least, you\nshould try to keep your\nflowers alive until then.\n{{reaction type=\"Happiness\"}}After all, this is your big\nchance to show off your\ngreen thumb, {{pause frames=\"5\"}}{{string value=\"Catchphrase\"}}!"
    }
  },
  {
    "label": "07",
    "attribute": "0x00000000FE000000",
    "locale": {
      "EUde": "{{resetReaction}}{{capitalizeLetter}}{{string value=\"PlayerNickname\"}}, hat dein\nGarten auch ein Motto,\ndas ihn zusammenhält?\nNur Pflanzen und wieder\nPflanzen ohne ein Motto\nist doch langweilig.\n{{reaction type=\"Happiness\"}}Gartenarbeit macht viel\nmehr Spaß, wenn der Garten\nein Motto hat!",
      "EUen": "{{resetReaction}}{{capitalizeLetter}}{{string value=\"PlayerNickname\"}}, does your\ngarden have a theme to\ntie it all up together?\nI get bored of gardening\nwhen I'm just planting and\nwatering and planting again.\n{{reaction type=\"Happiness\"}}Giving myself a theme to\nwork with makes gardening\na lot more fun.",
      "EUes": "{{resetReaction}}¿Tu jardín tiene algún\ntema o estilo determinado,\n{{string value=\"PlayerNickname\"}}?\nYo me aburro del jardín si\nme dedico solo a plantar\ny regar sin más.\n{{reaction type=\"Happiness\"}}Si elijo un tema para el\njardín, luego es mucho más\ndivertido crearlo.",
      "EUfr": "{{resetReaction}}{{capitalizeLetter}}{{string value=\"PlayerNickname\"}}, est-ce que\nton jardin a un thème\nparticulier?\nJardiner, ça m'ennuie,\nquand j'ai juste à arroser,\nplanter et arroser encore.\n{{reaction type=\"Happiness\"}}Avoir un thème pour mon\njardin, ça me donne du cœur\nà l'ouvrage.",
      "EUit": "{{resetReaction}}{{capitalizeLetter}}{{string value=\"PlayerNickname\"}}, hai realizzato\nil tuo giardino secondo un\ntema? Un filo conduttore?\nA me non piace piantare\nfiori a casaccio, senza\nun tema preciso.\n{{reaction type=\"Happiness\"}}Il giardinaggio è più\npiacevole se ti poni\nun obiettivo.",
      "JPja": "{{resetReaction}}{{string value=\"PlayerNickname\"}}さんの\n{{kanjiReplace charNum=\"1\" value=\"と\"}}取り{{kanjiReplace charNum=\"1\" value=\"く\"}}組んでる　お{{kanjiReplace charNum=\"1\" value=\"にわ\"}}庭って\nどんなイメージですか？\nガーデニングは\n{{kanjiReplace charNum=\"1\" value=\"なに\"}}何か　イメージを{{kanjiReplace charNum=\"1\" value=\"も\"}}持って\n{{kanjiReplace charNum=\"1\" value=\"と\"}}取り{{kanjiReplace charNum=\"1\" value=\"く\"}}組んだ{{kanjiReplace charNum=\"1\" value=\"ほう\"}}方が、\n{{reaction type=\"Happiness\"}}お{{kanjiReplace charNum=\"1\" value=\"はな\"}}花の　{{kanjiReplace charNum=\"2\" value=\"せわ\"}}世話をするのにも\nねつが　{{kanjiReplace charNum=\"1\" value=\"はい\"}}入りますよ、{{pause frames=\"5\"}}{{string value=\"Catchphrase\"}}！",
      "KRko": "{{resetReaction}}{{string value=\"PlayerNickname\"}}님이\n만들고 계신 정원은\n어떤 느낌인가요？\n정원을 가꿀 때\n하나의 테마를 갖고\n만들기 시작하면，\n{{reaction type=\"Happiness\"}}꽃을 더 정성스럽게\n가꿀 수 있을 거예요！{{pause frames=\"5\"}}\n{{string value=\"Catchphrase\"}}",
      "USen": "{{resetReaction}}{{capitalizeLetter}}{{string value=\"PlayerNickname\"}}, does your\ngarden have a theme to\ntie it all up together?\nI get bored of gardening\nwhen I'm just planting and\nwatering and planting again.\n{{reaction type=\"Happiness\"}}Giving myself a theme to\nwork with makes gardening\na lot more fun."
    }
  },
  {
    "label": "08",
    "attribute": "0x00000000FE000000",
    "locale": {
      "EUde": "{{reaction type=\"Happiness\"}}Es war eine anstrengende\nWoche, aber das {{color id=\"3\"}}Blumenfest{{color id=\"0\"}}\nendet bald.\n{{resetReaction}}Es war eine tolle Woche,\naber ich bereue einiges.\n\n{{reaction type=\"Worry\"}}Zum Beispiel, dass ich\nnicht mehr verschiedene\nBlumen gepflanzt habe{{pause frames=\"5\"}}.{{pause frames=\"5\"}}.{{pause frames=\"5\"}}.",
      "EUen": "{{reaction type=\"Happiness\"}}It's been a long and busy\nweek, but the {{color id=\"3\"}}Flower Fest{{color id=\"0\"}}\nis finally wrapping up.\n{{resetReaction}}I had a good week, but\nI have my regrets.\n\n{{reaction type=\"Worry\"}}Like if I'd only tried harder\nto plant a wider variety of\nflowers{{pause frames=\"5\"}}.{{pause frames=\"5\"}}.{{pause frames=\"5\"}}.",
      "EUes": "{{reaction type=\"Happiness\"}}Ha sido una semana muy\ndura, pero por fin se acaba\nel {{color id=\"3\"}}Festival de las Flores{{color id=\"0\"}}.\n{{resetReaction}}He tenido una buena\nsemana, pero tengo algunos\nremordimientos.\n{{reaction type=\"Worry\"}}Me hubiera gustado plantar\nuna mayor variedad de\nflores{{pause frames=\"5\"}}.{{pause frames=\"5\"}}.{{pause frames=\"5\"}}.",
      "EUfr": "{{reaction type=\"Happiness\"}}La semaine a été longue et\nchargée, mais le {{color id=\"3\"}}festival\nfloral {{color id=\"0\"}}est enfin fini.\n{{resetReaction}}C'était bien, mais j'ai\nquelques regrets.\n\n{{reaction type=\"Worry\"}}J'aurais dû essayer de\nplanter des fleurs plus\ndifférentes{{pause frames=\"5\"}}.{{pause frames=\"5\"}}.{{pause frames=\"5\"}}.",
      "EUit": "{{reaction type=\"Happiness\"}}È stata una settimana lunga\ne faticosa, ma il {{color id=\"3\"}}Festival\ndei fiori {{color id=\"0\"}}sta finendo.\n{{resetReaction}}Sono contenta, anche se\nho qualche rimorso.\n\n{{reaction type=\"Worry\"}}Avrei dovuto piantare una\nmaggiore varietà di fiori{{pause frames=\"5\"}}.{{pause frames=\"5\"}}.{{pause frames=\"5\"}}.",
      "JPja": "{{reaction type=\"Happiness\"}}{{color id=\"3\"}}ガーデニングたいかい{{color id=\"0\"}}も\n{{kanjiReplace charNum=\"2\" value=\"きょう\"}}今日で　{{kanjiReplace charNum=\"1\" value=\"お\"}}終わりですね！\n{{pause frames=\"5\"}}{{string value=\"Catchphrase\"}}！\n{{resetReaction}}わたしは　ちょっと\nくいが　{{kanjiReplace charNum=\"1\" value=\"のこ\"}}残っちゃいました\n\nもっと　もっと\n{{kanjiReplace charNum=\"1\" value=\"いろ\"}}色とりどりのお{{kanjiReplace charNum=\"1\" value=\"はな\"}}花を\n\n{{reaction type=\"Worry\"}}もっともっと\nたくさん　うえる{{kanjiReplace charNum=\"1\" value=\"こと\"}}事も\nできたように　{{kanjiReplace charNum=\"1\" value=\"おも\"}}思いますから",
      "KRko": "{{reaction type=\"Happiness\"}}{{color id=\"3\"}}정원가꾸기대회{{color id=\"0\"}}도\n오늘로 마지막이네요！\n{{pause frames=\"5\"}}{{string value=\"Catchphrase\"}}！\n{{resetReaction}}전 조금\n미련이 남아요\n\n좀 더\n형형색색의 꽃을\n\n{{reaction type=\"Worry\"}}많이\n심을 수 있었을 텐데\n하는 미련 말이에요",
      "USen": "{{reaction type=\"Happiness\"}}It's been a long and busy\nweek, but the {{color id=\"3\"}}Flower Fest{{color id=\"0\"}}\nis finally wrapping up.\n{{resetReaction}}I had a good week, but\nI have my regrets.\n\n{{reaction type=\"Worry\"}}Like if I'd only tried harder\nto plant a wider variety of\nflowers{{pause frames=\"5\"}}.{{pause frames=\"5\"}}.{{pause frames=\"5\"}}."
    }
  },
  {
    "label": "09",
    "attribute": "0x00000000FE000000",
    "locale": {
      "EUde": "{{resetReaction}}Es war für uns alle eine\nlange, anstrengende Woche.\nGut, dass sie vorbei ist!\nHeute sehen wir, wer den\n{{color id=\"2\"}}Grünen Daumen{{color id=\"0\"}} hat und den\n{{color id=\"7\"}}Blumenfest-Pokal{{color id=\"0\"}} erhält.\n{{reaction type=\"Worry\"}}Ich denke nicht, dass\nich es sein werde.{{pressButton}}\n{{reaction type=\"Sadness\"}}.{{pause frames=\"3\"}}.{{pause frames=\"3\"}}.{{pause frames=\"3\"}}Eigentlich schade.",
      "EUen": "{{resetReaction}}It's been a long, emotional\nweek for us all, I know.\nThank goodness it's over!\nToday, we learn who will be\nthe {{color id=\"2\"}}Green Thumb{{color id=\"0\"}} and take\nthe {{color id=\"7\"}}Flower Fest trophy{{color id=\"0\"}}.\n{{reaction type=\"Worry\"}}I don't think it's going\nto be me, though.{{pressButton}}\n{{reaction type=\"Sadness\"}}.{{pause frames=\"3\"}}.{{pause frames=\"3\"}}.{{pause frames=\"3\"}}Makes me so sad.",
      "EUes": "{{resetReaction}}Ha sido una semana larga y\nmuy emotiva para todos.\n¡Menos mal que se acabó!\nHoy sabremos quién ganará\nel {{color id=\"7\"}}trofeo{{color id=\"0\"}} y será {{color id=\"2\"}}Florista\nMayor{{color id=\"0\"}}.\n{{reaction type=\"Worry\"}}No creo que vaya a ser\nyo, la verdad.{{pressButton}}\n{{reaction type=\"Sadness\"}}Y me da una pena{{pause frames=\"3\"}}.{{pause frames=\"3\"}}.{{pause frames=\"3\"}}.",
      "EUfr": "{{resetReaction}}La semaine a été longue et\néprouvante pour nous tous.\nMais c'est fini!\nAujourd'hui, on va savoir\nqui est le {{color id=\"2\"}}Pouce vert{{color id=\"0\"}} qui\nremportera le {{color id=\"7\"}}trophée{{color id=\"0\"}}.\n{{reaction type=\"Worry\"}}Je ne crois pas que ce sera\nmoi de toute façon.{{pressButton}}\n{{reaction type=\"Sadness\"}}.{{pause frames=\"3\"}}.{{pause frames=\"3\"}}.{{pause frames=\"3\"}} Ça me rend triste.",
      "EUit": "{{resetReaction}}È stata una settimana\nintensa per tutti noi. Meno\nmale che è finita!\nOggi sapremo chi è il\n{{color id=\"2\"}}Pollice verde{{color id=\"0\"}} che vincerà il\n{{color id=\"7\"}}Trofeo del festival{{color id=\"0\"}}.\n{{reaction type=\"Worry\"}}Non sarò certo io.\nNe sono convinta.{{pressButton}}\n{{reaction type=\"Sadness\"}}.{{pause frames=\"3\"}}.{{pause frames=\"3\"}}.{{pause frames=\"3\"}} Che peccato.",
      "JPja": "{{resetReaction}}{{kanjiReplace charNum=\"1\" value=\"なが\"}}長いようで　{{kanjiReplace charNum=\"1\" value=\"みじか\"}}短かった\n{{color id=\"3\"}}ガーデニングたいかい{{color id=\"0\"}}も、{{pause frames=\"5\"}}\nひとまず　おしまいです、{{pause frames=\"5\"}}{{string value=\"Catchphrase\"}}\n{{kanjiReplace charNum=\"2\" value=\"ゆうしょう\"}}優勝{{kanjiReplace charNum=\"1\" value=\"しゃ\"}}者には\nお{{kanjiReplace charNum=\"2\" value=\"てがみ\"}}手紙と　{{color id=\"7\"}}トロフィー{{color id=\"0\"}}が\n{{kanjiReplace charNum=\"1\" value=\"とど\"}}届くらしいんですけど、\n{{reaction type=\"Worry\"}}やっぱり　わたしには\n{{kanjiReplace charNum=\"1\" value=\"こ\"}}来ないでしょうね{{pressButton}}\n{{reaction type=\"Sadness\"}}はぁ{{pause frames=\"3\"}}・{{pause frames=\"3\"}}・{{pause frames=\"3\"}}・{{string value=\"Catchphrase\"}}",
      "KRko": "{{resetReaction}}긴 듯 짧았던\n{{color id=\"3\"}}정원가꾸기대회{{color id=\"0\"}}도 드디어{{pause frames=\"5\"}}\n끝났네요，{{pause frames=\"5\"}} {{string value=\"Catchphrase\"}}\n우승자에게는\n편지와 {{color id=\"7\"}}트로피{{color id=\"0\"}}가\n수여된다고 하는데，\n{{reaction type=\"Worry\"}}역시 저한테는\n힘들겠죠？{{pressButton}}\n{{reaction type=\"Sadness\"}}에효{{pause frames=\"3\"}}・{{pause frames=\"3\"}}・{{pause frames=\"3\"}}・ {{string value=\"Catchphrase\"}}",
      "USen": "{{resetReaction}}It's been a long, emotional\nweek for us all, I know.\nThank goodness it's over!\nToday, we learn who will be\nthe {{color id=\"2\"}}Green Thumb{{color id=\"0\"}} and take\nthe {{color id=\"7\"}}Flower Fest trophy{{color id=\"0\"}}.\n{{reaction type=\"Worry\"}}I don't think it's going\nto be me, though.{{pressButton}}\n{{reaction type=\"Sadness\"}}.{{pause frames=\"3\"}}.{{pause frames=\"3\"}}.{{pause frames=\"3\"}}Makes me so sad."
    }
  },
  {
    "label": "10",
    "attribute": "0x00000000FF000000",
    "locale": {
      "EUde": "Fantastischer Tag für\nGartenarbeit, findest du\nnicht, {{pause frames=\"5\"}}{{string value=\"Catchphrase\"}}?",
      "EUen": "Great day for gardening,\nisn't it, {{pause frames=\"5\"}}{{string value=\"Catchphrase\"}}?",
      "EUes": "Un día estupendo para estar\npor el jardín, ¿no te\nparece, {{pause frames=\"5\"}}{{string value=\"Catchphrase\"}}?",
      "EUfr": "Belle journée pour jardiner,\nhein, {{pause frames=\"5\"}}{{string value=\"Catchphrase\"}}?",
      "EUit": "Una giornata magnifica\nper il giardinaggio,\n{{pause frames=\"5\"}}{{string value=\"Catchphrase\"}}?",
      "JPja": "なかなかの\nガーデニングびよりですね、\n{{pause frames=\"5\"}}{{string value=\"Catchphrase\"}}",
      "KRko": "오늘은 정원 가꾸기에\n정말 좋은 날이에요\n{{pause frames=\"5\"}}{{string value=\"Catchphrase\"}}",
      "USen": "Great day for gardening,\nisn't it, {{pause frames=\"5\"}}{{string value=\"Catchphrase\"}}?"
    }
  },
  {
    "label": "11",
    "attribute": "0x00000000FF000000",
    "locale": {
      "EUde": "{{reaction type=\"Happiness\"}}Ich muss nur an Blumen\ndenken, schon fühle ich\nmich frisch und lebendig.",
      "EUen": "{{reaction type=\"Happiness\"}}When I even start thinking\nabout flowers, I feel fresh\nand full of life.",
      "EUes": "{{reaction type=\"Happiness\"}}Siempre que pienso en las\nflores, me siento fresca y\nllena de vida.",
      "EUfr": "{{reaction type=\"Happiness\"}}Quand je pense aux fleurs,\nje me sens revigorée.",
      "EUit": "{{reaction type=\"Happiness\"}}Mi basta pensare ai fiori\nper sentirne la freschezza\ne il profumo!",
      "JPja": "{{reaction type=\"Happiness\"}}お{{kanjiReplace charNum=\"1\" value=\"はな\"}}花のコトを{{kanjiReplace charNum=\"1\" value=\"かんが\"}}考えてると\n{{kanjiReplace charNum=\"2\" value=\"きぶん\"}}気分が　{{kanjiReplace charNum=\"1\" value=\"あか\"}}明るくなります",
      "KRko": "{{reaction type=\"Happiness\"}}꽃에 대해서 생각하면\n기분이 좋아져요",
      "USen": "{{reaction type=\"Happiness\"}}When I even start thinking\nabout flowers, I feel fresh\nand full of life."
    }
  },
  {
    "label": "12",
    "attribute": "0x00000000FF000000",
    "locale": {
      "EUde": "Oh, hey,{{pause frames=\"5\"}} {{string value=\"PlayerNickname\"}}.",
      "EUen": "Oh, heya,{{pause frames=\"5\"}} {{string value=\"PlayerNickname\"}}.",
      "EUes": "Oh, hola,{{pause frames=\"5\"}} {{string value=\"PlayerNickname\"}}.",
      "EUfr": "Oh, salut,{{pause frames=\"5\"}} {{string value=\"PlayerNickname\"}}.",
      "EUit": "Oh, ehi,{{pause frames=\"5\"}} {{string value=\"PlayerNickname\"}}.",
      "JPja": "あら、{{pause frames=\"5\"}}{{string value=\"PlayerNickname\"}}さん",
      "KRko": "어맛，{{pause frames=\"5\"}} {{string value=\"PlayerNickname\"}}님",
      "USen": "Oh, heya,{{pause frames=\"5\"}} {{string value=\"PlayerNickname\"}}."
    }
  },
  {
    "label": "13",
    "attribute": "0x00000000FE000000",
    "locale": {
      "EUde": "{{resetReaction}}Es gibt Leute, die halten\nGartenarbeit für Zeitver-\nschwendung, {{pause frames=\"5\"}}{{string value=\"Catchphrase\"}}.\nSolche, die meinen, Ge-\nmüse ist besser, weil man\nBlumen nicht essen kann.\n{{reaction type=\"Mischief\"}}Die wissen es nur nicht!\n{{reaction type=\"Glee\"}}Einige Blumen KANN man\nessen.\n{{reaction type=\"Fearful\"}}Solange man sich nicht am\nGeschmack von Blattläusen\nstört...",
      "EUen": "{{resetReaction}}Some people think flower\ngardens are a waste of\ntime, {{pause frames=\"5\"}}{{string value=\"Catchphrase\"}}.\n\"Grow vegetables,\" they say.\n\"You can't eat flowers.\"{{pressButton}}\n{{reaction type=\"Mischief\"}}Well, I have news for them!\n{{reaction type=\"Glee\"}}You CAN eat SOME flowers.{{pressButton}}\n{{reaction type=\"Fearful\"}}As long as you don't mind\nthe taste of aphids.",
      "EUes": "{{resetReaction}}Algunas personas creen que\nlas flores son una pérdida\nde tiempo, {{pause frames=\"5\"}}{{string value=\"Catchphrase\"}}.\n\"Cultiva verduras\", te dicen,\n\"las flores no se comen\".{{pressButton}}\n{{reaction type=\"Mischief\"}}¡Pues están mal informadas!\n{{reaction type=\"Glee\"}}Porque hay flores que se\ncomen.{{pressButton}} {{reaction type=\"Fearful\"}}Si no te molesta\ntragar algún pulgón...",
      "EUfr": "{{resetReaction}}Certaines personnes pensent\nque planter des fleurs c'est\nune perte de temps.\n\"Plante des légumes\", qu'ils\ndisent. \"Les fleurs ça ne\nnourrit pas son homme.\"\n{{reaction type=\"Mischief\"}}Eh ben je vais leur\napprendre quelque chose!\n\n{{reaction type=\"Glee\"}}On peut manger certaines\nfleurs.{{pressButton}} {{reaction type=\"Fearful\"}}Enfin, si on aime le\ngoût du pollen.",
      "EUit": "{{resetReaction}}C'è chi pensa che piantare\nfiori sia una perdita di\ntempo, {{pause frames=\"5\"}}{{string value=\"Catchphrase\"}}.\n\"Pianta degli ortaggi\",\n\"i fiori non si mangiano\"...{{pressButton}}\ndicono proprio così!\n{{reaction type=\"Mischief\"}}E invece... alcuni fiori si\n{{reaction type=\"Glee\"}}POSSONO MANGIARE.{{pressButton}}\n{{reaction type=\"Fearful\"}}Sempre che...\nnon ti facciano schifo i\npidocchi delle piante!",
      "JPja": "{{resetReaction}}「{{kanjiReplace charNum=\"1\" value=\"はな\"}}花よりだんご」って\nよく　{{kanjiReplace charNum=\"1\" value=\"い\"}}言いますけど、\n\n{{reaction type=\"Glee\"}}わたしは　どちらも\n{{kanjiReplace charNum=\"1\" value=\"おな\"}}同じくらい　{{kanjiReplace charNum=\"1\" value=\"す\"}}好きなんです、\n{{pause frames=\"5\"}}{{string value=\"Catchphrase\"}}",
      "KRko": "{{resetReaction}}「호박꽃도 꽃이다」\n라는 말이 있지만，\n\n{{reaction type=\"Glee\"}}전 절대\n호박꽃만큼은 되고 싶지 않아요\n{{pause frames=\"5\"}}{{string value=\"Catchphrase\"}}",
      "USen": "{{resetReaction}}Some people think flower\ngardens are a waste of\ntime, {{pause frames=\"5\"}}{{string value=\"Catchphrase\"}}.\n\"Grow vegetables,\" they say.\n\"You can't eat flowers.\"{{pressButton}}\n{{reaction type=\"Mischief\"}}Well, I have news for them!\n{{reaction type=\"Glee\"}}You CAN eat SOME flowers.{{pressButton}}\n{{reaction type=\"Fearful\"}}As long as you don't mind\nthe taste of aphids."
    }
  },
  {
    "label": "14",
    "attribute": "0x00000000FE000000",
    "locale": {
      "EUde": "{{reaction type=\"Happiness\"}}Als ich klein war, habe ich\ngern Nickerchen im Garten\ngemacht, {{pause frames=\"5\"}}{{string value=\"Catchphrase\"}}.\n{{reaction type=\"Thought\"}}Es gibt schließlich auch\nLeute, die haben Betten im\nKornfeld, oder?\n{{resetReaction}}Mama mochte es natürlich\nnicht, wenn ich ihre Blumen\nzerdrückte{{pause frames=\"3\"}}.{{pause frames=\"3\"}}.{{pause frames=\"3\"}}.{{pause frames=\"3\"}}\nSie meinte immer, ich soll\nlieber in Nachbars Garten\nschlafen.\n{{reaction type=\"Joy\"}}Bald hatte sie den\nschönsten{{pause frames=\"3\"}}.{{pause frames=\"3\"}}.{{pause frames=\"3\"}}.{{pause frames=\"3\"}} sogar den ein-\nzigen{{pause frames=\"3\"}}.{{pause frames=\"3\"}}.{{pause frames=\"3\"}}.{{pause frames=\"3\"}} Garten der Stadt!",
      "EUen": "{{reaction type=\"Happiness\"}}When I was little, I used to\nlike taking naps in flower\ngardens, {{pause frames=\"5\"}}{{string value=\"Catchphrase\"}}.\n{{reaction type=\"Thought\"}}I mean, they're called\nflowerbeds for a reason,\nright?\n{{resetReaction}}So anyway, my mom used to\nget really mad when I'd\nsquish her flowers{{pause frames=\"3\"}}.{{pause frames=\"3\"}}.{{pause frames=\"3\"}}.{{pause frames=\"3\"}}\nShe said I was free to\nsleep in the neighbor's\ngardens if I wanted, though.\n{{reaction type=\"Joy\"}}Pretty soon, she had\nthe nicest{{pause frames=\"3\"}}.{{pause frames=\"3\"}}.{{pause frames=\"3\"}}.{{pause frames=\"3\"}}well, actually,\nthe only{{pause frames=\"3\"}}.{{pause frames=\"3\"}}.{{pause frames=\"3\"}}.{{pause frames=\"3\"}}garden in town!",
      "EUes": "{{reaction type=\"Happiness\"}}Cuando era pequeña, solía\necharme la siesta en el\njardín, {{pause frames=\"5\"}}{{string value=\"Catchphrase\"}}.\n{{reaction type=\"Thought\"}}Vamos, que por algo se\nllaman \"lechos de flores\"\nlos colchones esos, ¿no?\n{{resetReaction}}Pues mi madre se enfadaba\nun montón porque le\naplastaba las flores{{pause frames=\"3\"}}.{{pause frames=\"3\"}}.{{pause frames=\"3\"}}.{{pause frames=\"3\"}}\nPero luego decía que si\nquería podía dormir en los\njardines de los vecinos.\n{{reaction type=\"Joy\"}}Al poco tiempo el suyo era\nel jardín más bonito{{pause frames=\"3\"}}.{{pause frames=\"3\"}}.{{pause frames=\"3\"}}.{{pause frames=\"3\"}} más\nbien{{pause frames=\"3\"}}.{{pause frames=\"3\"}}.{{pause frames=\"3\"}}.{{pause frames=\"3\"}} ¡el único del pueblo!",
      "EUfr": "{{reaction type=\"Happiness\"}}Quand j'étais petite, je\nfaisais la sieste au milieu\ndes fleurs, {{pause frames=\"5\"}}{{string value=\"Catchphrase\"}}.\n{{reaction type=\"Thought\"}}On dit que les fleurs\nont des vertus apaisantes,\nnon?\n{{resetReaction}}Bref, ma mère se mettait\nen colère parce que\nj'écrasais ses fleurs{{pause frames=\"3\"}}.{{pause frames=\"3\"}}.{{pause frames=\"3\"}}.{{pause frames=\"3\"}}\nmais elle m'a dit que je\npouvais aller dormir sur\ncelles des voisins.\n{{reaction type=\"Joy\"}}Et comme ça, elle a eu le\nplus beau{{pause frames=\"3\"}}.{{pause frames=\"3\"}}.{{pause frames=\"3\"}}.{{pause frames=\"3\"}} ou plutôt le\nseul{{pause frames=\"3\"}}.{{pause frames=\"3\"}}.{{pause frames=\"3\"}}.{{pause frames=\"3\"}} jardin en ville!",
      "EUit": "{{reaction type=\"Happiness\"}}Quando ero piccola mi\npiaceva dormire in giardino,\ntra i fiori, {{pause frames=\"5\"}}{{string value=\"Catchphrase\"}}.\n{{reaction type=\"Thought\"}}Del resto si chiamano\nletti di fiori, no?\nCi sarà pure un motivo!\n{{resetReaction}}Comunque, la mamma si\narrabbiava perché\nschiacciavo i fiori{{pause frames=\"3\"}}.{{pause frames=\"3\"}}.{{pause frames=\"3\"}}.{{pause frames=\"3\"}}\nPerò non si arrabbiava se\ndormivo nel giardino\ndei vicini... anzi!\n{{reaction type=\"Joy\"}}Così lei aveva il più\nbel{{pause frames=\"3\"}}.{{pause frames=\"3\"}}.{{pause frames=\"3\"}}.{{pause frames=\"3\"}} anzi, l'unico\ngiardino{{pause frames=\"3\"}}.{{pause frames=\"3\"}}.{{pause frames=\"3\"}}.{{pause frames=\"3\"}} della città!",
      "JPja": "{{reaction type=\"Happiness\"}}{{kanjiReplace charNum=\"2\" value=\"いちど\"}}一度で　いいから\nお{{kanjiReplace charNum=\"1\" value=\"はな\"}}花ばたけで\nおひるねして　みたいんです\n{{resetReaction}}こないだ　お{{kanjiReplace charNum=\"2\" value=\"てがみ\"}}手紙で\nお{{kanjiReplace charNum=\"1\" value=\"かあ\"}}母さんに　{{kanjiReplace charNum=\"1\" value=\"い\"}}言ったら、\n\nおぎょうぎが　{{kanjiReplace charNum=\"1\" value=\"わる\"}}悪いって\n{{kanjiReplace charNum=\"1\" value=\"おこ\"}}怒られちゃいましたけど、\n{{pause frames=\"5\"}}{{string value=\"Catchphrase\"}}",
      "KRko": "{{reaction type=\"Happiness\"}}단 한 번만이라도\n꽃밭에서 여유롭게\n낮잠을 자고 싶어요\n{{resetReaction}}저번에 이런 내용의 편지를\n엄마에게 보냈더니，\n\n버릇없다며\n혼내시던데요\n{{pause frames=\"5\"}}{{string value=\"Catchphrase\"}}",
      "USen": "{{reaction type=\"Happiness\"}}When I was little, I used to\nlike taking naps in flower\ngardens, {{pause frames=\"5\"}}{{string value=\"Catchphrase\"}}.\n{{reaction type=\"Thought\"}}I mean, they're called\nflowerbeds for a reason,\nright?\n{{resetReaction}}So anyway, my mom used to\nget really mad when I'd\nsquish her flowers{{pause frames=\"3\"}}.{{pause frames=\"3\"}}.{{pause frames=\"3\"}}.{{pause frames=\"3\"}}\nShe said I was free to\nsleep in the neighbor's\ngardens if I wanted, though.\n{{reaction type=\"Joy\"}}Pretty soon, she had\nthe nicest{{pause frames=\"3\"}}.{{pause frames=\"3\"}}.{{pause frames=\"3\"}}.{{pause frames=\"3\"}}well, actually,\nthe only{{pause frames=\"3\"}}.{{pause frames=\"3\"}}.{{pause frames=\"3\"}}.{{pause frames=\"3\"}}garden in town!"
    }
  },
  {
    "label": "15",
    "attribute": "0x00000000FE000000",
    "locale": {
      "EUde": "Du solltest wirklich dein\nHaus mit Blumen deko-\nrieren, {{pause frames=\"5\"}}{{string value=\"Catchphrase\"}}.\nEin paar Blumen können\neinem Raum eine ganz neue\nAtmosphäre verleihen!",
      "EUen": "You know, you really ought\nto put some flowers around\nyour room, {{pause frames=\"5\"}}{{string value=\"Catchphrase\"}}.\nEven a few flowers can add\na lot of life to a place.",
      "EUes": "Harías bien en poner flores\nen tu casa, {{pause frames=\"5\"}}{{string value=\"Catchphrase\"}}.\n\nCon muy poquitas flores\npuedes dar un montón de\nvida a una habitación.",
      "EUfr": "Tu sais, tu devrais mettre\ndes fleurs dans ta chambre,\n{{pause frames=\"5\"}}{{string value=\"Catchphrase\"}}.\nMême quelques-unes ça\npeut égayer un endroit.",
      "EUit": "Sai, dovresti mettere\nun po' di fiori\nin casa, {{pause frames=\"5\"}}{{string value=\"Catchphrase\"}}.\nI fiori arredano\ne danno gioia.",
      "JPja": "お{{kanjiReplace charNum=\"2\" value=\"へや\"}}部屋に　お{{kanjiReplace charNum=\"1\" value=\"はな\"}}花が１{{kanjiReplace charNum=\"1\" value=\"ぽん\"}}本\nあるだけで、\n\n{{reaction type=\"Happiness\"}}グーンと　はなやかに\nなるんですよね、{{pause frames=\"5\"}}{{string value=\"Catchphrase\"}}",
      "KRko": "꽃이 집에 １개만\n있어도\n\n{{reaction type=\"Happiness\"}}분위기가 확ー\n살아요，{{pause frames=\"5\"}} {{string value=\"Catchphrase\"}}",
      "USen": "You know, you really ought\nto put some flowers around\nyour room, {{pause frames=\"5\"}}{{string value=\"Catchphrase\"}}.\nEven a few flowers can add\na lot of life to a place."
    }
  }
]