[
  {
    "label": "0",
    "attribute": "0x00110000FE000000",
    "locale": {
      "EUde": "Autsch, hey!{{pause frames=\"5\"}} Aua,\n{{pause frames=\"5\"}}{{string value=\"Catchphrase\"}}!\n\n{{capitalizeLetter}}{{string value=\"PlayerName\"}}, {{pause frames=\"5\"}}pass auf, was\ndu mit dem Ding da machst!\nDas tut doch weh!",
      "EUen": "Ow, hey!{{pause frames=\"5\"}} Ow!\n\n\n{{capitalizeLetter}}{{string value=\"PlayerName\"}}, {{pause frames=\"5\"}}watch where\nyou're swinging that thing!\nThat hurts, {{pause frames=\"5\"}}{{string value=\"Catchphrase\"}}!",
      "EUes": "¡Au, au!{{pause frames=\"5\"}} ¡AU!\n\n\n¡{{capitalizeLetter}}{{string value=\"PlayerName\"}}, {{pause frames=\"5\"}}mira dónde\nagitas esa cosa!\n¡Hace daño, {{pause frames=\"5\"}}{{string value=\"Catchphrase\"}}!",
      "EUfr": "Hé ho!{{pause frames=\"5\"}} Non mais, hé!\n\n\n{{capitalizeLetter}}{{string value=\"PlayerName\"}}, {{pause frames=\"5\"}}fais attention\navec ça!\nÇa fait mal, {{pause frames=\"5\"}}{{string value=\"Catchphrase\"}}!",
      "EUit": "Oh, ehi!{{pause frames=\"5\"}} Oh!\n\n\n{{capitalizeLetter}}{{string value=\"PlayerName\"}}, {{pause frames=\"5\"}}fai attenzione\ncon quell'arnese!\nFa male, {{pause frames=\"5\"}}{{string value=\"Catchphrase\"}}!",
      "JPja": "{{reaction type=\"Shocked\"}}いたっ？！\n\n\n{{reaction type=\"Worry\"}}{{string value=\"PlayerName\"}}さん、{{pause frames=\"5\"}}{{kanjiReplace charNum=\"1\" value=\"ひと\"}}人の{{kanjiReplace charNum=\"1\" value=\"まわ\"}}周りで{{pause frames=\"5\"}}\nそんなモノ　ふり{{kanjiReplace charNum=\"1\" value=\"まわ\"}}回すと\n{{kanjiReplace charNum=\"1\" value=\"あぶ\"}}危ないです！　{{pause frames=\"5\"}}{{string value=\"Catchphrase\"}}！",
      "KRko": "아얏？！\n\n\n{{string value=\"PlayerName\"}}님， {{pause frames=\"5\"}}주변에서{{pause frames=\"5\"}}\n그런 물건을 휘두르면\n위험해요！ {{pause frames=\"5\"}}{{string value=\"Catchphrase\"}}！",
      "USen": "Ow, hey!{{pause frames=\"5\"}} Ow!\n\n\n{{capitalizeLetter}}{{string value=\"PlayerName\"}}, {{pause frames=\"5\"}}watch where\nyou're swinging that thing!\nThat hurts, {{pause frames=\"5\"}}{{string value=\"Catchphrase\"}}!"
    }
  },
  {
    "label": "1",
    "attribute": "0x00110000FE000000",
    "locale": {
      "EUde": "Auaaa, {{pause frames=\"5\"}}{{string value=\"Catchphrase\"}}!!!\n\n\nDu machst das nicht ab-\nsichtlich, {{string value=\"PlayerName\"}},{{pause frames=\"15\"}}\noder? Das ist gemein!",
      "EUen": "Oooouch, {{pause frames=\"5\"}}{{string value=\"Catchphrase\"}}!!\n\n\nYou're not doing that on\npurpose, {{string value=\"PlayerName\"}},{{pause frames=\"15\"}} are\nyou? That's just mean!",
      "EUes": "¡¡Auuuu, {{pause frames=\"5\"}}{{string value=\"Catchphrase\"}}!!\n\n\nNo estás haciendo eso\nadrede, {{string value=\"PlayerName\"}},{{pause frames=\"15\"}}\n¿verdad? ¡Porque es cruel!",
      "EUfr": "Aïeuh, {{pause frames=\"5\"}}{{string value=\"Catchphrase\"}}!!\n\n\nTu ne fais pas ça exprès,\nj'espère, {{string value=\"PlayerName\"}}{{pause frames=\"15\"}}?\nC'est méchant!",
      "EUit": "Ahiii, {{pause frames=\"5\"}}{{string value=\"Catchphrase\"}}!!!\n\n\nNon lo fai mica\napposta, {{string value=\"PlayerName\"}},{{pause frames=\"15\"}}\nvero? Che cattiveria!",
      "JPja": "{{reaction type=\"Intense\"}}いたーい！！　{{pause frames=\"5\"}}{{string value=\"Catchphrase\"}}！！\n\n\n{{reaction type=\"Worry\"}}{{string value=\"PlayerName\"}}さん、{{pause frames=\"15\"}}\nわざと　やりましたね？\n{{pause frames=\"5\"}}{{string value=\"Catchphrase\"}}？",
      "KRko": "아야ー앗！！ {{pause frames=\"5\"}}{{string value=\"Catchphrase\"}}！！\n\n\n{{string value=\"PlayerName\"}}님，{{pause frames=\"15\"}}\n일부러 그러신 거 맞죠？{{pause frames=\"20\"}}\n마음을 착하게 쓰셔야죠！",
      "USen": "Oooouch, {{pause frames=\"5\"}}{{string value=\"Catchphrase\"}}!!\n\n\nYou're not doing that on\npurpose, {{string value=\"PlayerName\"}},{{pause frames=\"15\"}} are\nyou? That's just mean!"
    }
  },
  {
    "label": "2",
    "attribute": "0x00110000FE000000",
    "locale": {
      "EUde": ".{{pause frames=\"5\"}}.{{pause frames=\"5\"}}.{{pause frames=\"5\"}}{{capitalizeLetter}}{{string value=\"PlayerName\"}},{{pause frames=\"10\"}} wie kommst\ndu darauf, dass das\nwitzig ist?",
      "EUen": ".{{pause frames=\"5\"}}.{{pause frames=\"5\"}}.{{pause frames=\"5\"}}{{capitalizeLetter}}{{string value=\"PlayerName\"}},{{pause frames=\"10\"}} what makes\nyou think that's fun?",
      "EUes": "Oye.{{pause frames=\"5\"}}.{{pause frames=\"5\"}}.{{pause frames=\"5\"}} {{capitalizeLetter}}{{string value=\"PlayerName\"}},{{pause frames=\"10\"}} ¿qué te\nhace pensar que eso que\nhaces es divertido?",
      "EUfr": ".{{pause frames=\"5\"}}.{{pause frames=\"5\"}}.{{pause frames=\"5\"}} {{capitalizeLetter}}{{string value=\"PlayerName\"}},{{pause frames=\"10\"}} qu'est-ce\nqui te fait croire que c'est\ndrôle?",
      "EUit": ".{{pause frames=\"5\"}}.{{pause frames=\"5\"}}.{{pause frames=\"5\"}} {{capitalizeLetter}}{{string value=\"PlayerName\"}},{{pause frames=\"10\"}} ma credi\nche sia tanto divertente?",
      "JPja": "・{{pause frames=\"5\"}}・{{pause frames=\"5\"}}・{{pause frames=\"5\"}}{{string value=\"PlayerName\"}}さん、{{pause frames=\"10\"}}\n{{reaction type=\"Intense\"}}そんなコトして\n{{kanjiReplace charNum=\"1\" value=\"なに\"}}何が　{{kanjiReplace charNum=\"1\" value=\"たの\"}}楽しいのですか？",
      "KRko": "・{{pause frames=\"5\"}}・{{pause frames=\"5\"}}・{{pause frames=\"5\"}}{{string value=\"PlayerName\"}}님！{{pause frames=\"10\"}}\n그런 거 하면\n즐거우신가요？",
      "USen": ".{{pause frames=\"5\"}}.{{pause frames=\"5\"}}.{{pause frames=\"5\"}}{{capitalizeLetter}}{{string value=\"PlayerName\"}},{{pause frames=\"10\"}} what makes\nyou think that's fun?"
    }
  },
  {
    "label": "3",
    "attribute": "0x00110000FE000000",
    "locale": {
      "EUde": "Autsch!{{pause frames=\"20\"}} Hey! Was ist dein\nProblem? Das war mein\nKopf, {{string value=\"PlayerName\"}}!\nDer wird noch gebraucht!",
      "EUen": "Owwwwwchie!{{pause frames=\"20\"}} Sheesh! What's\nwrong with you? That's my\nhead, {{string value=\"PlayerName\"}}!\nI need that for thinking!",
      "EUes": "¡Aauu!{{pause frames=\"20\"}} ¡¿Pero qué flores...?!\n¿Qué te pasa a ti? ¡Eso es\nmi cabeza, {{string value=\"PlayerName\"}}!\n¡La necesito para pensar!",
      "EUfr": "Ouille!{{pause frames=\"20\"}} Mais euh! Ça va pas\nou quoi? C'est ma tête,\n{{string value=\"PlayerName\"}}!\nJ'en ai besoin pour\nréfléchir!",
      "EUit": "Ohiii!{{pause frames=\"20\"}} Uffa! Ma che ti\nprende? Questa è la mia\ntesta, {{string value=\"PlayerName\"}}!\nMi serve per pensare!",
      "JPja": "{{reaction type=\"Worry\"}}いっ{{pause frames=\"15\"}}たーい！{{pause frames=\"20\"}}\n{{kanjiReplace charNum=\"1\" value=\"おんな\"}}女の{{kanjiReplace charNum=\"1\" value=\"こ\"}}子の{{kanjiReplace charNum=\"1\" value=\"あたま\"}}頭を\nたたくなんて{{pause frames=\"5\"}}・{{pause frames=\"5\"}}・{{pause frames=\"5\"}}・\nどうしてしまったんです{{pause frames=\"15\"}}\n{{string value=\"PlayerName\"}}さん？　{{pause frames=\"5\"}}{{string value=\"Catchphrase\"}}？",
      "KRko": "아{{pause frames=\"15\"}}야～앗！{{pause frames=\"20\"}}\n여자의 머리를\n때리다니{{pause frames=\"5\"}}・{{pause frames=\"5\"}}・{{pause frames=\"5\"}}・\n도대체 왜 그러세요？{{pause frames=\"15\"}}\n{{string value=\"PlayerName\"}}님？ {{pause frames=\"5\"}}{{string value=\"Catchphrase\"}}",
      "USen": "Owwwwwchie!{{pause frames=\"20\"}} Sheesh! What's\nwrong with you? That's my\nhead, {{string value=\"PlayerName\"}}!\nI need that for thinking!"
    }
  },
  {
    "label": "4",
    "attribute": "0x00110000FE000000",
    "locale": {
      "EUde": "{{vibrateWeak}}Au{{pause frames=\"5\"}}a{{pause frames=\"5\"}}a{{pause frames=\"5\"}}a{{pause frames=\"5\"}}a{{pause frames=\"5\"}}a{{pause frames=\"5\"}}a!!!\n\n\nWomit habe ich das ver-\ndient, {{pause frames=\"5\"}}{{string value=\"Catchphrase\"}}?!? Du\nbist so gemein, {{string value=\"PlayerName\"}}!",
      "EUen": "{{vibrateWeak}}Ow{{pause frames=\"5\"}}w{{pause frames=\"5\"}}w{{pause frames=\"5\"}}w{{pause frames=\"5\"}}w{{pause frames=\"5\"}}w{{pause frames=\"5\"}}w!!!\n\n\nWhat did I do to deserve\nthat, {{pause frames=\"5\"}}{{string value=\"Catchphrase\"}}!? You're\nmean, {{string value=\"PlayerName\"}}!{{pause frames=\"10\"}} Mean!",
      "EUes": "{{vibrateWeak}}¡¡¡A{{pause frames=\"5\"}}u{{pause frames=\"5\"}}u{{pause frames=\"5\"}}u{{pause frames=\"5\"}}u{{pause frames=\"5\"}}u{{pause frames=\"5\"}}u!!!\n\n\n¡¿Qué he hecho yo para\nmerecer esto, {{pause frames=\"5\"}}{{string value=\"Catchphrase\"}}?!\n¡Eres mal{{gender m=\"o\" f=\"a\"}}, {{string value=\"PlayerName\"}}!{{pause frames=\"10\"}}",
      "EUfr": "{{vibrateWeak}}Ouil{{pause frames=\"5\"}}l{{pause frames=\"5\"}}l{{pause frames=\"5\"}}l{{pause frames=\"5\"}}l{{pause frames=\"5\"}}l{{pause frames=\"5\"}}e!!!\n\n\nQu'est-ce que j'ai fait pour\nmériter ça, {{pause frames=\"5\"}}{{string value=\"Catchphrase\"}}!?\nT'es méchant{{gender m=\"\" f=\"e\"}}, {{string value=\"PlayerName\"}}!",
      "EUit": "{{vibrateWeak}}Oh{{pause frames=\"5\"}}i{{pause frames=\"5\"}}i{{pause frames=\"5\"}}i{{pause frames=\"5\"}}i{{pause frames=\"5\"}}i{{pause frames=\"5\"}}i!!!\n\n\nMi merito forse un simile\ntrattamento, {{pause frames=\"5\"}}{{string value=\"Catchphrase\"}}!?\nSei {{pause frames=\"10\"}}spregevole, {{string value=\"PlayerName\"}}!",
      "JPja": "{{vibrateWeak}}{{reaction type=\"Sorrow\"}}ふ{{pause frames=\"5\"}}え{{pause frames=\"5\"}}え{{pause frames=\"5\"}}ぇ{{pause frames=\"5\"}}ぇ{{pause frames=\"5\"}}ぇ{{pause frames=\"5\"}}ー{{pause frames=\"5\"}}ん！\n\n\nわたしが　{{kanjiReplace charNum=\"2\" value=\"いったい\"}}一体\n{{kanjiReplace charNum=\"1\" value=\"なに\"}}何をしたと　いうんですか～、\n{{pause frames=\"5\"}}{{string value=\"Catchphrase\"}}！",
      "KRko": "{{vibrateWeak}}으{{pause frames=\"5\"}}아{{pause frames=\"5\"}}아{{pause frames=\"5\"}}아{{pause frames=\"5\"}}아{{pause frames=\"5\"}}아{{pause frames=\"5\"}}～{{pause frames=\"5\"}}앙！\n\n\n제가 도대체\n뭘 어쨌다고 이러시나요？\n{{pause frames=\"5\"}}{{string value=\"Catchphrase\"}}！\n{{string value=\"PlayerName\"}}님， {{pause frames=\"10\"}}너무해요！",
      "USen": "{{vibrateWeak}}Ow{{pause frames=\"5\"}}w{{pause frames=\"5\"}}w{{pause frames=\"5\"}}w{{pause frames=\"5\"}}w{{pause frames=\"5\"}}w{{pause frames=\"5\"}}w!!!\n\n\nWhat did I do to deserve\nthat, {{pause frames=\"5\"}}{{string value=\"Catchphrase\"}}!? You're\nmean, {{string value=\"PlayerName\"}}!{{pause frames=\"10\"}} Mean!"
    }
  }
]