[
  {
    "label": "0",
    "attribute": "0x00000000FE000000",
    "locale": {
      "EUde": "{{reaction type=\"Curiosity\"}}Hey, meinst du, {{gender m=\"der\" f=\"die\" n=\"das\"}}{{pause frames=\"10\"}}\n{{ignoreArticle}}{{itemName index=\"0\"}}\nist jetzt wieder out?\n{{reaction type=\"Sighing\"}}Denn egal, wo ich suche,\n{{pause frames=\"5\"}}ich kann {{gender m=\"ihn\" f=\"sie\" n=\"es\"}} nicht\nfinden, {{pause frames=\"5\"}}{{string value=\"Catchphrase\"}}.{{pause frames=\"5\"}}.{{pause frames=\"5\"}}.",
      "EUen": "{{reaction type=\"Curiosity\"}}Hey, do you know if {{pause frames=\"10\"}}\n{{fun_0B}}{{itemName index=\"0\"}}\nis totally out now?\n{{reaction type=\"Sighing\"}}Because no matter where I\nlook,{{pause frames=\"5\"}} I can't seem to find\nit, {{pause frames=\"5\"}}{{string value=\"Catchphrase\"}}.{{pause frames=\"5\"}}.{{pause frames=\"5\"}}.",
      "EUes": "{{reaction type=\"Curiosity\"}}Oye, ¿sabes si{{pause frames=\"10\"}}\n{{fun_0B}}{{itemName index=\"0\"}}\nestá pasad{{gender m=\"o\" f=\"a\" n=\"x\"}} de moda?\n{{reaction type=\"Sighing\"}}Porque no consigo\nencontrarl{{gender m=\"o\" f=\"a\" n=\"x\"}}{{pause frames=\"5\"}} por ninguna\nparte, {{pause frames=\"5\"}}{{string value=\"Catchphrase\"}}.{{pause frames=\"5\"}}.{{pause frames=\"5\"}}.",
      "EUfr": "{{reaction type=\"Curiosity\"}}Hé, tu sais s'il reste{{pause frames=\"10\"}}\n{{itemName index=\"0\"}}\nquelque part?\n{{reaction type=\"Sighing\"}}Car, où que je cherche,{{pause frames=\"5\"}}\nje n'arrive pas à en\ntrouver, {{pause frames=\"5\"}}{{string value=\"Catchphrase\"}}.{{pause frames=\"5\"}}.{{pause frames=\"5\"}}.",
      "EUit": "{{reaction type=\"Curiosity\"}}{{capitalizeLetter}}{{fun_0B}}{{itemName index=\"0\"}}:\n{{pause frames=\"10\"}}che ne pensi?\nÈ fuori moda?\n{{reaction type=\"Sighing\"}}Non ne vedo{{pause frames=\"5\"}}\nda nessuna parte,\n{{pause frames=\"5\"}}{{string value=\"Catchphrase\"}}.{{pause frames=\"5\"}}.{{pause frames=\"5\"}}.",
      "JPja": "{{reaction type=\"Curiosity\"}}ねぇ、{{pause frames=\"10\"}}{{itemName index=\"0\"}}って\n{{kanjiReplace charNum=\"2\" value=\"にんき\"}}人気あるのかしら？\n{{pause frames=\"10\"}}{{string value=\"Catchphrase\"}}？\n{{reaction type=\"Sighing\"}}どこをさがしても\n{{kanjiReplace charNum=\"1\" value=\"う\"}}売ってないのよね{{pause frames=\"5\"}}・{{pause frames=\"5\"}}・{{pause frames=\"5\"}}・{{pause frames=\"5\"}}{{string value=\"Catchphrase\"}}",
      "KRko": "{{reaction type=\"Curiosity\"}}{{pause frames=\"10\"}}{{itemName index=\"0\"}}{{fun_0B arg=\"0x0100\"}}\n인기가 있는 걸까？\n{{pause frames=\"10\"}}{{string value=\"Catchphrase\"}}？\n{{reaction type=\"Sighing\"}}아무리 찾아봐도\n파는 데가 없어{{pause frames=\"5\"}}.{{pause frames=\"5\"}}.{{pause frames=\"5\"}}.{{pause frames=\"5\"}}{{string value=\"Catchphrase\"}}",
      "USen": "{{reaction type=\"Curiosity\"}}Hey, do you know if {{pause frames=\"10\"}}\n{{fun_0B}}{{itemName index=\"0\"}}\nis totally out now?\n{{reaction type=\"Sighing\"}}Because no matter where I\nlook,{{pause frames=\"5\"}} I can't seem to find\nit, {{pause frames=\"5\"}}{{string value=\"Catchphrase\"}}.{{pause frames=\"5\"}}.{{pause frames=\"5\"}}."
    }
  },
  {
    "label": "1",
    "attribute": "0x00000000FE000000",
    "locale": {
      "EUde": "{{resetReaction}}Hey, {{string value=\"PlayerNickname\"}},{{pause frames=\"10\"}} {{reaction type=\"Curiosity\"}}kannst du\nmir mein Verlangen nach\n\n{{gender m=\"einem\" f=\"einer\" n=\"einem\"}}\n{{ignoreArticle}}{{itemName index=\"0\"}}\nerklären?!?\n{{resetReaction}}Ich kann es nicht. {{reaction type=\"Distress\"}}Ich weiß\nnur, dass ich {{gender m=\"ihn\" f=\"sie\" n=\"es\"}} UNBEDINGT\nhaben will, {{pause frames=\"10\"}}{{string value=\"Catchphrase\"}}!",
      "EUen": "{{resetReaction}}Hey, {{string value=\"PlayerNickname\"}},{{pause frames=\"10\"}} {{reaction type=\"Curiosity\"}}can you\nexplain my intense need for\n{{itemName index=\"0\"}}?!\n{{resetReaction}}'Cause I can't. {{reaction type=\"Distress\"}}All I know is\nI REALLY, REALLY want it,\n{{pause frames=\"10\"}}{{string value=\"Catchphrase\"}}!",
      "EUes": "{{resetReaction}}{{capitalizeLetter}}{{string value=\"PlayerNickname\"}},{{pause frames=\"10\"}} tengo antojo\nde {{itemName index=\"0\"}}.\n{{reaction type=\"Curiosity\"}}¿Puedes explicártelo?\n{{resetReaction}}Porque yo no. {{reaction type=\"Distress\"}}¡Solo sé\nque necesito un{{gender m=\"o\" f=\"a\" n=\"x\"}}\nurgentemente, {{pause frames=\"10\"}}{{string value=\"Catchphrase\"}}!",
      "EUfr": "{{resetReaction}}Dis, {{string value=\"PlayerNickname\"}},{{pause frames=\"10\"}} {{reaction type=\"Curiosity\"}}peux-tu\nm'expliquer pourquoi je veux\n{{itemName index=\"0\"}}?!\n{{resetReaction}}Parce que moi, non. {{reaction type=\"Distress\"}}Tout ce\nque je sais, c'est que je l{{gender m=\"e\" f=\"a\" n=\"\"}}\nveux VRAIMENT, {{pause frames=\"10\"}}{{string value=\"Catchphrase\"}}!",
      "EUit": "{{resetReaction}}Ehi, {{string value=\"PlayerNickname\"}},{{pause frames=\"10\"}} {{reaction type=\"Curiosity\"}}perché ho\nquesto estremo bisogno di\n{{itemName index=\"0\"}}?!\n{{resetReaction}}Non riesco a spiegarmelo. {{reaction type=\"Distress\"}}\nVoglio solo che sia mi{{gender m=\"o\" f=\"a\" n=\"\"}},\n{{pause frames=\"10\"}}{{string value=\"Catchphrase\"}}!",
      "JPja": "{{resetReaction}}{{string value=\"PlayerNickname\"}}ちゃん、{{pause frames=\"10\"}}\n{{reaction type=\"Curiosity\"}}どうしてかしら？　{{pause frames=\"5\"}}{{string value=\"Catchphrase\"}}？\n\n{{reaction type=\"Distress\"}}あたし、{{pause frames=\"10\"}}{{itemName index=\"0\"}}を\n{{kanjiReplace charNum=\"2\" value=\"ぜったい\"}}絶対に　{{kanjiReplace charNum=\"1\" value=\"て\"}}手に{{kanjiReplace charNum=\"1\" value=\"い\"}}入れなきゃって{{pause frames=\"10\"}}\n{{kanjiReplace charNum=\"1\" value=\"き\"}}気がするの！　{{pause frames=\"10\"}}{{string value=\"Catchphrase\"}}！",
      "KRko": "{{resetReaction}}{{string value=\"PlayerNickname\"}}，{{pause frames=\"10\"}}\n{{reaction type=\"Curiosity\"}}어째서일까？ {{pause frames=\"5\"}}{{string value=\"Catchphrase\"}}？\n\n{{reaction type=\"Distress\"}}나 {{pause frames=\"10\"}}{{itemName index=\"0\"}}{{fun_0B arg=\"0x0200\"}}\n꼭 구해야 겠다는{{pause frames=\"10\"}}\n생각이 들어！ {{pause frames=\"10\"}}{{string value=\"Catchphrase\"}}！",
      "USen": "{{resetReaction}}Hey, {{string value=\"PlayerNickname\"}},{{pause frames=\"10\"}} {{reaction type=\"Curiosity\"}}can you\nexplain my intense need for\n{{itemName index=\"0\"}}?!\n{{resetReaction}}'Cause I can't. {{reaction type=\"Distress\"}}All I know is\nI REALLY, REALLY want it,\n{{pause frames=\"10\"}}{{string value=\"Catchphrase\"}}!"
    }
  },
  {
    "label": "2",
    "attribute": "0x00000000FE000000",
    "locale": {
      "EUde": "{{reaction type=\"Worry\"}}Ich suche nach {{gender m=\"einem\" f=\"einer\" n=\"einem\"}}\n{{ignoreArticle}}{{itemName index=\"0\"}},{{pause frames=\"10\"}}\naber vergeblich{{pause frames=\"5\"}}.{{pause frames=\"5\"}}.{{pause frames=\"5\"}}.{{pause frames=\"5\"}}\n{{reaction type=\"Resignation\"}}Würg!{{pause frames=\"20\"}} Frust ist ganz\nschlecht für die Haut! Das\ngibt Falten, {{pause frames=\"10\"}}{{string value=\"Catchphrase\"}}!",
      "EUen": "{{reaction type=\"Worry\"}}I've been looking for\n{{itemName index=\"0\"}},{{pause frames=\"10\"}}\nbut I can't find one{{pause frames=\"5\"}}.{{pause frames=\"5\"}}.{{pause frames=\"5\"}}.{{pause frames=\"5\"}}\n{{reaction type=\"Resignation\"}}Ugh,{{pause frames=\"20\"}} and frustration is\nyour complexion's worst\nenemy, {{pause frames=\"10\"}}{{string value=\"Catchphrase\"}}!",
      "EUes": "{{reaction type=\"Worry\"}}He estado buscando\n{{itemName index=\"0\"}},{{pause frames=\"10\"}}\npero no l{{gender m=\"o\" f=\"a\" n=\"x\"}} encuentro{{pause frames=\"5\"}}.{{pause frames=\"5\"}}.{{pause frames=\"5\"}}.{{pause frames=\"5\"}}\n{{reaction type=\"Resignation\"}}¡Es horrible!{{pause frames=\"20\"}} ¡La frustración\nes el peor enemigo de la\nlínea, {{pause frames=\"10\"}}{{string value=\"Catchphrase\"}}!",
      "EUfr": "{{reaction type=\"Worry\"}}Je cherche\n{{itemName index=\"0\"}},{{pause frames=\"10\"}}\nmais je n'en trouve pas{{pause frames=\"5\"}}.{{pause frames=\"5\"}}.{{pause frames=\"5\"}}.{{pause frames=\"5\"}}\n{{reaction type=\"Resignation\"}}Aaah,{{pause frames=\"20\"}} et la frustration est\nle pire ennemi d'un joli\nteint, {{pause frames=\"10\"}}{{string value=\"Catchphrase\"}}!",
      "EUit": "{{reaction type=\"Worry\"}}Sto cercando\n{{itemName index=\"0\"}},{{pause frames=\"10\"}}\nma non ne trovo{{pause frames=\"5\"}}.{{pause frames=\"5\"}}.{{pause frames=\"5\"}}.{{pause frames=\"5\"}}\n{{reaction type=\"Resignation\"}}Ah,{{pause frames=\"20\"}} la frustrazione è la\npeggior nemica della pelle,\n{{pause frames=\"10\"}}{{string value=\"Catchphrase\"}}!",
      "JPja": "{{reaction type=\"Worry\"}}{{itemName index=\"0\"}}を\nさがしてるんだけど、{{pause frames=\"10\"}}\nなかなか　{{kanjiReplace charNum=\"1\" value=\"み\"}}見つからなくって{{pause frames=\"5\"}}・{{pause frames=\"5\"}}・{{pause frames=\"5\"}}・{{pause frames=\"5\"}}\n{{reaction type=\"Resignation\"}}ヤダわ、{{pause frames=\"20\"}}イライラは\n{{kanjiReplace charNum=\"2\" value=\"いちばん\"}}一番　おハダに\n{{kanjiReplace charNum=\"1\" value=\"わる\"}}悪いのよね、{{pause frames=\"10\"}}{{string value=\"Catchphrase\"}}",
      "KRko": "{{reaction type=\"Worry\"}}{{itemName index=\"0\"}}{{fun_0B arg=\"0x0200\"}}\n찾고 있는데，{{pause frames=\"10\"}}\n너무 너무 찾기 힘들어{{pause frames=\"5\"}}.{{pause frames=\"5\"}}.{{pause frames=\"5\"}}.{{pause frames=\"5\"}}\n{{reaction type=\"Resignation\"}}어쩜 좋아， {{pause frames=\"20\"}}초조해하는 건\n피부에 제일\n안 좋은데 말야， {{pause frames=\"10\"}}{{string value=\"Catchphrase\"}}",
      "USen": "{{reaction type=\"Worry\"}}I've been looking for\n{{itemName index=\"0\"}},{{pause frames=\"10\"}}\nbut I can't find one{{pause frames=\"5\"}}.{{pause frames=\"5\"}}.{{pause frames=\"5\"}}.{{pause frames=\"5\"}}\n{{reaction type=\"Resignation\"}}Ugh,{{pause frames=\"20\"}} and frustration is\nyour complexion's worst\nenemy, {{pause frames=\"10\"}}{{string value=\"Catchphrase\"}}!"
    }
  }
]