[
  {
    "label": "00",
    "attribute": "0x00000000FF000000",
    "locale": {
      "EUde": "{{reaction type=\"Happiness\"}}Hey, {{pause frames=\"5\"}}{{string value=\"PlayerNickname\"}},{{pause frames=\"10\"}} {{reaction type=\"Curiosity\"}}erzählst\ndu mir ein wenig von deiner\nHeimatstadt?{{fun_02 arg=\"0x03040506\"}}\nSie ist die beste.\nSie ist okay.\nSie ist seltsam.\nIch weiß nichts.",
      "EUen": "{{reaction type=\"Happiness\"}}Hey, {{pause frames=\"5\"}}{{string value=\"PlayerNickname\"}},{{pause frames=\"10\"}} {{reaction type=\"Curiosity\"}}could you\ntell me a little about\nyour hometown?{{fun_02 arg=\"0x03040506\"}}\nIt's the best.\nIt's all right.\nIt's weird.\nI can't say.",
      "EUes": "{{reaction type=\"Happiness\"}}Oye, {{pause frames=\"5\"}}{{string value=\"PlayerNickname\"}},{{pause frames=\"10\"}} {{reaction type=\"Curiosity\"}}¿podrías\ncontarme algo de tu pueblo?{{fun_02 arg=\"0x03040506\"}}\nEs el mejor\nEstá bien\nEs raro...\nNo puedo",
      "EUfr": "{{reaction type=\"Happiness\"}}Hé, {{pause frames=\"5\"}}{{string value=\"PlayerNickname\"}},{{pause frames=\"10\"}} {{reaction type=\"Curiosity\"}}peux-tu me\nparler un peu de ta ville\nnatale?{{fun_02 arg=\"0x03040506\"}}\nElle est géniale.\nElle est bien.\nElle est... bof!\nJe ne sais pas.",
      "EUit": "{{reaction type=\"Happiness\"}}Ehi, {{pause frames=\"5\"}}{{string value=\"PlayerNickname\"}},{{pause frames=\"10\"}} {{reaction type=\"Curiosity\"}}perché non\nmi parli un po' della tua\ncittà natale?{{fun_02 arg=\"0x03040506\"}}\nÈ magnifica.\nNiente di che.\nÈ strana.\nNon saprei.",
      "JPja": "{{reaction type=\"Happiness\"}}ねぇ、{{pause frames=\"5\"}}{{string value=\"PlayerNickname\"}}さん{{pause frames=\"10\"}}\n{{reaction type=\"Curiosity\"}}あなたの{{kanjiReplace charNum=\"1\" value=\"むら\"}}村って\nどんな{{kanjiReplace charNum=\"1\" value=\"かん\"}}感じなんですか？{{fun_02 arg=\"0x03040506\"}}\nサイコー！\nふまんアリ\nかなり{{kanjiReplace charNum=\"1\" value=\"へん\"}}変・・・\n{{kanjiReplace charNum=\"1\" value=\"おし\"}}教えない",
      "KRko": "{{reaction type=\"Happiness\"}}저기，{{pause frames=\"5\"}} {{string value=\"PlayerNickname\"}}님{{pause frames=\"10\"}}\n{{reaction type=\"Curiosity\"}}당신이 사는 마을의 분위기는\n어떤가요？{{fun_02 arg=\"0x03040506\"}}\n최고ー！\n불만이 있어\n좀 이상해・・・\n비밀이야",
      "USen": "{{reaction type=\"Happiness\"}}Hey, {{pause frames=\"5\"}}{{string value=\"PlayerNickname\"}},{{pause frames=\"10\"}} {{reaction type=\"Curiosity\"}}could you\ntell me a little about\nyour hometown?{{fun_02 arg=\"0x03040506\"}}\nIt's the best.\nIt's all right.\nIt's weird.\nI can't say."
    }
  },
  {
    "label": "01",
    "attribute": "0x00000000FF000000",
    "locale": {
      "EUde": "{{fun_06 arg=\"0x0708\"}}",
      "EUen": "{{fun_06 arg=\"0x0708\"}}",
      "EUes": "{{fun_06 arg=\"0x0708\"}}",
      "EUfr": "{{fun_06 arg=\"0x0708\"}}",
      "EUit": "{{fun_06 arg=\"0x0708\"}}",
      "JPja": "{{fun_06 arg=\"0x0708\"}}",
      "KRko": "{{fun_06 arg=\"0x0708\"}}",
      "USen": "{{fun_06 arg=\"0x0708\"}}"
    }
  },
  {
    "label": "02",
    "attribute": "0x00000000FF000000",
    "locale": {
      "EUde": "In deiner Heimatstadt, {{reaction type=\"Curiosity\"}}habt\nihr da {{gender m=\"einen goldenen\" f=\"eine goldene\" n=\"ein goldenes\"}} \n{{ignoreArticle}}{{string index=\"6\"}}?{{fun_02 arg=\"0x090A0B\"}}\nJep!\nNö...\nBitte was?",
      "EUen": "So, back in your hometown,\n{{reaction type=\"Curiosity\"}}do you have a golden\n{{string index=\"6\"}}?{{fun_02 arg=\"0x090A0B\"}}\nYep!\nNo...\nA golden what?",
      "EUes": "Dime una cosa, ¿en tu\npueblo {{reaction type=\"Curiosity\"}}tenéis {{gender m=\"un\" f=\"una\" n=\"\"}}\n{{ignoreArticle}}{{string index=\"6\"}} de oro?{{fun_02 arg=\"0x090A0B\"}}\n¡Sí!\nPues no...\n¿Lo cuálo?",
      "EUfr": "Dans ta ville natale, {{reaction type=\"Curiosity\"}}vous\navez {{string index=\"6\"}} en\nor?{{fun_02 arg=\"0x090A0B\"}}\nOuaip!\nNon...\nUn quoi en or?",
      "EUit": "Ehi, ma nella tua città\nnatale avete\n{{reaction type=\"Curiosity\"}}{{string index=\"6\"}} d'oro?{{fun_02 arg=\"0x090A0B\"}}\nSì!\nNo...\nD'oro?",
      "JPja": "{{string value=\"PlayerNickname\"}}さんの{{kanjiReplace charNum=\"1\" value=\"むら\"}}村には\n{{reaction type=\"Curiosity\"}}{{kanjiReplace charNum=\"1\" value=\"きん\"}}金の　{{string index=\"6\"}}って\nありますか？　{{pause frames=\"5\"}}{{string value=\"Catchphrase\"}}？{{fun_02 arg=\"0x090A0B\"}}\nあるある！\nないです・・・\n{{kanjiReplace charNum=\"1\" value=\"なに\"}}何それー？",
      "KRko": "{{string value=\"PlayerNickname\"}}님 마을에는\n{{reaction type=\"Curiosity\"}}금으로 된 {{string index=\"6\"}}{{fun_0B arg=\"0x0300\"}}\n있나요？ {{pause frames=\"5\"}}{{string value=\"Catchphrase\"}}？{{fun_02 arg=\"0x090A0B00\"}}\n있지 있어！\n없어요・・・\n그게 뭔데ー？",
      "USen": "So, back in your hometown,\n{{reaction type=\"Curiosity\"}}do you have a golden\n{{string index=\"6\"}}?{{fun_02 arg=\"0x090A0B\"}}\nYep!\nNo...\nA golden what?"
    }
  },
  {
    "label": "03",
    "attribute": "0x00000000FE000000",
    "locale": {
      "EUde": "{{reaction type=\"Amazed\"}}Oh, meine Güte!{{pause frames=\"15\"}} {{reaction type=\"Happiness\"}}Du musst\ndeine Stadt wirklich lieben,\n{{pause frames=\"5\"}}{{string value=\"Catchphrase\"}}.\n{{resetReaction}}Klingt nett.{{pause frames=\"15\"}} Eigentlich\n{{reaction type=\"Sadness\"}}klingt sie netter als\n{{string value=\"TownName\"}}!\n{{reaction type=\"Happiness\"}}Vielleicht kriege ich mal die\nChance, sie zu besuchen,\n{{pause frames=\"5\"}}{{string value=\"Catchphrase\"}}.",
      "EUen": "{{reaction type=\"Amazed\"}}Oh, my!{{pause frames=\"15\"}} {{reaction type=\"Happiness\"}}You must really\nlike it in your hometown,\n{{pause frames=\"5\"}}{{string value=\"Catchphrase\"}}.\n{{resetReaction}}It sounds nice.{{pause frames=\"15\"}} Actually,\n{{reaction type=\"Sadness\"}}it sounds nicer than\n{{string value=\"TownName\"}}!\n{{reaction type=\"Happiness\"}}Maybe I'll get a chance to\nvisit it someday,\n{{pause frames=\"5\"}}{{string value=\"Catchphrase\"}}.",
      "EUes": "{{reaction type=\"Amazed\"}}¡Vaya!{{pause frames=\"15\"}} {{reaction type=\"Happiness\"}}Veo que te gusta\nmuchisísimo, {{pause frames=\"5\"}}{{string value=\"Catchphrase\"}}.\n\n{{resetReaction}}Debe de ser un sitio chulo.{{pause frames=\"15\"}}\n{{reaction type=\"Sadness\"}}De hecho, ¡parece mejor que\n{{string value=\"TownName\"}}!\n{{reaction type=\"Happiness\"}}A ver si un día tengo la\noportunidad de ir a\nconocerlo, {{pause frames=\"5\"}}{{string value=\"Catchphrase\"}}.",
      "EUfr": "{{reaction type=\"Amazed\"}}Oh, la la!{{pause frames=\"15\"}} {{reaction type=\"Happiness\"}}Tu dois adorer\nta ville natale,\n{{pause frames=\"5\"}}{{string value=\"Catchphrase\"}}.\n{{resetReaction}}Elle a l'air bien.{{pause frames=\"15\"}} En fait,\n{{reaction type=\"Sadness\"}}elle a l'air mieux que\n{{string value=\"TownName\"}}!\n{{reaction type=\"Happiness\"}}J'aurais peut-être\nl'occasion de m'y rendre,\nun jour, {{pause frames=\"5\"}}{{string value=\"Catchphrase\"}}.",
      "EUit": "{{reaction type=\"Amazed\"}}Oh!{{pause frames=\"15\"}} {{reaction type=\"Happiness\"}}Sei innamorat{{gender m=\"o\" f=\"a\"}}\ndella tua città,\n{{pause frames=\"5\"}}{{string value=\"Catchphrase\"}}.\n{{resetReaction}}Magnifico.{{pause frames=\"15\"}} Anzi...\n{{reaction type=\"Sadness\"}}sembra più bella di\n{{string value=\"TownName\"}}!\n{{reaction type=\"Happiness\"}}Spero di poterla visitare\nun giorno,\n{{pause frames=\"5\"}}{{string value=\"Catchphrase\"}}.",
      "JPja": "{{reaction type=\"Amazed\"}}まぁ！　{{pause frames=\"5\"}}{{string value=\"Catchphrase\"}}！{{pause frames=\"15\"}}\n{{reaction type=\"Happiness\"}}とっても　{{kanjiReplace charNum=\"2\" value=\"じぶん\"}}自分の{{kanjiReplace charNum=\"1\" value=\"むら\"}}村に\n{{kanjiReplace charNum=\"2\" value=\"じしん\"}}自信が　あるんですね、{{pause frames=\"5\"}}{{string value=\"Catchphrase\"}}\n{{resetReaction}}{{string value=\"TownName\"}}{{kanjiReplace charNum=\"1\" value=\"むら\"}}村と　どちらが\nステキな{{kanjiReplace charNum=\"1\" value=\"むら\"}}村か、\n\n{{reaction type=\"Happiness\"}}わたしも　{{kanjiReplace charNum=\"2\" value=\"いちど\"}}一度\n{{kanjiReplace charNum=\"1\" value=\"み\"}}見に{{kanjiReplace charNum=\"1\" value=\"い\"}}行ってみたいです、\n{{pause frames=\"5\"}}{{string value=\"Catchphrase\"}}",
      "KRko": "{{reaction type=\"Amazed\"}}어머！ {{pause frames=\"5\"}}{{string value=\"Catchphrase\"}}！{{pause frames=\"15\"}}\n{{reaction type=\"Happiness\"}}진심으로 자신의 마을에 자신이\n있으시군요，{{pause frames=\"5\"}} {{string value=\"Catchphrase\"}}\n{{resetReaction}}{{string value=\"TownName\"}} 마을과 비교해서\n어디가 더 훌륭한지\n\n{{reaction type=\"Happiness\"}}저도 한번\n보러 가고 싶어요\n{{pause frames=\"5\"}}{{string value=\"Catchphrase\"}}",
      "USen": "{{reaction type=\"Amazed\"}}Oh, my!{{pause frames=\"15\"}} {{reaction type=\"Happiness\"}}You must really\nlike it in your hometown,\n{{pause frames=\"5\"}}{{string value=\"Catchphrase\"}}.\n{{resetReaction}}It sounds nice.{{pause frames=\"15\"}} Actually,\n{{reaction type=\"Sadness\"}}it sounds nicer than\n{{string value=\"TownName\"}}!\n{{reaction type=\"Happiness\"}}Maybe I'll get a chance to\nvisit it someday,\n{{pause frames=\"5\"}}{{string value=\"Catchphrase\"}}."
    }
  },
  {
    "label": "04",
    "attribute": "0x00000000FE000000",
    "locale": {
      "EUde": "{{reaction type=\"Amazed\"}}Oh, das ist wirklich{{pause frames=\"10\"}}{{reaction type=\"Curiosity\"}}\nunverbindlich, {{pause frames=\"10\"}}{{string value=\"Catchphrase\"}}.\n\n{{resetReaction}}Kein Ort ist perfekt, aber{{pause frames=\"5\"}}\ndarum arbeiten wir so hart,\num alles besser zu machen!",
      "EUen": "{{reaction type=\"Amazed\"}}Oh, that's really{{pause frames=\"10\"}}{{reaction type=\"Curiosity\"}}\nnoncommittal, {{pause frames=\"10\"}}{{string value=\"Catchphrase\"}}.\n\n{{resetReaction}}No place is perfect, but{{pause frames=\"5\"}}\nthat's why we work so hard\nto make things better!",
      "EUes": "{{reaction type=\"Amazed\"}}Ah. {{pause frames=\"10\"}}Eso es como no decir\nnada,{{reaction type=\"Curiosity\"}} ¿no? Veo que no te\ngusta mojarte, {{pause frames=\"10\"}}{{string value=\"Catchphrase\"}}.\n{{resetReaction}}Ningún sitio es perfecto,{{pause frames=\"5\"}}\n¡por eso trabajamos tanto\npara mejorar las cosas!",
      "EUfr": "{{reaction type=\"Amazed\"}}Oh, c'est vraiment{{pause frames=\"10\"}}{{reaction type=\"Curiosity\"}} vague,\n{{pause frames=\"10\"}}{{string value=\"Catchphrase\"}}.\n\n{{resetReaction}}Aucun endroit n'est parfait,\nmais{{pause frames=\"5\"}} c'est pour ça qu'il\nfaut essayer de l'améliorer!",
      "EUit": "{{reaction type=\"Amazed\"}}Oh, non vuoi{{pause frames=\"10\"}}{{reaction type=\"Curiosity\"}}\nsbilanciarti, {{pause frames=\"10\"}}{{string value=\"Catchphrase\"}}.\n{{resetReaction}}Non esiste un luogo\nperfetto,{{pause frames=\"5\"}} ma possiamo\nsempre migliorare\nciò che abbiamo!",
      "JPja": "{{reaction type=\"Amazed\"}}あら、{{pause frames=\"10\"}}{{reaction type=\"Curiosity\"}}そうなんですか？{{pause frames=\"10\"}}\n{{string value=\"Catchphrase\"}}\n\n{{resetReaction}}でも、{{pause frames=\"5\"}}みんな\n{{kanjiReplace charNum=\"1\" value=\"おお\"}}多かれ　{{kanjiReplace charNum=\"1\" value=\"すく\"}}少なかれ\n{{kanjiReplace charNum=\"2\" value=\"ふまん\"}}不満は　{{kanjiReplace charNum=\"1\" value=\"も\"}}持っているものですよ\nそれを　{{kanjiReplace charNum=\"2\" value=\"かいしょう\"}}解消するように\n{{kanjiReplace charNum=\"2\" value=\"どりょく\"}}努力するから、{{pause frames=\"5\"}}\n{{kanjiReplace charNum=\"2\" value=\"まいにち\"}}毎日に　はりあいが{{kanjiReplace charNum=\"1\" value=\"で\"}}出るんです",
      "KRko": "{{reaction type=\"Amazed\"}}어머，{{pause frames=\"10\"}} {{reaction type=\"Curiosity\"}}그러세요？{{pause frames=\"10\"}}\n{{string value=\"Catchphrase\"}}\n\n{{resetReaction}}하지만 {{pause frames=\"5\"}}모두\n많든 적든\n불만은 갖고 있기 마련이에요\n그걸 해소하기 위해\n노력하는 거죠{{pause frames=\"5\"}}\n그래서 힘이 나는 거예요",
      "USen": "{{reaction type=\"Amazed\"}}Oh, that's really{{pause frames=\"10\"}}{{reaction type=\"Curiosity\"}}\nnoncommittal, {{pause frames=\"10\"}}{{string value=\"Catchphrase\"}}.\n\n{{resetReaction}}No place is perfect, but{{pause frames=\"5\"}}\nthat's why we work so hard\nto make things better!"
    }
  },
  {
    "label": "05",
    "attribute": "0x00000000FE000000",
    "locale": {
      "EUde": "{{reaction type=\"Happiness\"}}Verstehe. Seltsam, wie? Das\nist furchtbar.{{pause frames=\"5\"}}.{{pause frames=\"5\"}}.{{pause frames=\"5\"}} {{resetReaction}}Moment mal.{{pause frames=\"15\"}}{{reaction type=\"Curiosity\"}}\nWas ist so seltsam daran?\nDu kannst so etwas nicht\neinfach sagen, ganz ohne\nErklärung...\n{{reaction type=\"Glee\"}}Jetzt will ich erst recht\nsehen, was so seltsam an\nder Stadt ist, {{pause frames=\"5\"}}{{string value=\"Catchphrase\"}}!",
      "EUen": "{{reaction type=\"Happiness\"}}I see. Weird, is it? That's\nawfully.{{pause frames=\"5\"}}.{{pause frames=\"5\"}}.{{pause frames=\"5\"}} {{resetReaction}}Wait a minute.{{pause frames=\"15\"}}{{reaction type=\"Curiosity\"}}\nWhat's so weird about it?\nYou can't just say\nsomething like that and not\nexplain what you mean...\n{{reaction type=\"Glee\"}}Now I totally want to see\nwhat makes your hometown\nso strange, {{pause frames=\"5\"}}{{string value=\"Catchphrase\"}}!",
      "EUes": "{{reaction type=\"Happiness\"}}Ah. Raro, ¿eh? Eso es muy.{{pause frames=\"5\"}}.{{pause frames=\"5\"}}.{{pause frames=\"5\"}}\n{{resetReaction}}Espera un momento.{{pause frames=\"15\"}}{{reaction type=\"Curiosity\"}} ¿Qué\ntiene de raro?\nNo puedes decir algo así sin\nexplicar por qué lo dices...\n\n{{reaction type=\"Glee\"}}¡Ya me han entrado ganas\nde ir a ver por qué es tan\nraro tu pueblo, {{pause frames=\"5\"}}{{string value=\"Catchphrase\"}}!",
      "EUfr": "{{reaction type=\"Happiness\"}}Je vois. Elle est bizarre?\nC'est vraiment.{{pause frames=\"5\"}}.{{pause frames=\"5\"}}.{{pause frames=\"5\"}} {{resetReaction}}Attends\nune minute.{{pause frames=\"15\"}}\n{{reaction type=\"Curiosity\"}}Qu'est-ce qu'elle a de\nbizarre? Tu ne peux pas\ndire ça sans t'expliquer...\n{{reaction type=\"Glee\"}}Je veux vraiment savoir ce\nqui rend ta ville natale si\nétrange, {{pause frames=\"5\"}}{{string value=\"Catchphrase\"}}!",
      "EUit": "{{reaction type=\"Happiness\"}}Ah, strana, dici? Ma\nè grandioso.{{pause frames=\"5\"}}.{{pause frames=\"5\"}}.{{pause frames=\"5\"}} {{resetReaction}}Aspetta.{{pause frames=\"15\"}}{{reaction type=\"Curiosity\"}}\nChe intendi con strana?\nNon puoi dire che è strana\nsenza spiegare i motivi\ndel tuo giudizio...\n{{reaction type=\"Glee\"}}Voglio proprio sapere che\nc'è di strano nella tua\ncittà natale, {{pause frames=\"5\"}}{{string value=\"Catchphrase\"}}!",
      "JPja": "{{reaction type=\"Happiness\"}}かなり・・・{{kanjiReplace charNum=\"1\" value=\"へん\"}}変・・・\n{{reaction type=\"Curiosity\"}}なんですか？　{{pause frames=\"5\"}}{{string value=\"Catchphrase\"}}？\n\n{{reaction type=\"Glee\"}}そこまで　{{kanjiReplace charNum=\"1\" value=\"ちから\"}}力をこめて\n{{kanjiReplace charNum=\"1\" value=\"い\"}}言われると、{{pause frames=\"5\"}}なんだか\nきょうみが　わいてきちゃいます",
      "KRko": "{{reaction type=\"Happiness\"}}좀・・・ 이상해・・・\n{{reaction type=\"Curiosity\"}}어디가요？ {{pause frames=\"5\"}}{{string value=\"Catchphrase\"}}？\n\n{{reaction type=\"Glee\"}}그렇게 강하게\n말씀하시니까{{pause frames=\"5\"}} 갑자기\n갑자기 궁금해지네요",
      "USen": "{{reaction type=\"Happiness\"}}I see. Weird, is it? That's\nawfully.{{pause frames=\"5\"}}.{{pause frames=\"5\"}}.{{pause frames=\"5\"}} {{resetReaction}}Wait a minute.{{pause frames=\"15\"}}{{reaction type=\"Curiosity\"}}\nWhat's so weird about it?\nYou can't just say\nsomething like that and not\nexplain what you mean...\n{{reaction type=\"Glee\"}}Now I totally want to see\nwhat makes your hometown\nso strange, {{pause frames=\"5\"}}{{string value=\"Catchphrase\"}}!"
    }
  },
  {
    "label": "06",
    "attribute": "0x00000000FE000000",
    "locale": {
      "EUde": "{{reaction type=\"Sorrow\"}}Das ist gemein, {{pause frames=\"5\"}}{{string value=\"Catchphrase\"}}!\n{{reaction type=\"Worry\"}}Es kostet dich doch nichts,\nes mir zu erzählen!\n{{reaction type=\"Amazed\"}}Ooh!{{pause frames=\"15\"}} Gibt es einen Grund,\nweswegen du {{reaction type=\"Curiosity\"}}es mir nicht\nsagen KANNST?\nKannst du nicht offen\nreden?\n\n{{reaction type=\"Worry\"}}Bist du in Gefahr, blinzle\neinmal für ja und zweimal\nfür nein, {{pause frames=\"5\"}}{{string value=\"Catchphrase\"}}!",
      "EUen": "{{reaction type=\"Sorrow\"}}That's mean, {{pause frames=\"5\"}}{{string value=\"Catchphrase\"}}!\n{{reaction type=\"Worry\"}}It's not like it costs you\nanything to tell me!\n{{reaction type=\"Amazed\"}}Ohh!{{pause frames=\"15\"}} Unless there's a\nreason {{reaction type=\"Curiosity\"}}you CAN'T tell me?\nCan you not talk openly?\n{{reaction type=\"Worry\"}}If you're in danger, blink\nonce for yes and twice for\nno, {{pause frames=\"5\"}}{{string value=\"Catchphrase\"}}!",
      "EUes": "{{reaction type=\"Sorrow\"}}¡Eres mal{{gender m=\"o\" f=\"a\"}}, {{pause frames=\"5\"}}{{string value=\"Catchphrase\"}}!\n{{reaction type=\"Worry\"}}¡Ni que te costara mucho\ndecirme algo, {{pause frames=\"5\"}}{{string value=\"Catchphrase\"}}!\n{{reaction type=\"Amazed\"}}Oh, {{pause frames=\"15\"}}ya sé. Lo que pasa es\nque{{reaction type=\"Curiosity\"}} no PUEDES decirme nada.\n¿No puedes hablar de él?\n{{reaction type=\"Worry\"}}Parpadea una vez para decir\nsí y dos para decir no.\n¿Estás en peligro?",
      "EUfr": "{{reaction type=\"Sorrow\"}}C'est méchant, {{pause frames=\"5\"}}{{string value=\"Catchphrase\"}}!\n{{reaction type=\"Worry\"}}Ça ne te coûte rien de me\nle dire!\n{{reaction type=\"Amazed\"}}Oh!{{pause frames=\"15\"}} A moins que\n{{reaction type=\"Curiosity\"}}tu ne PUISSES pas me le\ndire?\nTu ne peux pas parler?\n{{reaction type=\"Worry\"}}Si tu es en danger, cligne\ndes yeux:\nune fois pour oui\net deux pour non,\n{{pause frames=\"5\"}}{{string value=\"Catchphrase\"}}!",
      "EUit": "{{reaction type=\"Sorrow\"}}Che cattiveria, {{pause frames=\"5\"}}{{string value=\"Catchphrase\"}}!\n{{reaction type=\"Worry\"}}Che ti costa parlarmene?\n{{reaction type=\"Amazed\"}}Oh!{{pause frames=\"15\"}} Ho capito!\n{{reaction type=\"Curiosity\"}}C'è un motivo per cui\nNON me ne puoi parlare!\nQualcosa di segreto?\n{{reaction type=\"Worry\"}}Se sei in pericolo, batti gli\nocchi una volta per dire sì,\ndue per il no, {{pause frames=\"5\"}}{{string value=\"Catchphrase\"}}!",
      "JPja": "{{reaction type=\"Sorrow\"}}イジワル、{{pause frames=\"5\"}}{{string value=\"Catchphrase\"}}{{pause frames=\"5\"}}・{{pause frames=\"5\"}}・{{pause frames=\"5\"}}・\n{{reaction type=\"Worry\"}}{{kanjiReplace charNum=\"1\" value=\"い\"}}言ったって　{{kanjiReplace charNum=\"1\" value=\"へ\"}}減るものじゃ\nありませんし、\n{{kanjiReplace charNum=\"1\" value=\"おし\"}}教えてくれたって　いいじゃ\nありませんか、{{pause frames=\"5\"}}{{string value=\"Catchphrase\"}}\n\n{{reaction type=\"Amazed\"}}あ！{{pause frames=\"15\"}}　{{kanjiReplace charNum=\"1\" value=\"なに\"}}何か　{{kanjiReplace charNum=\"1\" value=\"い\"}}言えない\n{{reaction type=\"Curiosity\"}}{{kanjiReplace charNum=\"2\" value=\"じじょう\"}}事情でも　あるのですか？{{pressButton}}\n{{reaction type=\"Worry\"}}だとしたら　ごめんなさい{{pause frames=\"5\"}}・{{pause frames=\"5\"}}・{{pause frames=\"5\"}}・",
      "KRko": "{{reaction type=\"Sorrow\"}}심술꾸러기{{pause frames=\"5\"}}\n{{string value=\"Catchphrase\"}}{{pause frames=\"5\"}}・{{pause frames=\"5\"}}・{{pause frames=\"5\"}}・\n{{reaction type=\"Worry\"}}말 한다고 닳는 것도 아닌데{{pause frames=\"5\"}}\n가르쳐 주셔도\n되잖아요，{{pause frames=\"5\"}} {{string value=\"Catchphrase\"}}\n\n{{reaction type=\"Amazed\"}}아！{{pause frames=\"15\"}} 말할 수 없는\n{{reaction type=\"Curiosity\"}}사정이라도 있으신가요？{{pressButton}}\n{{reaction type=\"Worry\"}}그렇다면 잘못했어요{{pause frames=\"5\"}}・{{pause frames=\"5\"}}・{{pause frames=\"5\"}}・",
      "USen": "{{reaction type=\"Sorrow\"}}That's mean, {{pause frames=\"5\"}}{{string value=\"Catchphrase\"}}!\n{{reaction type=\"Worry\"}}It's not like it costs you\nanything to tell me!\n{{reaction type=\"Amazed\"}}Ohh!{{pause frames=\"15\"}} Unless there's a\nreason {{reaction type=\"Curiosity\"}}you CAN'T tell me?\nCan you not talk openly?\n{{reaction type=\"Worry\"}}If you're in danger, blink\nonce for yes and twice for\nno, {{pause frames=\"5\"}}{{string value=\"Catchphrase\"}}!"
    }
  },
  {
    "label": "07",
    "attribute": "0x00000000FE000000",
    "locale": {
      "EUde": "Ich, äh.{{pause frames=\"5\"}}.{{pause frames=\"5\"}}.{{pause frames=\"5\"}} {{reaction type=\"Distress\"}}Ich bin etwas\nbesser angezogen als sonst,\n{{pause frames=\"5\"}}{{string value=\"Catchphrase\"}}!\n{{reaction type=\"Amazed\"}}Oh! {{pause frames=\"15\"}}Was sage ich da!{{pause frames=\"20\"}} {{reaction type=\"Distress\"}}Jetzt\nklinge ich, als wäre ich\ntotal schlampig.",
      "EUen": "I, uh.{{pause frames=\"5\"}}.{{pause frames=\"5\"}}.{{pause frames=\"5\"}} {{reaction type=\"Distress\"}}Actually, I'm a bit\nmore dressed up than usual\nright now, {{pause frames=\"5\"}}{{string value=\"Catchphrase\"}}!\n{{reaction type=\"Amazed\"}}Oh! {{pause frames=\"15\"}}What am I saying!{{pause frames=\"20\"}} {{reaction type=\"Distress\"}}Now I\nsound like I'm a total slob\nmost of the time!",
      "EUes": "Yo.{{pause frames=\"5\"}}.{{pause frames=\"5\"}}.{{pause frames=\"5\"}} {{reaction type=\"Distress\"}}Es que, como verás,\nestoy como más arregladita\nde lo normal, {{pause frames=\"5\"}}{{string value=\"Catchphrase\"}}.\n{{reaction type=\"Amazed\"}}¡Oh! {{pause frames=\"15\"}}¡Pero qué dije!{{pause frames=\"20\"}}\n{{reaction type=\"Distress\"}}¡Eso sonó pijo y odioso!",
      "EUfr": "Je, euh.{{pause frames=\"5\"}}.{{pause frames=\"5\"}}.{{pause frames=\"5\"}} {{reaction type=\"Distress\"}}En fait, je suis\nun peu mieux habillée que\nd'habitude, {{pause frames=\"5\"}}{{string value=\"Catchphrase\"}}!\n{{reaction type=\"Amazed\"}}Oh! {{pause frames=\"15\"}}Qu'est-ce que je\nraconte!{{pause frames=\"20\"}} {{reaction type=\"Distress\"}}A m'entendre, je\nm'habille toujours comme\nune plouc!",
      "EUit": "Io, ehm.{{pause frames=\"5\"}}.{{pause frames=\"5\"}}.{{pause frames=\"5\"}} {{reaction type=\"Distress\"}}Veramente mi\nsono vestita più elegante\ndel solito, {{pause frames=\"5\"}}{{string value=\"Catchphrase\"}}!\n{{reaction type=\"Amazed\"}}Oh! {{pause frames=\"15\"}}Che hai capito!{{pause frames=\"20\"}} {{reaction type=\"Distress\"}}Non\nè che di solito vado in giro\ncome una stracciona!",
      "JPja": "あの{{pause frames=\"5\"}}・{{pause frames=\"5\"}}・{{pause frames=\"5\"}}・{{pause frames=\"5\"}}\n{{reaction type=\"Distress\"}}わたし、{{pause frames=\"10\"}}ふだんは　もっと\nおめかし　してるんですよ\n{{reaction type=\"Amazed\"}}って、{{pause frames=\"15\"}}わたしったら\n{{kanjiReplace charNum=\"1\" value=\"なに\"}}何を　{{kanjiReplace charNum=\"1\" value=\"い\"}}言ってるのかしら！{{pause frames=\"20\"}}\n{{reaction type=\"Distress\"}}ハズカシイです{{pause frames=\"5\"}}・{{pause frames=\"5\"}}・{{pause frames=\"5\"}}・{{pause frames=\"5\"}}{{string value=\"Catchphrase\"}}",
      "KRko": "저{{pause frames=\"5\"}}・{{pause frames=\"5\"}}・{{pause frames=\"5\"}}・{{pause frames=\"5\"}}\n{{reaction type=\"Distress\"}}전 {{pause frames=\"10\"}}평소에 좀 더\n멋을 부리는 편이랍니다\n{{reaction type=\"Amazed\"}}앗！{{pause frames=\"15\"}} 제가 지금\n무슨 말을 하는 거죠？{{pause frames=\"20\"}}\n{{reaction type=\"Distress\"}}부끄러워요{{pause frames=\"5\"}}・{{pause frames=\"5\"}}・{{pause frames=\"5\"}}・{{pause frames=\"5\"}} {{string value=\"Catchphrase\"}}",
      "USen": "I, uh.{{pause frames=\"5\"}}.{{pause frames=\"5\"}}.{{pause frames=\"5\"}} {{reaction type=\"Distress\"}}Actually, I'm a bit\nmore dressed up than usual\nright now, {{pause frames=\"5\"}}{{string value=\"Catchphrase\"}}!\n{{reaction type=\"Amazed\"}}Oh! {{pause frames=\"15\"}}What am I saying!{{pause frames=\"20\"}} {{reaction type=\"Distress\"}}Now I\nsound like I'm a total slob\nmost of the time!"
    }
  },
  {
    "label": "08",
    "attribute": "0x00000000FE000000",
    "locale": {
      "EUde": "{{reaction type=\"Glee\"}}Schön, dass ich jemanden\nvon außerhalb kennen lernen\nkonnte, {{pause frames=\"5\"}}{{string value=\"Catchphrase\"}}!\n{{reaction type=\"Happiness\"}}Du schreibst mir doch\nmal, nicht wahr?",
      "EUen": "{{reaction type=\"Glee\"}}I'm so glad I've made\nfriends with someone from\nout of town, {{pause frames=\"5\"}}{{string value=\"Catchphrase\"}}!\n{{reaction type=\"Happiness\"}}Be sure to write me from\ntime to time, OK?",
      "EUes": "{{reaction type=\"Glee\"}}¡Cómo me alegro de haberme\nhecho amiga de alguien de\notro pueblo, {{pause frames=\"5\"}}{{string value=\"Catchphrase\"}}!\n{{reaction type=\"Happiness\"}}Escríbeme de vez en cuando,\n¿vale? ¡Porfa!",
      "EUfr": "{{reaction type=\"Glee\"}}Je suis ravie d'être amie\navec des gens d'une autre\nville, {{pause frames=\"5\"}}{{string value=\"Catchphrase\"}}!\n{{reaction type=\"Happiness\"}}N'oublie pas de m'écrire de\ntemps en temps, ok?",
      "EUit": "{{reaction type=\"Glee\"}}Sono contenta di aver fatto\namicizia con qualcuno di\nun'altra città, {{pause frames=\"5\"}}{{string value=\"Catchphrase\"}}!\n{{reaction type=\"Happiness\"}}Mi raccomando, scrivimi\nogni tanto, OK?",
      "JPja": "{{reaction type=\"Glee\"}}よその{{kanjiReplace charNum=\"1\" value=\"むら\"}}村の{{kanjiReplace charNum=\"1\" value=\"かた\"}}方と\nお{{kanjiReplace charNum=\"2\" value=\"ともだち\"}}友達になれて\nうれしいです、{{pause frames=\"5\"}}{{string value=\"Catchphrase\"}}！\n{{reaction type=\"Happiness\"}}よろしければ\nお{{kanjiReplace charNum=\"2\" value=\"てがみ\"}}手紙も　{{kanjiReplace charNum=\"1\" value=\"か\"}}書いてくださいね、\n{{pause frames=\"5\"}}{{string value=\"Catchphrase\"}}",
      "KRko": "{{reaction type=\"Glee\"}}다른 마을 사람과\n친구가 돼서\n기뻐요！{{pause frames=\"5\"}} {{string value=\"Catchphrase\"}}\n{{reaction type=\"Happiness\"}}앞으로 제게\n편지도 써 주세요\n{{pause frames=\"5\"}}{{string value=\"Catchphrase\"}}",
      "USen": "{{reaction type=\"Glee\"}}I'm so glad I've made\nfriends with someone from\nout of town, {{pause frames=\"5\"}}{{string value=\"Catchphrase\"}}!\n{{reaction type=\"Happiness\"}}Be sure to write me from\ntime to time, OK?"
    }
  },
  {
    "label": "09",
    "attribute": "0x00000000FE000000",
    "locale": {
      "EUde": "{{resetReaction}}{{pause frames=\"5\"}}.{{pause frames=\"5\"}}.{{pause frames=\"5\"}}.{{pause frames=\"5\"}}Du nimmst mich nicht\nernst, oder?\n\n{{reaction type=\"Aggravation\"}}Spiel nicht mit mir! {{pause frames=\"15\"}}{{reaction type=\"Intense\"}}Ich\nweiß, so was gibt es nicht,\nalso hast du es auch nicht!\nWarum lügst du mich so an,\n{{pause frames=\"5\"}}{{string value=\"Catchphrase\"}}?!?{{fun_03 arg=\"0x01\"}}",
      "EUen": "{{resetReaction}}{{pause frames=\"5\"}}.{{pause frames=\"5\"}}.{{pause frames=\"5\"}}.{{pause frames=\"5\"}}You don't take me\nseriously, do you?\n\n{{reaction type=\"Aggravation\"}}Don't toy with me! {{pause frames=\"15\"}}{{reaction type=\"Intense\"}}I know\nthere's no such thing, so I\nknow you don't have one!\nWhy would you lie to me\nlike that, {{pause frames=\"5\"}}{{string value=\"Catchphrase\"}}?!{{fun_03 arg=\"0x01\"}}",
      "EUes": "{{resetReaction}}Mm{{pause frames=\"5\"}}.{{pause frames=\"5\"}}.{{pause frames=\"5\"}}.{{pause frames=\"5\"}} Tú te estás riendo de\nmí en mi cara, ¿verdad?\n\n{{reaction type=\"Aggravation\"}}¡No juegues conmigo! {{pause frames=\"15\"}}{{reaction type=\"Intense\"}}¡No\npodéis tener nada así en tu\npueblo porque no existe!\n¿Por qué me mentiste?\n¡¿Por qué, {{pause frames=\"5\"}}{{string value=\"Catchphrase\"}}?!{{fun_03 arg=\"0x01\"}}",
      "EUfr": "{{resetReaction}}Tu ne me prends pas au\nsérieux, pas vrai?\n\n{{reaction type=\"Aggravation\"}}Ne te moque pas de moi! {{pause frames=\"15\"}}{{reaction type=\"Intense\"}}\nJe sais que ça n'existe pas,\ndonc, tu n'en as pas!\nPourquoi est-ce que tu me\nmens, {{pause frames=\"5\"}}{{string value=\"Catchphrase\"}}?!{{fun_03 arg=\"0x01\"}}",
      "EUit": "{{resetReaction}}{{pause frames=\"5\"}}.{{pause frames=\"5\"}}.{{pause frames=\"5\"}}.{{pause frames=\"5\"}} Non mi prendi sul\nserio, vero?\n{{reaction type=\"Aggravation\"}}Non prendermi in giro! {{pause frames=\"15\"}}{{reaction type=\"Intense\"}}\nSo che non esiste,\nperciò è impossibile\nche da voi ci sia!\nPerché mi dici le\nbugie, {{pause frames=\"5\"}}{{string value=\"Catchphrase\"}}?!{{fun_03 arg=\"0x01\"}}",
      "JPja": "{{resetReaction}}{{pause frames=\"5\"}}・{{pause frames=\"5\"}}・{{pause frames=\"5\"}}・{{pause frames=\"5\"}}バッ、\n\n\n{{reaction type=\"Aggravation\"}}バカに　しないでください！{{pause frames=\"15\"}}\n{{reaction type=\"Intense\"}}いくら　わたしが\n{{kanjiReplace charNum=\"2\" value=\"せけん\"}}世間{{kanjiReplace charNum=\"1\" value=\"し\"}}知らずだからって、\nそんなモノが　{{kanjiReplace charNum=\"1\" value=\"な\"}}無いコトぐらい\n{{kanjiReplace charNum=\"1\" value=\"し\"}}知ってますっ、{{pause frames=\"5\"}}{{string value=\"Catchphrase\"}}！{{fun_03 arg=\"0x01\"}}",
      "KRko": "{{resetReaction}}{{pause frames=\"5\"}}・{{pause frames=\"5\"}}・{{pause frames=\"5\"}}・{{pause frames=\"5\"}}전\n\n\n{{reaction type=\"Aggravation\"}}바보가 아니에요！{{pause frames=\"15\"}}\n{{reaction type=\"Intense\"}}아무리 제가\n세상 물정을 모른다고 해도\n그런 게 없다는 것 정도는\n안다구욧，{{pause frames=\"5\"}} {{string value=\"Catchphrase\"}}！{{fun_03 arg=\"0x0100\"}}",
      "USen": "{{resetReaction}}{{pause frames=\"5\"}}.{{pause frames=\"5\"}}.{{pause frames=\"5\"}}.{{pause frames=\"5\"}}You don't take me\nseriously, do you?\n\n{{reaction type=\"Aggravation\"}}Don't toy with me! {{pause frames=\"15\"}}{{reaction type=\"Intense\"}}I know\nthere's no such thing, so I\nknow you don't have one!\nWhy would you lie to me\nlike that, {{pause frames=\"5\"}}{{string value=\"Catchphrase\"}}?!{{fun_03 arg=\"0x01\"}}"
    }
  },
  {
    "label": "10",
    "attribute": "0x00000000FE000000",
    "locale": {
      "EUde": "{{reaction type=\"Happiness\"}}Gute Antwort, {{pause frames=\"5\"}}{{string value=\"Catchphrase\"}}.\n\n\n{{reaction type=\"Distress\"}}Ich hätte dich nicht ernst\nnehmen können, wenn du\nmich belogen hättest.",
      "EUen": "{{reaction type=\"Happiness\"}}Good answer, {{pause frames=\"5\"}}{{string value=\"Catchphrase\"}}.\n\n\n{{reaction type=\"Distress\"}}I wouldn't have been able\nto take you seriously if\nyou'd lied to me.",
      "EUes": "{{reaction type=\"Happiness\"}}Bien, {{pause frames=\"5\"}}{{string value=\"Catchphrase\"}}. Es una\nbuena respuesta.\n\n{{reaction type=\"Distress\"}}Si me hubieras mentido no\nhabría podido confiar en ti\nnunca.",
      "EUfr": "{{reaction type=\"Happiness\"}}Bonne réponse, {{pause frames=\"5\"}}{{string value=\"Catchphrase\"}}.\n\n\n{{reaction type=\"Distress\"}}Je n'aurais pas pu te\nprendre au sérieux si tu\nm'avais menti.",
      "EUit": "{{reaction type=\"Happiness\"}}Ottima risposta,\n{{pause frames=\"5\"}}{{string value=\"Catchphrase\"}}.\n\n{{reaction type=\"Distress\"}}Non ti avrei creduto\nanche se mi avessi\nmentito.",
      "JPja": "{{reaction type=\"Happiness\"}}そうですよねー、{{pause frames=\"5\"}}{{string value=\"Catchphrase\"}}\n\n\n{{reaction type=\"Distress\"}}あるって　{{kanjiReplace charNum=\"1\" value=\"こた\"}}答えられたら\n{{string value=\"PlayerNickname\"}}さんの{{kanjiReplace charNum=\"1\" value=\"こと\"}}事、{{pause frames=\"5\"}}ちょっと\nキライに　なるところでした",
      "KRko": "{{reaction type=\"Happiness\"}}그렇군요ー{{pause frames=\"5\"}} {{string value=\"Catchphrase\"}}\n\n\n{{reaction type=\"Distress\"}}있다고 대답했다면\n{{string value=\"PlayerNickname\"}}님이{{pause frames=\"5\"}} 조금\n싫어졌을지도 몰라요",
      "USen": "{{reaction type=\"Happiness\"}}Good answer, {{pause frames=\"5\"}}{{string value=\"Catchphrase\"}}.\n\n\n{{reaction type=\"Distress\"}}I wouldn't have been able\nto take you seriously if\nyou'd lied to me."
    }
  },
  {
    "label": "11",
    "attribute": "0x00000000FE000000",
    "locale": {
      "EUde": "{{reaction type=\"Worry\"}}Oh, {{pause frames=\"5\"}}nein.{{pause frames=\"15\"}} Macht nichts,\n{{pause frames=\"5\"}}{{string value=\"Catchphrase\"}}.\n\nEs war Teil eines seltsamen\nTraums, den ich letzte\nNacht hatte, {{pause frames=\"5\"}}{{string value=\"Catchphrase\"}}.",
      "EUen": "{{reaction type=\"Worry\"}}Oh, {{pause frames=\"5\"}}no.{{pause frames=\"15\"}} Never mind,\n{{pause frames=\"5\"}}{{string value=\"Catchphrase\"}}.\n\nIt was just part of this\nstrange dream I had last\nnight, {{pause frames=\"5\"}}{{string value=\"Catchphrase\"}}.",
      "EUes": "{{reaction type=\"Worry\"}}Oh, {{pause frames=\"5\"}}no.{{pause frames=\"15\"}} No importa,\n{{pause frames=\"5\"}}{{string value=\"Catchphrase\"}}.\n\nEn realidad salía en un\nsueño muy raro que tuve\nayer, {{pause frames=\"5\"}}{{string value=\"Catchphrase\"}}.",
      "EUfr": "{{reaction type=\"Worry\"}}Oh, {{pause frames=\"5\"}}non.{{pause frames=\"15\"}} Ce n'est pas grave,\n{{pause frames=\"5\"}}{{string value=\"Catchphrase\"}}.\n\nC'était juste un rêve que\nj'ai fait la nuit dernière,\n{{pause frames=\"5\"}}{{string value=\"Catchphrase\"}}.",
      "EUit": "{{reaction type=\"Worry\"}}Oh, {{pause frames=\"5\"}}no.{{pause frames=\"15\"}} Non importa,\n{{pause frames=\"5\"}}{{string value=\"Catchphrase\"}}.\n\nMi riferisco a uno\nstrano sogno che ho fatto\nstanotte, {{pause frames=\"5\"}}{{string value=\"Catchphrase\"}}.",
      "JPja": "{{reaction type=\"Worry\"}}いえ、{{pause frames=\"5\"}}すみません{{pause frames=\"15\"}}\n{{kanjiReplace charNum=\"1\" value=\"き\"}}気に　しないでください、{{pause frames=\"5\"}}{{string value=\"Catchphrase\"}}\n\n{{kanjiReplace charNum=\"2\" value=\"きのう\"}}昨日　{{kanjiReplace charNum=\"1\" value=\"よ\"}}夜ふかししてしまって\n{{kanjiReplace charNum=\"1\" value=\"へん\"}}変な{{kanjiReplace charNum=\"1\" value=\"ゆめ\"}}夢を　{{kanjiReplace charNum=\"1\" value=\"み\"}}見ただけですから\n{{pause frames=\"5\"}}・{{pause frames=\"5\"}}・{{pause frames=\"5\"}}・{{pause frames=\"5\"}}{{string value=\"Catchphrase\"}}",
      "KRko": "{{reaction type=\"Worry\"}}아뇨，{{pause frames=\"5\"}} 죄송합니다{{pause frames=\"15\"}}\n신경 쓰지 마세요{{pause frames=\"5\"}}\n{{string value=\"Catchphrase\"}}\n어제 밤을 꼴딱 새는 바람에\n말이 헛 나온 것뿐이에요\n{{pause frames=\"5\"}}・{{pause frames=\"5\"}}・{{pause frames=\"5\"}}・{{pause frames=\"5\"}}{{string value=\"Catchphrase\"}}",
      "USen": "{{reaction type=\"Worry\"}}Oh, {{pause frames=\"5\"}}no.{{pause frames=\"15\"}} Never mind,\n{{pause frames=\"5\"}}{{string value=\"Catchphrase\"}}.\n\nIt was just part of this\nstrange dream I had last\nnight, {{pause frames=\"5\"}}{{string value=\"Catchphrase\"}}."
    }
  },
  {
    "label": "12",
    "attribute": "0x00000000FE000000",
    "locale": {
      "EUde": "",
      "EUen": "",
      "EUes": "",
      "EUfr": "",
      "EUit": "",
      "JPja": "",
      "KRko": "",
      "USen": ""
    }
  }
]