[
  {
    "label": "0",
    "attribute": "0x00000000FF000000",
    "locale": {
      "EUde": "{{reaction type=\"Amazed\"}}Also hat sich {{color id=\"6\"}}{{string index=\"1\"}}\n{{color id=\"0\"}}darüber gefreut? {{pause frames=\"5\"}}Echt?{{pause frames=\"20\"}} {{reaction type=\"Happiness\"}}Bin\nich froh, {{pause frames=\"10\"}}{{string value=\"Catchphrase\"}}!\n{{resetReaction}}Denn {{pause frames=\"10\"}}ich habe lange danach\ngesucht. Also bin ich {{reaction type=\"Happiness\"}}nicht\nüberrascht, {{pause frames=\"10\"}}{{string value=\"Catchphrase\"}}!",
      "EUen": "{{reaction type=\"Amazed\"}}So {{color id=\"6\"}}{{string index=\"1\"}} {{color id=\"0\"}}said it was\nperfect? {{pause frames=\"5\"}}Really?!{{pause frames=\"20\"}} {{reaction type=\"Happiness\"}}I'm so\nglad, {{pause frames=\"10\"}}{{string value=\"Catchphrase\"}}!\n{{resetReaction}}Well, {{pause frames=\"10\"}}I put my heart into\npicking it, so I'm really\n{{reaction type=\"Happiness\"}}not surprised, {{pause frames=\"10\"}}{{string value=\"Catchphrase\"}}!",
      "EUes": "{{reaction type=\"Amazed\"}}¿{{capitalizeLetter}}{{color id=\"6\"}}{{string index=\"1\"}} {{color id=\"0\"}}dijo que era\ngenial? {{pause frames=\"5\"}}¡¿De verdad?!{{pause frames=\"20\"}} {{reaction type=\"Happiness\"}}¡Qué\nalegría, {{pause frames=\"10\"}}{{string value=\"Catchphrase\"}}!\n{{resetReaction}}Claro que {{pause frames=\"10\"}}me esforcé mucho\neligiendo, así que tampoco\n{{reaction type=\"Happiness\"}}me sorprende, {{pause frames=\"10\"}}{{string value=\"Catchphrase\"}}.",
      "EUfr": "{{reaction type=\"Amazed\"}}Donc {{color id=\"6\"}}{{string index=\"1\"}} {{color id=\"0\"}}a dit que\nc'était parfait? {{pause frames=\"5\"}}Vraiment?!{{pause frames=\"20\"}}\n{{reaction type=\"Happiness\"}}Je suis ravie, {{pause frames=\"10\"}}{{string value=\"Catchphrase\"}}!\n{{resetReaction}}Oui, {{pause frames=\"10\"}}j'ai mis tout mon cœur\ndans ce cadeau, alors {{reaction type=\"Happiness\"}}\nc'est normal, {{pause frames=\"10\"}}{{string value=\"Catchphrase\"}}!",
      "EUit": "{{reaction type=\"Amazed\"}}E così {{color id=\"6\"}}{{string index=\"1\"}} {{color id=\"0\"}}ha\napprezzato il regalo? {{pause frames=\"5\"}}Bene!{{pause frames=\"20\"}} {{reaction type=\"Happiness\"}}\nNe sono felice, {{pause frames=\"10\"}}{{string value=\"Catchphrase\"}}!\n{{resetReaction}}Sai, {{pause frames=\"10\"}}ho scelto il regalo\ncon attenzione, non sono\n{{reaction type=\"Happiness\"}}così sorpresa, {{pause frames=\"10\"}}{{string value=\"Catchphrase\"}}!",
      "JPja": "{{reaction type=\"Amazed\"}}そう！？{{pause frames=\"20\"}}\n{{reaction type=\"Happiness\"}}よかった、{{pause frames=\"10\"}}{{string value=\"Catchphrase\"}}\n\n{{resetReaction}}ま、{{pause frames=\"10\"}}あたしが　\nホンキを{{kanjiReplace charNum=\"1\" value=\"だ\"}}出したんだから\n{{reaction type=\"Happiness\"}}{{kanjiReplace charNum=\"2\" value=\"とうぜん\"}}当然だけど、{{pause frames=\"10\"}}{{string value=\"Catchphrase\"}}",
      "KRko": "{{reaction type=\"Amazed\"}}그래？{{pause frames=\"20\"}}\n{{reaction type=\"Happiness\"}}잘됐네， {{pause frames=\"10\"}}{{string value=\"Catchphrase\"}}\n\n{{resetReaction}}뭐， {{pause frames=\"10\"}}내가　\n진심이었으니\n{{reaction type=\"Happiness\"}}당연한 거지만， {{pause frames=\"10\"}}{{string value=\"Catchphrase\"}}",
      "USen": "{{reaction type=\"Amazed\"}}So {{color id=\"6\"}}{{string index=\"1\"}} {{color id=\"0\"}}said it was\nperfect? {{pause frames=\"5\"}}Really?!{{pause frames=\"20\"}} {{reaction type=\"Happiness\"}}I'm so\nglad, {{pause frames=\"10\"}}{{string value=\"Catchphrase\"}}!\n{{resetReaction}}Well, {{pause frames=\"10\"}}I put my heart into\npicking it, so I'm really\n{{reaction type=\"Happiness\"}}not surprised, {{pause frames=\"10\"}}{{string value=\"Catchphrase\"}}!"
    }
  },
  {
    "label": "1",
    "attribute": "0x00000000FF000000",
    "locale": {
      "EUde": "{{resetReaction}}Wirklich? {{pause frames=\"5\"}}Ah, gut!{{pressButton}} {{reaction type=\"Worry\"}}Weißt du,\n{{color id=\"6\"}}{{string index=\"1\"}}{{color id=\"0\"}} kann manchmal\netwas seltsam sein...\n{{reaction type=\"Resignation\"}}{{pause frames=\"5\"}}Deswegen habe ich lange\nnach einem passenden\nGeschenk gesucht{{pause frames=\"5\"}}.{{pause frames=\"5\"}}.{{pause frames=\"5\"}}.\nTja, ich hätte mir gar nicht\nso viele Gedanken machen\nmüssen!",
      "EUen": "{{resetReaction}}Really? {{pause frames=\"5\"}}Oh, good!{{pressButton}} {{reaction type=\"Worry\"}}You know,\n{{color id=\"6\"}}{{string index=\"1\"}}{{color id=\"0\"}} can be kind\nof weird sometimes...\n{{reaction type=\"Resignation\"}}{{pause frames=\"5\"}}So I had the hardest time\nfiguring out what to get{{pause frames=\"5\"}}.{{pause frames=\"5\"}}.{{pause frames=\"5\"}}.\nEh, I shouldn't have worried.",
      "EUes": "{{resetReaction}}¿De verdad? {{pause frames=\"5\"}}¡Bien!{{pressButton}} {{reaction type=\"Worry\"}}¿Sabes?\n{{capitalizeLetter}}{{color id=\"6\"}}{{string index=\"1\"}}{{color id=\"0\"}} puede ser algo\nextravagante a veces...\n{{reaction type=\"Resignation\"}}{{pause frames=\"5\"}}Lo pasé muy mal pensando\nen qué podía regalarle{{pause frames=\"5\"}}.{{pause frames=\"5\"}}.{{pause frames=\"5\"}}. No\ndebí preocuparme tanto.",
      "EUfr": "{{resetReaction}}Vraiment? {{pause frames=\"5\"}}Oh, bien!{{pressButton}} {{reaction type=\"Worry\"}}Tu sais,\n{{color id=\"6\"}}{{string index=\"1\"}}{{color id=\"0\"}} est un peu\nbizarre, parfois...\n{{reaction type=\"Resignation\"}}{{pause frames=\"5\"}}Alors, je ne savais pas quoi\nlui prendre{{pause frames=\"5\"}}.{{pause frames=\"5\"}}.{{pause frames=\"5\"}}. eh, je\nn'aurais pas dû m'inquiéter.",
      "EUit": "{{resetReaction}}Veramente? {{pause frames=\"5\"}}Bene!{{pressButton}} {{reaction type=\"Worry\"}}\n{{capitalizeLetter}}{{color id=\"6\"}}{{string index=\"1\"}}{{color id=\"0\"}} è una persona\ncosì singolare a volte...\n{{reaction type=\"Resignation\"}}{{pause frames=\"5\"}}Non sapevo proprio cosa\nscegliere{{pause frames=\"5\"}}.{{pause frames=\"5\"}}.{{pause frames=\"5\"}}. Non avrei\ndovuto preoccuparmi così.",
      "JPja": "{{resetReaction}}そう！　{{pause frames=\"5\"}}よかった！{{pressButton}}\n{{reaction type=\"Worry\"}}だって　{{color id=\"6\"}}{{string index=\"1\"}}{{color id=\"0\"}}ちゃんって\nちょっと　{{kanjiReplace charNum=\"1\" value=\"か\"}}変わってるでしょ？\n{{reaction type=\"Resignation\"}}{{pause frames=\"5\"}}{{kanjiReplace charNum=\"1\" value=\"なに\"}}何をあげたらいいか、\nあたし　なやんじゃって{{pause frames=\"5\"}}・{{pause frames=\"5\"}}・{{pause frames=\"5\"}}・\n{{pause frames=\"10\"}}{{string value=\"Catchphrase\"}}",
      "KRko": "{{resetReaction}}그래！ {{pause frames=\"5\"}}다행이다！{{pressButton}}\n{{reaction type=\"Worry\"}}왜냐면 {{color id=\"6\"}}{{string index=\"1\"}}{{color id=\"0\"}}{{fun_0B arg=\"0x0100\"}}\n좀 특이하잖니？\n{{reaction type=\"Resignation\"}}{{pause frames=\"5\"}}뭘 주면 좋아할지\n내가 얼마나 고민했다구{{pause frames=\"5\"}}・{{pause frames=\"5\"}}・{{pause frames=\"5\"}}・\n{{pause frames=\"10\"}}{{string value=\"Catchphrase\"}}",
      "USen": "{{resetReaction}}Really? {{pause frames=\"5\"}}Oh, good!{{pressButton}} {{reaction type=\"Worry\"}}You know,\n{{color id=\"6\"}}{{string index=\"1\"}}{{color id=\"0\"}} can be kind\nof weird sometimes...\n{{reaction type=\"Resignation\"}}{{pause frames=\"5\"}}So I had the hardest time\nfiguring out what to get{{pause frames=\"5\"}}.{{pause frames=\"5\"}}.{{pause frames=\"5\"}}.\nEh, I shouldn't have worried."
    }
  },
  {
    "label": "2",
    "attribute": "0x00000000FF000000",
    "locale": {
      "EUde": "{{reaction type=\"Agreement\"}}Ich bin es so gewöhnt,\nGeschenke zu bekommen,\n\ndass es eine große\nAbwechslung für mich ist,\nsie jemandem zu machen!{{resetReaction}}",
      "EUen": "{{reaction type=\"Agreement\"}}I'm so used to getting\npresents {{pause frames=\"10\"}}that giving them\nis a nice change!{{resetReaction}}",
      "EUes": "{{reaction type=\"Agreement\"}}Estoy tan acostumbrada a\nrecibir regalos{{pause frames=\"10\"}} que disfruto\nhaciendo uno, para variar.{{resetReaction}}",
      "EUfr": "{{reaction type=\"Agreement\"}}On me fait tellement de\ncadeaux, {{pause frames=\"10\"}}qu'en offrir me\nchange un peu!{{resetReaction}}",
      "EUit": "{{reaction type=\"Agreement\"}}Sono così abituata a\nricevere regali{{pause frames=\"10\"}} che farne\nuno io è un bel diversivo!{{resetReaction}}",
      "JPja": "{{reaction type=\"Agreement\"}}プレゼントって\nもらうのは　なれてるけど、{{pause frames=\"10\"}}\nあげるのって　{{kanjiReplace charNum=\"2\" value=\"たいへん\"}}大変！{{resetReaction}}",
      "KRko": "{{reaction type=\"Agreement\"}}선물 같은 건\n받는 건 익숙한데，{{pause frames=\"10\"}}\n주는 건 너무 어려워！{{resetReaction}}",
      "USen": "{{reaction type=\"Agreement\"}}I'm so used to getting\npresents {{pause frames=\"10\"}}that giving them\nis a nice change!{{resetReaction}}"
    }
  }
]