[
  {
    "label": "0",
    "attribute": "0x00000000FF000000",
    "locale": {
      "EUde": "{{reaction type=\"Inspiration\"}}Ja, Blumen zu pflegen ist\nwie{{pause frames=\"10\"}} seine Haut zu pflegen!\n\n{{reaction type=\"Thought\"}}Auch wenn du dich bemühst,\nam Ende trocknet doch alles\naus{{pause frames=\"5\"}}.{{pause frames=\"5\"}}.{{pause frames=\"5\"}}.{{pause frames=\"5\"}} Deprimierend.\n{{fun_06 arg=\"0x0304\"}}",
      "EUen": "{{reaction type=\"Inspiration\"}}Whoever said that{{pause frames=\"10\"}} caring\nfor flowers was like caring\nfor skin was right!\n{{reaction type=\"Thought\"}}No matter how much you\nwork, they both dry up in\nthe end{{pause frames=\"5\"}}.{{pause frames=\"5\"}}.{{pause frames=\"5\"}}.{{pause frames=\"5\"}} How depressing.\n{{fun_06 arg=\"0x0304\"}}",
      "EUes": "{{reaction type=\"Inspiration\"}}Quien dijo que{{pause frames=\"10\"}} cuidar las\nflores era como cuidarse la\npiel... {{pause frames=\"5\"}}¡tenía razón!\n{{reaction type=\"Thought\"}}Da igual cuánto las cuides,{{pause frames=\"10\"}}\nal final se secan{{pause frames=\"5\"}}.{{pause frames=\"5\"}}.{{pause frames=\"5\"}}.{{pause frames=\"5\"}}\nEs muy deprimente.\n{{fun_06 arg=\"0x0304\"}}",
      "EUfr": "{{reaction type=\"Inspiration\"}}Prendre soin des fleurs,{{pause frames=\"10\"}}\nc'est comme prendre\nsoin de sa peau!\nEt la personne qui a dit\nça avait entièrement\nraison.\n{{reaction type=\"Thought\"}}Malgré tous tes efforts,\nta peau et tes fleurs\nfinissent par sécher{{pause frames=\"5\"}}.{{pause frames=\"5\"}}.{{pause frames=\"5\"}}.{{pause frames=\"5\"}}\nC'est trop déprimant!\n{{fun_06 arg=\"0x0304\"}}",
      "EUit": "{{reaction type=\"Inspiration\"}}La cura della propria pelle{{pause frames=\"10\"}}\nè simile alla cura dei fiori!\nUna grande verità!\n{{reaction type=\"Thought\"}}Malgrado tutto, entrambi\nfiniscono coll'avvizzirsi{{pause frames=\"5\"}}.{{pause frames=\"5\"}}.{{pause frames=\"5\"}}.{{pause frames=\"5\"}}\nChe tristezza.\n{{fun_06 arg=\"0x0304\"}}",
      "JPja": "{{reaction type=\"Intense\"}}{{kanjiReplace charNum=\"1\" value=\"はな\"}}花の　お{{kanjiReplace charNum=\"2\" value=\"てい\"}}手入れは\nおハダと　{{kanjiReplace charNum=\"1\" value=\"おな\"}}同じなんて、{{pause frames=\"10\"}}　\n{{kanjiReplace charNum=\"1\" value=\"だれ\"}}誰が　{{kanjiReplace charNum=\"1\" value=\"い\"}}言ったのかしら\n{{reaction type=\"Thought\"}}{{pause frames=\"10\"}}どんなに　{{kanjiReplace charNum=\"2\" value=\"たいせつ\"}}大切にしても\n{{kanjiReplace charNum=\"2\" value=\"さいご\"}}最後には　\nかれてしまうなんて{{pause frames=\"5\"}}・{{pause frames=\"5\"}}・{{pause frames=\"5\"}}・{{pause frames=\"5\"}}\n{{fun_06 arg=\"0x0304\"}}",
      "KRko": "{{reaction type=\"Inspiration\"}}꽃 손질은\n피부와 같다고{{pause frames=\"10\"}}　\n누가 말했더라\n{{reaction type=\"Thought\"}}아무리 소중히 돌봐도\n결국에는　\n시들어 버린다고{{pause frames=\"5\"}}・{{pause frames=\"5\"}}・{{pause frames=\"5\"}}・{{pause frames=\"5\"}}\n{{fun_06 arg=\"0x0304\"}}",
      "USen": "{{reaction type=\"Inspiration\"}}Whoever said that{{pause frames=\"10\"}} caring\nfor flowers was like caring\nfor skin was right!\n{{reaction type=\"Thought\"}}No matter how much you\nwork, they both dry up in\nthe end{{pause frames=\"5\"}}.{{pause frames=\"5\"}}.{{pause frames=\"5\"}}.{{pause frames=\"5\"}} How depressing.\n{{fun_06 arg=\"0x0304\"}}"
    }
  },
  {
    "label": "1",
    "attribute": "0x00000000FF000000",
    "locale": {
      "EUde": "{{reaction type=\"Amazed\"}}Ähm, {{pause frames=\"5\"}}{{string value=\"PlayerNickname\"}}!{{pause frames=\"5\"}} Kümmerst\ndu dich überhaupt um deine\nHaut?{{pause frames=\"5\"}} Solltest du aber.\n{{reaction type=\"Resignation\"}}Sogar eine verwelkte Blume\nkann mit etwas Wasser\nwieder aufblühen{{pause frames=\"5\"}}.{{pause frames=\"5\"}}.{{pause frames=\"5\"}}.\n{{fun_06 arg=\"0x0506\"}}",
      "EUen": "{{reaction type=\"Amazed\"}}Ew, {{pause frames=\"5\"}}{{string value=\"PlayerNickname\"}}!{{pause frames=\"5\"}} Do you\ncare at all about your\nskin?{{pause frames=\"5\"}} Then take care of it!\n{{reaction type=\"Resignation\"}}Even a wilted flower will\nperk up with a little bit\nof water{{pause frames=\"5\"}}.{{pause frames=\"5\"}}.{{pause frames=\"5\"}}.\n{{fun_06 arg=\"0x0506\"}}",
      "EUes": "{{reaction type=\"Amazed\"}}¡Oye, {{pause frames=\"5\"}}{{string value=\"PlayerNickname\"}}!{{pause frames=\"5\"}} ¿Tú te\nhidratas la piel?{{pause frames=\"5\"}}\n¡Pues deberías!\n{{reaction type=\"Resignation\"}}Incluso la flor más\nmarchita se anima con un\npoco de agua{{pause frames=\"5\"}}.{{pause frames=\"5\"}}.{{pause frames=\"5\"}}.\n{{fun_06 arg=\"0x0506\"}}",
      "EUfr": "{{reaction type=\"Amazed\"}}Hé, {{pause frames=\"5\"}}{{string value=\"PlayerNickname\"}}!{{pause frames=\"5\"}} Est-ce que\ntu penses à hydrater ta\npeau?{{pause frames=\"5\"}} Prends-en soin!\n{{reaction type=\"Resignation\"}}Il suffit d'un tout petit\npeu d'eau pour qu'une fleur\nfanée retrouve son éclat{{pause frames=\"5\"}}.{{pause frames=\"5\"}}.{{pause frames=\"5\"}}.\n{{fun_06 arg=\"0x0506\"}}",
      "EUit": "{{reaction type=\"Amazed\"}}Ehi, {{pause frames=\"5\"}}{{string value=\"PlayerNickname\"}}!{{pause frames=\"5\"}} Ti prendi\ncura della tua pelle?{{pause frames=\"5\"}}\nFallo!\n{{reaction type=\"Resignation\"}}Persino un fiore avvizzito\nsi riprende con un poco di\nacqua{{pause frames=\"5\"}}.{{pause frames=\"5\"}}.{{pause frames=\"5\"}}.\n{{fun_06 arg=\"0x0506\"}}",
      "JPja": "{{reaction type=\"Amazed\"}}ヤダ、{{pause frames=\"5\"}}{{string value=\"PlayerNickname\"}}ちゃん！{{pause frames=\"10\"}}\nおたく　{{pause frames=\"10\"}}ちゃんと\nおハダの　お{{kanjiReplace charNum=\"2\" value=\"てい\"}}手入れしてるの？\n{{reaction type=\"Resignation\"}}{{pause frames=\"10\"}}しおれた{{kanjiReplace charNum=\"1\" value=\"はな\"}}花だって、{{pause frames=\"10\"}}\n{{kanjiReplace charNum=\"1\" value=\"みず\"}}水をかければ　うるおいが　\nもどるってのに{{pause frames=\"5\"}}・{{pause frames=\"5\"}}・{{pause frames=\"5\"}}・\n{{fun_06 arg=\"0x0506\"}}",
      "KRko": "{{reaction type=\"Amazed\"}}어머， {{pause frames=\"5\"}}{{string value=\"PlayerNickname\"}}！{{pause frames=\"10\"}}\n당신 {{pause frames=\"10\"}}제대로\n피부 손질하고 있어？\n{{reaction type=\"Resignation\"}}시든 꽃이라도{{pause frames=\"10\"}}\n물을 주면 생기가　\n돌아온다구{{pause frames=\"5\"}}・{{pause frames=\"5\"}}・{{pause frames=\"5\"}}・\n{{fun_06 arg=\"0x0506\"}}",
      "USen": "{{reaction type=\"Amazed\"}}Ew, {{pause frames=\"5\"}}{{string value=\"PlayerNickname\"}}!{{pause frames=\"5\"}} Do you\ncare at all about your\nskin?{{pause frames=\"5\"}} Then take care of it!\n{{reaction type=\"Resignation\"}}Even a wilted flower will\nperk up with a little bit\nof water{{pause frames=\"5\"}}.{{pause frames=\"5\"}}.{{pause frames=\"5\"}}.\n{{fun_06 arg=\"0x0506\"}}"
    }
  },
  {
    "label": "2",
    "attribute": "0x00000000FF000000",
    "locale": {
      "EUde": "{{fun_06 arg=\"0x070809\"}}",
      "EUen": "{{fun_06 arg=\"0x070809\"}}",
      "EUes": "{{fun_06 arg=\"0x070809\"}}",
      "EUfr": "{{fun_06 arg=\"0x070809\"}}",
      "EUit": "{{fun_06 arg=\"0x070809\"}}",
      "JPja": "{{fun_06 arg=\"0x070809\"}}",
      "KRko": "{{fun_06 arg=\"0x07080900\"}}",
      "USen": "{{fun_06 arg=\"0x070809\"}}"
    }
  },
  {
    "label": "3",
    "attribute": "0x00000000FE000000",
    "locale": {
      "EUde": "{{reaction type=\"Intense\"}}Von wem stammt der Spruch\neigentlich?{{pressButton}} {{reaction type=\"Distress\"}}Das würde mich\ninteressieren, {{pause frames=\"5\"}}{{string value=\"Catchphrase\"}}!",
      "EUen": "{{reaction type=\"Intense\"}}Who was it that said such a\nthing?{{pressButton}} {{reaction type=\"Distress\"}}Seriously, I need to\nknow, {{pause frames=\"5\"}}{{string value=\"Catchphrase\"}}!",
      "EUes": "{{reaction type=\"Intense\"}}¿Quién diría algo así?{{pressButton}}\n{{reaction type=\"Distress\"}}¡Dímelo, necesito\nsaberlo, {{pause frames=\"5\"}}{{string value=\"Catchphrase\"}}!",
      "EUfr": "{{reaction type=\"Intense\"}}D'ailleurs, qui a dit ça?{{pressButton}} {{reaction type=\"Distress\"}}\nJe meurs d'envie de le\nsavoir, {{pause frames=\"5\"}}{{string value=\"Catchphrase\"}}!",
      "EUit": "{{reaction type=\"Intense\"}}Quale mente eccelsa avrà\ndetto questa verità?{{pressButton}} {{reaction type=\"Distress\"}}Devo\nsaperlo, {{pause frames=\"5\"}}{{string value=\"Catchphrase\"}}!",
      "JPja": "{{pause frames=\"5\"}}{{reaction type=\"Annoyed\"}}こんなコト{{kanjiReplace charNum=\"1\" value=\"い\"}}言ったの\nホントに　{{kanjiReplace charNum=\"1\" value=\"だれ\"}}誰！？{{pressButton}}\nジョーダンじゃないわ、{{pause frames=\"5\"}}{{string value=\"Catchphrase\"}}！",
      "KRko": "{{reaction type=\"Intense\"}}이런 말 한 거\n정말로 누구지？！{{pressButton}}\n{{reaction type=\"Distress\"}}너무하잖아， {{pause frames=\"5\"}}{{string value=\"Catchphrase\"}}！",
      "USen": "{{reaction type=\"Intense\"}}Who was it that said such a\nthing?{{pressButton}} {{reaction type=\"Distress\"}}Seriously, I need to\nknow, {{pause frames=\"5\"}}{{string value=\"Catchphrase\"}}!"
    }
  },
  {
    "label": "4",
    "attribute": "0x00000000FE000000",
    "locale": {
      "EUde": "{{reaction type=\"Amazed\"}}Was?{{pressButton}} Moment!{{pause frames=\"15\"}} {{reaction type=\"Thought\"}}Du sagst, es\ngibt Blumen, die nie\nverwelken?\n{{reaction type=\"Distress\"}}Das habe ich auch gehört,\n{{pause frames=\"5\"}}{{string value=\"Catchphrase\"}}!{{pause frames=\"10\"}} {{reaction type=\"Thought\"}}Hmmm.{{pause frames=\"10\"}} Das\nwaren doch{{pause frames=\"5\"}}.{{pause frames=\"5\"}}.{{pause frames=\"5\"}}.{{pause frames=\"20\"}}{{reaction type=\"Curiosity\"}} Rosen, nicht?",
      "EUen": "{{reaction type=\"Amazed\"}}Huh?{{pressButton}} Wait a second!{{pause frames=\"15\"}} {{reaction type=\"Thought\"}}There\nare flowers that never\nwilt, you say?\n{{reaction type=\"Distress\"}}I think I've heard that\nbefore, {{pause frames=\"5\"}}{{string value=\"Catchphrase\"}}!{{pause frames=\"10\"}} {{reaction type=\"Thought\"}}Hmmm.{{pause frames=\"10\"}}\nThey were{{pause frames=\"5\"}}.{{pause frames=\"5\"}}.{{pause frames=\"5\"}}.{{pause frames=\"20\"}}{{reaction type=\"Curiosity\"}}roses, right?",
      "EUes": "{{reaction type=\"Amazed\"}}¿Cómo?{{pressButton}} ¡Un momento!{{pause frames=\"15\"}} {{reaction type=\"Thought\"}}¿Dices\nque hay flores que no se\nmarchitan nunca?\n{{reaction type=\"Distress\"}}¡Creo que ya lo había\noído antes, {{pause frames=\"5\"}}{{string value=\"Catchphrase\"}}!{{pause frames=\"10\"}} {{reaction type=\"Thought\"}}Mm.{{pause frames=\"10\"}}\nEran{{pause frames=\"5\"}}.{{pause frames=\"5\"}}.{{pause frames=\"5\"}}.{{pause frames=\"20\"}}{{reaction type=\"Curiosity\"}} las rosas, ¿verdad?",
      "EUfr": "{{reaction type=\"Amazed\"}}Hein?{{pressButton}} Attends une seconde!{{pause frames=\"15\"}} \n{{reaction type=\"Thought\"}}Il y a des fleurs qui ne\nflétrissent jamais, tu dis?\n{{reaction type=\"Distress\"}}Ce n'est pas la première\nfois que j'entends ça,{{pause frames=\"5\"}}\n{{string value=\"Catchphrase\"}}!{{pause frames=\"10\"}} {{reaction type=\"Thought\"}}Hum...{{pause frames=\"10\"}}\nCe sont{{pause frames=\"5\"}}.{{pause frames=\"5\"}}.{{pause frames=\"5\"}}.{{pause frames=\"20\"}}{{reaction type=\"Curiosity\"}} les roses, non?",
      "EUit": "{{reaction type=\"Amazed\"}}Come?{{pressButton}} Aspetta!{{pause frames=\"15\"}} {{reaction type=\"Thought\"}}Stai\ndicendo che ci sono fiori\nche non appassiscono mai?\n{{reaction type=\"Distress\"}}Ne ho sentito parlare,\n{{pause frames=\"5\"}}{{string value=\"Catchphrase\"}}!{{pause frames=\"10\"}} {{reaction type=\"Thought\"}}Mmm.{{pause frames=\"10\"}}\nNon erano{{pause frames=\"5\"}}.{{pause frames=\"5\"}}.{{pause frames=\"5\"}}.{{pause frames=\"20\"}}{{reaction type=\"Curiosity\"}} le rose?",
      "JPja": "{{reaction type=\"Amazed\"}}{{pause frames=\"5\"}}ん？{{pause frames=\"20\"}}　ちょっと{{kanjiReplace charNum=\"1\" value=\"ま\"}}待って！{{pressButton}}\n{{reaction type=\"Intense\"}}{{pause frames=\"10\"}}いつまでも　かれない\n{{kanjiReplace charNum=\"2\" value=\"きんいろ\"}}金色の{{kanjiReplace charNum=\"1\" value=\"はな\"}}花が　あるって{{pause frames=\"5\"}}・{{pause frames=\"5\"}}・{{pause frames=\"5\"}}・\nいつか　{{kanjiReplace charNum=\"1\" value=\"だれ\"}}誰かに\n{{kanjiReplace charNum=\"1\" value=\"き\"}}聞いた{{kanjiReplace charNum=\"1\" value=\"き\"}}気が　するわ！　{{pause frames=\"5\"}}{{string value=\"Catchphrase\"}}！\n\n{{reaction type=\"Thought\"}}{{pause frames=\"10\"}}{{kanjiReplace charNum=\"2\" value=\"しゅるい\"}}種類は　{{kanjiReplace charNum=\"1\" value=\"たし\"}}確か{{pause frames=\"5\"}}・{{pause frames=\"5\"}}・{{pause frames=\"5\"}}・{{pause frames=\"20\"}}\n{{reaction type=\"Curiosity\"}}バラだったかしら？",
      "KRko": "{{reaction type=\"Amazed\"}}{{pause frames=\"5\"}}응？{{pressButton}} 잠깐만！{{pause frames=\"15\"}}\n{{reaction type=\"Thought\"}}영원히 시들지 않는\n금색 꽃이 있다고{{pause frames=\"5\"}}・{{pause frames=\"5\"}}・{{pause frames=\"5\"}}・\n{{reaction type=\"Distress\"}}언젠가 누구한테\n들은 적이 있어！ {{pause frames=\"5\"}}{{string value=\"Catchphrase\"}}！\n\n{{reaction type=\"Thought\"}}종류는 아마{{pause frames=\"5\"}}・{{pause frames=\"5\"}}・{{pause frames=\"5\"}}・{{pause frames=\"20\"}}\n{{reaction type=\"Curiosity\"}}장미였던가？",
      "USen": "{{reaction type=\"Amazed\"}}Huh?{{pressButton}} Wait a second!{{pause frames=\"15\"}} {{reaction type=\"Thought\"}}There\nare flowers that never\nwilt, you say?\n{{reaction type=\"Distress\"}}I think I've heard that\nbefore, {{pause frames=\"5\"}}{{string value=\"Catchphrase\"}}!{{pause frames=\"10\"}} {{reaction type=\"Thought\"}}Hmmm.{{pause frames=\"10\"}}\nThey were{{pause frames=\"5\"}}.{{pause frames=\"5\"}}.{{pause frames=\"5\"}}.{{pause frames=\"20\"}}{{reaction type=\"Curiosity\"}}roses, right?"
    }
  },
  {
    "label": "5",
    "attribute": "0x00000000FE000000",
    "locale": {
      "EUde": "{{reaction type=\"Worry\"}}Heutzutage müssen auch\nJungs auf ihr Äußeres\nachten, {{pause frames=\"5\"}}{{string value=\"Catchphrase\"}}!",
      "EUen": "{{reaction type=\"Worry\"}}These days, not even boys\nare allowed to look scruffy,\n{{pause frames=\"5\"}}{{string value=\"Catchphrase\"}}!",
      "EUes": "{{reaction type=\"Worry\"}}¡En estos tiempos, hasta los\nchicos tenéis que cuidaros\ny arreglaros, {{pause frames=\"5\"}}{{string value=\"Catchphrase\"}}!",
      "EUfr": "{{reaction type=\"Worry\"}}De nos jours, on exige\nmême des jeunes hommes\nqu'ils soient toujours tirés\nà quatre épingles,{{pause frames=\"5\"}}\n{{string value=\"Catchphrase\"}}!",
      "EUit": "{{reaction type=\"Worry\"}}Al giorno d'oggi neppure i\nragazzi possono essere\ntrasandati, {{pause frames=\"5\"}}{{string value=\"Catchphrase\"}}!",
      "JPja": "{{reaction type=\"Intense\"}}{{kanjiReplace charNum=\"1\" value=\"おとこ\"}}男の{{kanjiReplace charNum=\"1\" value=\"こ\"}}子でも\nガサガサの　{{kanjiReplace charNum=\"1\" value=\"かお\"}}顔は\n{{kanjiReplace charNum=\"2\" value=\"さいきん\"}}最近は　ＮＧよ！　{{pause frames=\"5\"}}{{string value=\"Catchphrase\"}}！",
      "KRko": "{{reaction type=\"Worry\"}}남자라도\n거친 피부는\n요즘 인기 없어！ {{pause frames=\"5\"}}{{string value=\"Catchphrase\"}}！",
      "USen": "{{reaction type=\"Worry\"}}These days, not even boys\nare allowed to look scruffy,\n{{pause frames=\"5\"}}{{string value=\"Catchphrase\"}}!"
    }
  },
  {
    "label": "6",
    "attribute": "0x00000000FE000000",
    "locale": {
      "EUde": "{{reaction type=\"Worry\"}}Mädchen müssen besonders\nauf gesunde Gesichtshaut\nachten, {{pause frames=\"5\"}}{{string value=\"Catchphrase\"}}.\n{{reaction type=\"Agreement\"}}Du hast so schöne Haut.\nBestimmt trinkst du\nregelmäßig viel Wasser! {{pause frames=\"10\"}}{{reaction type=\"Happiness\"}}Gut!",
      "EUen": "{{reaction type=\"Worry\"}}Girls must take special\ncare to stay hydrated,{{pause frames=\"5\"}}\n{{string value=\"Catchphrase\"}}.\n{{reaction type=\"Agreement\"}}You have such lovely skin,\nI can tell you're drinking\nyour water! {{pause frames=\"10\"}}{{reaction type=\"Happiness\"}}Keep it up!",
      "EUes": "{{reaction type=\"Worry\"}}Las chicas debemos prestar\nespecial atención a la\nhidratación,{{pause frames=\"5\"}} {{string value=\"Catchphrase\"}}.\n{{reaction type=\"Agreement\"}}¡Qué luminosa tienes la piel!\n¡Se ve enseguida que bebes\nmucha agua! {{pause frames=\"10\"}}{{reaction type=\"Happiness\"}}¡Sigue así!",
      "EUfr": "{{reaction type=\"Worry\"}}Les jeunes filles doivent\ns'assurer que leur peau soit\nbien hydratée{{pause frames=\"5\"}}, {{string value=\"Catchphrase\"}}.\n{{reaction type=\"Agreement\"}}Ta peau semble respirer la\nsanté! Je parie que tu bois\nsuffisamment d'eau!{{pause frames=\"10\"}}{{reaction type=\"Happiness\"}}\nContinue comme ça!",
      "EUit": "{{reaction type=\"Worry\"}}Le ragazze devono far di\ntutto per mantenere la\npelle idratata,{{pause frames=\"5\"}} {{string value=\"Catchphrase\"}}.\n{{reaction type=\"Agreement\"}}Tu hai una bella pelle!\nSi vede che bevi molto!\n{{pause frames=\"10\"}}{{reaction type=\"Happiness\"}}Continua così!",
      "JPja": "{{reaction type=\"Intense\"}}{{kanjiReplace charNum=\"1\" value=\"オンナ\"}}女は　いつだって\nモイスチャー・シーカーよ、\n{{pause frames=\"5\"}}{{string value=\"Catchphrase\"}}\n{{reaction type=\"Agreement\"}}おたくも　せっかく\nキレイな　ハダしてるんだから、{{pause frames=\"10\"}}\nうるおいを　{{kanjiReplace charNum=\"1\" value=\"もと\"}}求め{{kanjiReplace charNum=\"1\" value=\"つづ\"}}続けなきゃね{{resetReaction}}",
      "KRko": "{{reaction type=\"Worry\"}}여자는 언제나\n촉촉한 피부를 원해，\n{{pause frames=\"5\"}}{{string value=\"Catchphrase\"}}\n{{reaction type=\"Agreement\"}}당신은\n피부가 좋으니까{{pause frames=\"10\"}}\n{{reaction type=\"Happiness\"}}그 피부를 계속 유지하도록 해！",
      "USen": "{{reaction type=\"Worry\"}}Girls must take special\ncare to stay hydrated,{{pause frames=\"5\"}}\n{{string value=\"Catchphrase\"}}.\n{{reaction type=\"Agreement\"}}You have such lovely skin,\nI can tell you're drinking\nyour water! {{pause frames=\"10\"}}{{reaction type=\"Happiness\"}}Keep it up!"
    }
  },
  {
    "label": "7",
    "attribute": "0x00000000FE000000",
    "locale": {
      "EUde": "{{reaction type=\"Resignation\"}}Wo ich früher gelebt habe,{{pause frames=\"10\"}}\ngab es ein furchtbares\nMädchen, {{pause frames=\"10\"}}{{string value=\"Catchphrase\"}}.\n{{reaction type=\"Sighing\"}}{{pause frames=\"20\"}}Sie hat überall Müll liegen\nlassen,{{pause frames=\"10\"}} und ihr Garten war\nvoller Unkraut{{pause frames=\"5\"}}.{{pause frames=\"5\"}}.{{pause frames=\"5\"}}.\n{{reaction type=\"Thought\"}}Wenn ich immer noch in\nihrer Nähe wohnen würde,\nwürde ich sie wohl{{pause frames=\"5\"}}.{{pause frames=\"5\"}}.{{pause frames=\"5\"}}.\n{{reaction type=\"Distress\"}}Nein,{{pause frames=\"5\"}} mehr kann ich nicht\nsagen.{{pause frames=\"20\"}}{{reaction type=\"Fearful\"}} Manchmal bin ich\nso gemein,\ndass ich schon vor mir\nselber Angst habe,\n{{pause frames=\"5\"}}{{string value=\"Catchphrase\"}}!",
      "EUen": "{{reaction type=\"Resignation\"}}Where I used to live,{{pause frames=\"10\"}} there\nwas this horrible girl,\n{{pause frames=\"10\"}}{{string value=\"Catchphrase\"}}.\n{{reaction type=\"Sighing\"}}{{pause frames=\"20\"}}She scattered garbage\neverywhere,{{pause frames=\"10\"}} and let her\nyard go to weeds{{pause frames=\"5\"}}.{{pause frames=\"5\"}}.{{pause frames=\"5\"}}.\n{{reaction type=\"Thought\"}}I think if I still lived in\nthe same town with her, I\nmight have{{pause frames=\"5\"}}.{{pause frames=\"5\"}}.{{pause frames=\"5\"}}.\n{{reaction type=\"Distress\"}}No,{{pause frames=\"5\"}} I can't say any more.{{pause frames=\"20\"}}\n{{reaction type=\"Fearful\"}}Sometimes I'm so mean,{{pause frames=\"5\"}} I\nscare myself, {{pause frames=\"5\"}}{{string value=\"Catchphrase\"}}!",
      "EUes": "{{reaction type=\"Resignation\"}}Donde yo vivía antes{{pause frames=\"10\"}} había\nuna chica tremenda,\n{{pause frames=\"10\"}}{{string value=\"Catchphrase\"}}.\n{{reaction type=\"Sighing\"}}{{pause frames=\"20\"}}Esparcía basura por todas\npartes,{{pause frames=\"10\"}} no arrancaba los\nhierbajos de su jardín{{pause frames=\"5\"}}.{{pause frames=\"5\"}}.{{pause frames=\"5\"}}.\n{{reaction type=\"Thought\"}}Si no me hubiera venido a\nvivir aquí, habría acabado{{pause frames=\"5\"}}.{{pause frames=\"5\"}}.{{pause frames=\"5\"}}.\n{{reaction type=\"Distress\"}}Mejor {{pause frames=\"5\"}}no acabo la frase.{{pause frames=\"20\"}}\n{{reaction type=\"Fearful\"}}¡A veces soy tan mala{{pause frames=\"5\"}} que\nme asusto, {{pause frames=\"5\"}}{{string value=\"Catchphrase\"}}!",
      "EUfr": "{{reaction type=\"Resignation\"}}Là où j'habitais avant,{{pause frames=\"10\"}}\nil y avait cette horrible\nfille, {{pause frames=\"10\"}}{{string value=\"Catchphrase\"}}.\n{{reaction type=\"Sighing\"}}{{pause frames=\"20\"}}Elle jetait ses ordures\nn'importe où{{pause frames=\"10\"}} et elle laissait\nles mauvaises herbes\npousser dans son jardin{{pause frames=\"5\"}}.{{pause frames=\"5\"}}.{{pause frames=\"5\"}}.\n\n\n{{reaction type=\"Thought\"}}Je crois que si j'habitais\nencore dans la même ville\nqu'elle, je lui{{pause frames=\"5\"}}.{{pause frames=\"5\"}}.{{pause frames=\"5\"}}.\n{{reaction type=\"Distress\"}}Non,{{pause frames=\"5\"}} je n'en dirai pas plus.{{pause frames=\"20\"}}\n{{reaction type=\"Fearful\"}}Parfois, ma propre cruauté{{pause frames=\"5\"}}\nme terrifie, {{pause frames=\"5\"}}{{string value=\"Catchphrase\"}}!",
      "EUit": "{{reaction type=\"Resignation\"}}Dove abitavo prima{{pause frames=\"10\"}} c'era\nuna ragazza terribile,\n{{pause frames=\"10\"}}{{string value=\"Catchphrase\"}}.\n{{reaction type=\"Sighing\"}}{{pause frames=\"20\"}}Buttava rifiuti dappertutto\n{{pause frames=\"10\"}} e faceva crescere le\nerbacce nel giardino{{pause frames=\"5\"}}.{{pause frames=\"5\"}}.{{pause frames=\"5\"}}.\n{{reaction type=\"Thought\"}}Se avessi continuato a\nvivere in quella città,\nl'avrei{{pause frames=\"5\"}}.{{pause frames=\"5\"}}.{{pause frames=\"5\"}}. {{reaction type=\"Distress\"}}No,{{pause frames=\"5\"}} meglio non\ndirlo.{{pause frames=\"20\"}} {{reaction type=\"Fearful\"}}A volte sono così\ncattiva{{pause frames=\"5\"}} che mi faccio\npaura, {{pause frames=\"5\"}}{{string value=\"Catchphrase\"}}!",
      "JPja": "{{reaction type=\"Resignation\"}}{{pause frames=\"10\"}}{{kanjiReplace charNum=\"1\" value=\"むかし\"}}昔　{{kanjiReplace charNum=\"1\" value=\"す\"}}住んでた{{kanjiReplace charNum=\"1\" value=\"むら\"}}村に、{{pause frames=\"10\"}}\nとんでもなく　だらしない\n{{kanjiReplace charNum=\"1\" value=\"おんな\"}}女の{{kanjiReplace charNum=\"1\" value=\"こ\"}}子がいたの、{{pause frames=\"10\"}}{{string value=\"Catchphrase\"}}\n{{reaction type=\"Intense\"}}{{pause frames=\"20\"}}ゴミは　{{kanjiReplace charNum=\"1\" value=\"ち\"}}散らかしっぱなし、{{pause frames=\"10\"}}\nお{{kanjiReplace charNum=\"1\" value=\"にわ\"}}庭は　{{kanjiReplace charNum=\"2\" value=\"ざっそう\"}}雑草だらけ{{pause frames=\"5\"}}・{{pause frames=\"5\"}}・{{pause frames=\"5\"}}・\n\n{{reaction type=\"Fearful\"}}{{pause frames=\"10\"}}ずっと　そんな{{kanjiReplace charNum=\"2\" value=\"せいかつ\"}}生活を\n{{kanjiReplace charNum=\"1\" value=\"つづ\"}}続けてたらね{{pause frames=\"5\"}}・{{pause frames=\"5\"}}・{{pause frames=\"5\"}}・\n\n{{reaction type=\"Distress\"}}あぁ～{{pause frames=\"5\"}}・{{pause frames=\"5\"}}・{{pause frames=\"5\"}}・{{pause frames=\"5\"}}　ダメッ！！{{pause frames=\"20\"}}\nこれ{{kanjiReplace charNum=\"2\" value=\"いじょう\"}}以上は　コワすぎて\n{{kanjiReplace charNum=\"1\" value=\"い\"}}言えないわっ！　{{pause frames=\"5\"}}{{string value=\"Catchphrase\"}}！",
      "KRko": "{{reaction type=\"Resignation\"}}과거에 살았던 마을에{{pause frames=\"10\"}}\n정말 말도 안 되게 칠칠맞은\n여자 애가 있었어， {{pause frames=\"10\"}}{{string value=\"Catchphrase\"}}\n{{reaction type=\"Sighing\"}}{{pause frames=\"20\"}}집안은 쓰레기로 가득 차 있고{{pause frames=\"10\"}}\n정원은 잡초 투성이였지{{pause frames=\"5\"}}・{{pause frames=\"5\"}}・{{pause frames=\"5\"}}・\n\n{{reaction type=\"Thought\"}}계속 그런 생활을\n계속하니까{{pause frames=\"5\"}}・{{pause frames=\"5\"}}・{{pause frames=\"5\"}}・\n\n{{reaction type=\"Distress\"}}아아～{{pause frames=\"5\"}}・{{pause frames=\"5\"}}・{{pause frames=\"5\"}}・{{pause frames=\"5\"}} 안 돼！！{{pause frames=\"20\"}}\n{{reaction type=\"Fearful\"}}더 이상은 너무 무서워서\n말 못하겠어！ {{pause frames=\"5\"}}{{string value=\"Catchphrase\"}}！",
      "USen": "{{reaction type=\"Resignation\"}}Where I used to live,{{pause frames=\"10\"}} there\nwas this horrible girl,\n{{pause frames=\"10\"}}{{string value=\"Catchphrase\"}}.\n{{reaction type=\"Sighing\"}}{{pause frames=\"20\"}}She scattered garbage\neverywhere,{{pause frames=\"10\"}} and let her\nyard go to weeds{{pause frames=\"5\"}}.{{pause frames=\"5\"}}.{{pause frames=\"5\"}}.\n{{reaction type=\"Thought\"}}I think if I still lived in\nthe same town with her, I\nmight have{{pause frames=\"5\"}}.{{pause frames=\"5\"}}.{{pause frames=\"5\"}}.\n{{reaction type=\"Distress\"}}No,{{pause frames=\"5\"}} I can't say any more.{{pause frames=\"20\"}}\n{{reaction type=\"Fearful\"}}Sometimes I'm so mean,{{pause frames=\"5\"}} I\nscare myself, {{pause frames=\"5\"}}{{string value=\"Catchphrase\"}}!"
    }
  },
  {
    "label": "8",
    "attribute": "0x00000000FE000000",
    "locale": {
      "EUde": "{{reaction type=\"Happiness\"}}Wenn du Blumen kreuzen\nwillst,{{pause frames=\"5\"}} pflanze sie dicht\nzusammen und sei geduldig.\n{{reaction type=\"Love\"}}Nach einiger Zeit blüht\nvielleicht eine anders-\nfarbige Blume, {{string value=\"Catchphrase\"}}!",
      "EUen": "{{reaction type=\"Happiness\"}}When crossbreeding flowers,{{pause frames=\"5\"}}\njust plant them close\ntogether and be patient.\n{{reaction type=\"Love\"}}After a while, a new flower\nof a different color might\nbloom, {{string value=\"Catchphrase\"}}!",
      "EUes": "{{reaction type=\"Happiness\"}}¿Sabes cómo conseguir\nflores de colores nuevos y\ndiferentes?{{pause frames=\"5\"}}\nPues solo tienes que\nplantarlas muy juntitas y\ntener un poco de paciencia.\n{{reaction type=\"Love\"}}Al cabo de un tiempo,\n¡puede nacer una flor de\notro color, {{string value=\"Catchphrase\"}}!",
      "EUfr": "{{reaction type=\"Happiness\"}}Pour croiser des fleurs,{{pause frames=\"5\"}}\nplante-les très près les\nunes des autres et prends\nton mal en patience.\n{{reaction type=\"Love\"}}Après quelque temps, une\nnouvelle fleur de couleur\ndifférente pourrait éclore,\n{{string value=\"Catchphrase\"}}!",
      "EUit": "{{reaction type=\"Happiness\"}}Se vuoi creare degli incroci\ndi fiori,{{pause frames=\"5\"}} piantali vicini\ne abbi pazienza.\n{{reaction type=\"Love\"}}Con il tempo, potrebbe\nsbocciare un fiore di colore\ndiverso, {{string value=\"Catchphrase\"}}!",
      "JPja": "{{resetReaction}}お{{kanjiReplace charNum=\"1\" value=\"はな\"}}花を　{{kanjiReplace charNum=\"2\" value=\"こうはい\"}}交配させるなら、{{pause frames=\"5\"}}\nしんぼう{{kanjiReplace charNum=\"1\" value=\"づよ\"}}強く　{{kanjiReplace charNum=\"1\" value=\"ちか\"}}近くに\nうえ{{kanjiReplace charNum=\"1\" value=\"つづ\"}}続けるコトね、{{pause frames=\"5\"}}{{string value=\"Catchphrase\"}}\n{{reaction type=\"Love\"}}いつか　{{kanjiReplace charNum=\"1\" value=\"いろ\"}}色の\n{{kanjiReplace charNum=\"1\" value=\"ま\"}}交じり{{kanjiReplace charNum=\"1\" value=\"あ\"}}合った　{{kanjiReplace charNum=\"2\" value=\"しんしゅ\"}}新種が\n{{kanjiReplace charNum=\"2\" value=\"はなひら\"}}花開くかも{{pause frames=\"5\"}}・{{pause frames=\"5\"}}・{{pause frames=\"5\"}}・{{pause frames=\"5\"}}{{string value=\"Catchphrase\"}}！",
      "KRko": "{{reaction type=\"Happiness\"}}꽃을 교배시키려면，{{pause frames=\"5\"}}\n인내심을 갖고 가까운 곳에\n계속 심는 거야， {{pause frames=\"5\"}}{{string value=\"Catchphrase\"}}\n{{reaction type=\"Love\"}}언젠가 색깔이\n섞인 신종 꽃이\n필지도 몰라{{pause frames=\"5\"}}・{{pause frames=\"5\"}}・{{pause frames=\"5\"}}・{{pause frames=\"5\"}}{{string value=\"Catchphrase\"}}！",
      "USen": "{{reaction type=\"Happiness\"}}When crossbreeding flowers,{{pause frames=\"5\"}}\njust plant them close\ntogether and be patient.\n{{reaction type=\"Love\"}}After a while, a new flower\nof a different color might\nbloom, {{string value=\"Catchphrase\"}}!"
    }
  },
  {
    "label": "9",
    "attribute": "0x00000000FE000000",
    "locale": {
      "EUde": "{{reaction type=\"Agreement\"}}Nach einem Regentag blühen\nsogar {{resetReaction}}verwelkte Blumen\nwieder auf!\n{{reaction type=\"Happiness\"}}Das Gleiche passiert, wenn\ndu sie mit der {{color id=\"7\"}}Gießkanne\n{{color id=\"0\"}}gießt, {{pause frames=\"10\"}}{{string value=\"Catchphrase\"}}.\n{{reaction type=\"Love\"}}Für Blumen UND Damen {{pause frames=\"5\"}}sind\nPflege und Aufmerksamkeit\nganz wichtig!",
      "EUen": "{{reaction type=\"Agreement\"}}After a day of rain, even\nwilted flowers {{resetReaction}}will perk\nright up!\n{{reaction type=\"Happiness\"}}Watering them with your\n{{color id=\"7\"}}watering can{{color id=\"0\"}} will do the\nsame thing, {{pause frames=\"10\"}}{{string value=\"Catchphrase\"}}.\n{{reaction type=\"Love\"}}And remember, for both\nladies and flowers,{{pause frames=\"5\"}}\nhydration is key!",
      "EUes": "{{reaction type=\"Agreement\"}}Después de un día de lluvia,\nincluso las flores más\npochitas{{resetReaction}} se animan.\n{{reaction type=\"Happiness\"}}Si las riegas con tu\n{{color id=\"7\"}}regadera{{color id=\"0\"}}, conseguirás el\nmismo efecto, {{pause frames=\"10\"}}{{string value=\"Catchphrase\"}}.\n{{reaction type=\"Love\"}}¡Y recuerda {{pause frames=\"5\"}}que la\nhidratación es vital para\nlas flores y las chicas!",
      "EUfr": "{{reaction type=\"Agreement\"}}Après une journée pluvieuse,\nmême les fleurs fanées{{resetReaction}}\nretrouveront leur éclat!\n{{reaction type=\"Happiness\"}}Si tu leur donnes de l'eau\navec ton {{color id=\"7\"}}arrosoir{{color id=\"0\"}}, l'effet\nsera le même, {{pause frames=\"10\"}}{{string value=\"Catchphrase\"}}.\n{{reaction type=\"Love\"}}Et souviens-toi que l'eau\nest vitale pour les fleurs{{pause frames=\"5\"}}\ncomme pour les femmes!",
      "EUit": "{{reaction type=\"Agreement\"}}Dopo una giornata di\npioggia,{{resetReaction}} persino i fiori\navvizziti si riprenderanno!\n{{reaction type=\"Happiness\"}}Li puoi innaffiare anche con\nl'{{color id=\"7\"}}innaffiatoio{{color id=\"0\"}}, {{pause frames=\"10\"}}{{string value=\"Catchphrase\"}}.\n{{reaction type=\"Love\"}}E ricorda, sia per i fiori\nche per le signore{{pause frames=\"5\"}},\nl'idratazione è la cosa\nfondamentale!",
      "JPja": "{{reaction type=\"Agreement\"}}しおれた　お{{kanjiReplace charNum=\"1\" value=\"はな\"}}花は\n{{kanjiReplace charNum=\"1\" value=\"あめ\"}}雨がふれば　また\n{{kanjiReplace charNum=\"2\" value=\"もとどお\"}}元通りに　なるわ\n{{color id=\"7\"}}{{resetReaction}}ジョウロ{{color id=\"0\"}}で　{{kanjiReplace charNum=\"1\" value=\"みず\"}}水をやっても\n{{kanjiReplace charNum=\"1\" value=\"おな\"}}同じコトよ、{{pause frames=\"10\"}}{{string value=\"Catchphrase\"}}\n\n{{reaction type=\"Love\"}}そう{{pause frames=\"5\"}}・{{pause frames=\"5\"}}・{{pause frames=\"5\"}}・{{pause frames=\"5\"}}\n{{kanjiReplace charNum=\"1\" value=\"はな\"}}花も　{{kanjiReplace charNum=\"1\" value=\"オンナ\"}}女も、{{pause frames=\"5\"}}\nいつだって　うるおっていたいの！",
      "KRko": "{{reaction type=\"Agreement\"}}시든 꽃은\n비가 내리면 다시\n{{resetReaction}}원래대로 돼\n{{reaction type=\"Happiness\"}}{{color id=\"7\"}}물뿌리개{{color id=\"0\"}}로 물을 줘도\n마찬가지고， {{pause frames=\"10\"}}{{string value=\"Catchphrase\"}}\n\n{{reaction type=\"Love\"}}그래{{pause frames=\"5\"}}・{{pause frames=\"5\"}}・{{pause frames=\"5\"}}・{{pause frames=\"5\"}}\n꽃도 여자도，{{pause frames=\"5\"}}\n언제나 촉촉하고 싶다구！",
      "USen": "{{reaction type=\"Agreement\"}}After a day of rain, even\nwilted flowers {{resetReaction}}will perk\nright up!\n{{reaction type=\"Happiness\"}}Watering them with your\n{{color id=\"7\"}}watering can{{color id=\"0\"}} will do the\nsame thing, {{pause frames=\"10\"}}{{string value=\"Catchphrase\"}}.\n{{reaction type=\"Love\"}}And remember, for both\nladies and flowers,{{pause frames=\"5\"}}\nhydration is key!"
    }
  }
]