[
  {
    "label": "00",
    "attribute": "0x00000000FF000000",
    "locale": {
      "EUde": "{{reaction type=\"Happiness\"}}Perfektes Timing! {{pause frames=\"5\"}}Man kann\ndas Sternbild\n{{color id=\"2\"}}{{string index=\"0\"}}\n{{color id=\"0\"}}dort oben am Himmel\nsehen!\n\n{{fun_06 arg=\"0x060708\"}}",
      "EUen": "{{reaction type=\"Happiness\"}}Perfect timing! {{pause frames=\"5\"}}You can see\n{{color id=\"2\"}}{{string index=\"0\"}} {{color id=\"0\"}}in the\nsky right now!\n{{fun_06 arg=\"0x060708\"}}",
      "EUes": "{{reaction type=\"Happiness\"}}¡Llegas justo a tiempo!{{pause frames=\"5\"}}\n¡Mira al cielo y verás\n{{color id=\"2\"}}{{string index=\"0\"}}{{color id=\"0\"}}!\n{{fun_06 arg=\"0x060708\"}}",
      "EUfr": "{{reaction type=\"Happiness\"}}Tu tombes bien! {{pause frames=\"5\"}}On peut\napercevoir la constellation\n{{color id=\"2\"}}{{string index=\"0\"}}{{color id=\"0\"}}!\n{{fun_06 arg=\"0x060708\"}}",
      "EUit": "{{reaction type=\"Happiness\"}}Che tempismo perfetto! {{pause frames=\"5\"}}\n{{capitalizeLetter}}{{color id=\"2\"}}{{string index=\"0\"}} {{color id=\"0\"}}ora è\nvisibile nel cielo!\n{{fun_06 arg=\"0x060708\"}}",
      "JPja": "{{reaction type=\"Happiness\"}}おたくの　{{kanjiReplace charNum=\"1\" value=\"つく\"}}作った\n{{color id=\"2\"}}{{string index=\"0\"}}{{kanjiReplace charNum=\"1\" value=\"ざ\"}}座{{color id=\"0\"}}、{{pause frames=\"5\"}}\nちょうど　{{kanjiReplace charNum=\"1\" value=\"み\"}}見えてるわよ\n{{fun_06 arg=\"0x060708\"}}",
      "KRko": "{{reaction type=\"Happiness\"}}당신이 만든\n{{color id=\"2\"}}{{string index=\"0\"}}자리{{color id=\"0\"}}，{{pause frames=\"5\"}}\n마침 보이네\n{{fun_06 arg=\"0x06070800\"}}",
      "USen": "{{reaction type=\"Happiness\"}}Perfect timing! {{pause frames=\"5\"}}You can see\n{{color id=\"2\"}}{{string index=\"0\"}} {{color id=\"0\"}}in the\nsky right now!\n{{fun_06 arg=\"0x060708\"}}"
    }
  },
  {
    "label": "01",
    "attribute": "0x00000000FE000000",
    "locale": {
      "EUde": "{{reaction type=\"Happiness\"}}Hey,{{pause frames=\"10\"}} ich habe gehört, das\nSternbild {{color id=\"2\"}}{{string index=\"0\"}}\n{{color id=\"0\"}}sei von dir.\n{{reaction type=\"Curiosity\"}}Ist das korrekt,\n{{pause frames=\"5\"}}{{string value=\"PlayerNickname\"}}?\n\n{{reaction type=\"Intense\"}}Es ist zwar etwas verzerrt,\naber{{reaction type=\"Thought\"}} irgendwie{{pause frames=\"5\"}}.{{pause frames=\"5\"}}.{{pause frames=\"5\"}}.{{pause frames=\"10\"}} Na ja, {{pause frames=\"5\"}}{{reaction type=\"Agreement\"}}der\nName passt in jedem Fall.",
      "EUen": "{{reaction type=\"Happiness\"}}Hey,{{pause frames=\"10\"}} I heard that you made\n{{color id=\"2\"}}{{string index=\"0\"}}{{color id=\"0\"}}. {{pause frames=\"10\"}}{{reaction type=\"Curiosity\"}}Is that\nright, {{pause frames=\"5\"}}{{string value=\"PlayerNickname\"}}?\n{{reaction type=\"Intense\"}}Though it's a bit crooked,\n{{reaction type=\"Thought\"}}it's kind of{{pause frames=\"5\"}}.{{pause frames=\"5\"}}.{{pause frames=\"5\"}}.{{pause frames=\"10\"}} Well, {{pause frames=\"5\"}}{{reaction type=\"Agreement\"}}the\nname suits it, for sure.",
      "EUes": "{{reaction type=\"Happiness\"}}Me han dicho que{{pause frames=\"10\"}}\n{{color id=\"2\"}}{{string index=\"0\"}} {{color id=\"0\"}}es obra\ntuya.{{pause frames=\"10\"}}{{reaction type=\"Curiosity\"}} ¿Es verdad?\n{{reaction type=\"Intense\"}}Es un poco retorcida, {{reaction type=\"Thought\"}}es\ncomo{{pause frames=\"5\"}}.{{pause frames=\"5\"}}.{{pause frames=\"5\"}}.{{pause frames=\"10\"}} Bueno, {{pause frames=\"5\"}}{{reaction type=\"Agreement\"}}lo importante\nes que el nombre le pega.",
      "EUfr": "{{reaction type=\"Happiness\"}}Hé,{{pause frames=\"10\"}} on dit que tu as conçu\nla constellation\n{{color id=\"2\"}}{{string index=\"0\"}}{{color id=\"0\"}}. \n{{pause frames=\"10\"}}{{reaction type=\"Curiosity\"}} C'est vrai, {{pause frames=\"5\"}}{{string value=\"PlayerNickname\"}}?\n\n\n{{reaction type=\"Intense\"}}Elle est un peu tordue, {{reaction type=\"Thought\"}}mais\nc'est{{pause frames=\"5\"}}.{{pause frames=\"5\"}}.{{pause frames=\"5\"}}.{{pause frames=\"10\"}} Enfin,{{pause frames=\"5\"}}{{reaction type=\"Agreement\"}} en tout cas\nelle porte bien son nom.",
      "EUit": "{{reaction type=\"Happiness\"}}Ehi,{{pause frames=\"10\"}} la costellazione\n{{color id=\"2\"}}{{string index=\"0\"}}{{color id=\"0\"}} {{pause frames=\"10\"}}{{reaction type=\"Curiosity\"}}l'hai\ncreata tu, {{pause frames=\"5\"}}{{string value=\"PlayerNickname\"}}?\n{{reaction type=\"Intense\"}}Anche se è un po' deforme,\n{{reaction type=\"Thought\"}}è{{pause frames=\"5\"}}.{{pause frames=\"5\"}}.{{pause frames=\"5\"}}.{{pause frames=\"10\"}} beh, diciamo che {{pause frames=\"5\"}}{{reaction type=\"Agreement\"}}il\nnome le sta a pennello.",
      "JPja": "{{reaction type=\"Happiness\"}}ねぇ　{{string value=\"PlayerNickname\"}}ちゃん{{pause frames=\"10\"}}\nあの　{{color id=\"2\"}}{{string index=\"0\"}}{{kanjiReplace charNum=\"1\" value=\"ざ\"}}座{{color id=\"0\"}}って\n{{reaction type=\"Curiosity\"}}おたくが　{{kanjiReplace charNum=\"1\" value=\"かんが\"}}考えたのよね？\n{{reaction type=\"Intense\"}}ちょっと　イビツだけど\n{{kanjiReplace charNum=\"1\" value=\"たし\"}}確かに　アレ{{pause frames=\"5\"}}・{{pause frames=\"5\"}}・{{pause frames=\"5\"}}・{{pause frames=\"10\"}}\n{{reaction type=\"Agreement\"}}「{{color id=\"2\"}}{{string index=\"0\"}}{{color id=\"0\"}}」ってカンジだわ",
      "KRko": "{{reaction type=\"Happiness\"}}있잖아 {{string value=\"PlayerNickname\"}}{{pause frames=\"10\"}}\n그 {{color id=\"2\"}}{{string index=\"0\"}}자리 {{color id=\"0\"}}말야\n{{reaction type=\"Curiosity\"}}당신이 생각한 거지？\n{{reaction type=\"Intense\"}}조금 일그러지긴 했어도\n분명 그거{{pause frames=\"5\"}}・{{pause frames=\"5\"}}・{{pause frames=\"5\"}}・{{pause frames=\"10\"}}\n{{reaction type=\"Agreement\"}}「{{color id=\"2\"}}{{string index=\"0\"}}{{color id=\"0\"}}」같아",
      "USen": "{{reaction type=\"Happiness\"}}Hey,{{pause frames=\"10\"}} I heard that you made\n{{color id=\"2\"}}{{string index=\"0\"}}{{color id=\"0\"}}. {{pause frames=\"10\"}}{{reaction type=\"Curiosity\"}}Is that\nright, {{pause frames=\"5\"}}{{string value=\"PlayerNickname\"}}?\n{{reaction type=\"Intense\"}}Though it's a bit crooked,\n{{reaction type=\"Thought\"}}it's kind of{{pause frames=\"5\"}}.{{pause frames=\"5\"}}.{{pause frames=\"5\"}}.{{pause frames=\"10\"}} Well, {{pause frames=\"5\"}}{{reaction type=\"Agreement\"}}the\nname suits it, for sure."
    }
  },
  {
    "label": "02",
    "attribute": "0x00000000FE000000",
    "locale": {
      "EUde": "{{reaction type=\"Happiness\"}}Hey,{{pause frames=\"10\"}} siehst du dort das\nSternbild {{color id=\"2\"}}{{string index=\"0\"}}\n{{color id=\"0\"}}am Himmel?{{color id=\"5\"}}\n{{color id=\"0\"}}{{reaction type=\"Happiness\"}}Ich denke, {{color id=\"5\"}}{{string index=\"1\"}}{{color id=\"0\"}} hat\nsich währenddessen\n\ntotal\n\"{{color id=\"2\"}}{{string index=\"0\"}}{{color id=\"0\"}}\"-mäßig\ngefühlt. {{pause frames=\"20\"}}{{reaction type=\"Resignation\"}}Cool, nicht wahr?",
      "EUen": "{{reaction type=\"Happiness\"}}Hey,{{pause frames=\"10\"}} can you see\n{{color id=\"2\"}}{{string index=\"0\"}} {{color id=\"0\"}}over\nhere?{{color id=\"5\"}}\n{{color id=\"0\"}}{{reaction type=\"Happiness\"}}I guess {{color id=\"5\"}}{{string index=\"1\"}}{{color id=\"0\"}} felt all\n\"{{color id=\"2\"}}{{string index=\"0\"}}{{color id=\"0\"}}\" when\nmaking it. {{pause frames=\"20\"}}{{reaction type=\"Resignation\"}}Cool story, huh.",
      "EUes": "{{reaction type=\"Happiness\"}}¿Ves{{pause frames=\"10\"}} la constelación\n{{color id=\"2\"}}{{string index=\"0\"}}{{color id=\"0\"}}?\n{{color id=\"5\"}}\n{{color id=\"0\"}}{{reaction type=\"Happiness\"}}{{capitalizeLetter}}{{color id=\"5\"}}{{string index=\"1\"}}{{color id=\"0\"}} le dio el\nnombre adecuado cuando la\ndescubrió.{{pause frames=\"20\"}}{{reaction type=\"Resignation\"}} Está muy bien.",
      "EUfr": "{{reaction type=\"Happiness\"}}Hé,{{pause frames=\"10\"}} tu vois la \nconstellation\n{{color id=\"2\"}}{{string index=\"0\"}}{{color id=\"0\"}}?{{color id=\"5\"}}\n{{color id=\"0\"}}{{reaction type=\"Happiness\"}}{{capitalizeLetter}}{{color id=\"5\"}}{{string index=\"1\"}}{{color id=\"0\"}} a dû se sentir\n\"{{color id=\"2\"}}{{string index=\"0\"}}{{color id=\"0\"}}\" en la\ndessinant. {{pause frames=\"20\"}}{{reaction type=\"Resignation\"}}Quelle histoire!",
      "EUit": "{{reaction type=\"Happiness\"}}Ehi,{{pause frames=\"10\"}} vedi la costellazione\n{{color id=\"2\"}}{{string index=\"0\"}} {{color id=\"0\"}}lassù?{{color id=\"5\"}}\n{{color id=\"0\"}}{{reaction type=\"Happiness\"}}Forse {{color id=\"5\"}}{{string index=\"1\"}}\n{{color id=\"0\"}}si sentiva molto\n\"{{color id=\"2\"}}{{string index=\"0\"}}{{color id=\"0\"}}\" quando\nl'ha creata. {{pause frames=\"20\"}}{{reaction type=\"Resignation\"}}Non male, eh?",
      "JPja": "{{reaction type=\"Happiness\"}}ねぇ、{{pause frames=\"10\"}}あそこに\n{{color id=\"2\"}}{{string index=\"0\"}}{{kanjiReplace charNum=\"1\" value=\"ざ\"}}座{{color id=\"0\"}}が\n{{kanjiReplace charNum=\"1\" value=\"み\"}}見えるでしょ？\n{{resetReaction}}アレって　{{kanjiReplace charNum=\"1\" value=\"じつ\"}}実は、\n{{color id=\"5\"}}{{string index=\"1\"}}{{color id=\"0\"}}ちゃんが\n{{kanjiReplace charNum=\"1\" value=\"つく\"}}作ったのよ、{{pause frames=\"5\"}}{{string value=\"Catchphrase\"}}\n{{reaction type=\"Worry\"}}あの{{kanjiReplace charNum=\"1\" value=\"ほし\"}}星の　{{kanjiReplace charNum=\"1\" value=\"つら\"}}連なりが\n「{{color id=\"2\"}}{{string index=\"0\"}}{{color id=\"0\"}}」だなんて、{{pause frames=\"10\"}}\n{{pause frames=\"10\"}}{{reaction type=\"Resignation\"}}{{pause frames=\"5\"}}{{kanjiReplace charNum=\"2\" value=\"おもしろ\"}}面白いセンスよね、{{pause frames=\"10\"}}{{string value=\"Catchphrase\"}}！",
      "KRko": "{{reaction type=\"Happiness\"}}있잖아， {{pause frames=\"10\"}}저기\n{{color id=\"2\"}}{{string index=\"0\"}}자리{{color id=\"0\"}}가\n보이지？\n{{resetReaction}}그거 사실은\n{{color id=\"5\"}}{{string index=\"1\"}}{{color id=\"0\"}}{{fun_0B arg=\"0x0300\"}}\n만든거야， {{pause frames=\"5\"}}{{string value=\"Catchphrase\"}}\n{{reaction type=\"Worry\"}}그 별들을 연결한 게\n「{{color id=\"2\"}}{{string index=\"0\"}}{{color id=\"0\"}}」{{fun_0B arg=\"0x0500\"}}라니{{pause frames=\"10\"}}\n{{pause frames=\"10\"}}{{reaction type=\"Resignation\"}}{{pause frames=\"5\"}}재밌는 센스구나， {{pause frames=\"10\"}}{{string value=\"Catchphrase\"}}！",
      "USen": "{{reaction type=\"Happiness\"}}Hey,{{pause frames=\"10\"}} can you see\n{{color id=\"2\"}}{{string index=\"0\"}} {{color id=\"0\"}}over\nhere?{{color id=\"5\"}}\n{{color id=\"0\"}}{{reaction type=\"Happiness\"}}I guess {{color id=\"5\"}}{{string index=\"1\"}}{{color id=\"0\"}} felt all\n\"{{color id=\"2\"}}{{string index=\"0\"}}{{color id=\"0\"}}\" when\nmaking it. {{pause frames=\"20\"}}{{reaction type=\"Resignation\"}}Cool story, huh."
    }
  },
  {
    "label": "03",
    "attribute": "0x00000000FE000000",
    "locale": {
      "EUde": "{{reaction type=\"Worry\"}}Hm...{{pause frames=\"10\"}} Wer kam denn auf den\nNamen \"{{color id=\"2\"}}{{string index=\"0\"}}{{color id=\"0\"}}\"?\n{{reaction type=\"Curiosity\"}}Weißt du es?\n{{reaction type=\"Thought\"}}Ich glaube, es war{{pause frames=\"5\"}}.{{pause frames=\"5\"}}.{{pause frames=\"5\"}}.{{pause frames=\"20\"}}{{reaction type=\"Inspiration\"}}{{pause frames=\"10\"}} Oh, ja!\nRichtig!{{pause frames=\"15\"}} Es war\n{{color id=\"5\"}}{{string index=\"1\"}}{{color id=\"0\"}}!\n{{reaction type=\"Joy\"}}Unter diesen Sternen zu\ntanzen macht mich\nglücklich. Wie in einem Film.",
      "EUen": "{{reaction type=\"Worry\"}}Hm...{{pause frames=\"10\"}} Who came up with the\nname \"{{color id=\"2\"}}{{string index=\"0\"}}{{color id=\"0\"}}\"?\n{{reaction type=\"Curiosity\"}}Remember who it was?\n{{reaction type=\"Thought\"}}I believe it was{{pause frames=\"5\"}}.{{pause frames=\"5\"}}.{{pause frames=\"5\"}}.{{pause frames=\"20\"}}{{reaction type=\"Inspiration\"}}{{pause frames=\"10\"}} Oh, yeah!\nThat's right!{{pause frames=\"15\"}} It was\n{{color id=\"5\"}}{{string index=\"1\"}}{{color id=\"0\"}}!\n{{reaction type=\"Joy\"}}Dancing around under those\nstars makes me feel like\nI'm in a movie!",
      "EUes": "{{reaction type=\"Worry\"}}¿Quién le daría ese nombre?\n¿\"{{capitalizeLetter}}{{color id=\"2\"}}{{string index=\"0\"}}{{color id=\"0\"}}\"?\n{{reaction type=\"Curiosity\"}}¿Tú lo sabes?\n{{reaction type=\"Thought\"}}Porque creo que fue{{pause frames=\"5\"}}.{{pause frames=\"5\"}}.{{pause frames=\"5\"}}.{{pause frames=\"20\"}}{{reaction type=\"Inspiration\"}}{{pause frames=\"10\"}} ¡Sí!\n¡Eso es!{{pause frames=\"15\"}} ¡Fue {{color id=\"5\"}}{{string index=\"1\"}}{{color id=\"0\"}}!\n\n{{reaction type=\"Joy\"}}¡Bailar bajo las estrellas\nme hace sentir como la\nprotagonista de una peli!",
      "EUfr": "{{reaction type=\"Worry\"}}Hm...{{pause frames=\"10\"}} Qui l'a baptisée\n\"{{color id=\"2\"}}{{string index=\"0\"}}{{color id=\"0\"}}\"?\n{{reaction type=\"Curiosity\"}}Tu t'en souviens?\n{{reaction type=\"Thought\"}}Je crois que c'est{{pause frames=\"5\"}}.{{pause frames=\"5\"}}.{{pause frames=\"5\"}}.{{pause frames=\"20\"}}{{reaction type=\"Inspiration\"}}{{pause frames=\"10\"}} Ah oui!\nC'est vrai!{{pause frames=\"15\"}} C'est\n{{color id=\"5\"}}{{string index=\"1\"}}{{color id=\"0\"}}!\n{{reaction type=\"Joy\"}}J'ai l'impression d'être dans\nun film, à danser sous les\nétoiles!",
      "EUit": "{{reaction type=\"Worry\"}}Mmm...{{pause frames=\"10\"}} Chi ha inventato il\nnome \"{{color id=\"2\"}}{{string index=\"0\"}}{{color id=\"0\"}}\"?\n{{reaction type=\"Curiosity\"}}Tu te lo ricordi?\n{{reaction type=\"Thought\"}}Credo che fosse{{pause frames=\"5\"}}.{{pause frames=\"5\"}}.{{pause frames=\"5\"}}.{{pause frames=\"20\"}}{{reaction type=\"Inspiration\"}}{{pause frames=\"10\"}} Oh, sì!\nEsatto!{{pause frames=\"15\"}} Proprio {{color id=\"5\"}}{{string index=\"1\"}}{{color id=\"0\"}}!\n\n{{reaction type=\"Joy\"}}Ballare sotto queste stelle\nmi fa sentire come la\nprotagonista di un film!",
      "JPja": "{{reaction type=\"Worry\"}}え～っと、{{pause frames=\"10\"}}\nあの　{{color id=\"2\"}}{{string index=\"0\"}}{{kanjiReplace charNum=\"1\" value=\"ざ\"}}座{{color id=\"0\"}}って\n{{reaction type=\"Curiosity\"}}{{pause frames=\"5\"}}{{kanjiReplace charNum=\"1\" value=\"だれ\"}}誰が　{{kanjiReplace charNum=\"1\" value=\"かんが\"}}考えたんだっけ？\n{{reaction type=\"Thought\"}}{{pause frames=\"10\"}}{{kanjiReplace charNum=\"1\" value=\"たし\"}}確か　この{{kanjiReplace charNum=\"1\" value=\"むら\"}}村の{{pause frames=\"5\"}}・{{pause frames=\"5\"}}・{{pause frames=\"5\"}}・{{pause frames=\"20\"}}{{reaction type=\"Inspiration\"}}{{pause frames=\"10\"}}\nそう！{{pause frames=\"15\"}}　{{color id=\"5\"}}{{string index=\"1\"}}{{color id=\"0\"}}ちゃん！\n\n{{reaction type=\"Joy\"}}いいわよね、{{pause frames=\"5\"}}アレ！{{pause frames=\"20\"}}\n{{pause frames=\"10\"}}{{color id=\"2\"}}メランコリック・スター{{color id=\"0\"}}って\nカンジだわ！　{{pause frames=\"10\"}}{{string value=\"Catchphrase\"}}！",
      "KRko": "{{reaction type=\"Worry\"}}으～음，{{pause frames=\"10\"}}\n그 {{color id=\"2\"}}{{string index=\"0\"}}자리{{color id=\"0\"}}는\n{{reaction type=\"Curiosity\"}}{{pause frames=\"5\"}}누가 생각한 거더라？\n{{reaction type=\"Thought\"}}{{pause frames=\"10\"}}분명 이 마을의{{pause frames=\"5\"}}・{{pause frames=\"5\"}}・{{pause frames=\"5\"}}・{{pause frames=\"20\"}}{{reaction type=\"Inspiration\"}}{{pause frames=\"10\"}}\n그래！{{pause frames=\"15\"}} {{color id=\"5\"}}{{string index=\"1\"}}{{color id=\"0\"}}！\n\n{{reaction type=\"Joy\"}}멋지지， {{pause frames=\"5\"}}저거！{{pause frames=\"20\"}}\n{{pause frames=\"10\"}}{{color id=\"2\"}}멜랑콜리 스타 {{color id=\"0\"}}같은\n느낌이야！ {{pause frames=\"10\"}}{{string value=\"Catchphrase\"}}！",
      "USen": "{{reaction type=\"Worry\"}}Hm...{{pause frames=\"10\"}} Who came up with the\nname \"{{color id=\"2\"}}{{string index=\"0\"}}{{color id=\"0\"}}\"?\n{{reaction type=\"Curiosity\"}}Remember who it was?\n{{reaction type=\"Thought\"}}I believe it was{{pause frames=\"5\"}}.{{pause frames=\"5\"}}.{{pause frames=\"5\"}}.{{pause frames=\"20\"}}{{reaction type=\"Inspiration\"}}{{pause frames=\"10\"}} Oh, yeah!\nThat's right!{{pause frames=\"15\"}} It was\n{{color id=\"5\"}}{{string index=\"1\"}}{{color id=\"0\"}}!\n{{reaction type=\"Joy\"}}Dancing around under those\nstars makes me feel like\nI'm in a movie!"
    }
  },
  {
    "label": "04",
    "attribute": "0x00000000FF000000",
    "locale": {
      "EUde": "{{reaction type=\"Happiness\"}}Hey,{{pause frames=\"10\"}} kennst du\n{{color id=\"5\"}}{{string index=\"1\"}} {{color id=\"0\"}}aus\n{{color id=\"8\"}}{{string index=\"2\"}}{{color id=\"0\"}}, {{pause frames=\"10\"}}{{string value=\"Catchphrase\"}}?{{fun_02 arg=\"0x090A\"}}\nSchon ewig.\nNein.",
      "EUen": "{{reaction type=\"Happiness\"}}Hey,{{pause frames=\"10\"}} do you know\n{{color id=\"5\"}}{{string index=\"1\"}} {{color id=\"0\"}}from\n{{color id=\"8\"}}{{string index=\"2\"}}{{color id=\"0\"}}, {{pause frames=\"10\"}}{{string value=\"Catchphrase\"}}?{{fun_02 arg=\"0x090A\"}}\nWe go way back.\nNope.",
      "EUes": "{{reaction type=\"Happiness\"}}Oye,{{pause frames=\"10\"}} ¿conoces a\n{{color id=\"5\"}}{{string index=\"1\"}}{{color id=\"0\"}}, de\n{{color id=\"8\"}}{{string index=\"2\"}}{{color id=\"0\"}}, {{pause frames=\"10\"}}{{string value=\"Catchphrase\"}}?{{fun_02 arg=\"0x090A\"}}\nHace tiempo\nNo",
      "EUfr": "{{reaction type=\"Happiness\"}}Hé,{{pause frames=\"10\"}} tu connais {{color id=\"5\"}}{{string index=\"1\"}}\n{{color id=\"0\"}}qui vit à {{color id=\"8\"}}{{string index=\"2\"}}{{color id=\"0\"}}, \n{{pause frames=\"10\"}}{{string value=\"Catchphrase\"}}?{{fun_02 arg=\"0x090A\"}}\nBien sûr.\nNon.",
      "EUit": "{{reaction type=\"Happiness\"}}Ehi,{{pause frames=\"10\"}} conosci\n{{color id=\"5\"}}{{string index=\"1\"}} {{color id=\"0\"}}di\n{{color id=\"8\"}}{{string index=\"2\"}}{{color id=\"0\"}}, {{pause frames=\"10\"}}{{string value=\"Catchphrase\"}}?{{fun_02 arg=\"0x090A\"}}\nDa tempo.\nNo.",
      "JPja": "{{reaction type=\"Happiness\"}}ねぇ、{{pause frames=\"10\"}}{{color id=\"8\"}}{{string index=\"2\"}}{{color id=\"0\"}}{{kanjiReplace charNum=\"1\" value=\"むら\"}}村の\n{{color id=\"5\"}}{{string index=\"1\"}}{{color id=\"0\"}}ちゃんって\n{{reaction type=\"Curiosity\"}}{{pause frames=\"5\"}}{{kanjiReplace charNum=\"1\" value=\"し\"}}知ってる？　{{pause frames=\"10\"}}{{string value=\"Catchphrase\"}}？{{fun_02 arg=\"0x090A\"}}\n{{kanjiReplace charNum=\"1\" value=\"し\"}}知ってるよ\n{{kanjiReplace charNum=\"1\" value=\"し\"}}知らない",
      "KRko": "{{reaction type=\"Happiness\"}}얘， {{pause frames=\"10\"}}{{color id=\"8\"}}{{string index=\"2\"}} {{color id=\"0\"}}마을의\n{{color id=\"5\"}}{{string index=\"1\"}}{{color id=\"0\"}}，\n{{reaction type=\"Curiosity\"}}{{pause frames=\"5\"}}알아？ {{pause frames=\"10\"}}{{string value=\"Catchphrase\"}}？{{fun_02 arg=\"0x090A\"}}\n알아\n몰라",
      "USen": "{{reaction type=\"Happiness\"}}Hey,{{pause frames=\"10\"}} do you know\n{{color id=\"5\"}}{{string index=\"1\"}} {{color id=\"0\"}}from\n{{color id=\"8\"}}{{string index=\"2\"}}{{color id=\"0\"}}, {{pause frames=\"10\"}}{{string value=\"Catchphrase\"}}?{{fun_02 arg=\"0x090A\"}}\nWe go way back.\nNope."
    }
  },
  {
    "label": "05",
    "attribute": "0x00000000FE000000",
    "locale": {
      "EUde": "{{reaction type=\"Love\"}}Oh! {{pause frames=\"10\"}}{{capitalizeLetter}}{{string value=\"Catchphrase\"}}! {{pause frames=\"10\"}}Ich dachte\ngerade an {{color id=\"5\"}}{{string index=\"1\"}}\n{{color id=\"0\"}}aus {{color id=\"8\"}}{{string index=\"2\"}}{{color id=\"0\"}}{{pause frames=\"5\"}}.{{pause frames=\"5\"}}.{{pause frames=\"5\"}}.\n{{reaction type=\"Resignation\"}}Du weißt schon, mit dem\nSternbild\n{{color id=\"2\"}}{{string index=\"0\"}}{{color id=\"0\"}}!\n{{reaction type=\"Love\"}}Ich liebe es einfach.{{pause frames=\"5\"}}\nIch hauche dem Himmel\nimmer ein Küsschen zu.",
      "EUen": "{{reaction type=\"Love\"}}Oh! {{pause frames=\"10\"}}{{capitalizeLetter}}{{string value=\"Catchphrase\"}}! {{pause frames=\"10\"}}I was just\nthinking about {{color id=\"5\"}}{{string index=\"1\"}}\n{{color id=\"0\"}}from {{color id=\"8\"}}{{string index=\"2\"}}{{color id=\"0\"}}{{pause frames=\"5\"}}.{{pause frames=\"5\"}}.{{pause frames=\"5\"}}.\n{{reaction type=\"Resignation\"}}You know, the creator of\n{{color id=\"2\"}}{{string index=\"0\"}}{{color id=\"0\"}}!\n\n{{reaction type=\"Love\"}}I'm totally in love with it.{{pause frames=\"5\"}}\nI make kissy faces at it\nall the time!",
      "EUes": "{{reaction type=\"Love\"}}¡Oh! {{pause frames=\"10\"}}¡{{capitalizeLetter}}{{string value=\"Catchphrase\"}}! {{pause frames=\"10\"}}Estaba\npensando en {{color id=\"5\"}}{{string index=\"1\"}}{{color id=\"0\"}},\nde {{color id=\"8\"}}{{string index=\"2\"}}{{color id=\"0\"}}{{pause frames=\"5\"}}.{{pause frames=\"5\"}}.{{pause frames=\"5\"}}.\n{{reaction type=\"Resignation\"}}Ya sabes, ¡la fascinante\nmente que descubrió\n{{color id=\"2\"}}{{string index=\"0\"}}{{color id=\"0\"}}!\n{{reaction type=\"Love\"}}¡Cómo me gusta!{{pause frames=\"5\"}}\n¡Me pasaría la vida\nmandándole besitos!",
      "EUfr": "{{reaction type=\"Love\"}}Oh! {{pause frames=\"10\"}}{{capitalizeLetter}}{{string value=\"Catchphrase\"}}! {{pause frames=\"10\"}}Je pensais \nà {{color id=\"5\"}}{{string index=\"1\"}} {{color id=\"0\"}}qui vit à\n{{color id=\"8\"}}{{string index=\"2\"}}{{color id=\"0\"}}{{pause frames=\"5\"}}.{{pause frames=\"5\"}}.{{pause frames=\"5\"}}.\n{{reaction type=\"Resignation\"}}Tu sais, la personne qui a\ncréé la constellation\n{{color id=\"2\"}}{{string index=\"0\"}}{{color id=\"0\"}}!\n{{reaction type=\"Love\"}}Je la trouve trop belle.{{pause frames=\"5\"}}\nJe lui fais tout le temps\ndes bisous!",
      "EUit": "{{reaction type=\"Love\"}}Oh! {{pause frames=\"10\"}}{{capitalizeLetter}}{{string value=\"Catchphrase\"}}! {{pause frames=\"10\"}}Stavo\npensando a {{color id=\"5\"}}{{string index=\"1\"}}\n{{color id=\"0\"}}di {{color id=\"8\"}}{{string index=\"2\"}}{{color id=\"0\"}}{{pause frames=\"5\"}}.{{pause frames=\"5\"}}.{{pause frames=\"5\"}}.\n{{reaction type=\"Resignation\"}}Sì, la mente che ha creato\n{{color id=\"2\"}}{{string index=\"0\"}}{{color id=\"0\"}}!\n\n{{reaction type=\"Love\"}}Che costellazione adorabile!{{pause frames=\"5\"}}\nMi fa venir voglia di\nessere innamorata!",
      "JPja": "{{reaction type=\"Love\"}}{{pause frames=\"10\"}}はぁー・{{pause frames=\"5\"}}・{{pause frames=\"5\"}}・{{pause frames=\"10\"}}\n{{color id=\"8\"}}{{string index=\"2\"}}{{color id=\"0\"}}{{kanjiReplace charNum=\"1\" value=\"むら\"}}村の\n{{color id=\"5\"}}{{string index=\"1\"}}{{color id=\"0\"}}ちゃん{{pause frames=\"5\"}}・{{pause frames=\"5\"}}・{{pause frames=\"5\"}}・か\n{{resetReaction}}あの　{{color id=\"2\"}}{{string index=\"0\"}}{{kanjiReplace charNum=\"1\" value=\"ざ\"}}座{{color id=\"0\"}}を\n{{kanjiReplace charNum=\"1\" value=\"かんが\"}}考えた{{kanjiReplace charNum=\"1\" value=\"ヒト\"}}人よ{{pressButton}}\n{{reaction type=\"Happiness\"}}ステキだわ{{pause frames=\"5\"}}・{{pause frames=\"5\"}}・{{pause frames=\"5\"}}・\n{{reaction type=\"Bashfulness\"}}あたし{{pause frames=\"5\"}}・{{pause frames=\"5\"}}・{{pause frames=\"5\"}}・{{pause frames=\"5\"}}\nなんだか　あの{{kanjiReplace charNum=\"2\" value=\"せいざ\"}}星座に\n{{kanjiReplace charNum=\"1\" value=\"こい\"}}恋しちゃったみたい、{{pause frames=\"10\"}}{{string value=\"Catchphrase\"}}！",
      "KRko": "{{reaction type=\"Love\"}}{{pause frames=\"10\"}}후우・{{pause frames=\"5\"}}・{{pause frames=\"5\"}}・{{pause frames=\"10\"}}\n{{color id=\"8\"}}{{string index=\"2\"}} {{color id=\"0\"}}마을의\n{{color id=\"5\"}}{{string index=\"1\"}}{{color id=\"0\"}}{{pause frames=\"5\"}}・{{pause frames=\"5\"}}・{{pause frames=\"5\"}}・\n{{resetReaction}}저 {{color id=\"2\"}}{{string index=\"0\"}}자리{{color id=\"0\"}}를\n생각한 사람이야{{pressButton}}\n{{reaction type=\"Happiness\"}}너무 멋져{{pause frames=\"5\"}}・{{pause frames=\"5\"}}・{{pause frames=\"5\"}}・\n{{reaction type=\"Bashfulness\"}}나{{pause frames=\"5\"}}・{{pause frames=\"5\"}}・{{pause frames=\"5\"}}・{{pause frames=\"5\"}}아무래도\n저 별자리랑 사랑에 빠진 것 같아，\n{{pause frames=\"10\"}}{{string value=\"Catchphrase\"}}！",
      "USen": "{{reaction type=\"Love\"}}Oh! {{pause frames=\"10\"}}{{capitalizeLetter}}{{string value=\"Catchphrase\"}}! {{pause frames=\"10\"}}I was just\nthinking about {{color id=\"5\"}}{{string index=\"1\"}}\n{{color id=\"0\"}}from {{color id=\"8\"}}{{string index=\"2\"}}{{color id=\"0\"}}{{pause frames=\"5\"}}.{{pause frames=\"5\"}}.{{pause frames=\"5\"}}.\n{{reaction type=\"Resignation\"}}You know, the creator of\n{{color id=\"2\"}}{{string index=\"0\"}}{{color id=\"0\"}}!\n\n{{reaction type=\"Love\"}}I'm totally in love with it.{{pause frames=\"5\"}}\nI make kissy faces at it\nall the time!"
    }
  },
  {
    "label": "06",
    "attribute": "0x00000000FE000000",
    "locale": {
      "EUde": "{{reaction type=\"ColdChill\"}}Warum musstest du einen so\npeinlichen Namen vergeben?{{pressButton}}\n{{reaction type=\"Resignation\"}}Na ja, passt zu dir.",
      "EUen": "{{reaction type=\"ColdChill\"}}Why did you give it such\nan embarrassing name?{{pressButton}} {{reaction type=\"Resignation\"}}I\nguess it figures!",
      "EUes": "{{reaction type=\"ColdChill\"}}¿Por qué le has puesto un\nnombre tan feo?{{pressButton}} {{reaction type=\"Resignation\"}}Aunque\nen realidad, le pega...",
      "EUfr": "{{reaction type=\"ColdChill\"}}Pourquoi tu lui as donné un\nnom si embarrassant?{{pressButton}} {{reaction type=\"Resignation\"}}Enfin,\nça tombe sous le sens!",
      "EUit": "{{reaction type=\"ColdChill\"}}Perché le hai dato un nome\ncosì tremendo?{{pressButton}} {{reaction type=\"Resignation\"}}Beh, basta\nguardarla per capirlo!",
      "JPja": "{{reaction type=\"ColdChill\"}}それにしても\nハズカシイ{{kanjiReplace charNum=\"2\" value=\"なまえ\"}}名前　つけたわね{{pressButton}}\n{{pause frames=\"10\"}}{{reaction type=\"Resignation\"}}{{pause frames=\"5\"}}おたくらしいけど{{pause frames=\"5\"}}・{{pause frames=\"5\"}}・{{pause frames=\"5\"}}・{{pause frames=\"10\"}}{{string value=\"Catchphrase\"}}",
      "KRko": "{{reaction type=\"ColdChill\"}}근데 참\n부끄러운 이름으로 지었구나{{pressButton}}\n{{pause frames=\"10\"}}{{reaction type=\"Resignation\"}}{{pause frames=\"5\"}}당신다워{{pause frames=\"5\"}}・{{pause frames=\"5\"}}・{{pause frames=\"5\"}}・{{pause frames=\"10\"}}{{string value=\"Catchphrase\"}}",
      "USen": "{{reaction type=\"ColdChill\"}}Why did you give it such\nan embarrassing name?{{pressButton}} {{reaction type=\"Resignation\"}}I\nguess it figures!"
    }
  },
  {
    "label": "07",
    "attribute": "0x00000000FE000000",
    "locale": {
      "EUde": "{{reaction type=\"Curiosity\"}}Hey, hattest du bei dem\nDesign irgendetwas\nbestimmtes im Sinn?\n{{reaction type=\"Inspiration\"}}{{gender m=\"Einen großen\" f=\"Eine große\" n=\"Ein großes\"}}\n{{ignoreArticle}}{{string index=\"6\"}}\nzum Beispiel?",
      "EUen": "{{reaction type=\"Curiosity\"}}Hey, is this design based on\nanything?{{pause frames=\"15\"}} {{reaction type=\"Inspiration\"}}Like, some big\n{{string index=\"6\"}}?",
      "EUes": "{{reaction type=\"Curiosity\"}}¿En qué basaste el diseño?{{pause frames=\"15\"}}\n{{reaction type=\"Inspiration\"}}¿En {{string index=\"6\"}}?",
      "EUfr": "{{reaction type=\"Curiosity\"}}Hé, de quoi tu t'es \n{{gender m=\"inspiré\" f=\"inspirée\"}}?\n\n{{pause frames=\"15\"}}{{reaction type=\"Inspiration\"}}On dirait\n{{string index=\"6\"}}\n{{gender m=\"géant\" f=\"géante\" n=\"\"}}?!",
      "EUit": "{{reaction type=\"Curiosity\"}}Ma la forma è ispirata a\nqualcosa in particolare?{{pause frames=\"15\"}}\n{{reaction type=\"Inspiration\"}}{{capitalizeLetter}}{{string index=\"6\"}} gigante?",
      "JPja": "{{reaction type=\"Curiosity\"}}ところで　アレは{{kanjiReplace charNum=\"2\" value=\"いったい\"}}一体\n{{kanjiReplace charNum=\"1\" value=\"なに\"}}何をモチーフに　してるの？\n\n{{reaction type=\"Inspiration\"}}もしかして\n{{string index=\"6\"}}とか？　{{pause frames=\"10\"}}{{string value=\"Catchphrase\"}}？",
      "KRko": "{{reaction type=\"Curiosity\"}}근데 그건 대체\n뭘 보고 만든 거야？\n\n{{reaction type=\"Inspiration\"}}혹시\n{{string index=\"6\"}}？ {{pause frames=\"10\"}}\n{{string value=\"Catchphrase\"}}？",
      "USen": "{{reaction type=\"Curiosity\"}}Hey, is this design based on\nanything?{{pause frames=\"15\"}} {{reaction type=\"Inspiration\"}}Like, some big\n{{string index=\"6\"}}?"
    }
  },
  {
    "label": "08",
    "attribute": "0x00000000FE000000",
    "locale": {
      "EUde": "{{reaction type=\"Agreement\"}}Ja, das Sternbild\n{{color id=\"2\"}}{{string index=\"0\"}} {{color id=\"0\"}}ist\nwirklich...{{pause frames=\"20\"}} {{reaction type=\"Joy\"}}wunderschön!",
      "EUen": "{{reaction type=\"Agreement\"}}Well, {{color id=\"2\"}}{{string index=\"0\"}}\n{{color id=\"0\"}}certainly is spectacular!{{pause frames=\"20\"}}\n{{reaction type=\"Joy\"}}The design is so bold!",
      "EUes": "{{reaction type=\"Agreement\"}}¡{{capitalizeLetter}}{{color id=\"2\"}}{{string index=\"0\"}} {{color id=\"0\"}}es\nespectacular!{{pause frames=\"20\"}} {{reaction type=\"Joy\"}}¡Y tiene un\ndiseño muy audaz!",
      "EUfr": "{{reaction type=\"Agreement\"}}Eh bien, la constellation\n{{color id=\"2\"}}{{string index=\"0\"}}\n{{color id=\"0\"}}est vraiment spectaculaire!{{pause frames=\"20\"}}\n{{reaction type=\"Joy\"}}Son agencement est très\naudacieux!",
      "EUit": "{{reaction type=\"Agreement\"}}Beh, {{color id=\"2\"}}{{string index=\"0\"}}\n{{color id=\"0\"}}è certamente spettacolare!{{pause frames=\"20\"}}\n{{reaction type=\"Joy\"}}Che forma ambiziosa!",
      "JPja": "{{reaction type=\"Agreement\"}}なかなか　ファンキーじゃない！\n{{pause frames=\"10\"}}{{string value=\"Catchphrase\"}}！{{pause frames=\"20\"}}\n\n{{reaction type=\"Happiness\"}}あえて「{{color id=\"2\"}}{{string index=\"0\"}}{{color id=\"0\"}}」なんて\nつけちゃうセンスが\nしげき{{kanjiReplace charNum=\"1\" value=\"てき\"}}的だわ！",
      "KRko": "{{reaction type=\"Agreement\"}}상당히 펑키한데！\n{{pause frames=\"10\"}}{{string value=\"Catchphrase\"}}！{{pause frames=\"20\"}}\n\n{{reaction type=\"Happiness\"}}굳이 「{{color id=\"2\"}}{{string index=\"0\"}}{{color id=\"0\"}}」{{fun_0B arg=\"0x0500\"}}라고\n이름 붙인 센스가\n참 자극적이야！",
      "USen": "{{reaction type=\"Agreement\"}}Well, {{color id=\"2\"}}{{string index=\"0\"}}\n{{color id=\"0\"}}certainly is spectacular!{{pause frames=\"20\"}}\n{{reaction type=\"Joy\"}}The design is so bold!"
    }
  },
  {
    "label": "09",
    "attribute": "0x00000000FE000000",
    "locale": {
      "EUde": "{{reaction type=\"Amazed\"}}Wirklich?{{pause frames=\"20\"}} {{reaction type=\"Distress\"}}Ich dachte, das\nwäre die Person, die das\nSternbild {{color id=\"2\"}}{{string index=\"0\"}}\n{{color id=\"0\"}}entworfen hat, um den\nHimmel damit zu\nschmücken.{{resetReaction}}\n{{reaction type=\"Love\"}}Bestimmt ist der Designer\ngenauso brillant wie sein\nSternbild, {{pause frames=\"10\"}}{{string value=\"Catchphrase\"}}!",
      "EUen": "{{reaction type=\"Amazed\"}}Really!?{{pause frames=\"20\"}} {{reaction type=\"Distress\"}}I thought that was\nthe person who thought up\nthe {{color id=\"2\"}}{{string index=\"0\"}}{{color id=\"0\"}}.{{resetReaction}}\n{{reaction type=\"Love\"}}I'll bet the creator is as\nbrilliant as that\nconstellation, {{pause frames=\"10\"}}{{string value=\"Catchphrase\"}}!",
      "EUes": "{{reaction type=\"Amazed\"}}¡¿En serio?!{{pause frames=\"20\"}} {{reaction type=\"Distress\"}}Creía que había\ndiseñado {{color id=\"2\"}}{{string index=\"0\"}}{{color id=\"0\"}},\n{{pause frames=\"10\"}}{{string value=\"Catchphrase\"}}{{resetReaction}}\n{{reaction type=\"Love\"}}¡Fijo que quien la creó\ntiene una mente brillante\ncomo la constelación!",
      "EUfr": "{{reaction type=\"Amazed\"}}Vraiment!?{{pause frames=\"20\"}} {{reaction type=\"Distress\"}}Mais alors, qui a\nconçu la constellation\n{{color id=\"2\"}}{{string index=\"0\"}}{{color id=\"0\"}}?{{resetReaction}}\n{{reaction type=\"Love\"}}Son génie n'a d'égal que \nla beauté de sa création, \n{{pause frames=\"10\"}}{{string value=\"Catchphrase\"}}!",
      "EUit": "{{reaction type=\"Amazed\"}}Sul serio!?{{pause frames=\"20\"}} {{reaction type=\"Distress\"}}Pensavo che\navesse creato la costella-\nzione {{color id=\"2\"}}{{string index=\"0\"}}{{color id=\"0\"}}.{{resetReaction}}\n{{reaction type=\"Love\"}}Scommetto che è una perso-\nna brillante quanto la sua\ncostellazione, {{pause frames=\"10\"}}{{string value=\"Catchphrase\"}}!",
      "JPja": "{{reaction type=\"Amazed\"}}ホント！？{{pause frames=\"20\"}}\nあの　{{color id=\"2\"}}{{string index=\"0\"}}{{kanjiReplace charNum=\"1\" value=\"ざ\"}}座{{color id=\"0\"}}って\nそのコが　{{kanjiReplace charNum=\"1\" value=\"かんが\"}}考えたんでしょ？{{resetReaction}}\n{{reaction type=\"Love\"}}{{pause frames=\"10\"}}{{kanjiReplace charNum=\"2\" value=\"ほんにん\"}}本人も　きっと\nあの　{{kanjiReplace charNum=\"2\" value=\"せいざ\"}}星座みたいな\nフンイキなんでしょうね、{{pause frames=\"10\"}}{{string value=\"Catchphrase\"}}",
      "KRko": "{{reaction type=\"Amazed\"}}정말！？{{pause frames=\"20\"}}\n그 {{color id=\"2\"}}{{string index=\"0\"}}자리{{color id=\"0\"}}는\n그 아이가 생각했다며？{{resetReaction}}\n{{reaction type=\"Love\"}}{{pause frames=\"10\"}}본인도 틀림없이\n저 별자리 같은\n분위기일거야， {{pause frames=\"10\"}}{{string value=\"Catchphrase\"}}",
      "USen": "{{reaction type=\"Amazed\"}}Really!?{{pause frames=\"20\"}} {{reaction type=\"Distress\"}}I thought that was\nthe person who thought up\nthe {{color id=\"2\"}}{{string index=\"0\"}}{{color id=\"0\"}}.{{resetReaction}}\n{{reaction type=\"Love\"}}I'll bet the creator is as\nbrilliant as that\nconstellation, {{pause frames=\"10\"}}{{string value=\"Catchphrase\"}}!"
    }
  },
  {
    "label": "10",
    "attribute": "0x00000000FE000000",
    "locale": {
      "EUde": "{{reaction type=\"Worry\"}}Ja, die Person, die das\nSternbild {{color id=\"2\"}}{{string index=\"0\"}}\n{{color id=\"0\"}}entworfen hat.\nDas pfeifen doch die\nSpatzen von den Dächern.\n\n{{reaction type=\"Curiosity\"}}Aber was für eine Persön-\nlichkeit mag dahinter-\nstecken, {{pause frames=\"10\"}}{{string value=\"Catchphrase\"}}?",
      "EUen": "{{reaction type=\"Worry\"}}Yeah, that was who designed\n{{color id=\"2\"}}{{string index=\"0\"}}{{color id=\"0\"}}. {{pause frames=\"10\"}}That's\nthe word on the street.\n{{reaction type=\"Curiosity\"}}Now I'm curious about what\nkind of person the creator\nis, {{pause frames=\"10\"}}{{string value=\"Catchphrase\"}}!",
      "EUes": "{{reaction type=\"Worry\"}}Pues fue quien diseñó\n{{color id=\"2\"}}{{string index=\"0\"}}{{color id=\"0\"}}. {{pause frames=\"10\"}}Al\nmenos, es lo que se dice...\n{{reaction type=\"Curiosity\"}}Me gustaría saber qué tipo\nde persona es, {{pause frames=\"10\"}}{{string value=\"Catchphrase\"}}.",
      "EUfr": "{{reaction type=\"Worry\"}}Oui, c'est le cerveau\nderrière la constellation\n{{color id=\"2\"}}{{string index=\"0\"}}{{color id=\"0\"}}. {{pause frames=\"10\"}}\nEnfin, c'est ce qu'on \nchuchote dans les milieux\nbien informés.\n{{reaction type=\"Curiosity\"}}Je serais curieuse de\nconnaître ce génie, \n{{pause frames=\"10\"}}{{string value=\"Catchphrase\"}}!",
      "EUit": "{{reaction type=\"Worry\"}}Sì, corre voce che abbia\ncreato{{pause frames=\"10\"}} la costellazione\n{{color id=\"2\"}}{{string index=\"0\"}}{{color id=\"0\"}}.\n{{reaction type=\"Curiosity\"}}E ora sono curiosissima di\nsapere che tipo di persona\nè, {{pause frames=\"10\"}}{{string value=\"Catchphrase\"}}!",
      "JPja": "{{reaction type=\"Worry\"}}{{kanjiReplace charNum=\"1\" value=\"じつ\"}}実は　そのコが　\nあの　{{color id=\"2\"}}{{string index=\"0\"}}{{kanjiReplace charNum=\"1\" value=\"ざ\"}}座{{color id=\"0\"}}の\n{{kanjiReplace charNum=\"2\" value=\"さくしゃ\"}}作者らしいのよね\n{{reaction type=\"Curiosity\"}}{{pause frames=\"10\"}}{{kanjiReplace charNum=\"2\" value=\"いったい\"}}一体　どんな{{kanjiReplace charNum=\"1\" value=\"ヒト\"}}人なのか\nキョーミあるわ、{{pause frames=\"10\"}}{{string value=\"Catchphrase\"}}",
      "KRko": "{{reaction type=\"Worry\"}}사실은 그 아이가　\n저 {{color id=\"2\"}}{{string index=\"0\"}}자리{{color id=\"0\"}}를\n만들었대\n{{reaction type=\"Curiosity\"}}{{pause frames=\"10\"}}대체 어떤 사람일지\n궁금해， {{pause frames=\"10\"}}{{string value=\"Catchphrase\"}}",
      "USen": "{{reaction type=\"Worry\"}}Yeah, that was who designed\n{{color id=\"2\"}}{{string index=\"0\"}}{{color id=\"0\"}}. {{pause frames=\"10\"}}That's\nthe word on the street.\n{{reaction type=\"Curiosity\"}}Now I'm curious about what\nkind of person the creator\nis, {{pause frames=\"10\"}}{{string value=\"Catchphrase\"}}!"
    }
  }
]