[
  {
    "label": "0",
    "attribute": "0x00000000FF000000",
    "locale": {
      "EUde": "Hey, man sagt, da gibt es\nein Item namens\n{{color id=\"7\"}}Goldkanne{{color id=\"0\"}}!\n{{fun_06 arg=\"0x030405\"}}",
      "EUen": "Hey, rumor has it there's\nsomething called a \n{{color id=\"7\"}}golden watering can{{color id=\"0\"}}!\n{{fun_06 arg=\"0x030405\"}}",
      "EUes": "¿Has oído los rumores que\nhay sobre la {{color id=\"7\"}}regadera de\noro{{color id=\"0\"}}?\n{{fun_06 arg=\"0x030405\"}}",
      "EUfr": "Hé, on raconte qu'il existe\nun truc appelé {{color id=\"7\"}}arrosoir\ndoré{{color id=\"0\"}}!{{fun_06 arg=\"0x030405\"}}",
      "EUit": "Ehi, pare che esista un\n{{color id=\"7\"}}innaffiatoio d'oro{{color id=\"0\"}}!{{pause frames=\"20\"}}\n{{fun_06 arg=\"0x030405\"}}",
      "JPja": "ウワサでは\n{{color id=\"7\"}}きんのジョウロ{{color id=\"0\"}}ってのが\nあるらしいな！　{{pause frames=\"5\"}}{{string value=\"Catchphrase\"}}！\n{{fun_06 arg=\"0x030405\"}}",
      "KRko": "소문을 듣자 하니\n{{color id=\"7\"}}금물뿌리개{{color id=\"0\"}}라는 게\n있다고 하더라！ {{pause frames=\"5\"}}{{string value=\"Catchphrase\"}}！\n{{fun_06 arg=\"0x03040500\"}}",
      "USen": "Hey, rumor has it there's\nsomething called a \n{{color id=\"7\"}}golden watering can{{color id=\"0\"}}!\n{{fun_06 arg=\"0x030405\"}}"
    }
  },
  {
    "label": "1",
    "attribute": "0x00000000FE000000",
    "locale": {
      "EUde": "{{color id=\"5\"}}{{reaction type=\"Intense\"}}{{capitalizeLetter}}{{string value=\"PlayerNickname\"}}{{color id=\"0\"}}! {{pause frames=\"5\"}}Aaaargh!{{pause frames=\"10\"}} Ich\nhabe all diese verschie-\ndenen Blumen gepflanzt...\n{{reaction type=\"Distress\"}}Und plötzlich steht da eine\nBlume, die ich noch nie\nvorher gesehen habe!\n{{resetReaction}}Wo kommt die her?{{pause frames=\"5\"}}\nGibt es hier{{reaction type=\"Curiosity\"}} Blumengeister?",
      "EUen": "{{color id=\"5\"}}{{reaction type=\"Intense\"}}{{capitalizeLetter}}{{string value=\"PlayerNickname\"}}{{color id=\"0\"}}! {{pause frames=\"5\"}}Yaaargh!{{pause frames=\"10\"}}\nI'd planted all these\ndifferent flowers...\n{{reaction type=\"Distress\"}}Then one day, all of a\nsudden, a flower I'd never\nseen before popped up!\n{{resetReaction}}Where'd he come from?{{pause frames=\"5\"}}\nYou think{{reaction type=\"Curiosity\"}} there are\nflowerbed-poachers around?",
      "EUes": "{{reaction type=\"Intense\"}}¡{{color id=\"5\"}}{{capitalizeLetter}}{{string value=\"PlayerNickname\"}}{{color id=\"0\"}}! {{pause frames=\"5\"}}Había\nplantado muchas flores\ndiferentes...\n{{reaction type=\"Distress\"}}¡Y un día apareció una que\nno había visto jamás!{{resetReaction}} ¿Las\nflores andan?{{pause frames=\"5\"}}\n{{reaction type=\"Curiosity\"}}¿Crees que es una nueva\nespecie y le pondrán mi\nnombre?",
      "EUfr": "{{color id=\"5\"}}{{reaction type=\"Intense\"}}{{capitalizeLetter}}{{string value=\"PlayerNickname\"}}{{color id=\"0\"}}! {{pause frames=\"5\"}}Argh!{{pause frames=\"10\"}}\nJ'avais planté plein de\nfleurs différentes...\n{{reaction type=\"Distress\"}}Et puis un jour, une fleur\nque j'avais jamais vue a\npoussé!\n{{resetReaction}}D'où elle venait?{{pause frames=\"5\"}} Tu crois{{reaction type=\"Curiosity\"}}\nqu'il y a des trafiquants de\nfleurs dans le coin?",
      "EUit": "{{color id=\"5\"}}{{reaction type=\"Intense\"}}{{capitalizeLetter}}{{string value=\"PlayerNickname\"}}{{color id=\"0\"}}! {{pause frames=\"5\"}}Yaaargh!{{pause frames=\"10\"}}\nHo piantato un sacco di\nfiori diversi...\n{{reaction type=\"Distress\"}}E poi, all'improvviso, è\nspuntato un fiore che non\navevo mai visto prima!\n{{resetReaction}}Da dove è arrivato?{{pause frames=\"5\"}}\nPensi che ci siano{{reaction type=\"Curiosity\"}} dei\ncontrabbandieri di fiori?",
      "JPja": "{{reaction type=\"Intense\"}}{{color id=\"5\"}}{{string value=\"PlayerNickname\"}}ー{{color id=\"0\"}}！{{pause frames=\"10\"}}\nいろんな{{kanjiReplace charNum=\"1\" value=\"はな\"}}花を　うえてたら、\n\n{{reaction type=\"Distress\"}}いつのまにか\n{{kanjiReplace charNum=\"1\" value=\"み\"}}見たコトもないのが　はえてて\nビックリしちゃったぞー！\n{{resetReaction}}もっと　いろいろ　うえたら、{{pause frames=\"5\"}}\nヒトの{{kanjiReplace charNum=\"1\" value=\"かお\"}}顔が　ついてるヤツとか\n{{reaction type=\"Curiosity\"}}できちゃったり　すんのかな？",
      "KRko": "{{reaction type=\"Intense\"}}{{color id=\"5\"}}{{string value=\"PlayerNickname\"}}ー{{color id=\"0\"}}！{{pause frames=\"10\"}}\n여러 가지 꽃을 심었더니\n\n{{reaction type=\"Distress\"}}어느샌가\n처음 보는 녀석이 피어 있어서\n깜짝 놀랐어ー！\n{{resetReaction}}더 많이 심다 보면{{pause frames=\"5\"}}\n사람 얼굴처럼 생긴 꽃도\n{{reaction type=\"Curiosity\"}}피는 걸까？",
      "USen": "{{color id=\"5\"}}{{reaction type=\"Intense\"}}{{capitalizeLetter}}{{string value=\"PlayerNickname\"}}{{color id=\"0\"}}! {{pause frames=\"5\"}}Yaaargh!{{pause frames=\"10\"}}\nI'd planted all these\ndifferent flowers...\n{{reaction type=\"Distress\"}}Then one day, all of a\nsudden, a flower I'd never\nseen before popped up!\n{{resetReaction}}Where'd he come from?{{pause frames=\"5\"}}\nYou think{{reaction type=\"Curiosity\"}} there are\nflowerbed-poachers around?"
    }
  },
  {
    "label": "2",
    "attribute": "0x00000000FE000000",
    "locale": {
      "EUde": "{{reaction type=\"Worry\"}}Wenn du Fragen zu Blumen\nhast, musst du {{string value=\"GossipVillager3\"}}\nfragen, {{pause frames=\"5\"}}{{string value=\"Catchphrase\"}}!\n{{reaction type=\"Distress\"}}Denn ehrlich gesagt, {{pause frames=\"5\"}}habe\nich davon keine Ahnung,\n{{pause frames=\"5\"}}{{string value=\"Catchphrase\"}}!",
      "EUen": "{{reaction type=\"Worry\"}}If you have questions about\nflowers, you gotta ask\n{{string value=\"GossipVillager3\"}}, {{pause frames=\"5\"}}{{string value=\"Catchphrase\"}}!\n{{reaction type=\"Distress\"}}'Cause actually, {{pause frames=\"5\"}}I'm pretty\ndang clueless, {{pause frames=\"5\"}}{{string value=\"Catchphrase\"}}!",
      "EUes": "{{reaction type=\"Worry\"}}Si tienes dudas acerca de\nlas flores, ¡pregúntale a\n{{string value=\"GossipVillager3\"}}, {{pause frames=\"5\"}}{{string value=\"Catchphrase\"}}!\n{{reaction type=\"Distress\"}}La verdad es que yo\ntampoco tengo mucha idea,\n{{pause frames=\"5\"}}¡{{string value=\"Catchphrase\"}}!",
      "EUfr": "{{reaction type=\"Worry\"}}Si tu veux savoir des trucs\nsur les fleurs, demande à\n{{string value=\"GossipVillager3\"}}, {{pause frames=\"5\"}}{{string value=\"Catchphrase\"}}!\n{{reaction type=\"Distress\"}}Parce que moi, {{pause frames=\"5\"}}je suis\ncomplètement à l'ouest,\n{{pause frames=\"5\"}}{{string value=\"Catchphrase\"}}!",
      "EUit": "{{reaction type=\"Worry\"}}Se vuoi parlare di fiori,\ndevi andare da \n{{string value=\"GossipVillager3\"}}, {{pause frames=\"5\"}}{{string value=\"Catchphrase\"}}!\n{{reaction type=\"Distress\"}}Perché vedi, {{pause frames=\"5\"}}io non ne\nso niente, {{pause frames=\"5\"}}{{string value=\"Catchphrase\"}}!",
      "JPja": "{{reaction type=\"Worry\"}}{{kanjiReplace charNum=\"1\" value=\"はな\"}}花のコトだったら　\n{{string value=\"GossipVillager3\"}}にでも\n{{kanjiReplace charNum=\"1\" value=\"き\"}}聞いてくれよ、{{pause frames=\"5\"}}{{string value=\"Catchphrase\"}}\n{{reaction type=\"Distress\"}}{{kanjiReplace charNum=\"1\" value=\"じつ\"}}実は　おいら、{{pause frames=\"5\"}}\nよく　{{kanjiReplace charNum=\"1\" value=\"わ\"}}分かってないんだよね、\n{{pause frames=\"5\"}}{{string value=\"Catchphrase\"}}！",
      "KRko": "{{reaction type=\"Worry\"}}꽃에 대해 궁금하면　\n{{string value=\"GossipVillager3\"}}한테\n가서 들어， {{pause frames=\"5\"}}{{string value=\"Catchphrase\"}}\n{{reaction type=\"Distress\"}}사실 난{{pause frames=\"5\"}}\n잘 모르거든\n{{pause frames=\"5\"}}{{string value=\"Catchphrase\"}}！",
      "USen": "{{reaction type=\"Worry\"}}If you have questions about\nflowers, you gotta ask\n{{string value=\"GossipVillager3\"}}, {{pause frames=\"5\"}}{{string value=\"Catchphrase\"}}!\n{{reaction type=\"Distress\"}}'Cause actually, {{pause frames=\"5\"}}I'm pretty\ndang clueless, {{pause frames=\"5\"}}{{string value=\"Catchphrase\"}}!"
    }
  },
  {
    "label": "3",
    "attribute": "0x00000000FE000000",
    "locale": {
      "EUde": "{{resetReaction}}Gold ist schwerer als\nEisen, weißt du.\n\n{{reaction type=\"Distress\"}}...Deswegen will ich SO eine,\num meinen Bizeps\naufzufrischen!",
      "EUen": "{{resetReaction}}Gold is heavier than iron,\ny'know.\n\n{{reaction type=\"Distress\"}}...So I definitely want one\nof THOSE to get my biceps\nall hunked out!",
      "EUes": "{{resetReaction}}¿Sabías que el oro pesa más\nque el hierro?\n\n{{reaction type=\"Distress\"}}¡La necesito para reforzar\nmás mis bíceps!",
      "EUfr": "{{resetReaction}}L'or est plus lourd que le\nfer, tu sais.\n\n{{reaction type=\"Distress\"}}Donc, ça me serait utile\npour travailler mes biceps!",
      "EUit": "{{resetReaction}}Sai, l'oro pesa più\ndel ferro.\n\n{{reaction type=\"Distress\"}}... Ecco perché ne voglio\nUNO per i miei bicipiti!",
      "JPja": "{{resetReaction}}{{kanjiReplace charNum=\"1\" value=\"きん\"}}金は　てつよりも\n{{kanjiReplace charNum=\"1\" value=\"おも\"}}重いから、\n\n{{reaction type=\"Distress\"}}にのウデ　きたえるなら、{{pause frames=\"5\"}}\nゼッタイ　ほしいよなー！！",
      "KRko": "{{resetReaction}}금은 철보다\n무거우니까\n\n{{reaction type=\"Distress\"}}팔뚝 근육을\n키우기 위해서라도\n꼭 가져야겠어ー！！",
      "USen": "{{resetReaction}}Gold is heavier than iron,\ny'know.\n\n{{reaction type=\"Distress\"}}...So I definitely want one\nof THOSE to get my biceps\nall hunked out!"
    }
  },
  {
    "label": "4",
    "attribute": "0x00000000FE000000",
    "locale": {
      "EUde": "{{reaction type=\"Happiness\"}}Hör mal, das bleibt unter\nuns, aber ich fahre voll auf\ndie Farbe pink ab...\n{{reaction type=\"Glee\"}}Ich brauche unbedingt eine{{pause frames=\"5\"}}\npinke Gießkanne, \n{{pause frames=\"5\"}}{{string value=\"Catchphrase\"}}!",
      "EUen": "{{reaction type=\"Happiness\"}}Listen, keep it on the\ndown-low, but I really dig\nthe color pink...\n{{reaction type=\"Glee\"}}I gotta get my hands on{{pause frames=\"5\"}}\na pink watering can, \n{{pause frames=\"5\"}}{{string value=\"Catchphrase\"}}!",
      "EUes": "{{reaction type=\"Happiness\"}}Oye, no lo comentes por\nahí, pero la verdad es que\nme gusta el rosa...\n{{reaction type=\"Glee\"}}¡Tengo que conseguir como\nsea una regadera rosa,\n{{pause frames=\"5\"}}{{string value=\"Catchphrase\"}}!",
      "EUfr": "{{reaction type=\"Happiness\"}}Ecoute, garde ça pour toi,\nmais j'adore le rose...\n\n{{reaction type=\"Glee\"}}Il faut que je trouve{{pause frames=\"5\"}} un\narrosoir rose, {{pause frames=\"5\"}}{{string value=\"Catchphrase\"}}!",
      "EUit": "{{reaction type=\"Happiness\"}}Ascolta, tienilo per te, ma\nmi piace molto il rosa...\n\n{{reaction type=\"Glee\"}}Devo assolutamente trovare{{pause frames=\"5\"}}\nun innaffiatoio rosa, \n{{pause frames=\"5\"}}{{string value=\"Catchphrase\"}}!",
      "JPja": "{{reaction type=\"Happiness\"}}でも、おいらは\nピンク{{kanjiReplace charNum=\"1\" value=\"いろ\"}}色が　スキだから、\n\n{{reaction type=\"Glee\"}}ピンクのジョウロ、{{pause frames=\"5\"}}\nほしいぞー！　{{pause frames=\"5\"}}{{string value=\"Catchphrase\"}}！",
      "KRko": "{{reaction type=\"Happiness\"}}근데 나는\n핑크색을 좋아하니까\n\n{{reaction type=\"Glee\"}}핑크색 물뿌리개가 있었으면{{pause frames=\"5\"}}\n좋겠어ー！ {{pause frames=\"5\"}}{{string value=\"Catchphrase\"}}！",
      "USen": "{{reaction type=\"Happiness\"}}Listen, keep it on the\ndown-low, but I really dig\nthe color pink...\n{{reaction type=\"Glee\"}}I gotta get my hands on{{pause frames=\"5\"}}\na pink watering can, \n{{pause frames=\"5\"}}{{string value=\"Catchphrase\"}}!"
    }
  },
  {
    "label": "5",
    "attribute": "0x00000000FE000000",
    "locale": {
      "EUde": "{{resetReaction}}Wäre doch super, wenn aus\nmeiner Gießkanne\n{{reaction type=\"Thought\"}}{{string index=\"4\"}} käme!\n{{reaction type=\"Happiness\"}}Aber ohne Proteinpulver{{pause frames=\"5\"}}\nwäre das wohl nutzlos,\n{{pause frames=\"5\"}}{{string value=\"Catchphrase\"}}!",
      "EUen": "{{resetReaction}}It'd be awesome if my\nwatering can poured out\n{{reaction type=\"Thought\"}}{{string index=\"4\"}}, right?\n{{reaction type=\"Happiness\"}}Then again, I guess it's\nuseless without protein{{pause frames=\"5\"}}\npowder, {{pause frames=\"5\"}}{{string value=\"Catchphrase\"}}!",
      "EUes": "{{resetReaction}}¿A que sería genial si de\nla regadera saliese\n{{reaction type=\"Thought\"}}{{ignoreArticle}}{{string index=\"4\"}}?\n{{reaction type=\"Happiness\"}}Aunque mejor si viniese con\nun complejo vitamínico,\n{{pause frames=\"5\"}}¡{{string value=\"Catchphrase\"}}!",
      "EUfr": "{{resetReaction}}Ce serait génial si mon\narrosoir était rempli avec\n{{reaction type=\"Thought\"}}{{string index=\"4\"}}, hein?\n{{reaction type=\"Happiness\"}}Mais bon, ça servirait à\nrien sans poudre de\n{{pause frames=\"5\"}}protéines, {{pause frames=\"5\"}}{{string value=\"Catchphrase\"}}!",
      "EUit": "{{resetReaction}}Sarebbe splendido se il\nmio innaffiatoio fosse pieno\ndi {{reaction type=\"Thought\"}}{{string index=\"4\"}}, no?\n{{reaction type=\"Happiness\"}}Ma dovrei aggiungerci un\npo' di vitamine{{pause frames=\"5\"}} in\npolvere, {{pause frames=\"5\"}}{{string value=\"Catchphrase\"}}!",
      "JPja": "{{resetReaction}}{{kanjiReplace charNum=\"1\" value=\"い\"}}入れた{{kanjiReplace charNum=\"1\" value=\"みず\"}}水が\n{{reaction type=\"Thought\"}}{{string index=\"4\"}}になって\n{{kanjiReplace charNum=\"1\" value=\"で\"}}出てきたら　うれしいんだけど、\n{{reaction type=\"Happiness\"}}まあ、{{pause frames=\"5\"}}\nプロテイン{{kanjiReplace charNum=\"1\" value=\"い\"}}入りじゃないと\n{{kanjiReplace charNum=\"2\" value=\"イミ\"}}意味{{kanjiReplace charNum=\"1\" value=\"な\"}}無いからなー、{{pause frames=\"5\"}}{{string value=\"Catchphrase\"}}！",
      "KRko": "{{resetReaction}}안에 넣은 물이\n{{reaction type=\"Thought\"}}{{string index=\"4\"}}{{fun_0B arg=\"0x0700\"}}\n변한다면 기쁘겠지？\n{{reaction type=\"Happiness\"}}그래도 그 안에{{pause frames=\"5\"}}\n프로테인이 없다면\n아무 의미가 없어！ {{pause frames=\"5\"}}{{string value=\"Catchphrase\"}}",
      "USen": "{{resetReaction}}It'd be awesome if my\nwatering can poured out\n{{reaction type=\"Thought\"}}{{string index=\"4\"}}, right?\n{{reaction type=\"Happiness\"}}Then again, I guess it's\nuseless without protein{{pause frames=\"5\"}}\npowder, {{pause frames=\"5\"}}{{string value=\"Catchphrase\"}}!"
    }
  }
]