[
  {
    "label": "00",
    "attribute": "0x00000000FF000000",
    "locale": {
      "EUde": "{{reaction type=\"Happiness\"}}Na dann! {{pause frames=\"5\"}}Es GILT!{{pause frames=\"5\"}}\nIch habe ein Quiz {{pause frames=\"10\"}}für dich\nvorbereitet, {{pause frames=\"5\"}}{{string value=\"Catchphrase\"}}!\n{{resetReaction}}Welche meiner vielen\nmännlichen, kräftigen\nMuskeln...\n{{reaction type=\"Curiosity\"}}...sind meine absoluten\nFavoriten?{{fun_02 arg=\"0x03030303\"}}\nArme.\nBauch.\nUnterer Rücken.\nSchenkel.",
      "EUen": "{{reaction type=\"Happiness\"}}All right! {{pause frames=\"5\"}}It is ON!{{pause frames=\"5\"}}\nI prepared a pop quiz{{pause frames=\"10\"}}\njust for you, {{pause frames=\"5\"}}{{string value=\"Catchphrase\"}}!\n{{resetReaction}}Which of my many bulging,\nburly muscles do you think\nare my {{reaction type=\"Curiosity\"}}absolute favorites?{{fun_02 arg=\"0x03030303\"}}\nArms.\nAbs.\nLower back.\nGlutes.",
      "EUes": "{{reaction type=\"Happiness\"}}¡Está bien! {{pause frames=\"5\"}}¡Vamos allá!{{pause frames=\"5\"}} He\npreparado un concurso de\npreguntas solo para ti.\n{{resetReaction}}{{reaction type=\"Curiosity\"}}¿Cuál de las musculosas\npartes de mi cuerpo es mi\nfavorita?{{fun_02 arg=\"0x03030303\"}}\nBrazos\nAbdominales\nEspalda\nGlúteos",
      "EUfr": "{{reaction type=\"Happiness\"}}Super! {{pause frames=\"5\"}}Ça va commencer!{{pause frames=\"5\"}}\nJ'ai préparé un quiz{{pause frames=\"10\"}} rien \nque pour toi, {{pause frames=\"5\"}}{{string value=\"Catchphrase\"}}!\n{{resetReaction}}A ton avis, lequel de mes\nmuscles ultra costauds{{reaction type=\"Curiosity\"}}\nje préfère?{{fun_02 arg=\"0x03030303\"}}\nBiceps.\nAbdos.\nBas du dos.\nMollets.",
      "EUit": "{{reaction type=\"Happiness\"}}Bene! {{pause frames=\"5\"}}Ci siamo!{{pause frames=\"5\"}}\nHo preparato un quiz{{pause frames=\"10\"}}\ntutto per te, {{pause frames=\"5\"}}{{string value=\"Catchphrase\"}}!\n{{resetReaction}}Tra tutti i miei poderosi\nmuscoli, quali credi che\nsiano i più {{reaction type=\"Curiosity\"}}sexy?{{fun_02 arg=\"0x03030303\"}}\nBicipiti.\nAddominali.\nDorsali.\nGlutei.",
      "JPja": "{{reaction type=\"Happiness\"}}よーし、{{pause frames=\"5\"}}じゃあ\n{{kanjiReplace charNum=\"2\" value=\"きょう\"}}今日は　クイズ{{kanjiReplace charNum=\"1\" value=\"だ\"}}出すぞー！{{pause frames=\"10\"}}\n{{pause frames=\"5\"}}{{string value=\"Catchphrase\"}}！\n{{resetReaction}}おいらが　{{kanjiReplace charNum=\"2\" value=\"じぶん\"}}自分の{{kanjiReplace charNum=\"1\" value=\"カラダ\"}}体で\n{{kanjiReplace charNum=\"2\" value=\"イチバン\"}}一番　{{kanjiReplace charNum=\"1\" value=\"き\"}}気に{{kanjiReplace charNum=\"1\" value=\"い\"}}入ってる\n{{reaction type=\"Curiosity\"}}キンニクは　どこでしょうか？{{fun_02 arg=\"0x03030303\"}}\nウデ\nふっきん\nはいきん\nおしり",
      "KRko": "{{reaction type=\"Happiness\"}}좋아ー{{pause frames=\"5\"}}\n오늘은 내가 문제 하나 낼게ー！{{pause frames=\"10\"}}\n{{pause frames=\"5\"}}{{string value=\"Catchphrase\"}}！\n{{resetReaction}}내가 내 몸 중에\n제일 맘에 들어 하는 근육은\n{{reaction type=\"Curiosity\"}}어디게？{{fun_02 arg=\"0x03030303\"}}\n팔\n복근\n등\n엉덩이",
      "USen": "{{reaction type=\"Happiness\"}}All right! {{pause frames=\"5\"}}It is ON!{{pause frames=\"5\"}}\nI prepared a pop quiz{{pause frames=\"10\"}}\njust for you, {{pause frames=\"5\"}}{{string value=\"Catchphrase\"}}!\n{{resetReaction}}Which of my many bulging,\nburly muscles do you think\nare my {{reaction type=\"Curiosity\"}}absolute favorites?{{fun_02 arg=\"0x03030303\"}}\nArms.\nAbs.\nLower back.\nGlutes."
    }
  },
  {
    "label": "01",
    "attribute": "0x00000000FF000000",
    "locale": {
      "EUde": "{{reaction type=\"Happiness\"}}Was geht, {{color id=\"5\"}}{{string value=\"PlayerNickname\"}}{{color id=\"0\"}}?!?{{pause frames=\"10\"}}\nHey, ich habe heute gute\nLaune, daher...\n{{reaction type=\"Glee\"}}...schenke ich dir {{gender m=\"meinen\" f=\"meine\" n=\"mein\"}}\n{{ignoreArticle}}{{itemName index=\"0\"}}.\nEinfach so, {{pause frames=\"5\"}}{{string value=\"Catchphrase\"}}!\n{{fun_06 arg=\"0x070808\"}}",
      "EUen": "{{reaction type=\"Happiness\"}}Wassup, {{color id=\"5\"}}{{string value=\"PlayerNickname\"}}{{color id=\"0\"}}{{pause frames=\"10\"}}!\nListen, I'm in a good mood\ntoday, so...\n{{reaction type=\"Glee\"}}I'm gonna give you my\n{{ignoreArticle}}{{itemName index=\"0\"}} for\nfree, {{pause frames=\"5\"}}{{string value=\"Catchphrase\"}}!\n{{fun_06 arg=\"0x070808\"}}",
      "EUes": "{{reaction type=\"Happiness\"}}¡Hola, {{color id=\"5\"}}{{string value=\"PlayerNickname\"}}{{color id=\"0\"}}!{{pause frames=\"10\"}} ¡Hoy\nestoy de muy buen humor!\n\n{{reaction type=\"Glee\"}}Así que te voy a regalar mi\n{{ignoreArticle}}{{itemName index=\"0\"}}.\n¡Y gratis, {{pause frames=\"5\"}}{{string value=\"Catchphrase\"}}!\n{{fun_06 arg=\"0x070808\"}}",
      "EUfr": "{{reaction type=\"Happiness\"}}Salut, {{color id=\"5\"}}{{string value=\"PlayerNickname\"}}!{{color id=\"0\"}}{{pause frames=\"10\"}}\nEcoute, je suis de bonne\nhumeur aujourd'hui, donc...\n{{reaction type=\"Glee\"}}je t'offre\n{{itemName index=\"0\"}},\n{{pause frames=\"5\"}}{{string value=\"Catchphrase\"}}!\n{{fun_06 arg=\"0x070808\"}}",
      "EUit": "{{reaction type=\"Happiness\"}}Ehilà, {{color id=\"5\"}}{{string value=\"PlayerNickname\"}}{{color id=\"0\"}}!{{pause frames=\"10\"}}\nSenti, oggi sono di buon\numore, quindi...\n{{reaction type=\"Glee\"}}Ti darò {{gender m=\"il mio\" f=\"la mia\" n=\"\"}}\n{{ignoreArticle}}{{itemName index=\"0\"}}\ngratis, {{pause frames=\"5\"}}{{string value=\"Catchphrase\"}}!\n{{fun_06 arg=\"0x070808\"}}",
      "JPja": "{{reaction type=\"Happiness\"}}{{color id=\"5\"}}{{string value=\"PlayerNickname\"}}ー{{color id=\"0\"}}！{{pause frames=\"10\"}}\n{{kanjiReplace charNum=\"2\" value=\"きょう\"}}今日は　おいら　\n{{kanjiReplace charNum=\"2\" value=\"きまえ\"}}気前がイイから、\n{{reaction type=\"Glee\"}}タダで　この\n{{itemName index=\"0\"}}を\nあげちゃうぞー！　{{pause frames=\"5\"}}{{string value=\"Catchphrase\"}}！\n{{fun_06 arg=\"0x070808\"}}",
      "KRko": "{{reaction type=\"Happiness\"}}{{color id=\"5\"}}{{string value=\"PlayerNickname\"}}ー{{color id=\"0\"}}！{{pause frames=\"10\"}}\n오늘은\n내 기분이 좋으니까，\n{{reaction type=\"Glee\"}}이 {{itemName index=\"0\"}}{{fun_0B arg=\"0x0200\"}}\n공짜로 줄게ー！ {{pause frames=\"5\"}}{{string value=\"Catchphrase\"}}！\n\n{{fun_06 arg=\"0x07080800\"}}",
      "USen": "{{reaction type=\"Happiness\"}}Wassup, {{color id=\"5\"}}{{string value=\"PlayerNickname\"}}{{color id=\"0\"}}{{pause frames=\"10\"}}!\nListen, I'm in a good mood\ntoday, so...\n{{reaction type=\"Glee\"}}I'm gonna give you my\n{{ignoreArticle}}{{itemName index=\"0\"}} for\nfree, {{pause frames=\"5\"}}{{string value=\"Catchphrase\"}}!\n{{fun_06 arg=\"0x070808\"}}"
    }
  },
  {
    "label": "02",
    "attribute": "0x00000000FF000000",
    "locale": {
      "EUde": "{{reaction type=\"Worry\"}}Was schaust du denn so?{{pause frames=\"5\"}}\nWillst du ein Almosen,\n{{pause frames=\"5\"}}{{string value=\"Catchphrase\"}}?\n{{fun_06 arg=\"0x0A0E0E\"}}",
      "EUen": "{{reaction type=\"Worry\"}}What's that hangdog look?!{{pause frames=\"5\"}}\nYou looking for a handout,\n{{pause frames=\"5\"}}{{string value=\"Catchphrase\"}}?\n{{fun_06 arg=\"0x0A0E0E\"}}",
      "EUes": "{{reaction type=\"Worry\"}}¿A qué viene esa cara?{{pause frames=\"5\"}}\n¿Buscando un hombro sobre\nel que llorar, {{pause frames=\"5\"}}{{string value=\"Catchphrase\"}}?\n{{fun_06 arg=\"0x0A0E0E\"}}",
      "EUfr": "{{reaction type=\"Worry\"}}C'est quoi cet air de chien\nbattu?!{{pause frames=\"5\"}} Tu veux de l'argent,\n{{pause frames=\"5\"}}{{string value=\"Catchphrase\"}}?\n{{fun_06 arg=\"0x0A0E0E\"}}",
      "EUit": "{{reaction type=\"Worry\"}}Perché quegli occhi da\ncane bastonato?!{{pause frames=\"5\"}} Cerchi\nqualcosa, {{pause frames=\"5\"}}{{string value=\"Catchphrase\"}}?\n{{fun_06 arg=\"0x0A0E0E\"}}",
      "JPja": "{{reaction type=\"Worry\"}}なんだよー、{{pause frames=\"5\"}}その\nおごってほしそうな　{{kanjiReplace charNum=\"1\" value=\"かお\"}}顔はー！\n{{pause frames=\"5\"}}{{string value=\"Catchphrase\"}}！\n{{fun_06 arg=\"0x0A0E0E\"}}",
      "KRko": "{{reaction type=\"Worry\"}}뭐야ー {{pause frames=\"5\"}}\n뭔가를 달라는 듯한 그 표정은ー！\n{{pause frames=\"5\"}}{{string value=\"Catchphrase\"}}！\n{{fun_06 arg=\"0x0A0E0E00\"}}",
      "USen": "{{reaction type=\"Worry\"}}What's that hangdog look?!{{pause frames=\"5\"}}\nYou looking for a handout,\n{{pause frames=\"5\"}}{{string value=\"Catchphrase\"}}?\n{{fun_06 arg=\"0x0A0E0E\"}}"
    }
  },
  {
    "label": "03",
    "attribute": "0x00000000FF000000",
    "locale": {
      "EUde": "{{reaction type=\"Worry\"}}FALSCH! {{pause frames=\"10\"}}Mann, zu schade!{{pressButton}}\n{{resetReaction}}Die richtige Antwort war{{pause frames=\"5\"}}.{{pause frames=\"5\"}}.{{pause frames=\"5\"}}.{{pause frames=\"5\"}}\n{{reaction type=\"Happiness\"}}\"Alles zusammen!\"\n.{{pause frames=\"5\"}}.{{pause frames=\"5\"}}.{{pause frames=\"5\"}}{{reaction type=\"Amazed\"}}Oh! Nicht ganz fair, hm?{{pause frames=\"20\"}}\n{{reaction type=\"Worry\"}}Ja, es {{pause frames=\"10\"}}war das schlechteste\nQuiz der Welt. {{pause frames=\"5\"}}Sorry!\n{{fun_06 arg=\"0x040505\"}}",
      "EUen": "{{reaction type=\"Worry\"}}WRONG! {{pause frames=\"10\"}}Man, too bad!{{pressButton}}\n{{resetReaction}}The correct answer was{{pause frames=\"5\"}}.{{pause frames=\"5\"}}.{{pause frames=\"5\"}}.{{pause frames=\"5\"}}\n{{reaction type=\"Happiness\"}}\"Each and every one of 'em!\"\n.{{pause frames=\"5\"}}.{{pause frames=\"5\"}}.{{pause frames=\"5\"}}{{reaction type=\"Amazed\"}}Oh! Wasn't quite fair, eh?{{pause frames=\"20\"}}\n{{reaction type=\"Worry\"}}Yeah, I guess that was{{pause frames=\"10\"}}\nthe worst quiz ever. {{pause frames=\"5\"}}Sorry!\n{{fun_06 arg=\"0x040505\"}}",
      "EUes": "{{reaction type=\"Worry\"}}¡MAL! {{pause frames=\"10\"}}¡Muy mal!{{pressButton}}\n{{resetReaction}}Lo correcto era{{pause frames=\"5\"}}.{{pause frames=\"5\"}}.{{pause frames=\"5\"}}.{{pause frames=\"5\"}}\n\n{{reaction type=\"Happiness\"}}\"¡Todas son mis favoritas!\"\n{{reaction type=\"Amazed\"}}¿Te ha parecido una\npregunta con trampa?{{pause frames=\"20\"}}\n{{reaction type=\"Worry\"}}¡Supongo que el concurso\nestaba amañado!{{pause frames=\"5\"}}\n¡Lo siento!\n{{fun_06 arg=\"0x040505\"}}",
      "EUfr": "{{reaction type=\"Worry\"}}FAUX! {{pause frames=\"10\"}}Dommage!{{pressButton}}\n{{resetReaction}}La bonne réponse c'est{{pause frames=\"5\"}}.{{pause frames=\"5\"}}.{{pause frames=\"5\"}}.{{pause frames=\"5\"}}\n{{reaction type=\"Happiness\"}}\"Tous, sans exception!\"\n.{{pause frames=\"5\"}}.{{pause frames=\"5\"}}.{{pause frames=\"5\"}}{{reaction type=\"Amazed\"}} Oh! C'est injuste?{{pause frames=\"20\"}}\n{{reaction type=\"Worry\"}}Ouais, c'est le plus mauvais{{pause frames=\"10\"}}\nquiz du monde. {{pause frames=\"5\"}}Désolé!\n{{fun_06 arg=\"0x040505\"}}",
      "EUit": "{{reaction type=\"Worry\"}}SBAGLIATO! {{pause frames=\"10\"}}No, no e no!{{pressButton}}\n{{resetReaction}}La risposta esatta è{{pause frames=\"5\"}}.{{pause frames=\"5\"}}.{{pause frames=\"5\"}}.{{pause frames=\"5\"}}\n{{reaction type=\"Happiness\"}}\"Sono tutti magnifici!\"\n.{{pause frames=\"5\"}}.{{pause frames=\"5\"}}.{{pause frames=\"5\"}}{{reaction type=\"Amazed\"}} Oh! Non è giusto, dici?{{pause frames=\"20\"}}\n{{reaction type=\"Worry\"}}Sì, credo che fosse il quiz{{pause frames=\"10\"}}\npiù idiota del secolo. {{pause frames=\"5\"}}Scusa!\n{{fun_06 arg=\"0x040505\"}}",
      "JPja": "{{reaction type=\"Worry\"}}ブブーッ！{{pause frames=\"10\"}}　{{kanjiReplace charNum=\"2\" value=\"ざんねん\"}}残念！{{pressButton}}\n{{resetReaction}}せいかいは{{pause frames=\"5\"}}・{{pause frames=\"5\"}}・{{pause frames=\"5\"}}・{{pause frames=\"5\"}}\n{{reaction type=\"Happiness\"}}「{{kanjiReplace charNum=\"2\" value=\"ぜんぶ\"}}全部スキ」でしたー！\n・{{pause frames=\"5\"}}・{{pause frames=\"5\"}}・{{pause frames=\"5\"}}{{reaction type=\"Amazed\"}}あっ？！{{pause frames=\"20\"}}\n{{reaction type=\"Worry\"}}これじゃクイズに　なんないぞ！{{pause frames=\"10\"}}\nゴメン、{{pause frames=\"5\"}}ゴメン！\n{{fun_06 arg=\"0x040505\"}}",
      "KRko": "{{reaction type=\"Worry\"}}땡ー！{{pause frames=\"10\"}} 틀렸습니다！{{pressButton}}\n{{resetReaction}}정답은{{pause frames=\"5\"}}・{{pause frames=\"5\"}}・{{pause frames=\"5\"}}・{{pause frames=\"5\"}}\n{{reaction type=\"Happiness\"}}「다 좋아」입니다ー！\n・{{pause frames=\"5\"}}・{{pause frames=\"5\"}}・{{pause frames=\"5\"}}{{reaction type=\"Amazed\"}}앗？！{{pause frames=\"20\"}}\n{{reaction type=\"Worry\"}}이러면 말이 안 되는구나！{{pause frames=\"10\"}}\n미안 {{pause frames=\"5\"}}미안！\n{{fun_06 arg=\"0x04050500\"}}",
      "USen": "{{reaction type=\"Worry\"}}WRONG! {{pause frames=\"10\"}}Man, too bad!{{pressButton}}\n{{resetReaction}}The correct answer was{{pause frames=\"5\"}}.{{pause frames=\"5\"}}.{{pause frames=\"5\"}}.{{pause frames=\"5\"}}\n{{reaction type=\"Happiness\"}}\"Each and every one of 'em!\"\n.{{pause frames=\"5\"}}.{{pause frames=\"5\"}}.{{pause frames=\"5\"}}{{reaction type=\"Amazed\"}}Oh! Wasn't quite fair, eh?{{pause frames=\"20\"}}\n{{reaction type=\"Worry\"}}Yeah, I guess that was{{pause frames=\"10\"}}\nthe worst quiz ever. {{pause frames=\"5\"}}Sorry!\n{{fun_06 arg=\"0x040505\"}}"
    }
  },
  {
    "label": "04",
    "attribute": "0x00000000FE000000",
    "locale": {
      "EUde": "{{reaction type=\"Worry\"}}Aber hey,{{pause frames=\"5\"}} so bin ich halt,\nalso... {{pause frames=\"5\"}}lern damit\numzugehen, {{pause frames=\"5\"}}{{string value=\"Catchphrase\"}}!",
      "EUen": "{{reaction type=\"Worry\"}}But hey,{{pause frames=\"5\"}} that's how I roll,\nso...{{pause frames=\"5\"}}you might as well suck\nit up, {{pause frames=\"5\"}}{{string value=\"Catchphrase\"}}!",
      "EUes": "{{reaction type=\"Worry\"}}Pero es que yo soy así,{{pause frames=\"5\"}}\nfresco, descarado, travieso\ny encantador. {{pause frames=\"5\"}}¡{{capitalizeLetter}}{{string value=\"Catchphrase\"}}!",
      "EUfr": "{{reaction type=\"Worry\"}}Mais,{{pause frames=\"5\"}} c'est comme ça que je\nmarche donc...{{pause frames=\"5\"}} c'est pas\ngrave, {{pause frames=\"5\"}}{{string value=\"Catchphrase\"}}!",
      "EUit": "{{reaction type=\"Worry\"}}Ehi,{{pause frames=\"5\"}} non so cosa farci,\nsono così...{{pause frames=\"5\"}} e basta!\nCapito, {{pause frames=\"5\"}}{{string value=\"Catchphrase\"}}!",
      "JPja": "{{reaction type=\"Worry\"}}でも、{{pause frames=\"5\"}}これが\nおいらの　{{kanjiReplace charNum=\"2\" value=\"ほんね\"}}本音なんだからさ、{{pause frames=\"5\"}}\nしょーがないよな、{{pause frames=\"5\"}}{{string value=\"Catchphrase\"}}",
      "KRko": "{{reaction type=\"Worry\"}}하지만 {{pause frames=\"5\"}}이게\n내 진심이라{{pause frames=\"5\"}}\n어쩔 수가 없다， {{pause frames=\"5\"}}{{string value=\"Catchphrase\"}}",
      "USen": "{{reaction type=\"Worry\"}}But hey,{{pause frames=\"5\"}} that's how I roll,\nso...{{pause frames=\"5\"}}you might as well suck\nit up, {{pause frames=\"5\"}}{{string value=\"Catchphrase\"}}!"
    }
  },
  {
    "label": "05",
    "attribute": "0x0000000110000000",
    "locale": {
      "EUde": "{{resetReaction}}Nun, das war nicht\nanständig von mir. Ich habe\nein schlechtes Gewissen!{{pause frames=\"5\"}}\nNimm das hier, dann\nsind wir quitt, {{pause frames=\"5\"}}{{string value=\"Catchphrase\"}}!",
      "EUen": "{{resetReaction}}Well, I did ya wrong and now\nI feel bad. {{pause frames=\"5\"}}Take this and\nwe're even, {{pause frames=\"5\"}}{{string value=\"Catchphrase\"}}!",
      "EUes": "{{resetReaction}}Siento haberme pasado\ncontigo. {{pause frames=\"5\"}}Toma esto y\nestaremos en paz.",
      "EUfr": "{{resetReaction}}Bon, j'ai pas été sympa\navec toi, donc je veux me\nfaire pardonner.\n{{pause frames=\"5\"}}Prends ça et on sera\nquittes, {{pause frames=\"5\"}}{{string value=\"Catchphrase\"}}!",
      "EUit": "{{resetReaction}}Beh, sono stato scorretto e\nora mi sento in colpa. {{pause frames=\"5\"}}\nPrendi questo, {{pause frames=\"5\"}}{{string value=\"Catchphrase\"}}!",
      "JPja": "{{resetReaction}}ヘンなクイズ\n{{kanjiReplace charNum=\"1\" value=\"だ\"}}出した　オワビに\nこれやるよー、{{pause frames=\"5\"}}{{string value=\"Catchphrase\"}}！",
      "KRko": "{{resetReaction}}이상한 문제를 낸\n사죄의 뜻으로\n이걸 줄게ー {{pause frames=\"5\"}}{{string value=\"Catchphrase\"}}！",
      "USen": "{{resetReaction}}Well, I did ya wrong and now\nI feel bad. {{pause frames=\"5\"}}Take this and\nwe're even, {{pause frames=\"5\"}}{{string value=\"Catchphrase\"}}!"
    }
  },
  {
    "label": "06",
    "attribute": "0x00000000FE000000",
    "locale": {
      "EUde": "",
      "EUen": "",
      "EUes": "",
      "EUfr": "",
      "EUit": "",
      "JPja": "",
      "KRko": "",
      "USen": ""
    }
  },
  {
    "label": "07",
    "attribute": "0x00000000FE000000",
    "locale": {
      "EUde": "{{resetReaction}}.{{pause frames=\"5\"}}.{{pause frames=\"5\"}}.{{pause frames=\"5\"}}Hey, andererseits...{{pause frames=\"5\"}} Das\nist nicht ganz deine Farbe,\nalso lass es, {{pause frames=\"5\"}}{{string value=\"Catchphrase\"}}!",
      "EUen": "{{resetReaction}}.{{pause frames=\"5\"}}.{{pause frames=\"5\"}}.{{pause frames=\"5\"}}Hey, on second thought...{{pause frames=\"5\"}}\nit's really not your color,\nso never mind, {{pause frames=\"5\"}}{{string value=\"Catchphrase\"}}!",
      "EUes": "{{resetReaction}}Aunque pensándolo mejor...{{pause frames=\"5\"}}\nEl color no te pega,\nolvídalo, {{pause frames=\"5\"}}¡{{string value=\"Catchphrase\"}}!",
      "EUfr": "{{resetReaction}}.{{pause frames=\"5\"}}.{{pause frames=\"5\"}}.{{pause frames=\"5\"}} Tout bien réfléchi...{{pause frames=\"5\"}}\ncette couleur te va pas,\nalors oublie, {{pause frames=\"5\"}}{{string value=\"Catchphrase\"}}!",
      "EUit": "{{resetReaction}}.{{pause frames=\"5\"}}.{{pause frames=\"5\"}}.{{pause frames=\"5\"}} Ehi, ripensandoci...{{pause frames=\"5\"}}\nnon fa per te, quindi\nlascia perdere, {{pause frames=\"5\"}}{{string value=\"Catchphrase\"}}!",
      "JPja": "{{resetReaction}}・{{pause frames=\"5\"}}・{{pause frames=\"5\"}}・{{pause frames=\"5\"}}と　{{kanjiReplace charNum=\"1\" value=\"おも\"}}思ったけど、{{pause frames=\"5\"}}\nそういうのは\nおいらのカラーじゃないから、\nやっぱ　やめとく！\n{{pause frames=\"5\"}}{{string value=\"Catchphrase\"}}！",
      "KRko": "{{resetReaction}}・{{pause frames=\"5\"}}・{{pause frames=\"5\"}}・{{pause frames=\"5\"}}줄려구 했는데{{pause frames=\"5\"}}\n이런 건\n내 성격에 안 맞아\n역시 그만 둘래！\n{{pause frames=\"5\"}}{{string value=\"Catchphrase\"}}！",
      "USen": "{{resetReaction}}.{{pause frames=\"5\"}}.{{pause frames=\"5\"}}.{{pause frames=\"5\"}}Hey, on second thought...{{pause frames=\"5\"}}\nit's really not your color,\nso never mind, {{pause frames=\"5\"}}{{string value=\"Catchphrase\"}}!"
    }
  },
  {
    "label": "08",
    "attribute": "0x0000000109000000",
    "locale": {
      "EUde": "{{reaction type=\"Happiness\"}}Hier{{pause frames=\"5\"}} bitte, {{pause frames=\"5\"}}{{string value=\"Catchphrase\"}}!",
      "EUen": "{{reaction type=\"Happiness\"}}Here {{pause frames=\"5\"}}ya go, {{pause frames=\"5\"}}{{string value=\"Catchphrase\"}}!",
      "EUes": "{{reaction type=\"Happiness\"}}¡Toma, {{pause frames=\"5\"}}{{string value=\"Catchphrase\"}}!",
      "EUfr": "{{reaction type=\"Happiness\"}}Et {{pause frames=\"5\"}}voilà, {{pause frames=\"5\"}}{{string value=\"Catchphrase\"}}!",
      "EUit": "{{reaction type=\"Happiness\"}}Ecco {{pause frames=\"5\"}}qua, {{pause frames=\"5\"}}{{string value=\"Catchphrase\"}}!",
      "JPja": "{{reaction type=\"Happiness\"}}ハイ、{{pause frames=\"5\"}}どーぞ！　{{pause frames=\"5\"}}{{string value=\"Catchphrase\"}}！",
      "KRko": "{{reaction type=\"Happiness\"}}자， {{pause frames=\"5\"}}여기ー！ {{pause frames=\"5\"}}{{string value=\"Catchphrase\"}}！",
      "USen": "{{reaction type=\"Happiness\"}}Here {{pause frames=\"5\"}}ya go, {{pause frames=\"5\"}}{{string value=\"Catchphrase\"}}!"
    }
  },
  {
    "label": "09",
    "attribute": "0x00000000FE000000",
    "locale": {
      "EUde": "{{reaction type=\"Happiness\"}}Mann{{pause frames=\"5\"}}.{{pause frames=\"5\"}}.{{pause frames=\"5\"}}.{{pause frames=\"5\"}} Wäre schön,{{pause frames=\"5\"}} wenn es\nmorgen nicht regnen würde,\nweißt du, {{pause frames=\"5\"}}{{string value=\"Catchphrase\"}}?",
      "EUen": "{{reaction type=\"Happiness\"}}Man{{pause frames=\"5\"}}.{{pause frames=\"5\"}}.{{pause frames=\"5\"}}.{{pause frames=\"5\"}} It'd be nice{{pause frames=\"5\"}} if it\ndidn't rain tomorrow. Know\nwhat I mean, {{pause frames=\"5\"}}{{string value=\"Catchphrase\"}}?",
      "EUes": "{{reaction type=\"Happiness\"}}Colega{{pause frames=\"5\"}}.{{pause frames=\"5\"}}.{{pause frames=\"5\"}}.{{pause frames=\"5\"}} Molaría que\nmañana no lloviese.{{pause frames=\"5\"}}\n¿No crees, {{pause frames=\"5\"}}{{string value=\"Catchphrase\"}}?",
      "EUfr": "{{reaction type=\"Happiness\"}}Ah{{pause frames=\"5\"}}.{{pause frames=\"5\"}}.{{pause frames=\"5\"}}.{{pause frames=\"5\"}} ce serait cool{{pause frames=\"5\"}} qu'il\npleuve pas demain. Tu vois\nquoi, {{pause frames=\"5\"}}{{string value=\"Catchphrase\"}}?",
      "EUit": "{{reaction type=\"Happiness\"}}Ehi{{pause frames=\"5\"}}.{{pause frames=\"5\"}}.{{pause frames=\"5\"}}.{{pause frames=\"5\"}} sarebbe bello{{pause frames=\"5\"}} se\ndomani non piovesse.\nCapisci, vero, {{pause frames=\"5\"}}{{string value=\"Catchphrase\"}}?",
      "JPja": "{{reaction type=\"Happiness\"}}{{kanjiReplace charNum=\"2\" value=\"あした\"}}明日、{{pause frames=\"5\"}}{{kanjiReplace charNum=\"1\" value=\"あめ\"}}雨が　ふらなきゃ\nイイんだけどな！　{{pause frames=\"5\"}}{{string value=\"Catchphrase\"}}！",
      "KRko": "{{reaction type=\"Happiness\"}}내일 {{pause frames=\"5\"}}비가 안 오면\n좋겠다！ {{pause frames=\"5\"}}{{string value=\"Catchphrase\"}}！",
      "USen": "{{reaction type=\"Happiness\"}}Man{{pause frames=\"5\"}}.{{pause frames=\"5\"}}.{{pause frames=\"5\"}}.{{pause frames=\"5\"}} It'd be nice{{pause frames=\"5\"}} if it\ndidn't rain tomorrow. Know\nwhat I mean, {{pause frames=\"5\"}}{{string value=\"Catchphrase\"}}?"
    }
  },
  {
    "label": "10",
    "attribute": "0x00000000FF000000",
    "locale": {
      "EUde": "{{reaction type=\"Intense\"}}Mach ruhig weiter! {{pause frames=\"5\"}}Schau\nmich ruhig {{pause frames=\"5\"}}bettelnd an,\n{{pause frames=\"5\"}}{{string value=\"Catchphrase\"}}!\n{{reaction type=\"Worry\"}}Ich bin total bein.\nBin ich schon den ganzen\nMonat{{resetReaction}}.{{pause frames=\"5\"}}.{{pause frames=\"5\"}}.{{pause frames=\"5\"}}\nMoment.{{pause frames=\"5\"}} {{reaction type=\"Worry\"}}Ist \"bein\" richtig?\nSagt man das so?{{fun_02 arg=\"0x0B0C\"}}\nEs heißt \"arm\"!\nBein ist richtig.",
      "EUen": "{{reaction type=\"Intense\"}}Go on! {{pause frames=\"5\"}}Look at me that way{{pause frames=\"5\"}}\nall you want, {{pause frames=\"5\"}}{{string value=\"Catchphrase\"}}!{{pressButton}}\n{{reaction type=\"Worry\"}}I'm in a huge punch.\nI have been all month{{resetReaction}}.{{pause frames=\"5\"}}.{{pause frames=\"5\"}}.{{pause frames=\"5\"}}\nOh wait.{{pause frames=\"5\"}} {{reaction type=\"Worry\"}}Is it \"punch\"?\nAm I saying that right?{{fun_02 arg=\"0x0B0C\"}}\nNo, it's pinch.\nPunch is right.",
      "EUes": "{{reaction type=\"Intense\"}}Pues no me das ninguna\npena...{{pause frames=\"5\"}} ¡{{string value=\"Catchphrase\"}}!{{pressButton}}\n{{reaction type=\"Worry\"}}Yo llevo un mes así.\nProblemas y problemas{{resetReaction}}.{{pause frames=\"5\"}}.{{pause frames=\"5\"}}.{{pause frames=\"5\"}}\nAlto,{{pause frames=\"5\"}} {{reaction type=\"Worry\"}}¿para qué te cuento\nyo esto?{{fun_02 arg=\"0x0B0C\"}}\nNecesitas hablar\n¿Y a mí qué?",
      "EUfr": "{{reaction type=\"Intense\"}}Allez! {{pause frames=\"5\"}}Tu peux me regarder\ncomme ça{{pause frames=\"5\"}} aussi longtemps\nque tu veux, {{pause frames=\"5\"}}{{string value=\"Catchphrase\"}}!{{pressButton}}\n{{reaction type=\"Worry\"}}C'est la fouine.\nCe mois-ci{{resetReaction}}.{{pause frames=\"5\"}}.{{pause frames=\"5\"}}.{{pause frames=\"5\"}}\nEuh, attends.{{pause frames=\"5\"}} {{reaction type=\"Worry\"}}On dit bien\n\"fouine\"? C'est ça?{{fun_02 arg=\"0x0B0C\"}}\nC'est la ruine.\nC'est la fouine.",
      "EUit": "{{reaction type=\"Intense\"}}Coraggio! {{pause frames=\"5\"}}Guardami pure{{pause frames=\"5\"}}\nquanto vuoi, {{pause frames=\"5\"}}{{string value=\"Catchphrase\"}}!{{pressButton}}\n{{reaction type=\"Worry\"}}Tanto sono verde.\nSono verde da molto{{resetReaction}}.{{pause frames=\"5\"}}.{{pause frames=\"5\"}}.{{pause frames=\"5\"}}\nOh.{{pause frames=\"5\"}} {{reaction type=\"Worry\"}}Ma si dice \"verde\"?\nDico giusto?{{fun_02 arg=\"0x0B0C\"}}\nNo, è \"al verde\".\nSì, sei verde!",
      "JPja": "{{reaction type=\"Intense\"}}そんな{{kanjiReplace charNum=\"1\" value=\"かお\"}}顔したって、{{pause frames=\"5\"}}\nダメだぞー！　{{pause frames=\"5\"}}{{string value=\"Catchphrase\"}}！{{pressButton}}\n{{reaction type=\"Worry\"}}おいらも　{{kanjiReplace charNum=\"2\" value=\"こんげつ\"}}今月パンチだし！\n{{resetReaction}}・{{pause frames=\"5\"}}・{{pause frames=\"5\"}}・{{pause frames=\"5\"}}あれっ、{{pause frames=\"5\"}}\n{{reaction type=\"Worry\"}}こういう{{kanjiReplace charNum=\"1\" value=\"とき\"}}時って\n「パンチ」って{{kanjiReplace charNum=\"1\" value=\"い\"}}言うんだっけ？{{fun_02 arg=\"0x0B0C\"}}\nピンチかも\nパンツだよ！",
      "KRko": "{{reaction type=\"Intense\"}}아무리 그런 표정을 지어도{{pause frames=\"5\"}}\n안 되는 건 안 돼！ {{pause frames=\"5\"}}{{string value=\"Catchphrase\"}}！{{pressButton}}\n{{reaction type=\"Worry\"}}나 이번 달 이슬 맞았단 말이야！\n{{resetReaction}}・{{pause frames=\"5\"}}・{{pause frames=\"5\"}}・{{pause frames=\"5\"}}음{{pause frames=\"5\"}}\n{{reaction type=\"Worry\"}}이럴 때\n「이슬」이라고 하는 게 맞나？{{fun_02 arg=\"0x0B0C\"}}\n아슬아슬일걸\n이슬 맞아！",
      "USen": "{{reaction type=\"Intense\"}}Go on! {{pause frames=\"5\"}}Look at me that way{{pause frames=\"5\"}}\nall you want, {{pause frames=\"5\"}}{{string value=\"Catchphrase\"}}!{{pressButton}}\n{{reaction type=\"Worry\"}}I'm in a huge punch.\nI have been all month{{resetReaction}}.{{pause frames=\"5\"}}.{{pause frames=\"5\"}}.{{pause frames=\"5\"}}\nOh wait.{{pause frames=\"5\"}} {{reaction type=\"Worry\"}}Is it \"punch\"?\nAm I saying that right?{{fun_02 arg=\"0x0B0C\"}}\nNo, it's pinch.\nPunch is right."
    }
  },
  {
    "label": "11",
    "attribute": "0x00000000FE000000",
    "locale": {
      "EUde": "{{reaction type=\"Amazed\"}}Richtig richtig richtig!{{pause frames=\"5\"}} Au!{{pause frames=\"20\"}}\n{{reaction type=\"Happiness\"}}Arm!{{pause frames=\"10\"}} Ja, arm!\n\n{{reaction type=\"Intense\"}}Jedenfalls, {{pause frames=\"5\"}}tja, {{pause frames=\"5\"}}kann ich\neinfach nicht.\nSorry, {{pause frames=\"5\"}}{{string value=\"Catchphrase\"}}.",
      "EUen": "{{reaction type=\"Amazed\"}}Right right right!{{pause frames=\"5\"}} Duh!{{pause frames=\"20\"}}\n{{reaction type=\"Happiness\"}}Pinch!{{pause frames=\"10\"}} Yeah, pinch!\n\n{{reaction type=\"Intense\"}}Anyhow, {{pause frames=\"5\"}}yeah, {{pause frames=\"5\"}}I just can't.\nSorry, {{pause frames=\"5\"}}{{string value=\"Catchphrase\"}}.",
      "EUes": "{{reaction type=\"Amazed\"}}¡Eso, eso, eso!{{pause frames=\"5\"}} {{reaction type=\"Happiness\"}}¡Necesito{{pause frames=\"10\"}}\nhablar! {{pause frames=\"5\"}}¡{{capitalizeLetter}}{{string value=\"Catchphrase\"}}!\n\n{{reaction type=\"Intense\"}}Bueno, da igual. {{pause frames=\"5\"}}Quizá este\nno sea{{pause frames=\"5\"}} el mejor momento.",
      "EUfr": "{{reaction type=\"Amazed\"}}Ah oui, oui!{{pause frames=\"5\"}} D'euh!{{pause frames=\"20\"}}\n{{reaction type=\"Happiness\"}}La ruine!{{pause frames=\"10\"}} Oui, la ruine!\n\n{{reaction type=\"Intense\"}}Bref, {{pause frames=\"5\"}}ouais, {{pause frames=\"5\"}}je peux pas.\nDésolé, {{pause frames=\"5\"}}{{string value=\"Catchphrase\"}}.",
      "EUit": "{{reaction type=\"Amazed\"}}Ah già, è vero!{{pause frames=\"5\"}} Ah!{{pause frames=\"20\"}}\n{{reaction type=\"Happiness\"}}Al verde!{{pause frames=\"10\"}} Sì, al verde!\n\n{{reaction type=\"Intense\"}}Comunque, {{pause frames=\"5\"}}non {{pause frames=\"5\"}}posso.\nScusa, {{pause frames=\"5\"}}{{string value=\"Catchphrase\"}}.",
      "JPja": "{{reaction type=\"Amazed\"}}そうそう！{{pause frames=\"20\"}}\n{{reaction type=\"Happiness\"}}ピンチな！{{pause frames=\"10\"}}　ピンチ！\n\n{{reaction type=\"Intense\"}}ま、{{pause frames=\"5\"}}そーゆーワケで、{{pause frames=\"5\"}}\nダメなモンは　ダメだ！\n{{pause frames=\"5\"}}{{string value=\"Catchphrase\"}}！",
      "KRko": "{{reaction type=\"Amazed\"}}맞다 맞다！{{pause frames=\"20\"}}\n{{reaction type=\"Happiness\"}}아슬아슬！{{pause frames=\"10\"}} 아슬아슬！\n\n{{reaction type=\"Intense\"}}훗， {{pause frames=\"5\"}}그래도{{pause frames=\"5\"}}\n안 되는 건 안 되는 거야！\n{{pause frames=\"5\"}}{{string value=\"Catchphrase\"}}！",
      "USen": "{{reaction type=\"Amazed\"}}Right right right!{{pause frames=\"5\"}} Duh!{{pause frames=\"20\"}}\n{{reaction type=\"Happiness\"}}Pinch!{{pause frames=\"10\"}} Yeah, pinch!\n\n{{reaction type=\"Intense\"}}Anyhow, {{pause frames=\"5\"}}yeah, {{pause frames=\"5\"}}I just can't.\nSorry, {{pause frames=\"5\"}}{{string value=\"Catchphrase\"}}."
    }
  },
  {
    "label": "12",
    "attribute": "0x00000000FE000000",
    "locale": {
      "EUde": "{{reaction type=\"Happiness\"}}Ja. {{pause frames=\"5\"}}Ich WUSSTE, dass es\nstimmt!{{pressButton}}.{{pause frames=\"5\"}}.{{pause frames=\"5\"}}.{{pause frames=\"5\"}}{{reaction type=\"Worry\"}} Ja, jedenfalls{{pause frames=\"5\"}} bin\nich im Moment ganz bein...\n{{reaction type=\"Distress\"}}Ich kann dir leider nichts\ngeben!{{pause frames=\"10\"}} Lass es gut sein,\nO.K., {{pause frames=\"5\"}}{{string value=\"Catchphrase\"}}?",
      "EUen": "{{reaction type=\"Happiness\"}}Yeah, {{pause frames=\"5\"}}I KNEW I was right!{{pressButton}}\n.{{pause frames=\"5\"}}.{{pause frames=\"5\"}}.{{pause frames=\"5\"}}{{reaction type=\"Worry\"}}Anyway, yeah,{{pause frames=\"5\"}} so I'm in a\npunch right now...\n{{reaction type=\"Distress\"}}So I can't be paying for\nanyone's meal but mine!{{pause frames=\"10\"}}\nLay off, OK, {{pause frames=\"5\"}}{{string value=\"Catchphrase\"}}?",
      "EUes": "{{reaction type=\"Shocked\"}}¿Qué?.{{pause frames=\"5\"}}.{{pause frames=\"5\"}}.{{pause frames=\"5\"}} {{reaction type=\"Aggravation\"}}¿Vienes aquí con\nesa cara y me sales con\nesos modales?\n{{reaction type=\"Worry\"}}Justo lo que te decía.{{pause frames=\"5\"}} Nadie\nquiere saber de mis\nproblemas. ¡Es injusto!\n{{reaction type=\"Distress\"}}¡No te quiero ver por aquí\nen una temporada!{{pause frames=\"10\"}} ¡Largo,\n{{pause frames=\"5\"}}{{string value=\"Catchphrase\"}}!",
      "EUfr": "{{reaction type=\"Happiness\"}}Oui, {{pause frames=\"5\"}}je savais que c'était\nça!{{pressButton}} .{{pause frames=\"5\"}}.{{pause frames=\"5\"}}.{{pause frames=\"5\"}} {{reaction type=\"Worry\"}}Bref,{{pause frames=\"5\"}} c'est la\nfouine en ce moment...\n{{reaction type=\"Distress\"}}Donc je peux pas payer\npour les autres!{{pause frames=\"10\"}} Alors\narrête, ok, {{pause frames=\"5\"}}{{string value=\"Catchphrase\"}}?",
      "EUit": "{{reaction type=\"Happiness\"}}Certo {{pause frames=\"5\"}}CHE VA BENE!{{pressButton}}\n.{{pause frames=\"5\"}}.{{pause frames=\"5\"}}.{{pause frames=\"5\"}}{{reaction type=\"Worry\"}} Comunque,{{pause frames=\"5\"}} ora sono\nverde...\n{{reaction type=\"Distress\"}}E quindi non posso\ndare niente a nessuno!{{pause frames=\"10\"}}\nFiniscila, OK, {{pause frames=\"5\"}}{{string value=\"Catchphrase\"}}?",
      "JPja": "{{reaction type=\"Happiness\"}}あ、{{pause frames=\"5\"}}そうだったな！{{pressButton}}\n・{{pause frames=\"5\"}}・{{pause frames=\"5\"}}・{{pause frames=\"5\"}}{{reaction type=\"Worry\"}}とゆーワケで　おいら{{pause frames=\"5\"}}\n{{kanjiReplace charNum=\"2\" value=\"こんげつ\"}}今月は　パンツだから、\n{{reaction type=\"Distress\"}}おまえに　おごっては\nやれないんだよー！{{pause frames=\"10\"}}\nカンベンなー！　{{pause frames=\"5\"}}{{string value=\"Catchphrase\"}}！",
      "KRko": "{{reaction type=\"Happiness\"}}응， {{pause frames=\"5\"}}니 말이 맞아！{{pressButton}}\n・{{pause frames=\"5\"}}・{{pause frames=\"5\"}}・{{pause frames=\"5\"}}{{reaction type=\"Worry\"}}그래서 난{{pause frames=\"5\"}}\n이번 달에 이슬을 맞아서\n{{reaction type=\"Distress\"}}너한테는\n아무 것도 못 줘ー！{{pause frames=\"10\"}}\n쏘리다ー！ {{pause frames=\"5\"}}{{string value=\"Catchphrase\"}}！",
      "USen": "{{reaction type=\"Happiness\"}}Yeah, {{pause frames=\"5\"}}I KNEW I was right!{{pressButton}}\n.{{pause frames=\"5\"}}.{{pause frames=\"5\"}}.{{pause frames=\"5\"}}{{reaction type=\"Worry\"}}Anyway, yeah,{{pause frames=\"5\"}} so I'm in a\npunch right now...\n{{reaction type=\"Distress\"}}So I can't be paying for\nanyone's meal but mine!{{pause frames=\"10\"}}\nLay off, OK, {{pause frames=\"5\"}}{{string value=\"Catchphrase\"}}?"
    }
  },
  {
    "label": "13",
    "attribute": "0x00000000FE000000",
    "locale": {
      "EUde": "",
      "EUen": "",
      "EUes": "",
      "EUfr": "",
      "EUit": "",
      "JPja": "",
      "KRko": "",
      "USen": ""
    }
  },
  {
    "label": "14",
    "attribute": "0x000000010F000000",
    "locale": {
      "EUde": "{{resetReaction}}Schon gut, {{pause frames=\"5\"}}hier, nimm das.\n{{pause frames=\"5\"}}{{gender m=\"Meinen\" f=\"Meine\" n=\"Mein\"}}\n{{ignoreArticle}}{{itemName index=\"0\"}}!",
      "EUen": "{{resetReaction}}All right, {{pause frames=\"5\"}}here, you can\nhave this, then:{{pause frames=\"5\"}} my\n{{ignoreArticle}}{{itemName index=\"0\"}}!",
      "EUes": "{{resetReaction}}Bueno, {{pause frames=\"5\"}}te voy a regalar {{pause frames=\"5\"}}mi\n{{ignoreArticle}}{{itemName index=\"0\"}}.",
      "EUfr": "{{resetReaction}}Bon d'accord, {{pause frames=\"5\"}}je te donne\nça alors:{{pause frames=\"5\"}}\n{{itemName index=\"0\"}}!",
      "EUit": "{{resetReaction}}Va bene, {{pause frames=\"5\"}}ecco, puoi\navere questo:{{pause frames=\"5\"}} {{gender m=\"il mio\" f=\"la mia\" n=\"\"}}\n{{ignoreArticle}}{{itemName index=\"0\"}}!",
      "JPja": "{{resetReaction}}じゃ、{{pause frames=\"5\"}}そんな　おまえに\nこの　{{itemName index=\"0\"}}を\nくれてやるよ、{{pause frames=\"5\"}}{{string value=\"Catchphrase\"}}",
      "KRko": "{{resetReaction}}자， {{pause frames=\"5\"}}그럼\n{{itemName index=\"0\"}}{{fun_0B arg=\"0x0200\"}}\n줄게， {{pause frames=\"5\"}}{{string value=\"Catchphrase\"}}",
      "USen": "{{resetReaction}}All right, {{pause frames=\"5\"}}here, you can\nhave this, then:{{pause frames=\"5\"}} my\n{{ignoreArticle}}{{itemName index=\"0\"}}!"
    }
  },
  {
    "label": "15",
    "attribute": "0x00000000FE000000",
    "locale": {
      "EUde": "{{reaction type=\"Happiness\"}}Das lag einfach so herum,\naber du kannst es vielleicht\nnoch verwenden.\n{{reaction type=\"Intense\"}}Ich kann nicht GLAUBEN, wie\ndie Leute mit ihren Sachen\numgehen, {{pause frames=\"5\"}}{{string value=\"Catchphrase\"}}!{{fun_03 arg=\"0x01\"}}",
      "EUen": "{{reaction type=\"Happiness\"}}I found that lying around,\nbut it looks like you can \nstill get some use from it.\n{{reaction type=\"Intense\"}}I can't BELIEVE people don't\ntake better care of their\nstuff, {{pause frames=\"5\"}}{{string value=\"Catchphrase\"}}!{{fun_03 arg=\"0x01\"}}",
      "EUes": "{{reaction type=\"Happiness\"}}Eso me lo he encontrado por\nahí, pero quizá a ti te\nsirva.\n{{reaction type=\"Intense\"}}¡No sé cómo la gente tira\nlas cosas si están nuevas,\n{{pause frames=\"5\"}}{{string value=\"Catchphrase\"}}!{{fun_03 arg=\"0x01\"}}",
      "EUfr": "{{reaction type=\"Happiness\"}}J'ai trouvé ça par terre,\nmais on dirait que ça peut\nservir.\n{{reaction type=\"Intense\"}}Pourquoi les gens font pas\nattention à leurs affaires,\n{{pause frames=\"5\"}}{{string value=\"Catchphrase\"}}?{{fun_03 arg=\"0x01\"}}",
      "EUit": "{{reaction type=\"Happiness\"}}Era a terra... ma non so\ncosa farmene. Credo che a\nte possa servire.\n{{reaction type=\"Intense\"}}Non so perché la gente\nbutti via la propria roba,\n{{pause frames=\"5\"}}{{string value=\"Catchphrase\"}}!{{fun_03 arg=\"0x01\"}}",
      "JPja": "{{reaction type=\"Happiness\"}}その{{kanjiReplace charNum=\"1\" value=\"へん\"}}辺に　すててあった\nヤツだけど、\nまだ　{{kanjiReplace charNum=\"1\" value=\"つか\"}}使えそうだろ？\n{{reaction type=\"Intense\"}}モノは　{{kanjiReplace charNum=\"2\" value=\"たいせつ\"}}大切に\nしなきゃダメだよなー！\n{{pause frames=\"5\"}}{{string value=\"Catchphrase\"}}！{{fun_03 arg=\"0x01\"}}",
      "KRko": "{{reaction type=\"Happiness\"}}여기 어딘가에서\n주운 거긴 한데，\n아직 쓸 만하지？\n{{reaction type=\"Intense\"}}물건은\n소중히 다뤄야 해ー！\n{{pause frames=\"5\"}}{{string value=\"Catchphrase\"}}！{{fun_03 arg=\"0x0100\"}}",
      "USen": "{{reaction type=\"Happiness\"}}I found that lying around,\nbut it looks like you can \nstill get some use from it.\n{{reaction type=\"Intense\"}}I can't BELIEVE people don't\ntake better care of their\nstuff, {{pause frames=\"5\"}}{{string value=\"Catchphrase\"}}!{{fun_03 arg=\"0x01\"}}"
    }
  },
  {
    "label": "16",
    "attribute": "0x00000000FE000000",
    "locale": {
      "EUde": "{{reaction type=\"Happiness\"}}{{gender m=\"Ein\" f=\"Eine\" n=\"Ein\"}}\n{{pause frames=\"5\"}}{{ignoreArticle}}{{itemName index=\"0\"}}!{{pause frames=\"20\"}}\n\nPass gut drauf auf,\nja, {{pause frames=\"5\"}}{{string value=\"Catchphrase\"}}?",
      "EUen": "{{reaction type=\"Happiness\"}}{{capitalizeLetter}}{{pause frames=\"5\"}}{{itemName index=\"0\"}}!{{pause frames=\"20\"}}\nJust take care of it, all\nright, {{pause frames=\"5\"}}{{string value=\"Catchphrase\"}}?!",
      "EUes": "{{reaction type=\"Happiness\"}}{{pause frames=\"5\"}}¡{{capitalizeLetter}}{{itemName index=\"0\"}}!{{pause frames=\"20\"}}\n¿Amigos de nuevo,\n{{pause frames=\"5\"}}{{string value=\"Catchphrase\"}}?",
      "EUfr": "{{reaction type=\"Happiness\"}}{{capitalizeLetter}}{{pause frames=\"5\"}}{{itemName index=\"0\"}}!{{pause frames=\"20\"}}\nTu y feras bien attention,\nhein, {{pause frames=\"5\"}}{{string value=\"Catchphrase\"}}?!",
      "EUit": "{{reaction type=\"Happiness\"}}{{capitalizeLetter}}{{pause frames=\"5\"}}{{itemName index=\"0\"}}!{{pause frames=\"20\"}}\nAbbine cura, OK,\n{{pause frames=\"5\"}}{{string value=\"Catchphrase\"}}?!",
      "JPja": "{{reaction type=\"Happiness\"}}それ、{{pause frames=\"5\"}}{{itemName index=\"0\"}}だ！{{pause frames=\"20\"}}\nせいぜい　{{kanjiReplace charNum=\"2\" value=\"たいせつ\"}}大切に\nしてくれよな！　{{pause frames=\"5\"}}{{string value=\"Catchphrase\"}}！",
      "KRko": "{{reaction type=\"Happiness\"}}자， {{pause frames=\"5\"}}{{itemName index=\"0\"}}{{pause frames=\"20\"}}\n부디 잘 쓰길 바란다！\n{{pause frames=\"5\"}}{{string value=\"Catchphrase\"}}！",
      "USen": "{{reaction type=\"Happiness\"}}{{capitalizeLetter}}{{pause frames=\"5\"}}{{itemName index=\"0\"}}!{{pause frames=\"20\"}}\nJust take care of it, all\nright, {{pause frames=\"5\"}}{{string value=\"Catchphrase\"}}?!"
    }
  }
]