[
  {
    "label": "0",
    "attribute": "0x00000000FF000000",
    "locale": {
      "EUde": "{{resetReaction}}Hey, {{pause frames=\"5\"}}{{string value=\"PlayerNickname\"}},{{pause frames=\"10\"}} do you\nwant to {{reaction type=\"Curiosity\"}}play hide-and-seek,\n{{pause frames=\"5\"}}{{string value=\"Catchphrase\"}}?\n{{reaction type=\"Amazed\"}}What?{{pause frames=\"20\"}} \"Hide-and-seek is for\nkids,\" you say? {{pause frames=\"10\"}}You couldn't\nbe more wrong!\n{{reaction type=\"Resignation\"}}You just don't understand.{{pause frames=\"5\"}}\nYou've lost touch with your\nplayful side, {{pause frames=\"10\"}}{{string value=\"Catchphrase\"}}!",
      "EUen": "{{resetReaction}}Hey, {{pause frames=\"5\"}}{{string value=\"PlayerNickname\"}},{{pause frames=\"10\"}} do you\nwant to {{reaction type=\"Curiosity\"}}play hide-and-seek,\n{{pause frames=\"5\"}}{{string value=\"Catchphrase\"}}?\n{{reaction type=\"Amazed\"}}What?{{pause frames=\"20\"}} \"Hide-and-seek is for\nkids,\" you say? {{pause frames=\"10\"}}You couldn't\nbe more wrong!\n{{reaction type=\"Resignation\"}}You just don't understand.{{pause frames=\"5\"}}\nYou've lost touch with your\nplayful side, {{pause frames=\"10\"}}{{string value=\"Catchphrase\"}}!",
      "EUes": "{{resetReaction}}Hey, {{pause frames=\"5\"}}{{string value=\"PlayerNickname\"}},{{pause frames=\"10\"}} do you\nwant to {{reaction type=\"Curiosity\"}}play hide-and-seek,\n{{pause frames=\"5\"}}{{string value=\"Catchphrase\"}}?\n{{reaction type=\"Amazed\"}}What?{{pause frames=\"20\"}} \"Hide-and-seek is for\nkids,\" you say? {{pause frames=\"10\"}}You couldn't\nbe more wrong!\n{{reaction type=\"Resignation\"}}You just don't understand.{{pause frames=\"5\"}}\nYou've lost touch with your\nplayful side, {{pause frames=\"10\"}}{{string value=\"Catchphrase\"}}!",
      "EUfr": "{{resetReaction}}Hey, {{pause frames=\"5\"}}{{string value=\"PlayerNickname\"}},{{pause frames=\"10\"}} do you\nwant to {{reaction type=\"Curiosity\"}}play hide-and-seek,\n{{pause frames=\"5\"}}{{string value=\"Catchphrase\"}}?\n{{reaction type=\"Amazed\"}}What?{{pause frames=\"20\"}} \"Hide-and-seek is for\nkids,\" you say? {{pause frames=\"10\"}}You couldn't\nbe more wrong!\n{{reaction type=\"Resignation\"}}You just don't understand.{{pause frames=\"5\"}}\nYou've lost touch with your\nplayful side, {{pause frames=\"10\"}}{{string value=\"Catchphrase\"}}!",
      "EUit": "{{resetReaction}}Hey, {{pause frames=\"5\"}}{{string value=\"PlayerNickname\"}},{{pause frames=\"10\"}} do you\nwant to {{reaction type=\"Curiosity\"}}play hide-and-seek,\n{{pause frames=\"5\"}}{{string value=\"Catchphrase\"}}?\n{{reaction type=\"Amazed\"}}What?{{pause frames=\"20\"}} \"Hide-and-seek is for\nkids,\" you say? {{pause frames=\"10\"}}You couldn't\nbe more wrong!\n{{reaction type=\"Resignation\"}}You just don't understand.{{pause frames=\"5\"}}\nYou've lost touch with your\nplayful side, {{pause frames=\"10\"}}{{string value=\"Catchphrase\"}}!",
      "JPja": "{{resetReaction}}ねぇ、{{pause frames=\"5\"}}{{string value=\"PlayerNickname\"}}ちゃん{{pause frames=\"10\"}}\nいっしょに　{{reaction type=\"Curiosity\"}}かくれんぼして\n{{kanjiReplace charNum=\"1\" value=\"あそ\"}}遊ばない？　{{pause frames=\"5\"}}{{string value=\"Catchphrase\"}}？\n{{reaction type=\"Amazed\"}}エッ？{{pause frames=\"20\"}}\nかくれんぼは　コドモの{{kanjiReplace charNum=\"1\" value=\"あそ\"}}遊び？\n\n{{reaction type=\"Resignation\"}}バカね、{{pause frames=\"5\"}}これは\n{{kanjiReplace charNum=\"2\" value=\"おとな\"}}大人の　{{kanjiReplace charNum=\"1\" value=\"あそ\"}}遊びゴコロって\nいうのよ、{{pause frames=\"10\"}}{{string value=\"Catchphrase\"}}",
      "KRko": "{{resetReaction}}ねぇ、{{pause frames=\"5\"}}{{string value=\"PlayerNickname\"}}ちゃん{{pause frames=\"10\"}}\nいっしょに　{{reaction type=\"Curiosity\"}}かくれんぼして\n{{kanjiReplace charNum=\"1\" value=\"あそ\"}}遊ばない？　{{pause frames=\"5\"}}{{string value=\"Catchphrase\"}}？\n{{reaction type=\"Amazed\"}}エッ？{{pause frames=\"20\"}}\nかくれんぼは　コドモの{{kanjiReplace charNum=\"1\" value=\"あそ\"}}遊び？\n\n{{reaction type=\"Resignation\"}}バカね、{{pause frames=\"5\"}}これは\n{{kanjiReplace charNum=\"2\" value=\"おとな\"}}大人の　{{kanjiReplace charNum=\"1\" value=\"あそ\"}}遊びゴコロって\nいうのよ、{{pause frames=\"10\"}}{{string value=\"Catchphrase\"}}",
      "USen": "{{resetReaction}}Hey, {{pause frames=\"5\"}}{{string value=\"PlayerNickname\"}},{{pause frames=\"10\"}} do you\nwant to {{reaction type=\"Curiosity\"}}play hide-and-seek,\n{{pause frames=\"5\"}}{{string value=\"Catchphrase\"}}?\n{{reaction type=\"Amazed\"}}What?{{pause frames=\"20\"}} \"Hide-and-seek is for\nkids,\" you say? {{pause frames=\"10\"}}You couldn't\nbe more wrong!\n{{reaction type=\"Resignation\"}}You just don't understand.{{pause frames=\"5\"}}\nYou've lost touch with your\nplayful side, {{pause frames=\"10\"}}{{string value=\"Catchphrase\"}}!"
    }
  },
  {
    "label": "1",
    "attribute": "0x00000000FF000000",
    "locale": {
      "EUde": "{{resetReaction}}Hey, {{pause frames=\"5\"}}{{string value=\"PlayerNickname\"}}.{{pause frames=\"10\"}} {{reaction type=\"Curiosity\"}}You wanna\nplay hide-and-seek with me,\n{{pause frames=\"10\"}}{{string value=\"Catchphrase\"}}?\n{{reaction type=\"Happiness\"}}I'm {{pause frames=\"5\"}}pretty good at hiding,{{pause frames=\"5\"}}\nyou know! {{pause frames=\"5\"}}What with the\npaparazzi and all.",
      "EUen": "{{resetReaction}}Hey, {{pause frames=\"5\"}}{{string value=\"PlayerNickname\"}}.{{pause frames=\"10\"}} {{reaction type=\"Curiosity\"}}You wanna\nplay hide-and-seek with me,\n{{pause frames=\"10\"}}{{string value=\"Catchphrase\"}}?\n{{reaction type=\"Happiness\"}}I'm {{pause frames=\"5\"}}pretty good at hiding,{{pause frames=\"5\"}}\nyou know! {{pause frames=\"5\"}}What with the\npaparazzi and all.",
      "EUes": "{{resetReaction}}Hey, {{pause frames=\"5\"}}{{string value=\"PlayerNickname\"}}.{{pause frames=\"10\"}} {{reaction type=\"Curiosity\"}}You wanna\nplay hide-and-seek with me,\n{{pause frames=\"10\"}}{{string value=\"Catchphrase\"}}?\n{{reaction type=\"Happiness\"}}I'm {{pause frames=\"5\"}}pretty good at hiding,{{pause frames=\"5\"}}\nyou know! {{pause frames=\"5\"}}What with the\npaparazzi and all.",
      "EUfr": "{{resetReaction}}Hey, {{pause frames=\"5\"}}{{string value=\"PlayerNickname\"}}.{{pause frames=\"10\"}} {{reaction type=\"Curiosity\"}}You wanna\nplay hide-and-seek with me,\n{{pause frames=\"10\"}}{{string value=\"Catchphrase\"}}?\n{{reaction type=\"Happiness\"}}I'm {{pause frames=\"5\"}}pretty good at hiding,{{pause frames=\"5\"}}\nyou know! {{pause frames=\"5\"}}What with the\npaparazzi and all.",
      "EUit": "{{resetReaction}}Hey, {{pause frames=\"5\"}}{{string value=\"PlayerNickname\"}}.{{pause frames=\"10\"}} {{reaction type=\"Curiosity\"}}You wanna\nplay hide-and-seek with me,\n{{pause frames=\"10\"}}{{string value=\"Catchphrase\"}}?\n{{reaction type=\"Happiness\"}}I'm {{pause frames=\"5\"}}pretty good at hiding,{{pause frames=\"5\"}}\nyou know! {{pause frames=\"5\"}}What with the\npaparazzi and all.",
      "JPja": "{{resetReaction}}ねぇ、{{pause frames=\"5\"}}{{string value=\"PlayerNickname\"}}ちゃん{{pause frames=\"10\"}}\n{{reaction type=\"Curiosity\"}}{{kanjiReplace charNum=\"1\" value=\"よ\"}}良かったら　かくれんぼして　\n{{kanjiReplace charNum=\"1\" value=\"あそ\"}}遊ばない？　{{pause frames=\"10\"}}{{string value=\"Catchphrase\"}}？\n{{reaction type=\"Happiness\"}}あたし、{{pause frames=\"5\"}}けっこう\nかくれるの　ウマイわよ、{{pause frames=\"5\"}}{{string value=\"Catchphrase\"}}",
      "KRko": "{{resetReaction}}ねぇ、{{pause frames=\"5\"}}{{string value=\"PlayerNickname\"}}ちゃん{{pause frames=\"10\"}}\n{{reaction type=\"Curiosity\"}}{{kanjiReplace charNum=\"1\" value=\"よ\"}}良かったら　かくれんぼして　\n{{kanjiReplace charNum=\"1\" value=\"あそ\"}}遊ばない？　{{pause frames=\"10\"}}{{string value=\"Catchphrase\"}}？\n{{reaction type=\"Happiness\"}}あたし、{{pause frames=\"5\"}}けっこう\nかくれるの　ウマイわよ、{{pause frames=\"5\"}}{{string value=\"Catchphrase\"}}",
      "USen": "{{resetReaction}}Hey, {{pause frames=\"5\"}}{{string value=\"PlayerNickname\"}}.{{pause frames=\"10\"}} {{reaction type=\"Curiosity\"}}You wanna\nplay hide-and-seek with me,\n{{pause frames=\"10\"}}{{string value=\"Catchphrase\"}}?\n{{reaction type=\"Happiness\"}}I'm {{pause frames=\"5\"}}pretty good at hiding,{{pause frames=\"5\"}}\nyou know! {{pause frames=\"5\"}}What with the\npaparazzi and all."
    }
  },
  {
    "label": "2",
    "attribute": "0x00000000FF000000",
    "locale": {
      "EUde": "Hey, {{pause frames=\"5\"}}{{string value=\"PlayerNickname\"}}.{{pause frames=\"10\"}} {{reaction type=\"Curiosity\"}}Are you\nany good at hide-and-seek?\n\n{{reaction type=\"Bashfulness\"}}I don't mean to brag or\nanything but{{pause frames=\"5\"}} I'm the\nreigning champ at it.\n{{resetReaction}}What do you think?{{pause frames=\"20\"}}\n{{reaction type=\"Curiosity\"}}You think you're up for it,\n{{pause frames=\"10\"}}{{string value=\"Catchphrase\"}}?!",
      "EUen": "Hey, {{pause frames=\"5\"}}{{string value=\"PlayerNickname\"}}.{{pause frames=\"10\"}} {{reaction type=\"Curiosity\"}}Are you\nany good at hide-and-seek?\n\n{{reaction type=\"Bashfulness\"}}I don't mean to brag or\nanything but{{pause frames=\"5\"}} I'm the\nreigning champ at it.\n{{resetReaction}}What do you think?{{pause frames=\"20\"}}\n{{reaction type=\"Curiosity\"}}You think you're up for it,\n{{pause frames=\"10\"}}{{string value=\"Catchphrase\"}}?!",
      "EUes": "Hey, {{pause frames=\"5\"}}{{string value=\"PlayerNickname\"}}.{{pause frames=\"10\"}} {{reaction type=\"Curiosity\"}}Are you\nany good at hide-and-seek?\n\n{{reaction type=\"Bashfulness\"}}I don't mean to brag or\nanything but{{pause frames=\"5\"}} I'm the\nreigning champ at it.\n{{resetReaction}}What do you think?{{pause frames=\"20\"}}\n{{reaction type=\"Curiosity\"}}You think you're up for it,\n{{pause frames=\"10\"}}{{string value=\"Catchphrase\"}}?!",
      "EUfr": "Hey, {{pause frames=\"5\"}}{{string value=\"PlayerNickname\"}}.{{pause frames=\"10\"}} {{reaction type=\"Curiosity\"}}Are you\nany good at hide-and-seek?\n\n{{reaction type=\"Bashfulness\"}}I don't mean to brag or\nanything but{{pause frames=\"5\"}} I'm the\nreigning champ at it.\n{{resetReaction}}What do you think?{{pause frames=\"20\"}}\n{{reaction type=\"Curiosity\"}}You think you're up for it,\n{{pause frames=\"10\"}}{{string value=\"Catchphrase\"}}?!",
      "EUit": "Hey, {{pause frames=\"5\"}}{{string value=\"PlayerNickname\"}}.{{pause frames=\"10\"}} {{reaction type=\"Curiosity\"}}Are you\nany good at hide-and-seek?\n\n{{reaction type=\"Bashfulness\"}}I don't mean to brag or\nanything but{{pause frames=\"5\"}} I'm the\nreigning champ at it.\n{{resetReaction}}What do you think?{{pause frames=\"20\"}}\n{{reaction type=\"Curiosity\"}}You think you're up for it,\n{{pause frames=\"10\"}}{{string value=\"Catchphrase\"}}?!",
      "JPja": "ねぇ、{{pause frames=\"5\"}}{{string value=\"PlayerNickname\"}}ちゃん{{pause frames=\"10\"}}\n{{reaction type=\"Curiosity\"}}おたく、かくれんぼは\n{{kanjiReplace charNum=\"2\" value=\"とくい\"}}得意かしら？　{{pause frames=\"5\"}}{{string value=\"Catchphrase\"}}？\n{{reaction type=\"Bashfulness\"}}ジマンじゃないけど　あたし、{{pause frames=\"5\"}}\nかくれんぼも\nスーパーモデル{{kanjiReplace charNum=\"1\" value=\"きゅう\"}}級なのよ\n{{resetReaction}}どう？{{pause frames=\"20\"}}\n{{reaction type=\"Curiosity\"}}ちょっと　{{kanjiReplace charNum=\"2\" value=\"しょうぶ\"}}勝負して\nみたいでしょ？　{{pause frames=\"10\"}}{{string value=\"Catchphrase\"}}？",
      "KRko": "ねぇ、{{pause frames=\"5\"}}{{string value=\"PlayerNickname\"}}ちゃん{{pause frames=\"10\"}}\n{{reaction type=\"Curiosity\"}}おたく、かくれんぼは\n{{kanjiReplace charNum=\"2\" value=\"とくい\"}}得意かしら？　{{pause frames=\"5\"}}{{string value=\"Catchphrase\"}}？\n{{reaction type=\"Bashfulness\"}}ジマンじゃないけど　あたし、{{pause frames=\"5\"}}\nかくれんぼも\nスーパーモデル{{kanjiReplace charNum=\"1\" value=\"きゅう\"}}級なのよ\n{{resetReaction}}どう？{{pause frames=\"20\"}}\n{{reaction type=\"Curiosity\"}}ちょっと　{{kanjiReplace charNum=\"2\" value=\"しょうぶ\"}}勝負して\nみたいでしょ？　{{pause frames=\"10\"}}{{string value=\"Catchphrase\"}}？",
      "USen": "Hey, {{pause frames=\"5\"}}{{string value=\"PlayerNickname\"}}.{{pause frames=\"10\"}} {{reaction type=\"Curiosity\"}}Are you\nany good at hide-and-seek?\n\n{{reaction type=\"Bashfulness\"}}I don't mean to brag or\nanything but{{pause frames=\"5\"}} I'm the\nreigning champ at it.\n{{resetReaction}}What do you think?{{pause frames=\"20\"}}\n{{reaction type=\"Curiosity\"}}You think you're up for it,\n{{pause frames=\"10\"}}{{string value=\"Catchphrase\"}}?!"
    }
  }
]