[
  {
    "label": "0",
    "attribute": "0x00070000FE000000",
    "locale": {
      "EUde": "{{reaction type=\"Intense\"}}It won't be this easy next\ntime{{pause frames=\"15\"}} {{resetReaction}}{{reaction type=\"Happiness\"}}Hee hee! Wow, that was\nfun! Let's do it again!",
      "EUen": "{{reaction type=\"Intense\"}}It won't be this easy next\ntime{{pause frames=\"15\"}} {{resetReaction}}{{reaction type=\"Happiness\"}}Hee hee! Wow, that was\nfun! Let's do it again!",
      "EUes": "{{reaction type=\"Intense\"}}It won't be this easy next\ntime{{pause frames=\"15\"}} {{resetReaction}}{{reaction type=\"Happiness\"}}Hee hee! Wow, that was\nfun! Let's do it again!",
      "EUfr": "{{reaction type=\"Intense\"}}It won't be this easy next\ntime{{pause frames=\"15\"}} {{resetReaction}}{{reaction type=\"Happiness\"}}Hee hee! Wow, that was\nfun! Let's do it again!",
      "EUit": "{{reaction type=\"Intense\"}}It won't be this easy next\ntime{{pause frames=\"15\"}} {{resetReaction}}{{reaction type=\"Happiness\"}}Hee hee! Wow, that was\nfun! Let's do it again!",
      "JPja": "{{reaction type=\"Intense\"}}{{kanjiReplace charNum=\"1\" value=\"つぎ\"}}次こそ　{{kanjiReplace charNum=\"1\" value=\"ま\"}}負けませんよ{{pause frames=\"20\"}}\n{{reaction type=\"Happiness\"}}また　やりましょうね！\n{{pause frames=\"5\"}}{{string value=\"Catchphrase\"}}！",
      "KRko": "{{reaction type=\"Intense\"}}{{kanjiReplace charNum=\"1\" value=\"つぎ\"}}次こそ　{{kanjiReplace charNum=\"1\" value=\"ま\"}}負けませんよ{{pause frames=\"20\"}}\n{{reaction type=\"Happiness\"}}また　やりましょうね！\n{{pause frames=\"5\"}}{{string value=\"Catchphrase\"}}！",
      "USen": "{{reaction type=\"Intense\"}}It won't be this easy next\ntime{{pause frames=\"15\"}} {{resetReaction}}{{reaction type=\"Happiness\"}}Hee hee! Wow, that was\nfun! Let's do it again!"
    }
  },
  {
    "label": "1",
    "attribute": "0x00070000FE000000",
    "locale": {
      "EUde": "{{reaction type=\"Glee\"}}Whooo!{{pause frames=\"5\"}} Let's do it again\nsometime, {{pause frames=\"5\"}}{{string value=\"Catchphrase\"}}!",
      "EUen": "{{reaction type=\"Glee\"}}Whooo!{{pause frames=\"5\"}} Let's do it again\nsometime, {{pause frames=\"5\"}}{{string value=\"Catchphrase\"}}!",
      "EUes": "{{reaction type=\"Glee\"}}Whooo!{{pause frames=\"5\"}} Let's do it again\nsometime, {{pause frames=\"5\"}}{{string value=\"Catchphrase\"}}!",
      "EUfr": "{{reaction type=\"Glee\"}}Whooo!{{pause frames=\"5\"}} Let's do it again\nsometime, {{pause frames=\"5\"}}{{string value=\"Catchphrase\"}}!",
      "EUit": "{{reaction type=\"Glee\"}}Whooo!{{pause frames=\"5\"}} Let's do it again\nsometime, {{pause frames=\"5\"}}{{string value=\"Catchphrase\"}}!",
      "JPja": "{{reaction type=\"Happiness\"}}また{{kanjiReplace charNum=\"2\" value=\"こんど\"}}今度、{{pause frames=\"5\"}}\n{{kanjiReplace charNum=\"2\" value=\"しょうぶ\"}}勝負してくださいね、{{pause frames=\"5\"}}{{string value=\"Catchphrase\"}}",
      "KRko": "{{reaction type=\"Happiness\"}}また{{kanjiReplace charNum=\"2\" value=\"こんど\"}}今度、{{pause frames=\"5\"}}\n{{kanjiReplace charNum=\"2\" value=\"しょうぶ\"}}勝負してくださいね、{{pause frames=\"5\"}}{{string value=\"Catchphrase\"}}",
      "USen": "{{reaction type=\"Glee\"}}Whooo!{{pause frames=\"5\"}} Let's do it again\nsometime, {{pause frames=\"5\"}}{{string value=\"Catchphrase\"}}!"
    }
  },
  {
    "label": "2",
    "attribute": "0x00070000FE000000",
    "locale": {
      "EUde": "{{reaction type=\"Glee\"}}It was so much fun!!{{pause frames=\"10\"}}\nPleeeeeease play with me\nagain, {{pause frames=\"5\"}}{{string value=\"Catchphrase\"}}!",
      "EUen": "{{reaction type=\"Glee\"}}It was so much fun!!{{pause frames=\"10\"}}\nPleeeeeease play with me\nagain, {{pause frames=\"5\"}}{{string value=\"Catchphrase\"}}!",
      "EUes": "{{reaction type=\"Glee\"}}It was so much fun!!{{pause frames=\"10\"}}\nPleeeeeease play with me\nagain, {{pause frames=\"5\"}}{{string value=\"Catchphrase\"}}!",
      "EUfr": "{{reaction type=\"Glee\"}}It was so much fun!!{{pause frames=\"10\"}}\nPleeeeeease play with me\nagain, {{pause frames=\"5\"}}{{string value=\"Catchphrase\"}}!",
      "EUit": "{{reaction type=\"Glee\"}}It was so much fun!!{{pause frames=\"10\"}}\nPleeeeeease play with me\nagain, {{pause frames=\"5\"}}{{string value=\"Catchphrase\"}}!",
      "JPja": "{{reaction type=\"Happiness\"}}とっても　{{kanjiReplace charNum=\"1\" value=\"たの\"}}楽しかったです{{pause frames=\"20\"}}\nまた　{{kanjiReplace charNum=\"1\" value=\"あそ\"}}遊んでくださいね、\n{{pause frames=\"5\"}}{{string value=\"Catchphrase\"}}！",
      "KRko": "{{reaction type=\"Happiness\"}}とっても　{{kanjiReplace charNum=\"1\" value=\"たの\"}}楽しかったです{{pause frames=\"20\"}}\nまた　{{kanjiReplace charNum=\"1\" value=\"あそ\"}}遊んでくださいね、\n{{pause frames=\"5\"}}{{string value=\"Catchphrase\"}}！",
      "USen": "{{reaction type=\"Glee\"}}It was so much fun!!{{pause frames=\"10\"}}\nPleeeeeease play with me\nagain, {{pause frames=\"5\"}}{{string value=\"Catchphrase\"}}!"
    }
  }
]