[
  {
    "label": "0",
    "attribute": "0x00000000FE000000",
    "locale": {
      "EUde": "{{resetReaction}}Komisch,{{pause frames=\"5\"}} aber in letzter\nZeit stehe ich auf Innen-\neinrichtung, {{pause frames=\"5\"}}{{string value=\"Catchphrase\"}}.\nSag nichts, {{pause frames=\"5\"}}{{string value=\"PlayerNickname\"}}!{{pause frames=\"10\"}}\nAber wenn du\n{{color id=\"7\"}}{{string index=\"0\"}}{{color id=\"0\"}}\nfinden solltest...\n{{reaction type=\"Glee\"}}Lass es mich sofort wissen,\n{{pause frames=\"5\"}}{{string value=\"Catchphrase\"}}!",
      "EUen": "{{resetReaction}}It's weird,{{pause frames=\"5\"}} I've got this bug\nabout interior design\nlately, {{pause frames=\"5\"}}{{string value=\"Catchphrase\"}}.\nDon't judge, {{pause frames=\"5\"}}{{string value=\"PlayerNickname\"}}!{{pause frames=\"10\"}}\nAnd if you find any \n{{color id=\"7\"}}{{string index=\"0\"}}{{color id=\"0\"}}...\n{{reaction type=\"Glee\"}}Come let me know with the\nquickness, {{pause frames=\"5\"}}{{string value=\"Catchphrase\"}}!",
      "EUes": "{{resetReaction}}Suena raro,{{pause frames=\"5\"}} pero\núltimamente me he\naficionado al interiorismo.\n¿De qué te ríes,\n{{pause frames=\"5\"}}{{string value=\"PlayerNickname\"}}?{{pause frames=\"10\"}}\n{{pause frames=\"5\"}}¡{{capitalizeLetter}}{{string value=\"Catchphrase\"}}!\nSi vieses\n{{color id=\"7\"}}{{string index=\"0\"}}{{color id=\"0\"}}...\n{{reaction type=\"Glee\"}}¡tráemelos rápido!",
      "EUfr": "{{resetReaction}}C'est bizarre{{pause frames=\"5\"}} mais je\nm'intéresse à la déco ces\ntemps-ci, {{pause frames=\"5\"}}{{string value=\"Catchphrase\"}}.\nMe juge pas, {{pause frames=\"5\"}}{{string value=\"PlayerNickname\"}}!\n{{pause frames=\"10\"}}Si jamais tu trouves\n{{color id=\"7\"}}{{string index=\"0\"}}{{color id=\"0\"}}...\n{{reaction type=\"Glee\"}}viens me le dire\nrapidement, {{pause frames=\"5\"}}{{string value=\"Catchphrase\"}}!",
      "EUit": "{{resetReaction}}Che strano,{{pause frames=\"5\"}} mi è venuta la\nfissa del design di\ninterni, {{pause frames=\"5\"}}{{string value=\"Catchphrase\"}}.\n{{capitalizeLetter}}{{string value=\"PlayerNickname\"}}, se scopri delle\n{{pause frames=\"5\"}}varianti insolite di\n{{color id=\"7\"}}{{string index=\"0\"}}{{color id=\"0\"}}...\n{{reaction type=\"Glee\"}}vieni subito a\nriferirmelo, {{pause frames=\"5\"}}{{string value=\"Catchphrase\"}}!",
      "JPja": "{{resetReaction}}おいら　さいきん、{{pause frames=\"5\"}}\nリフォームに　ハマってんだよね、\n{{pause frames=\"5\"}}{{string value=\"Catchphrase\"}}\nだから、{{pause frames=\"5\"}}{{string value=\"PlayerNickname\"}}！{{pause frames=\"10\"}}\n{{color id=\"7\"}}{{string index=\"0\"}}{{color id=\"0\"}}を\n{{kanjiReplace charNum=\"1\" value=\"み\"}}見つけたら、\n{{reaction type=\"Glee\"}}エンリョなく　おいらに\n{{kanjiReplace charNum=\"1\" value=\"おし\"}}教えてくれよな、\n{{pause frames=\"5\"}}{{string value=\"Catchphrase\"}}！",
      "KRko": "{{resetReaction}}나 요즘{{pause frames=\"5\"}}\n집을 리폼하느라 정신이 없어\n{{pause frames=\"5\"}}{{string value=\"Catchphrase\"}}\n그니까 {{pause frames=\"5\"}}{{string value=\"PlayerNickname\"}}！{{pause frames=\"10\"}}\n{{color id=\"7\"}}{{string index=\"0\"}}{{color id=\"0\"}}{{fun_0B arg=\"0x0200\"}}\n보게 되면\n{{reaction type=\"Glee\"}}나한테 꼭\n알려 줘야 해\n{{pause frames=\"5\"}}{{string value=\"Catchphrase\"}}！",
      "USen": "{{resetReaction}}It's weird,{{pause frames=\"5\"}} I've got this bug\nabout interior design\nlately, {{pause frames=\"5\"}}{{string value=\"Catchphrase\"}}.\nDon't judge, {{pause frames=\"5\"}}{{string value=\"PlayerNickname\"}}!{{pause frames=\"10\"}}\nAnd if you find any \n{{color id=\"7\"}}{{string index=\"0\"}}{{color id=\"0\"}}...\n{{reaction type=\"Glee\"}}Come let me know with the\nquickness, {{pause frames=\"5\"}}{{string value=\"Catchphrase\"}}!"
    }
  },
  {
    "label": "1",
    "attribute": "0x00000000FE000000",
    "locale": {
      "EUde": "{{reaction type=\"Happiness\"}}Weißt du, was gerade total\nangesagt ist, {{string value=\"Catchphrase\"}}?{{pause frames=\"5\"}}\n{{capitalizeLetter}}{{color id=\"7\"}}{{string index=\"0\"}}{{color id=\"0\"}}!\n{{reaction type=\"Worry\"}}Aber mein Geld brauche ich\nfür Proteinshakes.{{pause frames=\"5\"}}\nIch bin ziemlich blank{{pause frames=\"5\"}}.{{pause frames=\"5\"}}.{{pause frames=\"5\"}}.\n{{reaction type=\"Glee\"}}Wenn du also{{pause frames=\"5\"}} zu viel\n{{color id=\"7\"}}{{string index=\"0\"}}{{color id=\"0\"}}\nhast, immer her damit.",
      "EUen": "{{reaction type=\"Happiness\"}}You know what's really hot\nright now, {{string value=\"Catchphrase\"}}?{{pause frames=\"5\"}}\n{{capitalizeLetter}}{{color id=\"7\"}}{{string index=\"0\"}}{{color id=\"0\"}}!\n{{reaction type=\"Worry\"}}But since my budget gets\neaten by protein shakes,{{pause frames=\"5\"}}\nI never have enough cash{{pause frames=\"5\"}}.{{pause frames=\"5\"}}.{{pause frames=\"5\"}}.\n{{reaction type=\"Glee\"}}So as of now,{{pause frames=\"5\"}} I'm accepting\nall donations of unwanted\n{{color id=\"7\"}}{{string index=\"0\"}}{{color id=\"0\"}}!",
      "EUes": "{{reaction type=\"Happiness\"}}¿Sabes qué mola?{{pause frames=\"5\"}} ¡Los\n{{color id=\"7\"}}{{string index=\"0\"}}{{color id=\"0\"}}!\n¡{{capitalizeLetter}}{{string value=\"Catchphrase\"}}!\n{{reaction type=\"Worry\"}}Como me gasto el sueldo en\nmaterial deportivo,{{pause frames=\"5\"}} nunca\ntengo suficiente dinero{{pause frames=\"5\"}}.{{pause frames=\"5\"}}.{{pause frames=\"5\"}}.\n{{reaction type=\"Glee\"}}¡A partir de ahora acepto\ndonaciones tipo\n{{color id=\"7\"}}{{string index=\"0\"}}{{color id=\"0\"}}!",
      "EUfr": "{{reaction type=\"Happiness\"}}Tu sais ce que tout le \nmonde s'arrache en ce\nmoment, {{string value=\"Catchphrase\"}}?{{pause frames=\"5\"}}\n{{capitalizeLetter}}{{color id=\"7\"}}{{string index=\"0\"}}{{color id=\"0\"}}!\n{{reaction type=\"Worry\"}}Mais vu que je dépense tous\nmes sous en sachets de\nprotéines,{{pause frames=\"5\"}} je n'ai pas assez\nd'argent{{pause frames=\"5\"}}.{{pause frames=\"5\"}}.{{pause frames=\"5\"}}.\n\n{{reaction type=\"Glee\"}}A partir de maintenant,{{pause frames=\"5\"}}\nj'accepte vos dons, si c'est\n{{color id=\"7\"}}{{string index=\"0\"}}{{color id=\"0\"}}!",
      "EUit": "{{reaction type=\"Happiness\"}}Sai cosa va di gran moda?\n{{pause frames=\"5\"}}L'arredo a base di\n{{color id=\"7\"}}{{string index=\"0\"}}{{color id=\"0\"}}!\n{{reaction type=\"Worry\"}}Ma spendo tutti i soldi\nin beveroni proteici,{{pause frames=\"5\"}} quindi\nnon li posso comprare{{pause frames=\"5\"}}.{{pause frames=\"5\"}}.{{pause frames=\"5\"}}.\n{{reaction type=\"Glee\"}}Però{{pause frames=\"5\"}} accetto qualsiasi\ndonazione di\n{{color id=\"7\"}}{{string index=\"0\"}}{{color id=\"0\"}}!\nConto su di te,\n{{string value=\"Catchphrase\"}}!\n",
      "JPja": "{{reaction type=\"Happiness\"}}さいきんは\n{{color id=\"7\"}}{{string index=\"0\"}}{{color id=\"0\"}}が\nアツいよな！　{{pause frames=\"5\"}}{{string value=\"Catchphrase\"}}！\n{{reaction type=\"Worry\"}}でも　{{kanjiReplace charNum=\"2\" value=\"まいつき\"}}毎月の\nプロテイン{{kanjiReplace charNum=\"1\" value=\"だい\"}}代のコトもあって、{{pause frames=\"5\"}}\nなかなか　{{kanjiReplace charNum=\"1\" value=\"あつ\"}}集まんないんだ{{pause frames=\"5\"}}・{{pause frames=\"5\"}}・{{pause frames=\"5\"}}・\n{{resetReaction}}だから、{{pause frames=\"5\"}}いらない\n{{color id=\"7\"}}{{string index=\"0\"}}{{color id=\"0\"}}を\n{{kanjiReplace charNum=\"1\" value=\"み\"}}見つけたら、{{pause frames=\"5\"}}\n{{reaction type=\"Glee\"}}エンリョなく\nこっちに　{{kanjiReplace charNum=\"1\" value=\"まわ\"}}回してくれー！\n{{pause frames=\"5\"}}{{string value=\"Catchphrase\"}}！",
      "KRko": "{{reaction type=\"Happiness\"}}요즘은\n{{color id=\"7\"}}{{string index=\"0\"}}{{color id=\"0\"}}{{fun_0B arg=\"0x0300\"}}\n유행이라며！ {{pause frames=\"5\"}}{{string value=\"Catchphrase\"}}！\n{{reaction type=\"Worry\"}}하지만 매달 들어가는\n프로테인 값도 있고 해서，{{pause frames=\"5\"}}\n좀처럼 모이질 않아{{pause frames=\"5\"}}・{{pause frames=\"5\"}}・{{pause frames=\"5\"}}・\n{{reaction type=\"Glee\"}}그니까 {{pause frames=\"5\"}}필요 없는\n{{color id=\"7\"}}{{string index=\"0\"}}{{color id=\"0\"}}{{fun_0B arg=\"0x0300\"}} 있으면{{pause frames=\"5\"}}\n나한테 좀 주라ー！",
      "USen": "{{reaction type=\"Happiness\"}}You know what's really hot\nright now, {{string value=\"Catchphrase\"}}?{{pause frames=\"5\"}}\n{{capitalizeLetter}}{{color id=\"7\"}}{{string index=\"0\"}}{{color id=\"0\"}}!\n{{reaction type=\"Worry\"}}But since my budget gets\neaten by protein shakes,{{pause frames=\"5\"}}\nI never have enough cash{{pause frames=\"5\"}}.{{pause frames=\"5\"}}.{{pause frames=\"5\"}}.\n{{reaction type=\"Glee\"}}So as of now,{{pause frames=\"5\"}} I'm accepting\nall donations of unwanted\n{{color id=\"7\"}}{{string index=\"0\"}}{{color id=\"0\"}}!"
    }
  },
  {
    "label": "2",
    "attribute": "0x00000000FE000000",
    "locale": {
      "EUde": "{{resetReaction}}Weißt du, {{pause frames=\"5\"}}wenn ich etwas\nwill, will ich es RICHTIG,\n{{reaction type=\"Curiosity\"}}stimmts, {{pause frames=\"5\"}}{{string value=\"Catchphrase\"}}?\n{{resetReaction}}Stimmt.{{pause frames=\"5\"}} Und zurzeit will ich\n{{color id=\"7\"}}{{string index=\"0\"}}{{color id=\"0\"}}\nsammeln!\n{{reaction type=\"Happiness\"}}Wenn du also etwas in\ndieser Richtung siehst,{{pause frames=\"5\"}}\nbring es mir, {{pause frames=\"5\"}}{{string value=\"Catchphrase\"}}!",
      "EUen": "{{resetReaction}}Y'know, {{pause frames=\"5\"}}once I get into\nsomething, I get WAY into\nit, {{reaction type=\"Curiosity\"}}right, {{pause frames=\"5\"}}{{string value=\"Catchphrase\"}}?\n{{resetReaction}}Right.{{pause frames=\"5\"}} And what I'm into\nright now is collecting\n{{color id=\"7\"}}{{string index=\"0\"}}{{color id=\"0\"}}.\n{{reaction type=\"Happiness\"}}So if you find anything\nnice in that category,{{pause frames=\"5\"}}\nbring me it, {{pause frames=\"5\"}}{{string value=\"Catchphrase\"}}!",
      "EUes": "{{resetReaction}}Cuando se me mete algo\nentre ceja y ceja,{{pause frames=\"5\"}} no paro\nhasta conseguirlo,{{reaction type=\"Curiosity\"}} ¿sabes?\n{{resetReaction}}Ahora {{pause frames=\"5\"}}colecciono\n{{color id=\"7\"}}{{string index=\"0\"}}{{color id=\"0\"}}.\n{{pause frames=\"5\"}}{{capitalizeLetter}}{{string value=\"Catchphrase\"}}.\n{{reaction type=\"Happiness\"}}Si encuentras algo en esa\nlínea,{{pause frames=\"5\"}} ¡ya sabes dónde\nencontrarme, {{pause frames=\"5\"}}{{string value=\"Catchphrase\"}}!",
      "EUfr": "{{resetReaction}}Tu sais, {{pause frames=\"5\"}}quand je commence\nun truc, {{reaction type=\"Curiosity\"}}je m'y consacre à\nfond, {{pause frames=\"5\"}}{{string value=\"Catchphrase\"}}!\n{{resetReaction}}Bon.{{pause frames=\"5\"}} En ce moment, mon\ndada c'est de récupérer\n{{color id=\"7\"}}{{string index=\"0\"}}{{color id=\"0\"}}.\n{{reaction type=\"Happiness\"}}Donc si tu trouves quelque\nchose de cette catégorie,{{pause frames=\"5\"}}\ndonne-le-moi, {{pause frames=\"5\"}}{{string value=\"Catchphrase\"}}!",
      "EUit": "{{resetReaction}}Sai, {{pause frames=\"5\"}}quando mi fisso su\nqualcosa, ci do dentro fino\nall'ultimo, {{reaction type=\"Curiosity\"}}OK, {{pause frames=\"5\"}}{{string value=\"Catchphrase\"}}?\n{{resetReaction}}Bene.{{pause frames=\"5\"}} E ora ho la fissa\ntotale per i fantastici\n{{color id=\"7\"}}{{string index=\"0\"}}{{color id=\"0\"}}.\n{{reaction type=\"Happiness\"}}Quindi se trovi qualcosa di\ncarino di quel genere,{{pause frames=\"5\"}}\nportamela, {{pause frames=\"5\"}}{{string value=\"Catchphrase\"}}!",
      "JPja": "{{resetReaction}}おいらって、{{pause frames=\"5\"}}やるからには\n{{reaction type=\"Curiosity\"}}トコトンやるしゅぎだろ？\n{{pause frames=\"5\"}}{{string value=\"Catchphrase\"}}？\n{{resetReaction}}で、{{pause frames=\"5\"}}{{kanjiReplace charNum=\"1\" value=\"いま\"}}今は\n{{color id=\"7\"}}{{string index=\"0\"}}{{color id=\"0\"}}を\n{{kanjiReplace charNum=\"1\" value=\"あつ\"}}集めまくってるから、\n{{reaction type=\"Happiness\"}}いいのが　あったら\nソレ{{kanjiReplace charNum=\"1\" value=\"も\"}}持って、{{pause frames=\"5\"}}そっこーで\nかけつけてくれよ！　{{pause frames=\"5\"}}{{string value=\"Catchphrase\"}}！",
      "KRko": "{{resetReaction}}난 {{pause frames=\"5\"}}한번 했다 하면\n{{reaction type=\"Curiosity\"}}끝을 보는 타입이잖아？\n{{pause frames=\"5\"}}{{string value=\"Catchphrase\"}}？\n{{resetReaction}}근데 {{pause frames=\"5\"}}지금은\n{{color id=\"7\"}}{{string index=\"0\"}}{{color id=\"0\"}}{{fun_0B arg=\"0x0200\"}}\n모으는 중이야\n{{reaction type=\"Happiness\"}}좋은 게 있으면\n{{pause frames=\"5\"}}한걸음에 달려와서\n나 주라！ {{pause frames=\"5\"}}{{string value=\"Catchphrase\"}}！",
      "USen": "{{resetReaction}}Y'know, {{pause frames=\"5\"}}once I get into\nsomething, I get WAY into\nit, {{reaction type=\"Curiosity\"}}right, {{pause frames=\"5\"}}{{string value=\"Catchphrase\"}}?\n{{resetReaction}}Right.{{pause frames=\"5\"}} And what I'm into\nright now is collecting\n{{color id=\"7\"}}{{string index=\"0\"}}{{color id=\"0\"}}.\n{{reaction type=\"Happiness\"}}So if you find anything\nnice in that category,{{pause frames=\"5\"}}\nbring me it, {{pause frames=\"5\"}}{{string value=\"Catchphrase\"}}!"
    }
  }
]