[
  {
    "label": "0",
    "attribute": "0x00000000FF000000",
    "locale": {
      "EUde": "{{resetReaction}}Alles klar!{{pause frames=\"20\"}} Hier bitte.\n{{capitalizeLetter}}{{itemName index=\"1\"}},\nwie versprochen.",
      "EUen": "{{resetReaction}}Okeydokey then!{{pause frames=\"20\"}} Here's the\n{{ignoreArticle}}{{itemName index=\"1\"}} I\npromised you.",
      "EUes": "{{resetReaction}}¡Vale, guay!{{pause frames=\"20\"}} Toma.\n{{capitalizeLetter}}{{itemName index=\"1\"}}.\nJusto como te prometí.",
      "EUfr": "{{resetReaction}}D'acodac!{{pause frames=\"20\"}} Voici\n{{itemName index=\"1\"}},\ncomme promis.",
      "EUit": "{{resetReaction}}Bene benissimo!{{pause frames=\"20\"}} Ecco\n{{itemName index=\"1\"}},\ncome promesso.",
      "JPja": "{{resetReaction}}はい、{{pause frames=\"20\"}}\n{{itemName index=\"1\"}}だよぉ～、\n{{pause frames=\"5\"}}{{string value=\"Catchphrase\"}}",
      "KRko": "{{resetReaction}}자！{{pause frames=\"20\"}}\n{{itemName index=\"1\"}}！",
      "USen": "{{resetReaction}}Okeydokey then!{{pause frames=\"20\"}} Here's the\n{{ignoreArticle}}{{itemName index=\"1\"}} I\npromised you."
    }
  },
  {
    "label": "1",
    "attribute": "0x00000000FF000000",
    "locale": {
      "EUde": "{{resetReaction}}Richtig!{{pause frames=\"20\"}} Hier bitte.\n{{capitalizeLetter}}{{itemName index=\"1\"}},\nwie gewünscht, {{pause frames=\"5\"}}{{string value=\"Catchphrase\"}}!",
      "EUen": "{{resetReaction}}Right!{{pause frames=\"20\"}} Here's your\n{{ignoreArticle}}{{itemName index=\"1\"}},{{pause frames=\"10\"}}\n{{string value=\"Catchphrase\"}}!",
      "EUes": "{{resetReaction}}¡Bien!{{pause frames=\"20\"}} ¡Aquí tienes!\n¡{{capitalizeLetter}}{{itemName index=\"1\"}},{{pause frames=\"10\"}}\n{{string value=\"Catchphrase\"}}!",
      "EUfr": "{{resetReaction}}Bien!{{pause frames=\"20\"}} Voici\n{{itemName index=\"1\"}},\ncomme convenu,{{pause frames=\"10\"}} {{string value=\"Catchphrase\"}}!",
      "EUit": "{{resetReaction}}Perfetto!{{pause frames=\"20\"}} Ecco\n{{itemName index=\"1\"}},{{pause frames=\"10\"}}\n{{string value=\"Catchphrase\"}}!",
      "JPja": "{{resetReaction}}はい！{{pause frames=\"20\"}}\n{{itemName index=\"1\"}}をどうぞ、\n{{pause frames=\"10\"}}{{string value=\"Catchphrase\"}}",
      "KRko": "{{resetReaction}}이거{{pause frames=\"20\"}}\n{{itemName index=\"1\"}}\n받아！ {{pause frames=\"10\"}}{{string value=\"Catchphrase\"}}！",
      "USen": "{{resetReaction}}Right!{{pause frames=\"20\"}} Here's your\n{{ignoreArticle}}{{itemName index=\"1\"}},{{pause frames=\"10\"}}\n{{string value=\"Catchphrase\"}}!"
    }
  },
  {
    "label": "2",
    "attribute": "0x00000000FF000000",
    "locale": {
      "EUde": "{{resetReaction}}Ja, O.K.,{{pause frames=\"15\"}} hier ist dein\nGeschenk,{{pause frames=\"5\"}} {{string value=\"Catchphrase\"}}!\n{{capitalizeLetter}}{{itemName index=\"1\"}}.",
      "EUen": "{{resetReaction}}Uh, OK.{{pause frames=\"15\"}} I've got your\n{{ignoreArticle}}{{itemName index=\"1\"}}\nright here,{{pause frames=\"5\"}} {{string value=\"Catchphrase\"}}!",
      "EUes": "{{resetReaction}}Ah, vale.{{pause frames=\"15\"}} ¡Aquí tengo\n{{itemName index=\"1\"}}\npara ti, {{pause frames=\"5\"}}{{string value=\"Catchphrase\"}}!",
      "EUfr": "{{resetReaction}}Euh, très bien.{{pause frames=\"15\"}} J'ai\n{{itemName index=\"1\"}}.\nC'est bon,{{pause frames=\"5\"}} {{string value=\"Catchphrase\"}}!",
      "EUit": "{{resetReaction}}Uh, OK.{{pause frames=\"15\"}} Ecco\n{{itemName index=\"1\"}}\nper te,{{pause frames=\"5\"}} {{string value=\"Catchphrase\"}}!",
      "JPja": "{{resetReaction}}はい、{{pause frames=\"15\"}}\n{{itemName index=\"1\"}}！\n{{pause frames=\"5\"}}{{string value=\"Catchphrase\"}}！",
      "KRko": "{{resetReaction}}자！{{pause frames=\"15\"}}\n{{itemName index=\"1\"}}～！\n{{pause frames=\"5\"}}{{string value=\"Catchphrase\"}}！",
      "USen": "{{resetReaction}}Uh, OK.{{pause frames=\"15\"}} I've got your\n{{ignoreArticle}}{{itemName index=\"1\"}}\nright here,{{pause frames=\"5\"}} {{string value=\"Catchphrase\"}}!"
    }
  }
]