[
  {
    "label": "0",
    "attribute": "0x00000000FE000000",
    "locale": {
      "EUde": "{{resetReaction}}Huh huh huh!{{pause frames=\"10\"}} Ich will keine \nEntschuldigungen hören, wenn\ndu versagst. \n{{reaction type=\"Intense\"}}Fertig{{pause frames=\"5\"}}.{{pause frames=\"5\"}}.{{pause frames=\"5\"}}.{{pressButton}} \n{{vibrateWeak}}{{reaction type=\"Annoyed\"}}Los, {{string value=\"Catchphrase\"}}!",
      "EUen": "{{resetReaction}}Huh huh huh!{{pause frames=\"10\"}} I don't want\nto hear any excuses if you\nfail!\n{{reaction type=\"Intense\"}}Ready{{pause frames=\"5\"}}.{{pause frames=\"5\"}}.{{pause frames=\"5\"}}.{{pressButton}} {{vibrateWeak}}{{reaction type=\"Annoyed\"}}Go, {{string value=\"Catchphrase\"}}!",
      "EUes": "{{resetReaction}}¡Ja, ja, ja!{{pause frames=\"10\"}} ¡No me valen las\nexcusas si pierdes!\n\n{{reaction type=\"Intense\"}}¿List{{gender m=\"o\" f=\"a\"}}?{{pause frames=\"5\"}}.{{pause frames=\"5\"}}.{{pause frames=\"5\"}}.{{pressButton}} {{vibrateWeak}}{{reaction type=\"Annoyed\"}}¡Ya, {{string value=\"Catchphrase\"}}!",
      "EUfr": "{{resetReaction}}Oh, oh, oh!{{pause frames=\"10\"}} Pas d'excuse si\ntu échoues!\n\n{{reaction type=\"Intense\"}}Prêt{{pause frames=\"5\"}}.{{pause frames=\"5\"}}.{{pause frames=\"5\"}}.{{pressButton}} {{vibrateWeak}}{{reaction type=\"Annoyed\"}}Partez, {{string value=\"Catchphrase\"}}!",
      "EUit": "{{resetReaction}}Uh uh uh!{{pause frames=\"10\"}} Non voglio\nsentire scuse se fallisci!\n{{reaction type=\"Intense\"}}Pront{{gender m=\"o\" f=\"a\"}}{{pause frames=\"5\"}}.{{pause frames=\"5\"}}.{{pause frames=\"5\"}}.{{pressButton}} {{vibrateWeak}}{{reaction type=\"Annoyed\"}}Via, {{string value=\"Catchphrase\"}}!",
      "JPja": "{{resetReaction}}ウフフ、{{pause frames=\"10\"}}まけても　\n{{kanjiReplace charNum=\"1\" value=\"い\"}}言いわけは　{{kanjiReplace charNum=\"1\" value=\"き\"}}聞かないからねぇ\n\n{{reaction type=\"Intense\"}}よ～い{{pause frames=\"5\"}}・{{pause frames=\"5\"}}・{{pause frames=\"5\"}}・{{pressButton}}{{vibrateWeak}}{{reaction type=\"Annoyed\"}}{{string value=\"Catchphrase\"}}！",
      "KRko": "{{resetReaction}}우후훗！！ {{pause frames=\"10\"}}지더라도\n궁색한 변명하지 않기다～\n\n{{reaction type=\"Intense\"}}준비～{{pause frames=\"5\"}}・{{pause frames=\"5\"}}・{{pause frames=\"5\"}}・{{pressButton}} {{vibrateWeak}}{{reaction type=\"Annoyed\"}}{{string value=\"Catchphrase\"}}！",
      "USen": "{{resetReaction}}Huh huh huh!{{pause frames=\"10\"}} I don't want\nto hear any excuses if you\nfail!\n{{reaction type=\"Intense\"}}Ready{{pause frames=\"5\"}}.{{pause frames=\"5\"}}.{{pause frames=\"5\"}}.{{pressButton}} {{vibrateWeak}}{{reaction type=\"Annoyed\"}}Go, {{string value=\"Catchphrase\"}}!"
    }
  },
  {
    "label": "1",
    "attribute": "0x00000000FE000000",
    "locale": {
      "EUde": "{{resetReaction}}O.K.! Jetzt beginnt es!\n\n\n{{reaction type=\"Intense\"}}Fertig{{pause frames=\"5\"}}.{{pause frames=\"5\"}}.{{pause frames=\"5\"}}.{{pause frames=\"5\"}}{{pressButton}} {{vibrateWeak}}{{reaction type=\"Annoyed\"}}LOS!",
      "EUen": "{{resetReaction}}OK! It starts now!\n\n\n{{reaction type=\"Intense\"}}Ready{{pause frames=\"5\"}}.{{pause frames=\"5\"}}.{{pause frames=\"5\"}}.{{pause frames=\"5\"}}{{pressButton}} {{vibrateWeak}}{{reaction type=\"Annoyed\"}}GO!",
      "EUes": "{{resetReaction}}¡Vale! ¡Comenzamos a la\nde tres!\n\n{{reaction type=\"Intense\"}}¿List{{gender m=\"o\" f=\"a\"}}?{{pause frames=\"5\"}}.{{pause frames=\"5\"}}.{{pause frames=\"5\"}}.{{pause frames=\"5\"}} A la una...{{pause frames=\"10\"}}\nA las dos...{{pause frames=\"5\"}}{{pressButton}} {{vibrateWeak}}{{reaction type=\"Annoyed\"}}¡Y a las tres!",
      "EUfr": "{{resetReaction}}Bien! A vos marques...\n\n\n{{reaction type=\"Intense\"}}Prêt{{pause frames=\"5\"}}.{{pause frames=\"5\"}}.{{pause frames=\"5\"}}.{{pause frames=\"5\"}}{{pressButton}} {{vibrateWeak}}{{reaction type=\"Annoyed\"}}PARTEZ!",
      "EUit": "{{resetReaction}}OK! Inizia ora!\n\n\n{{reaction type=\"Intense\"}}Pront{{gender m=\"o\" f=\"a\"}}{{pause frames=\"5\"}}.{{pause frames=\"5\"}}.{{pause frames=\"5\"}}.{{pause frames=\"5\"}}{{pressButton}} {{vibrateWeak}}{{reaction type=\"Annoyed\"}}VIA!",
      "JPja": "{{resetReaction}}それじゃあ　{{kanjiReplace charNum=\"1\" value=\"いま\"}}今からね！\n\n\n{{reaction type=\"Intense\"}}よーい{{pause frames=\"5\"}}・{{pause frames=\"5\"}}・{{pause frames=\"5\"}}・{{pause frames=\"5\"}}{{pressButton}}{{vibrateWeak}}{{reaction type=\"Annoyed\"}}ドン！",
      "KRko": "{{resetReaction}}그럼 지금부터다～！\n\n\n{{reaction type=\"Intense\"}}준비～{{pause frames=\"5\"}}・{{pause frames=\"5\"}}・{{pause frames=\"5\"}}・{{pause frames=\"5\"}}{{pressButton}} {{vibrateWeak}}{{reaction type=\"Annoyed\"}}땅！！",
      "USen": "{{resetReaction}}OK! It starts now!\n\n\n{{reaction type=\"Intense\"}}Ready{{pause frames=\"5\"}}.{{pause frames=\"5\"}}.{{pause frames=\"5\"}}.{{pause frames=\"5\"}}{{pressButton}} {{vibrateWeak}}{{reaction type=\"Annoyed\"}}GO!"
    }
  },
  {
    "label": "2",
    "attribute": "0x00000000FE000000",
    "locale": {
      "EUde": "{{resetReaction}}O.K.!{{pause frames=\"5\"}} Auf mein Signal!\n\n\n{{reaction type=\"Intense\"}}Drei,{{pause frames=\"5\"}} zwei,{{pause frames=\"5\"}} eins{{pause frames=\"5\"}}.{{pause frames=\"5\"}}.{{pause frames=\"5\"}}.{{pressButton}} {{vibrateWeak}}{{reaction type=\"Shocked\"}}LOS,\n{{pause frames=\"5\"}}{{string value=\"Catchphrase\"}}!",
      "EUen": "{{resetReaction}}OK!{{pause frames=\"5\"}} You'll start on my\nsignal!\n\n{{reaction type=\"Intense\"}}Three,{{pause frames=\"5\"}} two,{{pause frames=\"5\"}} one{{pause frames=\"5\"}}.{{pause frames=\"5\"}}.{{pause frames=\"5\"}}.{{pressButton}} {{vibrateWeak}}{{reaction type=\"Shocked\"}}GO,\n{{pause frames=\"5\"}}{{string value=\"Catchphrase\"}}!",
      "EUes": "{{resetReaction}}¡Vale!{{pause frames=\"5\"}} ¡Atent{{gender m=\"o\" f=\"a\"}} a mi señal!\n\n\n{{reaction type=\"Intense\"}}Tres,{{pause frames=\"5\"}} dos,{{pause frames=\"5\"}} uno{{pause frames=\"5\"}}.{{pause frames=\"5\"}}.{{pause frames=\"5\"}}.{{pressButton}} {{vibrateWeak}}{{reaction type=\"Shocked\"}}¡YA,\n{{pause frames=\"5\"}}{{string value=\"Catchphrase\"}}!",
      "EUfr": "{{resetReaction}}Bien!{{pause frames=\"5\"}} A mon signal!\n\n\n{{reaction type=\"Intense\"}}Trois,{{pause frames=\"5\"}} deux,{{pause frames=\"5\"}} un{{pause frames=\"5\"}}.{{pause frames=\"5\"}}.{{pause frames=\"5\"}}.{{pressButton}} {{vibrateWeak}}{{reaction type=\"Shocked\"}}PARTEZ,\n{{pause frames=\"5\"}}{{string value=\"Catchphrase\"}}!",
      "EUit": "{{resetReaction}}OK!{{pause frames=\"5\"}} Parti al mio segnale!\n\n\n{{reaction type=\"Intense\"}}Tre,{{pause frames=\"5\"}} due,{{pause frames=\"5\"}} uno{{pause frames=\"5\"}}.{{pause frames=\"5\"}}.{{pause frames=\"5\"}}.{{pressButton}} {{vibrateWeak}}{{reaction type=\"Shocked\"}}VIA,\n{{pause frames=\"5\"}}{{string value=\"Catchphrase\"}}!",
      "JPja": "{{resetReaction}}じゃあ、{{pause frames=\"5\"}}ボクの\n{{kanjiReplace charNum=\"2\" value=\"あいず\"}}合図で　スタートねぇ～\n\n{{reaction type=\"Intense\"}}せーの{{pause frames=\"5\"}}・{{pause frames=\"5\"}}・{{pause frames=\"5\"}}・{{pressButton}}{{vibrateWeak}}{{reaction type=\"Shocked\"}}{{string value=\"Catchphrase\"}}！",
      "KRko": "{{resetReaction}}그럼 {{pause frames=\"5\"}}내가 신호를 보내면\n시작이다～！\n\n{{reaction type=\"Intense\"}}준비～{{pause frames=\"5\"}}・{{pause frames=\"5\"}}・{{pause frames=\"5\"}}・{{pressButton}} {{vibrateWeak}}{{reaction type=\"Shocked\"}}{{string value=\"Catchphrase\"}}！",
      "USen": "{{resetReaction}}OK!{{pause frames=\"5\"}} You'll start on my\nsignal!\n\n{{reaction type=\"Intense\"}}Three,{{pause frames=\"5\"}} two,{{pause frames=\"5\"}} one{{pause frames=\"5\"}}.{{pause frames=\"5\"}}.{{pause frames=\"5\"}}.{{pressButton}} {{vibrateWeak}}{{reaction type=\"Shocked\"}}GO,\n{{pause frames=\"5\"}}{{string value=\"Catchphrase\"}}!"
    }
  }
]