[
  {
    "label": "0",
    "attribute": "0x00000000FE000000",
    "locale": {
      "EUde": "{{reaction type=\"Worry\"}}Es tut mir Leid, aber{{pause frames=\"5\"}} im\nMoment ist mir nicht nach\nReden.{{reaction type=\"Sadness\"}}{{pause frames=\"10\"}} Seufz{{pause frames=\"5\"}}.{{pause frames=\"5\"}}.{{pause frames=\"5\"}}.{{pause frames=\"5\"}} {{string value=\"Catchphrase\"}}.",
      "EUen": "{{reaction type=\"Worry\"}}I'm sorry, but{{pause frames=\"5\"}} I just don't\nfeel like talking to anyone\nnow.{{pause frames=\"20\"}} {{reaction type=\"Sadness\"}}{{pause frames=\"10\"}}Sigh{{pause frames=\"5\"}}.{{pause frames=\"5\"}}.{{pause frames=\"5\"}}.{{pause frames=\"5\"}}{{string value=\"Catchphrase\"}}.",
      "EUes": "{{reaction type=\"Worry\"}}Lo siento,{{pause frames=\"5\"}} pero ahora no me\napetece hablar con nadie,\n{{string value=\"Catchphrase\"}}{{pause frames=\"20\"}}. {{reaction type=\"Sadness\"}}{{pause frames=\"10\"}}{{color id=\"4\"}}(Suspiro)",
      "EUfr": "{{reaction type=\"Worry\"}}Désolée, mais là{{pause frames=\"5\"}} je n'ai\npas envie de discuter.{{pause frames=\"20\"}} \n{{reaction type=\"Sadness\"}}{{pause frames=\"10\"}}(Soupir){{pause frames=\"5\"}}.{{pause frames=\"5\"}}.{{pause frames=\"5\"}}.{{pause frames=\"5\"}} {{string value=\"Catchphrase\"}}.",
      "EUit": "{{reaction type=\"Worry\"}}Scusa, ma{{pause frames=\"5\"}} non ho voglia di\nparlare con nessuno ora.\n{{pause frames=\"20\"}}{{reaction type=\"Sadness\"}}{{pause frames=\"10\"}}Sigh{{pause frames=\"5\"}}.{{pause frames=\"5\"}}.{{pause frames=\"5\"}}.{{pause frames=\"5\"}} {{string value=\"Catchphrase\"}}.",
      "JPja": "{{reaction type=\"Worry\"}}{{kanjiReplace charNum=\"1\" value=\"わる\"}}悪いけど、{{pause frames=\"5\"}}{{kanjiReplace charNum=\"1\" value=\"いま\"}}今は\nお{{kanjiReplace charNum=\"1\" value=\"はなし\"}}話する{{kanjiReplace charNum=\"1\" value=\"き\"}}気に　なれないの{{pause frames=\"20\"}}\n{{reaction type=\"Sadness\"}}{{pause frames=\"10\"}}フゥーッ{{pause frames=\"5\"}}・{{pause frames=\"5\"}}・{{pause frames=\"5\"}}・{{pause frames=\"5\"}}{{string value=\"Catchphrase\"}}",
      "KRko": "{{reaction type=\"Worry\"}}미안하지만 {{pause frames=\"5\"}}지금은\n얘기하고 싶은 기분이 아냐{{pause frames=\"20\"}}\n{{reaction type=\"Sadness\"}}{{pause frames=\"10\"}}후우{{pause frames=\"5\"}}・{{pause frames=\"5\"}}・{{pause frames=\"5\"}}・{{pause frames=\"5\"}}{{string value=\"Catchphrase\"}}",
      "USen": "{{reaction type=\"Worry\"}}I'm sorry, but{{pause frames=\"5\"}} I just don't\nfeel like talking to anyone\nnow.{{pause frames=\"20\"}} {{reaction type=\"Sadness\"}}{{pause frames=\"10\"}}Sigh{{pause frames=\"5\"}}.{{pause frames=\"5\"}}.{{pause frames=\"5\"}}.{{pause frames=\"5\"}}{{string value=\"Catchphrase\"}}."
    }
  },
  {
    "label": "1",
    "attribute": "0x00000000FE000000",
    "locale": {
      "EUde": "{{reaction type=\"Sadness\"}}{{pause frames=\"10\"}}Das ist so tragisch{{pause frames=\"5\"}}.{{pause frames=\"5\"}}.{{pause frames=\"5\"}}.{{pause frames=\"20\"}} Ich\nwerde nie darüber hinweg\nkommen, {{string value=\"Catchphrase\"}}. Wehe!",
      "EUen": "{{reaction type=\"Sadness\"}}{{pause frames=\"10\"}}This is so tragic{{pause frames=\"5\"}}.{{pause frames=\"5\"}}.{{pause frames=\"5\"}}.{{pause frames=\"20\"}} I just\ndon't know if I'll ever\nrecover, {{string value=\"Catchphrase\"}}. Woe!",
      "EUes": "{{reaction type=\"Sadness\"}}{{pause frames=\"10\"}}Qué tragedia{{pause frames=\"5\"}}.{{pause frames=\"5\"}}.{{pause frames=\"5\"}}.{{pause frames=\"20\"}} La verdad,\nno sé si podré recuperarme\nnunca, {{string value=\"Catchphrase\"}}. ¡Ay!",
      "EUfr": "{{reaction type=\"Sadness\"}}{{pause frames=\"10\"}}Quelle tragédie{{pause frames=\"5\"}}.{{pause frames=\"5\"}}.{{pause frames=\"5\"}}.{{pause frames=\"20\"}} Je ne sais\npas si je m'en remettrai\nun jour, {{string value=\"Catchphrase\"}}. Snif!",
      "EUit": "{{reaction type=\"Sadness\"}}{{pause frames=\"10\"}}Che disastro{{pause frames=\"5\"}}.{{pause frames=\"5\"}}.{{pause frames=\"5\"}}.{{pause frames=\"20\"}} Non so se\nriuscirò mai a riprendermi,\n{{string value=\"Catchphrase\"}}. Che dolore!",
      "JPja": "{{reaction type=\"Sadness\"}}{{pause frames=\"20\"}}もう　サイアクよ{{pause frames=\"5\"}}・{{pause frames=\"5\"}}・{{pause frames=\"5\"}}・{{pause frames=\"20\"}}\n{{kanjiReplace charNum=\"2\" value=\"とうぶん\"}}当分　{{kanjiReplace charNum=\"1\" value=\"た\"}}立ち{{kanjiReplace charNum=\"1\" value=\"なお\"}}直れそうに\nないかも{{pause frames=\"5\"}}・{{pause frames=\"5\"}}・{{pause frames=\"5\"}}・{{pause frames=\"5\"}}{{string value=\"Catchphrase\"}}",
      "KRko": "{{reaction type=\"Sadness\"}}{{pause frames=\"10\"}}완전 좌절이야{{pause frames=\"5\"}}・{{pause frames=\"5\"}}・{{pause frames=\"5\"}}・{{pause frames=\"20\"}}\n당분간은 계속 우울할 것\n같아{{pause frames=\"5\"}}・{{pause frames=\"5\"}}・{{pause frames=\"5\"}}・{{pause frames=\"5\"}}{{string value=\"Catchphrase\"}}",
      "USen": "{{reaction type=\"Sadness\"}}{{pause frames=\"10\"}}This is so tragic{{pause frames=\"5\"}}.{{pause frames=\"5\"}}.{{pause frames=\"5\"}}.{{pause frames=\"20\"}} I just\ndon't know if I'll ever\nrecover, {{string value=\"Catchphrase\"}}. Woe!"
    }
  },
  {
    "label": "2",
    "attribute": "0x00000000FE000000",
    "locale": {
      "EUde": "{{reaction type=\"Sighing\"}}{{pause frames=\"5\"}}Oh{{pause frames=\"5\"}}.{{pause frames=\"5\"}}.{{pause frames=\"5\"}}.{{pause frames=\"5\"}} Das ist so furchtbar,\n{{string value=\"Catchphrase\"}}. Ich begreife\nes einfach nicht{{pause frames=\"5\"}}.{{pause frames=\"5\"}}.{{pause frames=\"5\"}}.{{pause frames=\"5\"}}\n{{reaction type=\"Worry\"}}Warum passiert das gerade\nmir? {{reaction type=\"Sorrow\"}}Was habe ich getan,{{pause frames=\"5\"}}\ndass ich das verdiene?",
      "EUen": "{{reaction type=\"Sighing\"}}{{pause frames=\"5\"}}Oh{{pause frames=\"5\"}}.{{pause frames=\"5\"}}.{{pause frames=\"5\"}}.{{pause frames=\"5\"}} This is just\nso terrible, {{string value=\"Catchphrase\"}}. I\ndon't understand{{pause frames=\"5\"}}.{{pause frames=\"5\"}}.{{pause frames=\"5\"}}.{{pause frames=\"5\"}}\n{{reaction type=\"Worry\"}}Why did this have to happen\nto me? {{reaction type=\"Sorrow\"}}What have I\ndone{{pause frames=\"5\"}} to deserve this?",
      "EUes": "{{reaction type=\"Sighing\"}}{{pause frames=\"5\"}}Oh{{pause frames=\"5\"}}.{{pause frames=\"5\"}}.{{pause frames=\"5\"}}.{{pause frames=\"5\"}} Esto es\ntan terrible, {{string value=\"Catchphrase\"}}.\nNo lo entiendo{{pause frames=\"5\"}}.{{pause frames=\"5\"}}.{{pause frames=\"5\"}}.{{pause frames=\"5\"}}\n{{reaction type=\"Worry\"}}¿Por qué tenía que pasarme\na mí? {{reaction type=\"Sorrow\"}}¿Qué he hecho yo{{pause frames=\"5\"}}\npara merecer esto?",
      "EUfr": "{{reaction type=\"Sighing\"}}{{pause frames=\"5\"}}Oh{{pause frames=\"5\"}}.{{pause frames=\"5\"}}.{{pause frames=\"5\"}}.{{pause frames=\"5\"}} C'est si horrible, \n{{string value=\"Catchphrase\"}}. Je ne\ncomprends pas{{pause frames=\"5\"}}.{{pause frames=\"5\"}}.{{pause frames=\"5\"}}.{{pause frames=\"5\"}}\n{{reaction type=\"Worry\"}}Pourquoi faut-il que ça\nm'arrive à moi?{{reaction type=\"Sorrow\"}} Qu'ai-je\nfait{{pause frames=\"5\"}} pour mériter ça?",
      "EUit": "{{reaction type=\"Sighing\"}}{{pause frames=\"5\"}}Oh{{pause frames=\"5\"}}.{{pause frames=\"5\"}}.{{pause frames=\"5\"}}.{{pause frames=\"5\"}} È terribile,\n{{string value=\"Catchphrase\"}}. Non capisco\nperché{{pause frames=\"5\"}}.{{pause frames=\"5\"}}.{{pause frames=\"5\"}}.{{pause frames=\"5\"}}\n{{reaction type=\"Worry\"}}doveva succedere proprio a\nme... {{reaction type=\"Sorrow\"}}Che cosa ho fatto di\nmale{{pause frames=\"5\"}} per meritarmi questo?",
      "JPja": "{{reaction type=\"Sighing\"}}{{pause frames=\"20\"}}はぁーっ{{pause frames=\"5\"}}・{{pause frames=\"5\"}}・{{pause frames=\"5\"}}・{{pause frames=\"5\"}}\n\n\n{{reaction type=\"Worry\"}}なんで　あたしが\nこんな{{kanjiReplace charNum=\"1\" value=\"め\"}}目に　{{kanjiReplace charNum=\"1\" value=\"あ\"}}会わなきゃ\nなんないのよ{{pause frames=\"5\"}}・{{pause frames=\"5\"}}・{{pause frames=\"5\"}}・{{pause frames=\"5\"}}{{string value=\"Catchphrase\"}}",
      "KRko": "{{reaction type=\"Sighing\"}}{{pause frames=\"5\"}}후우{{pause frames=\"5\"}}・{{pause frames=\"5\"}}・{{pause frames=\"5\"}}・{{pause frames=\"5\"}}{{string value=\"Catchphrase\"}}\n\n\n{{reaction type=\"Worry\"}}내가 왜\n이런 일을 당해야 \n되는 거지{{pause frames=\"5\"}}・{{pause frames=\"5\"}}・{{pause frames=\"5\"}}・{{pause frames=\"5\"}}{{string value=\"Catchphrase\"}}",
      "USen": "{{reaction type=\"Sighing\"}}{{pause frames=\"5\"}}Oh{{pause frames=\"5\"}}.{{pause frames=\"5\"}}.{{pause frames=\"5\"}}.{{pause frames=\"5\"}} This is just\nso terrible, {{string value=\"Catchphrase\"}}. I\ndon't understand{{pause frames=\"5\"}}.{{pause frames=\"5\"}}.{{pause frames=\"5\"}}.{{pause frames=\"5\"}}\n{{reaction type=\"Worry\"}}Why did this have to happen\nto me? {{reaction type=\"Sorrow\"}}What have I\ndone{{pause frames=\"5\"}} to deserve this?"
    }
  },
  {
    "label": "3",
    "attribute": "0x00000000FE000000",
    "locale": {
      "EUde": "{{reaction type=\"Sadness\"}}{{pause frames=\"10\"}}Manchmal{{pause frames=\"5\"}} frage ich mich:\n\"Was ist der Sinn?\"{{pause frames=\"20\"}} Mein Tag\nwar schlimm, {{pause frames=\"5\"}}{{string value=\"Catchphrase\"}}.",
      "EUen": "{{reaction type=\"Sadness\"}}{{pause frames=\"10\"}}Sometimes,{{pause frames=\"5\"}} I just wonder,\n\"What's the point?\"{{pause frames=\"20\"}} I've had\na bad day, {{pause frames=\"5\"}}{{string value=\"Catchphrase\"}}.",
      "EUes": "{{reaction type=\"Sadness\"}}{{pause frames=\"10\"}}A veces{{pause frames=\"5\"}} me pregunto por\nqué sigo adelante.{{pause frames=\"20\"}} Tengo un\ndía muy malo, {{pause frames=\"5\"}}{{string value=\"Catchphrase\"}}.",
      "EUfr": "{{reaction type=\"Sadness\"}}{{pause frames=\"10\"}}Parfois,{{pause frames=\"5\"}} je me demande,\n\"A quoi ça sert?\"{{pause frames=\"20\"}} C'est une\nsale journée, {{pause frames=\"5\"}}{{string value=\"Catchphrase\"}}.",
      "EUit": "{{reaction type=\"Sadness\"}}{{pause frames=\"10\"}}A volte {{pause frames=\"5\"}}mi chiedo quale sia\nil senso di tutto ciò.{{pause frames=\"20\"}} È una\ngiornata no, {{pause frames=\"5\"}}{{string value=\"Catchphrase\"}}.",
      "JPja": "{{reaction type=\"Sadness\"}}{{pause frames=\"10\"}}はぁーっ{{pause frames=\"5\"}}・{{pause frames=\"5\"}}・{{pause frames=\"5\"}}・{{pause frames=\"20\"}}\nもう　{{pause frames=\"5\"}}いやんなっちゃう、{{pause frames=\"10\"}}\n{{pause frames=\"5\"}}{{string value=\"Catchphrase\"}}",
      "KRko": "{{reaction type=\"Sadness\"}}{{pause frames=\"10\"}}후우{{pause frames=\"5\"}}・{{pause frames=\"5\"}}・{{pause frames=\"5\"}}・{{pause frames=\"20\"}}\n정말 {{pause frames=\"5\"}}싫어，{{pause frames=\"10\"}}\n{{pause frames=\"5\"}}{{string value=\"Catchphrase\"}}",
      "USen": "{{reaction type=\"Sadness\"}}{{pause frames=\"10\"}}Sometimes,{{pause frames=\"5\"}} I just wonder,\n\"What's the point?\"{{pause frames=\"20\"}} I've had\na bad day, {{pause frames=\"5\"}}{{string value=\"Catchphrase\"}}."
    }
  },
  {
    "label": "4",
    "attribute": "0x00000000FE000000",
    "locale": {
      "EUde": "{{reaction type=\"Distress\"}}Grrr{{pause frames=\"5\"}}.{{pause frames=\"5\"}}.{{pause frames=\"5\"}}.{{pressButton}} {{reaction type=\"Sadness\"}}{{pause frames=\"10\"}}Warum? Warum muss\nich{{pause frames=\"10\"}} die Hauptrolle in dieser\nTragödie haben{{pause frames=\"5\"}}.{{pause frames=\"5\"}}.{{pause frames=\"5\"}}.?",
      "EUen": "{{reaction type=\"Distress\"}}Awww{{pause frames=\"5\"}}.{{pause frames=\"5\"}}.{{pause frames=\"5\"}}.{{pressButton}} {{reaction type=\"Sadness\"}}{{pause frames=\"10\"}}Why, oh, why do I\nhave to be{{pause frames=\"10\"}} the star of\nthis tragedy{{pause frames=\"5\"}}.{{pause frames=\"5\"}}.{{pause frames=\"5\"}}.",
      "EUes": "{{reaction type=\"Distress\"}}Oh{{pause frames=\"5\"}}.{{pause frames=\"5\"}}.{{pause frames=\"5\"}}.{{pressButton}} {{reaction type=\"Sadness\"}}{{pause frames=\"10\"}}¿Por qué yo? ¿Por qué\ntengo que protagonizar{{pause frames=\"10\"}} yo\nesta tragedia{{pause frames=\"5\"}}.{{pause frames=\"5\"}}.{{pause frames=\"5\"}}.?",
      "EUfr": "{{reaction type=\"Distress\"}}Bouhouhou{{pause frames=\"5\"}}.{{pause frames=\"5\"}}.{{pause frames=\"5\"}}.{{pressButton}} {{reaction type=\"Sadness\"}}{{pause frames=\"10\"}}Pourquoi, oh,\npourquoi faut-il{{pause frames=\"10\"}} que je sois\nla star de cette tragédie{{pause frames=\"5\"}}.{{pause frames=\"5\"}}.{{pause frames=\"5\"}}.",
      "EUit": "{{reaction type=\"Distress\"}}Aaah{{pause frames=\"5\"}}.{{pause frames=\"5\"}}.{{pause frames=\"5\"}}.{{pressButton}} {{reaction type=\"Sadness\"}}{{pause frames=\"10\"}}Perché, perché\ndoveva capitare {{pause frames=\"10\"}}proprio a\nme! Che{{pause frames=\"10\"}} tragedia{{pause frames=\"5\"}}.{{pause frames=\"5\"}}.{{pause frames=\"5\"}}.",
      "JPja": "{{reaction type=\"Distress\"}}あぁ{{pause frames=\"5\"}}・{{pause frames=\"5\"}}・{{pause frames=\"5\"}}・{{pause frames=\"20\"}}{{pressButton}}\n{{reaction type=\"Sadness\"}}{{pause frames=\"10\"}}あたしったら　{{kanjiReplace charNum=\"1\" value=\"いま\"}}今、{{pause frames=\"10\"}}\nひげきの　ヒロイン{{pause frames=\"5\"}}・{{pause frames=\"5\"}}・{{pause frames=\"5\"}}・",
      "KRko": "{{reaction type=\"Distress\"}}아아{{pause frames=\"5\"}}・{{pause frames=\"5\"}}・{{pause frames=\"5\"}}・{{pressButton}}\n{{reaction type=\"Sadness\"}}{{pause frames=\"10\"}}난 지금{{pause frames=\"10\"}}\n비극의 주인공{{pause frames=\"5\"}}・{{pause frames=\"5\"}}・{{pause frames=\"5\"}}・",
      "USen": "{{reaction type=\"Distress\"}}Awww{{pause frames=\"5\"}}.{{pause frames=\"5\"}}.{{pause frames=\"5\"}}.{{pressButton}} {{reaction type=\"Sadness\"}}{{pause frames=\"10\"}}Why, oh, why do I\nhave to be{{pause frames=\"10\"}} the star of\nthis tragedy{{pause frames=\"5\"}}.{{pause frames=\"5\"}}.{{pause frames=\"5\"}}."
    }
  }
]