[
  {
    "label": "0",
    "attribute": "0x001C0000FE000000",
    "locale": {
      "EUde": "{{reaction type=\"Amazed\"}}Hey, warte mal! {{pause frames=\"5\"}}Der Brief\nsieht ja aus, als hätte{{pause frames=\"5\"}}.{{pause frames=\"5\"}}.{{pause frames=\"5\"}}.{{pause frames=\"5\"}}\n{{reaction type=\"Shocked\"}}IIIAAAAAAAH!\n{{reaction type=\"Sorrow\"}}Warum ist der denn\naufgerissen?{{pause frames=\"10\"}} Ich glaub es\neinfach nicht! {{pause frames=\"5\"}}{{capitalizeLetter}}{{string value=\"Catchphrase\"}}!\nJetzt muss ich den Brief\nnochmal neu schreiben!{{pause frames=\"5\"}}\nGib ihm mir zurück!{{fun_03 arg=\"0x01\"}}",
      "EUen": "{{reaction type=\"Amazed\"}}Hey, hang on, {{pause frames=\"5\"}}that letter\nlooks like it's been{{pause frames=\"5\"}}.{{pause frames=\"5\"}}.{{pause frames=\"5\"}}.{{pause frames=\"5\"}}\n{{reaction type=\"Shocked\"}}EEEEEEEEEEEEEEEEEEEEK!\n{{reaction type=\"Sorrow\"}}Why is it all torn?!{{pause frames=\"10\"}}\nOh, I can't believe this,\n{{pause frames=\"5\"}}{{string value=\"Catchphrase\"}}!\nNow I have to rewrite the\nwhole thing! {{pause frames=\"5\"}}Gimme back\nthat one!{{fun_03 arg=\"0x01\"}}",
      "EUes": "{{reaction type=\"Amazed\"}}Oye, {{pause frames=\"5\"}}esta carta tiene una\npinta toda rara{{pause frames=\"5\"}}.{{pause frames=\"5\"}}.{{pause frames=\"5\"}}.{{pause frames=\"5\"}}\n{{reaction type=\"Shocked\"}}¡¡NOOOOOOOOOOOOOOOOOO!!\n{{reaction type=\"Sorrow\"}}¡¡Está destrozada!!\n¡No puede ser verdad,\n{{pause frames=\"5\"}}{{string value=\"Catchphrase\"}}!\n¡Tengo que volver a\nescribirla! {{pause frames=\"5\"}}¡Trae aquí!{{fun_03 arg=\"0x01\"}}",
      "EUfr": "{{reaction type=\"Amazed\"}}Hé attends! {{pause frames=\"5\"}}Cette lettre!\nOn dirait qu'elle a été{{pause frames=\"5\"}}.{{pause frames=\"5\"}}.{{pause frames=\"5\"}}.{{pause frames=\"5\"}}\n{{reaction type=\"Shocked\"}}HIIIIIIIIIIIIIIIIIIIIIIIIIIIIII!\n{{reaction type=\"Sorrow\"}}Pourquoi est-elle ouverte?!{{pause frames=\"10\"}}\nJe n'arrive pas à y croire,\n{{pause frames=\"5\"}}{{string value=\"Catchphrase\"}}!\nIl va falloir que je la\nréécrive! {{pause frames=\"5\"}}Redonne-la-moi!{{fun_03 arg=\"0x01\"}}",
      "EUit": "{{reaction type=\"Amazed\"}}Ehi, aspetta un attimo, {{pause frames=\"5\"}}ma\nquella lettera sembra che\nsia stata{{pause frames=\"5\"}}.{{pause frames=\"5\"}}.{{pause frames=\"5\"}}.{{pause frames=\"5\"}}\n{{reaction type=\"Shocked\"}}EEEEEEEEEEEEEEEEEEEEK!\n{{reaction type=\"Sorrow\"}}Perché è tutta\nstropicciata?!{{pause frames=\"10\"}} Non posso\ncrederci, {{pause frames=\"5\"}}{{string value=\"Catchphrase\"}}!\nOra la devo riscrivere\ncompletamente! {{pause frames=\"5\"}}Ridammela!{{fun_03 arg=\"0x01\"}}",
      "JPja": "{{reaction type=\"Amazed\"}}その　お{{kanjiReplace charNum=\"2\" value=\"てがみ\"}}手紙って、{{pause frames=\"5\"}}\nひょっとして{{pause frames=\"5\"}}・{{pause frames=\"5\"}}・{{pause frames=\"5\"}}・{{pause frames=\"5\"}}\n{{reaction type=\"Shocked\"}}あーーーーっ！\n{{reaction type=\"Sorrow\"}}どーして　やぶれてんのー？！{{pause frames=\"10\"}}\nひどーーーい！　{{pause frames=\"5\"}}{{string value=\"Catchphrase\"}}！\n\nもっかい　{{kanjiReplace charNum=\"1\" value=\"か\"}}書き{{kanjiReplace charNum=\"1\" value=\"なお\"}}直すから\n{{kanjiReplace charNum=\"1\" value=\"かえ\"}}返してよね！{{fun_03 arg=\"0x01\"}}",
      "KRko": "{{reaction type=\"Amazed\"}}그 편지{{pause frames=\"5\"}}\n혹시{{pause frames=\"5\"}}・{{pause frames=\"5\"}}・{{pause frames=\"5\"}}・{{pause frames=\"5\"}}\n{{reaction type=\"Shocked\"}}아악！\n{{reaction type=\"Sorrow\"}}왜 뜯겨져 있지？！{{pause frames=\"10\"}}\n너무ーー해！！ {{pause frames=\"5\"}}{{string value=\"Catchphrase\"}}！\n\n다시 쓰게\n이리 내！{{fun_03 arg=\"0x0100\"}}",
      "USen": "{{reaction type=\"Amazed\"}}Hey, hang on, {{pause frames=\"5\"}}that letter\nlooks like it's been{{pause frames=\"5\"}}.{{pause frames=\"5\"}}.{{pause frames=\"5\"}}.{{pause frames=\"5\"}}\n{{reaction type=\"Shocked\"}}EEEEEEEEEEEEEEEEEEEEK!\n{{reaction type=\"Sorrow\"}}Why is it all torn?!{{pause frames=\"10\"}}\nOh, I can't believe this,\n{{pause frames=\"5\"}}{{string value=\"Catchphrase\"}}!\nNow I have to rewrite the\nwhole thing! {{pause frames=\"5\"}}Gimme back\nthat one!{{fun_03 arg=\"0x01\"}}"
    }
  },
  {
    "label": "1",
    "attribute": "0x001C0000FE000000",
    "locale": {
      "EUde": "{{resetReaction}}Eine Frage, {{string value=\"PlayerNickname\"}}...{{pause frames=\"5\"}}\n{{reaction type=\"Thought\"}}Das ist der Brief{{pause frames=\"5\"}}.{{pause frames=\"5\"}}.{{pause frames=\"5\"}}.{{pause frames=\"5\"}} den ich\ndir gegeben hatte, richtig?\n{{reaction type=\"Annoyed\"}}Warum{{pause frames=\"3\"}}{{vibrateWeak}} IST ER DANN GEÖFFNET?{{pressButton}}\n{{reaction type=\"Intense\"}}Der Brief war vertraulich!{{pause frames=\"10\"}}\nGib ihn her! {{pause frames=\"5\"}}{{string value=\"Catchphrase\"}}!{{fun_03 arg=\"0x01\"}}",
      "EUen": "{{resetReaction}}I gotta ask, {{string value=\"PlayerNickname\"}}...{{pause frames=\"5\"}}\n{{reaction type=\"Thought\"}}That letter is{{pause frames=\"5\"}}.{{pause frames=\"5\"}}.{{pause frames=\"5\"}}.{{pause frames=\"5\"}}the one I\ngave you, right?\n{{reaction type=\"Annoyed\"}}Then{{pause frames=\"3\"}}{{vibrateWeak}} WHY IS IT OPEN?!{{pressButton}}\n{{reaction type=\"Intense\"}}That's a breach of privacy!{{pause frames=\"10\"}}\nGimme that, {{pause frames=\"5\"}}{{string value=\"Catchphrase\"}}!{{fun_03 arg=\"0x01\"}}",
      "EUes": "{{resetReaction}}Oye, {{string value=\"PlayerNickname\"}}...{{pause frames=\"5\"}}\n{{reaction type=\"Thought\"}}Esa carta es{{pause frames=\"5\"}}.{{pause frames=\"5\"}}.{{pause frames=\"5\"}}.{{pause frames=\"5\"}} es la que te\npedí que entregaras, ¿no?\n{{reaction type=\"Annoyed\"}}¡¿Y{{pause frames=\"3\"}}{{vibrateWeak}} POR QUÉ ESTÁ ABIERTA?!{{pressButton}}\n{{reaction type=\"Intense\"}}¡Has invadido mi intimidad!{{pause frames=\"10\"}}\n¡Dámela, {{pause frames=\"5\"}}{{string value=\"Catchphrase\"}}!{{fun_03 arg=\"0x01\"}}",
      "EUfr": "{{resetReaction}}Dis-moi, {{string value=\"PlayerNickname\"}}...{{pause frames=\"5\"}}\n{{reaction type=\"Thought\"}}Cette lettre{{pause frames=\"5\"}}.{{pause frames=\"5\"}}.{{pause frames=\"5\"}}.{{pause frames=\"5\"}} c'est celle\nque je t'ai donnée?\n{{reaction type=\"Annoyed\"}}Alors{{pause frames=\"3\"}}{{vibrateWeak}} POURQUOI EST-ELLE\nOUVERTE?!{{pressButton}} {{reaction type=\"Intense\"}}Tu t'immisces dans\nma vie privée, {{pause frames=\"5\"}}{{string value=\"Catchphrase\"}}!{{fun_03 arg=\"0x01\"}}",
      "EUit": "{{resetReaction}}Senti, {{string value=\"PlayerNickname\"}}...{{pause frames=\"5\"}}\n{{reaction type=\"Thought\"}}Quella è{{pause frames=\"5\"}}.{{pause frames=\"5\"}}.{{pause frames=\"5\"}}.{{pause frames=\"5\"}} la lettera\nche ti ho dato io, giusto?\n{{reaction type=\"Annoyed\"}}Mi sai spiegare allora{{pause frames=\"3\"}}{{vibrateWeak}}\nPERCHÉ È APERTA?!{{pressButton}} {{reaction type=\"Intense\"}}Non sai\ncos'è la privacy?!{{pause frames=\"10\"}}\nRidammela, {{pause frames=\"5\"}}{{string value=\"Catchphrase\"}}!{{fun_03 arg=\"0x01\"}}",
      "JPja": "{{resetReaction}}ところで　{{string value=\"PlayerNickname\"}}ちゃん、{{pause frames=\"5\"}}\n{{reaction type=\"Thought\"}}その　お{{kanjiReplace charNum=\"2\" value=\"てがみ\"}}手紙って{{pause frames=\"5\"}}・{{pause frames=\"5\"}}・{{pause frames=\"5\"}}・{{pause frames=\"5\"}}\nアタイが　わたしたヤツだよね？\n{{reaction type=\"Annoyed\"}}じゃ、{{pause frames=\"3\"}}なんで　{{kanjiReplace charNum=\"1\" value=\"あ\"}}開いてんのよ！{{pressButton}}\n{{reaction type=\"Intense\"}}プライバシーの　シンガイだよ？{{pause frames=\"10\"}}\n{{kanjiReplace charNum=\"1\" value=\"かえ\"}}返してっ！　{{pause frames=\"5\"}}{{string value=\"Catchphrase\"}}！{{fun_03 arg=\"0x01\"}}",
      "KRko": "{{resetReaction}}근데 {{string value=\"PlayerNickname\"}}{{fun_0B arg=\"0x0400\"}}，{{pause frames=\"5\"}}\n{{reaction type=\"Thought\"}}그 편지 말야{{pause frames=\"5\"}}・{{pause frames=\"5\"}}・{{pause frames=\"5\"}}・{{pause frames=\"5\"}}\n내가 준 거 맞지？\n{{reaction type=\"Annoyed\"}}근데 {{pause frames=\"3\"}}왜 뜯어본 거야？{{pressButton}}\n{{reaction type=\"Intense\"}}이건 프라이버시 침해야！{{pause frames=\"10\"}}\n당장 이리 줘！ {{pause frames=\"5\"}}{{string value=\"Catchphrase\"}}！{{fun_03 arg=\"0x0100\"}}",
      "USen": "{{resetReaction}}I gotta ask, {{string value=\"PlayerNickname\"}}...{{pause frames=\"5\"}}\n{{reaction type=\"Thought\"}}That letter is{{pause frames=\"5\"}}.{{pause frames=\"5\"}}.{{pause frames=\"5\"}}.{{pause frames=\"5\"}}the one I\ngave you, right?\n{{reaction type=\"Annoyed\"}}Then{{pause frames=\"3\"}}{{vibrateWeak}} WHY IS IT OPEN?!{{pressButton}}\n{{reaction type=\"Intense\"}}That's a breach of privacy!{{pause frames=\"10\"}}\nGimme that, {{pause frames=\"5\"}}{{string value=\"Catchphrase\"}}!{{fun_03 arg=\"0x01\"}}"
    }
  },
  {
    "label": "2",
    "attribute": "0x001C0000FE000000",
    "locale": {
      "EUde": "{{resetReaction}}.{{pause frames=\"5\"}}.{{pause frames=\"5\"}}.{{pause frames=\"5\"}}{{reaction type=\"Curiosity\"}}Nanu?!?{{pause frames=\"10\"}} Der Brief{{pause frames=\"5\"}}.{{pause frames=\"5\"}}.{{pause frames=\"5\"}}.\n\n\n{{reaction type=\"Shocked\"}}Sag jetzt bitte, dass das\nnicht mein Brief ist!{{pause frames=\"20\"}}\n{{reaction type=\"Intense\"}}Hast du ihn...{{pause frames=\"5\"}} geöffnet?\n{{reaction type=\"Aggravation\"}}Du bist ja widerlich!{{pressButton}} {{reaction type=\"Intense\"}}BÄH!!!\n{{pause frames=\"5\"}}Das gibts doch nicht!{{pause frames=\"10\"}}\nGib ihn zurück! {{pause frames=\"5\"}}{{capitalizeLetter}}{{string value=\"Catchphrase\"}}!{{fun_03 arg=\"0x01\"}}",
      "EUen": "{{resetReaction}}.{{pause frames=\"5\"}}.{{pause frames=\"5\"}}.{{pause frames=\"5\"}}{{reaction type=\"Curiosity\"}}Huh?!{{pause frames=\"10\"}} Wait, that letter{{pause frames=\"5\"}}.{{pause frames=\"5\"}}.{{pause frames=\"5\"}}.\n\n\n{{reaction type=\"Shocked\"}}That just CAN'T be the one\nI asked you to deliver!{{pause frames=\"20\"}}\n{{reaction type=\"Intense\"}}Did you...{{pause frames=\"5\"}}open it?\n{{reaction type=\"Aggravation\"}}You horrible person!{{pressButton}}\n{{reaction type=\"Intense\"}}AIIGH!! {{pause frames=\"5\"}}I can't believe you!{{pause frames=\"10\"}}\nGive it back, {{pause frames=\"5\"}}{{string value=\"Catchphrase\"}}!{{fun_03 arg=\"0x01\"}}",
      "EUes": "{{resetReaction}}Hola.{{pause frames=\"5\"}}.{{pause frames=\"5\"}}.{{pause frames=\"5\"}}{{reaction type=\"Curiosity\"}} ¿Eh?{{pause frames=\"10\"}} Oye{{pause frames=\"5\"}}.{{pause frames=\"5\"}}.{{pause frames=\"5\"}}.\nEsa carta{{pause frames=\"5\"}}.{{pause frames=\"5\"}}.{{pause frames=\"5\"}}.\n\n{{reaction type=\"Shocked\"}}¡No me digas que es la que\nte pedí que entregaras!{{pause frames=\"20\"}}\n{{reaction type=\"Intense\"}}¡¿La has... {{pause frames=\"5\"}}ABIERTO?!\n{{reaction type=\"Aggravation\"}}¡Qué horrible eres!{{pressButton}}\n{{reaction type=\"Intense\"}}¡AARRGH! {{pause frames=\"5\"}}¿Cómo has podido?{{pause frames=\"10\"}}\n¡Dámela, {{pause frames=\"5\"}}{{string value=\"Catchphrase\"}}!{{fun_03 arg=\"0x01\"}}",
      "EUfr": "{{resetReaction}}.{{pause frames=\"5\"}}.{{pause frames=\"5\"}}.{{pause frames=\"5\"}}{{reaction type=\"Curiosity\"}} Eh?!{{pause frames=\"10\"}} Cette lettre{{pause frames=\"5\"}}.{{pause frames=\"5\"}}.{{pause frames=\"5\"}}.\n\n\n{{reaction type=\"Shocked\"}}C'est impossible. Je t'avais\ndemandé de la porter!{{pause frames=\"20\"}}\n{{reaction type=\"Intense\"}}Tu l'as...{{pause frames=\"5\"}} ouverte?\n{{reaction type=\"Aggravation\"}}Tu es un monstre!{{pressButton}}\n{{reaction type=\"Intense\"}}AAH!! {{pause frames=\"5\"}}Quelle honte!\n{{pause frames=\"10\"}}Rends-la-moi, {{pause frames=\"5\"}}{{string value=\"Catchphrase\"}}!{{fun_03 arg=\"0x01\"}}",
      "EUit": "{{resetReaction}}.{{pause frames=\"5\"}}.{{pause frames=\"5\"}}.{{pause frames=\"5\"}}{{reaction type=\"Curiosity\"}} Uh?!{{pause frames=\"10\"}} Aspetta, quella\nlettera{{pause frames=\"5\"}}.{{pause frames=\"5\"}}.{{pause frames=\"5\"}}.\n\n{{reaction type=\"Shocked\"}}NON PUÒ essere la lettera\nche ti avevo chiesto di\nconsegnare!{{pause frames=\"20\"}}\n{{reaction type=\"Intense\"}}L'hai...{{pause frames=\"5\"}} aperta?\n{{reaction type=\"Aggravation\"}}Ma sei una persona orribile!{{pressButton}}\n{{reaction type=\"Intense\"}}AIGH! {{pause frames=\"5\"}}Incredibile!{{pause frames=\"10\"}}\nRidammela, {{pause frames=\"5\"}}{{string value=\"Catchphrase\"}}!{{fun_03 arg=\"0x01\"}}",
      "JPja": "{{resetReaction}}・{{pause frames=\"5\"}}・{{pause frames=\"5\"}}・{{pause frames=\"5\"}}{{reaction type=\"Curiosity\"}}あれ？！{{pause frames=\"10\"}}\nその　ふうが\nやぶれちゃってる　お{{kanjiReplace charNum=\"2\" value=\"てがみ\"}}手紙{{pause frames=\"5\"}}・{{pause frames=\"5\"}}・{{pause frames=\"5\"}}・\n{{reaction type=\"Shocked\"}}やっぱり、{{pause frames=\"5\"}}アタイが\n{{kanjiReplace charNum=\"1\" value=\"あず\"}}預けたヤツじゃん！{{pause frames=\"20\"}}\n{{reaction type=\"Intense\"}}まさか　アンタ、{{pause frames=\"5\"}}{{kanjiReplace charNum=\"1\" value=\"なか\"}}中{{kanjiReplace charNum=\"1\" value=\"み\"}}見たの？\n{{reaction type=\"Aggravation\"}}サイアクーーー！{{pressButton}}\n{{reaction type=\"Intense\"}}もうっ、{{pause frames=\"5\"}}アンタって{{kanjiReplace charNum=\"1\" value=\"ヒト\"}}人はー！{{fun_03 arg=\"0x01\"}}",
      "KRko": "{{resetReaction}}・{{pause frames=\"5\"}}・{{pause frames=\"5\"}}・{{pause frames=\"5\"}}{{reaction type=\"Curiosity\"}}어맛？！{{pause frames=\"10\"}}\n그 봉투가 \n뜯겨져 있는 편지{{pause frames=\"5\"}}・{{pause frames=\"5\"}}・{{pause frames=\"5\"}}・\n{{reaction type=\"Shocked\"}}내가 {{pause frames=\"5\"}}맡긴 거\n맞지！{{pause frames=\"20\"}}\n{{reaction type=\"Intense\"}}설마 너， {{pause frames=\"5\"}}내용 본 거야？\n{{reaction type=\"Aggravation\"}}꺄악 너무해ー！ {{pressButton}}\n{{reaction type=\"Intense\"}}도대체 {{pause frames=\"5\"}}너란 사람은ー！{{pause frames=\"10\"}}\n이리 돌려줘！ {{pause frames=\"5\"}}{{string value=\"Catchphrase\"}}！{{fun_03 arg=\"0x0100\"}}",
      "USen": "{{resetReaction}}.{{pause frames=\"5\"}}.{{pause frames=\"5\"}}.{{pause frames=\"5\"}}{{reaction type=\"Curiosity\"}}Huh?!{{pause frames=\"10\"}} Wait, that letter{{pause frames=\"5\"}}.{{pause frames=\"5\"}}.{{pause frames=\"5\"}}.\n\n\n{{reaction type=\"Shocked\"}}That just CAN'T be the one\nI asked you to deliver!{{pause frames=\"20\"}}\n{{reaction type=\"Intense\"}}Did you...{{pause frames=\"5\"}}open it?\n{{reaction type=\"Aggravation\"}}You horrible person!{{pressButton}}\n{{reaction type=\"Intense\"}}AIIGH!! {{pause frames=\"5\"}}I can't believe you!{{pause frames=\"10\"}}\nGive it back, {{pause frames=\"5\"}}{{string value=\"Catchphrase\"}}!{{fun_03 arg=\"0x01\"}}"
    }
  }
]