[
  {
    "label": "0",
    "attribute": "0x00000000FF000000",
    "locale": {
      "EUde": "{{reaction type=\"Laughter\"}}Guck dir das an!{{pause frames=\"5\"}} Boah!{{pause frames=\"10\"}}\nWas für eine Type!\n{{pause frames=\"5\"}}{{capitalizeLetter}}{{string value=\"Catchphrase\"}}!",
      "EUen": "{{reaction type=\"Laughter\"}}Check it out!{{pause frames=\"5\"}} So awesome!{{pause frames=\"10\"}}\nWhat a total crack-up,\n{{pause frames=\"5\"}}{{string value=\"Catchphrase\"}}!",
      "EUes": "{{reaction type=\"Laughter\"}}¡Mira, mira,{{pause frames=\"5\"}} es genial!{{pause frames=\"10\"}} ¡Esta\ncarta es para caerse de la\nrisa, {{pause frames=\"5\"}}{{string value=\"Catchphrase\"}}!",
      "EUfr": "{{reaction type=\"Laughter\"}}Regarde!{{pause frames=\"5\"}} Génial!{{pause frames=\"10\"}}\nC'est vraiment trop fort,\n{{pause frames=\"5\"}}{{string value=\"Catchphrase\"}}!",
      "EUit": "{{reaction type=\"Laughter\"}}Fantastica!{{pause frames=\"5\"}} Incredibile!{{pause frames=\"10\"}}\nAnzi, dirompente,\n{{pause frames=\"5\"}}{{string value=\"Catchphrase\"}}!",
      "JPja": "{{reaction type=\"Laughter\"}}ホラ、{{pause frames=\"5\"}}{{kanjiReplace charNum=\"1\" value=\"み\"}}見てよココ！{{pause frames=\"10\"}}\nあの{{kanjiReplace charNum=\"1\" value=\"コ\"}}子ったら、{{pause frames=\"5\"}}{{string value=\"Catchphrase\"}}！",
      "KRko": "{{reaction type=\"Laughter\"}}어머， {{pause frames=\"5\"}}이것 좀 봐！ {{pause frames=\"10\"}}\n걔 웬일이니， {{pause frames=\"5\"}}{{string value=\"Catchphrase\"}}！",
      "USen": "{{reaction type=\"Laughter\"}}Check it out!{{pause frames=\"5\"}} So awesome!{{pause frames=\"10\"}}\nWhat a total crack-up,\n{{pause frames=\"5\"}}{{string value=\"Catchphrase\"}}!"
    }
  },
  {
    "label": "1",
    "attribute": "0x00000000FF000000",
    "locale": {
      "EUde": "{{reaction type=\"Curiosity\"}}{{capitalizeLetter}}{{string value=\"PlayerNickname\"}}! Willst du auch\nmal einen Blick riskieren?{{pressButton}}\n{{reaction type=\"Happiness\"}}Hier, weil du es bist!",
      "EUen": "{{reaction type=\"Curiosity\"}}{{capitalizeLetter}}{{string value=\"PlayerNickname\"}}, you wanna\nsneak a peek at it, too?{{pressButton}}\n{{reaction type=\"Happiness\"}}OK then, just for you!",
      "EUes": "{{reaction type=\"Curiosity\"}}¿Te gustaría leerla,\n{{string value=\"PlayerNickname\"}}?{{pressButton}}\n{{reaction type=\"Happiness\"}}¡Vale, pero porque eres tú!",
      "EUfr": "{{reaction type=\"Curiosity\"}}{{capitalizeLetter}}{{string value=\"PlayerNickname\"}}, tu veux y\njeter un coup d'œil?{{pressButton}}\n{{reaction type=\"Happiness\"}}Mais rapide alors!",
      "EUit": "{{reaction type=\"Curiosity\"}}{{capitalizeLetter}}{{string value=\"PlayerNickname\"}}, vuoi dare\nun'occhiatina?{{pressButton}} {{reaction type=\"Happiness\"}}OK allora,\nsolo per i tuoi occhi!",
      "JPja": "{{reaction type=\"Curiosity\"}}{{string value=\"PlayerNickname\"}}ちゃんも　{{kanjiReplace charNum=\"1\" value=\"み\"}}見たいの？{{pressButton}}\n{{reaction type=\"Happiness\"}}じゃ　トクベツだよー！",
      "KRko": "{{reaction type=\"Curiosity\"}}{{string value=\"PlayerNickname\"}}도 보고 싶어？{{pressButton}}\n{{reaction type=\"Happiness\"}}그럼 특별히 보여 줄게！",
      "USen": "{{reaction type=\"Curiosity\"}}{{capitalizeLetter}}{{string value=\"PlayerNickname\"}}, you wanna\nsneak a peek at it, too?{{pressButton}}\n{{reaction type=\"Happiness\"}}OK then, just for you!"
    }
  },
  {
    "label": "2",
    "attribute": "0x00000000FF000000",
    "locale": {
      "EUde": "Hey, {{pause frames=\"5\"}}{{string value=\"PlayerNickname\"}}! Komm, wir\nlesen den Brief zusammen!\n{{pause frames=\"5\"}}{{capitalizeLetter}}{{string value=\"Catchphrase\"}}!",
      "EUen": "Hey, {{pause frames=\"5\"}}{{string value=\"PlayerNickname\"}}, let's read\nit together, {{pause frames=\"5\"}}{{string value=\"Catchphrase\"}}!",
      "EUes": "Eh, {{pause frames=\"5\"}}{{string value=\"PlayerNickname\"}}, ¡ven a\nleerla conmigo, {{pause frames=\"5\"}}{{string value=\"Catchphrase\"}}!",
      "EUfr": "Hé, {{pause frames=\"5\"}}{{string value=\"PlayerNickname\"}}, si on la\nlisait ensemble,\n{{pause frames=\"5\"}}{{string value=\"Catchphrase\"}}!",
      "EUit": "Ehi, {{pause frames=\"5\"}}{{string value=\"PlayerNickname\"}}, leggiamola\ninsieme, {{pause frames=\"5\"}}{{string value=\"Catchphrase\"}}!",
      "JPja": "ねぇねぇ、{{pause frames=\"5\"}}{{string value=\"PlayerNickname\"}}ちゃんも\nいっしょに　{{kanjiReplace charNum=\"1\" value=\"み\"}}見よーよ！\n{{pause frames=\"5\"}}{{string value=\"Catchphrase\"}}！",
      "KRko": "후후， {{pause frames=\"5\"}}{{string value=\"PlayerNickname\"}}도\n같이 보자！\n{{pause frames=\"5\"}}{{string value=\"Catchphrase\"}}！",
      "USen": "Hey, {{pause frames=\"5\"}}{{string value=\"PlayerNickname\"}}, let's read\nit together, {{pause frames=\"5\"}}{{string value=\"Catchphrase\"}}!"
    }
  }
]