[
  {
    "label": "0",
    "attribute": "",
    "locale": {
      "EUde": "ein ",
      "EUen": "a ",
      "EUes": "un ",
      "EUfr": "un ",
      "EUit": "un ",
      "JPja": "ａ　",
      "KRko": "ａ",
      "USen": "a "
    }
  },
  {
    "label": "1",
    "attribute": "",
    "locale": {
      "EUde": "eine ",
      "EUen": "an ",
      "EUes": "una ",
      "EUfr": "une ",
      "EUit": "uno ",
      "JPja": "ａｎ　",
      "KRko": "ａｎ ",
      "USen": "an "
    }
  },
  {
    "label": "2",
    "attribute": "",
    "locale": {
      "EUde": "der ",
      "EUen": "the ",
      "EUes": "el ",
      "EUfr": "le ",
      "EUit": "una ",
      "JPja": "ｔｈｅ　",
      "KRko": "ｔｈｅ",
      "USen": "the "
    }
  },
  {
    "label": "3",
    "attribute": "",
    "locale": {
      "EUde": "die ",
      "EUen": "some ",
      "EUes": "la ",
      "EUfr": "la ",
      "EUit": "un'",
      "JPja": "",
      "KRko": "ｓｏｍｅ",
      "USen": "some "
    }
  },
  {
    "label": "4",
    "attribute": "",
    "locale": {
      "EUde": "das ",
      "EUen": "",
      "EUes": "los ",
      "EUfr": "l'",
      "EUit": "il ",
      "JPja": "",
      "KRko": "",
      "USen": ""
    }
  },
  {
    "label": "5",
    "attribute": "",
    "locale": {
      "EUde": "einige ",
      "EUen": "",
      "EUes": "las ",
      "EUfr": "les ",
      "EUit": "lo ",
      "JPja": "",
      "KRko": "",
      "USen": ""
    }
  }
]