[
  {
    "label": "00",
    "attribute": "",
    "locale": {
      "EUde": "{{fun_0B arg=\"0xFFFFFF\"}}Kirschtorten",
      "EUen": "chiffon cake",
      "EUes": "{{fun_0B arg=\"0x00FF02\"}}bizcocho",
      "EUfr": "{{fun_0B arg=\"0x010701\"}}génoise",
      "EUit": "torte millefoglie",
      "JPja": "シフォンケーキ",
      "KRko": "쉬폰케이크",
      "USen": "chiffon cake"
    }
  },
  {
    "label": "01",
    "attribute": "",
    "locale": {
      "EUde": "{{fun_0B arg=\"0xFFFFFF\"}}Apfelstrudel",
      "EUen": "sponge cake",
      "EUes": "{{fun_0B arg=\"0x01FF03\"}}tarta",
      "EUfr": "{{fun_0B arg=\"0x000600\"}}gâteau éponge",
      "EUit": "torte di fragola",
      "JPja": "おいもカステラ",
      "KRko": "스펀지케이크",
      "USen": "sponge cake"
    }
  },
  {
    "label": "02",
    "attribute": "",
    "locale": {
      "EUde": "{{fun_0B arg=\"0xFFFFFF\"}}Vanillelutscher",
      "EUen": "vanilla ice cream",
      "EUes": "{{fun_0B arg=\"0x01FF03\"}}mousse",
      "EUfr": "{{fun_0B arg=\"0x000600\"}}cône vanille",
      "EUit": "gelatine",
      "JPja": "バウムクーヘン",
      "KRko": "바움쿠헨",
      "USen": "vanilla ice cream"
    }
  },
  {
    "label": "03",
    "attribute": "",
    "locale": {
      "EUde": "{{fun_0B arg=\"0xFFFFFF\"}}Sorbets",
      "EUen": "sorbet",
      "EUes": "{{fun_0B arg=\"0x00FF02\"}}helado",
      "EUfr": "{{fun_0B arg=\"0x000600\"}}sorbet",
      "EUit": "caramelle",
      "JPja": "フルーツパフェ",
      "KRko": "후르츠파르페",
      "USen": "sorbet"
    }
  },
  {
    "label": "04",
    "attribute": "",
    "locale": {
      "EUde": "{{fun_0B arg=\"0xFFFFFF\"}}Schokobananen",
      "EUen": "bananas Foster",
      "EUes": "{{fun_0B arg=\"0x01FF03\"}}trufa helada",
      "EUfr": "{{fun_0B arg=\"0x000600\"}}banana split",
      "EUit": "pastarelle",
      "JPja": "ドーナッツ",
      "KRko": "도넛",
      "USen": "bananas Foster"
    }
  },
  {
    "label": "05",
    "attribute": "",
    "locale": {
      "EUde": "{{fun_0B arg=\"0xFFFFFF\"}}Schokokuchen",
      "EUen": "chocolate cake",
      "EUes": "{{fun_0B arg=\"0x00FF02\"}}tiramisú",
      "EUfr": "{{fun_0B arg=\"0x000600\"}}gâteau marbré",
      "EUit": "frittelle",
      "JPja": "チョコトリュフ",
      "KRko": "트뤼플초콜릿",
      "USen": "chocolate cake"
    }
  },
  {
    "label": "06",
    "attribute": "",
    "locale": {
      "EUde": "{{fun_0B arg=\"0xFFFFFF\"}}Zimtrollen",
      "EUen": "baklava",
      "EUes": "{{fun_0B arg=\"0x01FF03\"}}cuajada",
      "EUfr": "{{fun_0B arg=\"0x000600\"}}baklava",
      "EUit": "torte alla panna",
      "JPja": "あんにんどうふ",
      "KRko": "젤리",
      "USen": "baklava"
    }
  },
  {
    "label": "07",
    "attribute": "",
    "locale": {
      "EUde": "{{fun_0B arg=\"0xFFFFFF\"}}Birnenkuchen",
      "EUen": "pear cake",
      "EUes": "{{fun_0B arg=\"0x01FF03\"}}leche frita",
      "EUfr": "{{fun_0B arg=\"0x010701\"}}tarte tatin",
      "EUit": "mele candite",
      "JPja": "レモンタルト",
      "KRko": "레몬타르트",
      "USen": "pear cake"
    }
  },
  {
    "label": "08",
    "attribute": "",
    "locale": {
      "EUde": "{{fun_0B arg=\"0xFFFFFF\"}}Käsekuchen",
      "EUen": "cheesecake",
      "EUes": "{{fun_0B arg=\"0x00FF02\"}}tartufo",
      "EUfr": "{{fun_0B arg=\"0x000600\"}}cheesecake",
      "EUit": "torte alla crema",
      "JPja": "レアチーズケーキ",
      "KRko": "레어치즈케이크",
      "USen": "cheesecake"
    }
  },
  {
    "label": "09",
    "attribute": "",
    "locale": {
      "EUde": "{{fun_0B arg=\"0xFFFFFF\"}}Pfirsichstrudel",
      "EUen": "peach pie",
      "EUes": "{{fun_0B arg=\"0x01FF03\"}}cuajada",
      "EUfr": "{{fun_0B arg=\"0x010701\"}}pêche melba",
      "EUit": "crêpe dolci",
      "JPja": "ナタデココ",
      "KRko": "경주빵",
      "USen": "peach pie"
    }
  },
  {
    "label": "10",
    "attribute": "",
    "locale": {
      "EUde": "{{fun_0B arg=\"0xFFFFFF\"}}Rhabarberkuchen",
      "EUen": "flan",
      "EUes": "{{fun_0B arg=\"0x00FF02\"}}flan",
      "EUfr": "{{fun_0B arg=\"0x000600\"}}flan",
      "EUit": "pastiere",
      "JPja": "モンブラン",
      "KRko": "몽블랑케이크",
      "USen": "flan"
    }
  },
  {
    "label": "11",
    "attribute": "",
    "locale": {
      "EUde": "{{fun_0B arg=\"0xFFFFFF\"}}Lebkuchen",
      "EUen": "biscotti",
      "EUes": "{{fun_0B arg=\"0x01FF03\"}}carlota",
      "EUfr": "{{fun_0B arg=\"0x000600\"}}spéculos",
      "EUit": "crespelle",
      "JPja": "スコーン",
      "KRko": "스콘",
      "USen": "biscotti"
    }
  },
  {
    "label": "12",
    "attribute": "",
    "locale": {
      "EUde": "{{fun_0B arg=\"0xFFFFFF\"}}Schokoriegel",
      "EUen": "lemon ice",
      "EUes": "{{fun_0B arg=\"0x01FF03\"}}gelatina",
      "EUfr": "{{fun_0B arg=\"0x000600\"}}citron givré",
      "EUit": "ciambelle",
      "JPja": "ロールケーキ",
      "KRko": "롤케이크",
      "USen": "lemon ice"
    }
  },
  {
    "label": "13",
    "attribute": "",
    "locale": {
      "EUde": "{{fun_0B arg=\"0xFFFFFF\"}}Bananenbrote",
      "EUen": "banana bread",
      "EUes": "{{fun_0B arg=\"0x00FF02\"}}plátano frito",
      "EUfr": "{{fun_0B arg=\"0x000600\"}}beignet banane",
      "EUit": "mousse all'arancia",
      "JPja": "シュークリーム",
      "KRko": "슈크림",
      "USen": "banana bread"
    }
  },
  {
    "label": "14",
    "attribute": "",
    "locale": {
      "EUde": "{{fun_0B arg=\"0xFFFFFF\"}}Karottenkuchen",
      "EUen": "carrot cake",
      "EUes": "{{fun_0B arg=\"0x00FF02\"}}yogur",
      "EUfr": "{{fun_0B arg=\"0x000600\"}}muffin",
      "EUit": "brioche",
      "JPja": "ミルフィーユ",
      "KRko": "호두과자",
      "USen": "carrot cake"
    }
  },
  {
    "label": "15",
    "attribute": "",
    "locale": {
      "EUde": "{{fun_0B arg=\"0xFFFFFF\"}}Apfelküchlein",
      "EUen": "mousse",
      "EUes": "{{fun_0B arg=\"0x00FF02\"}}helado",
      "EUfr": "{{fun_0B arg=\"0x010701\"}}mousse",
      "EUit": "mousse",
      "JPja": "ホワイトババロア",
      "KRko": "바바루아",
      "USen": "mousse"
    }
  },
  {
    "label": "16",
    "attribute": "",
    "locale": {
      "EUde": "{{fun_0B arg=\"0xFFFFFF\"}}Kokosnüsse",
      "EUen": "coconut custard",
      "EUes": "{{fun_0B arg=\"0x01FF03\"}}casatta",
      "EUfr": "{{fun_0B arg=\"0x010701\"}}crème brûlée",
      "EUit": "Sacher",
      "JPja": "ホットケーキ",
      "KRko": "핫케이크",
      "USen": "coconut custard"
    }
  },
  {
    "label": "17",
    "attribute": "",
    "locale": {
      "EUde": "{{fun_0B arg=\"0xFFFFFF\"}}Karibikfrüchte",
      "EUen": "yogurt parfait",
      "EUes": "{{fun_0B arg=\"0x01FF03\"}}tarta tatin",
      "EUfr": "{{fun_0B arg=\"0x000600\"}}tiramisu",
      "EUit": "Saint Honoré",
      "JPja": "ヨーグルトパフェ",
      "KRko": "요구르트파르페",
      "USen": "yogurt parfait"
    }
  },
  {
    "label": "18",
    "attribute": "",
    "locale": {
      "EUde": "{{fun_0B arg=\"0xFFFFFF\"}}Sahnekuchen",
      "EUen": "cream pie",
      "EUes": "{{fun_0B arg=\"0x01FF03\"}}tarta helada",
      "EUfr": "{{fun_0B arg=\"0x010701\"}}forêt-noire",
      "EUit": "bombe alla crema",
      "JPja": "チョコバナナ",
      "KRko": "바나나스플릿",
      "USen": "cream pie"
    }
  },
  {
    "label": "19",
    "attribute": "",
    "locale": {
      "EUde": "{{fun_0B arg=\"0xFFFFFF\"}}Kaffeebonbons",
      "EUen": "mochi",
      "EUes": "{{fun_0B arg=\"0x01FF03\"}}macedonia",
      "EUfr": "{{fun_0B arg=\"0x000600\"}}macaron",
      "EUit": "crostate",
      "JPja": "キャロットパイ",
      "KRko": "당근케이크",
      "USen": "mochi"
    }
  },
  {
    "label": "20",
    "attribute": "",
    "locale": {
      "EUde": "{{fun_0B arg=\"0xFFFFFF\"}}Colabonbons",
      "EUen": "chocolate pudding",
      "EUes": "{{fun_0B arg=\"0x01FF03\"}}cuajada",
      "EUfr": "{{fun_0B arg=\"0x000600\"}}pudding",
      "EUit": "merendine",
      "JPja": "グレープゼリー",
      "KRko": "포도젤리",
      "USen": "chocolate pudding"
    }
  },
  {
    "label": "21",
    "attribute": "",
    "locale": {
      "EUde": "{{fun_0B arg=\"0xFFFFFF\"}}Pflaumenkuchen",
      "EUen": "berry trifle",
      "EUes": "{{fun_0B arg=\"0x00FF02\"}}milhojas",
      "EUfr": "{{fun_0B arg=\"0x000600\"}}baba au rhum",
      "EUit": "sfogliatelle",
      "JPja": "フルーツタルト",
      "KRko": "후르츠타르트",
      "USen": "berry trifle"
    }
  },
  {
    "label": "22",
    "attribute": "",
    "locale": {
      "EUde": "{{fun_0B arg=\"0xFFFFFF\"}}Birnenbonbons",
      "EUen": "peach crumble",
      "EUes": "{{fun_0B arg=\"0x00FF02\"}}merengue",
      "EUfr": "{{fun_0B arg=\"0x000600\"}}crumble",
      "EUit": "meringhe",
      "JPja": "アップルパイ",
      "KRko": "애플파이",
      "USen": "peach crumble"
    }
  },
  {
    "label": "23",
    "attribute": "",
    "locale": {
      "EUde": "{{fun_0B arg=\"0xFFFFFF\"}}Erdbeerbonbons",
      "EUen": "baked Alaska",
      "EUes": "{{fun_0B arg=\"0x00FF02\"}}soufflé",
      "EUfr": "{{fun_0B arg=\"0x010701\"}}religieuse",
      "EUit": "torte di prugne",
      "JPja": "かぼちゃのパイ",
      "KRko": "호박파이",
      "USen": "baked Alaska"
    }
  },
  {
    "label": "24",
    "attribute": "",
    "locale": {
      "EUde": "{{fun_0B arg=\"0xFFFFFF\"}}Zitronenkuchen",
      "EUen": "pecan pie",
      "EUes": "{{fun_0B arg=\"0x00FF02\"}}dulce de leche",
      "EUfr": "{{fun_0B arg=\"0x000600\"}}millefeuille",
      "EUit": "pesche ripiene",
      "JPja": "マロングラッセ",
      "KRko": "호두파이",
      "USen": "pecan pie"
    }
  },
  {
    "label": "25",
    "attribute": "",
    "locale": {
      "EUde": "{{fun_0B arg=\"0xFFFFFF\"}}Kirschkuchen",
      "EUen": "cherry delight",
      "EUes": "{{fun_0B arg=\"0x01FF03\"}}compota",
      "EUfr": "{{fun_0B arg=\"0x000600\"}}clafoutis",
      "EUit": "torte farcite",
      "JPja": "チョコサンデー",
      "KRko": "초콜릿선데",
      "USen": "cherry delight"
    }
  },
  {
    "label": "26",
    "attribute": "",
    "locale": {
      "EUde": "{{fun_0B arg=\"0xFFFFFF\"}}Milchbonbons",
      "EUen": "rice pudding",
      "EUes": "{{fun_0B arg=\"0x01FF03\"}}tarta de queso",
      "EUfr": "{{fun_0B arg=\"0x000600\"}}gâteau de riz",
      "EUit": "pesche sciroppate",
      "JPja": "ナッツビスケット",
      "KRko": "땅콩비스켓",
      "USen": "rice pudding"
    }
  },
  {
    "label": "27",
    "attribute": "",
    "locale": {
      "EUde": "{{fun_0B arg=\"0xFFFFFF\"}}Mohnkuchen",
      "EUen": "tea cake",
      "EUes": "{{fun_0B arg=\"0x00FF02\"}}arroz dulce",
      "EUfr": "{{fun_0B arg=\"0x000600\"}}quatre-quart",
      "EUit": "zeppole",
      "JPja": "こうちゃのケーキ",
      "KRko": "홍차케이크",
      "USen": "tea cake"
    }
  },
  {
    "label": "28",
    "attribute": "",
    "locale": {
      "EUde": "{{fun_0B arg=\"0xFFFFFF\"}}Pfirsichkuchen",
      "EUen": "peach pie",
      "EUes": "{{fun_0B arg=\"0x00FF02\"}}petisú",
      "EUfr": "{{fun_0B arg=\"0x000600\"}}fraisier",
      "EUit": "sbrisolone",
      "JPja": "どんぐりケーキ",
      "KRko": "도토리케이크",
      "USen": "peach pie"
    }
  },
  {
    "label": "29",
    "attribute": "",
    "locale": {
      "EUde": "{{fun_0B arg=\"0xFFFFFF\"}}Kirschstrudel",
      "EUen": "cherry pie",
      "EUes": "{{fun_0B arg=\"0x01FF03\"}}panna cotta",
      "EUfr": "{{fun_0B arg=\"0x000600\"}}marron glacé",
      "EUit": "torte di mele",
      "JPja": "カスタードケーキ",
      "KRko": "커스터드케이크",
      "USen": "cherry pie"
    }
  },
  {
    "label": "30",
    "attribute": "",
    "locale": {
      "EUde": "{{fun_0B arg=\"0xFFFFFF\"}}Karamell",
      "EUen": "chocolate soufflé",
      "EUes": "{{fun_0B arg=\"0x00FF02\"}}flan",
      "EUfr": "{{fun_0B arg=\"0x000800\"}}éclair au café",
      "EUit": "nevole",
      "JPja": "プリンアラモード",
      "KRko": "붕어빵",
      "USen": "chocolate soufflé"
    }
  },
  {
    "label": "31",
    "attribute": "",
    "locale": {
      "EUde": "{{fun_0B arg=\"0xFFFFFF\"}}Mangolutscher",
      "EUen": "mango mousse",
      "EUes": "{{fun_0B arg=\"0x01FF03\"}}selva negra",
      "EUfr": "{{fun_0B arg=\"0x000600\"}}sabayon",
      "EUit": "ciambelline",
      "JPja": "マンゴームース",
      "KRko": "망고무스케이크",
      "USen": "mango mousse"
    }
  },
  {
    "label": "32",
    "attribute": "",
    "locale": {
      "EUde": "{{fun_0B arg=\"0xFFFFFF\"}}Kirschbonbons",
      "EUen": "cherry parfait",
      "EUes": "{{fun_0B arg=\"0x00FF02\"}}pastel de coco",
      "EUfr": "{{fun_0B arg=\"0x000600\"}}caramel mou",
      "EUit": "cialde",
      "JPja": "ナッツチョコバー",
      "KRko": "땅콩초콜릿바",
      "USen": "cherry parfait"
    }
  },
  {
    "label": "33",
    "attribute": "",
    "locale": {
      "EUde": "{{fun_0B arg=\"0xFFFFFF\"}}Quarkkuchen",
      "EUen": "dark chocolate",
      "EUes": "{{fun_0B arg=\"0x00FF02\"}}pudin",
      "EUfr": "{{fun_0B arg=\"0x000600\"}}réglisse",
      "EUit": "praline",
      "JPja": "ブルーマシュマロ",
      "KRko": "마시멜로",
      "USen": "dark chocolate"
    }
  },
  {
    "label": "34",
    "attribute": "",
    "locale": {
      "EUde": "{{fun_0B arg=\"0xFFFFFF\"}}Tiramisu",
      "EUen": "mango cream",
      "EUes": "{{fun_0B arg=\"0x01FF03\"}}tarta de fresa",
      "EUfr": "{{fun_0B arg=\"0x010701\"}}madeleine",
      "EUit": "castagne dolci",
      "JPja": "オレンジムース",
      "KRko": "오렌지무스케이크",
      "USen": "mango cream"
    }
  },
  {
    "label": "35",
    "attribute": "",
    "locale": {
      "EUde": "{{fun_0B arg=\"0xFFFFFF\"}}Eistorten",
      "EUen": "fried dough",
      "EUes": "{{fun_0B arg=\"0x00FF02\"}}arroz dulce",
      "EUfr": "{{fun_0B arg=\"0x010701\"}}crêpe suzette",
      "EUit": "frappe",
      "JPja": "{{kanjiReplace charNum=\"1\" value=\"や\"}}焼きリンゴ",
      "KRko": "구운사과",
      "USen": "fried dough"
    }
  },
  {
    "label": "36",
    "attribute": "",
    "locale": {
      "EUde": "{{fun_0B arg=\"0xFFFFFF\"}}",
      "EUen": "",
      "EUes": "",
      "EUfr": "",
      "EUit": "",
      "JPja": "",
      "KRko": "",
      "USen": ""
    }
  }
]