[
  {
    "label": "00",
    "attribute": "0x00000000FF000000",
    "locale": {
      "EUde": "{{resetReaction}}{{capitalizeLetter}}{{fun_01}}Ah, hallo{{fun_01}}{{pause frames=\"20\"}}!\nDich wollte ich etwas\nfragen, {{string value=\"PlayerNickname\"}}...{{pause frames=\"5\"}}\n{{reaction type=\"Curiosity\"}}Du kommst nicht vom\nLand, oder, {{pause frames=\"5\"}}{{string value=\"Catchphrase\"}}?{{fun_02 arg=\"0x0607\"}}\nOh doch!\nNie im Leben.",
      "EUen": "{{resetReaction}}{{capitalizeLetter}}{{fun_01}}Oh, hey{{fun_01}}.{{pause frames=\"20\"}}\nI got somethin' to ask you,\n{{string value=\"PlayerNickname\"}}...{{pause frames=\"5\"}}\n{{reaction type=\"Curiosity\"}}You're not from the\ncountryside, are you,\n{{pause frames=\"5\"}}{{string value=\"Catchphrase\"}}?{{fun_02 arg=\"0x0607\"}}\nWooo-haaa!\nNot a chance.",
      "EUes": "{{resetReaction}}{{capitalizeLetter}}{{fun_01}}Rayos{{fun_01}}.{{pause frames=\"20\"}}\nTengo una pregunta para ti,\n{{string value=\"PlayerNickname\"}}...{{pause frames=\"5\"}}\n{{reaction type=\"Curiosity\"}}Tú no eres de campo,\n¿verdad, {{pause frames=\"5\"}}{{string value=\"Catchphrase\"}}?{{fun_02 arg=\"0x0607\"}}\n¡Mis ovejitas!\nNi por asomo",
      "EUfr": "{{resetReaction}}{{capitalizeLetter}}{{fun_01}}Oh, hé{{fun_01}}.{{pause frames=\"20\"}}\nJe dois te demander quelque\nchose, {{string value=\"PlayerNickname\"}}...{{pause frames=\"5\"}}\n{{reaction type=\"Curiosity\"}}Tu viens de la campagne,\n{{pause frames=\"5\"}}{{string value=\"Catchphrase\"}}?{{fun_02 arg=\"0x0607\"}}\nBoudiou, oui!\nSûrement pas.",
      "EUit": "{{resetReaction}}{{capitalizeLetter}}{{fun_01}}Oh, ehi{{fun_01}}.{{pause frames=\"20\"}}\nPosso farti una domanda,\n{{string value=\"PlayerNickname\"}}?{{pause frames=\"5\"}}\n{{reaction type=\"Curiosity\"}}Tu non vieni dalla campagna,\nvero, {{pause frames=\"5\"}}{{string value=\"Catchphrase\"}}?{{fun_02 arg=\"0x0607\"}}\nWooo-aaah!\nCerto che no.",
      "JPja": "{{resetReaction}}{{fun_01}}そうそう{{fun_01}}！{{pause frames=\"20\"}}\nおめぇに　ちょっと\n{{kanjiReplace charNum=\"1\" value=\"き\"}}聞きてぇコトが　あったんだ\n{{string value=\"PlayerNickname\"}}ってさ、{{pause frames=\"5\"}}\n{{reaction type=\"Curiosity\"}}{{kanjiReplace charNum=\"2\" value=\"ちほう\"}}地方{{kanjiReplace charNum=\"2\" value=\"しゅっしん\"}}出身か？\n{{pause frames=\"5\"}}{{string value=\"Catchphrase\"}}？{{fun_02 arg=\"0x0607\"}}\nそうだよ！\nちがうよ！",
      "KRko": "{{resetReaction}}{{fun_01}}맞아{{fun_01}}！{{pause frames=\"20\"}}\n너한테 좀\n물어 보고 싶은 게 있었어\n{{string value=\"PlayerNickname\"}}{{fun_0B arg=\"0x0100\"}} 말야{{pause frames=\"5\"}}\n{{reaction type=\"Curiosity\"}}지방 출신이냐？\n{{pause frames=\"5\"}}{{string value=\"Catchphrase\"}}？{{fun_02 arg=\"0x0607\"}}\n맞아！\n아냐！",
      "USen": "{{resetReaction}}{{capitalizeLetter}}{{fun_01}}Oh, hey{{fun_01}}.{{pause frames=\"20\"}}\nI got somethin' to ask you,\n{{string value=\"PlayerNickname\"}}...{{pause frames=\"5\"}}\n{{reaction type=\"Curiosity\"}}You're not from the\ncountryside, are you,\n{{pause frames=\"5\"}}{{string value=\"Catchphrase\"}}?{{fun_02 arg=\"0x0607\"}}\nWooo-haaa!\nNot a chance."
    }
  },
  {
    "label": "01",
    "attribute": "0x00000000FF000000",
    "locale": {
      "EUde": "{{resetReaction}}Weißt du,{{pause frames=\"20\"}} es gibt viel zu\nviele Faulpelze in dieser\nfaulen Welt.\nAber ich bin nicht so\neiner, oder? {{reaction type=\"Curiosity\"}}Oder?{{fun_05 arg=\"0x050C030D030D050C\"}}\nNie im Leben.\nFaulpelz!",
      "EUen": "{{resetReaction}}You see,{{pause frames=\"20\"}} there are a lot of\nslackers in this\nslack-adaisical world.\nBut I'm not one of those\npeople, right? {{reaction type=\"Curiosity\"}}Or am I?{{fun_05 arg=\"0x050C030D030D050C\"}}\nNot at all.\nSLACKER!",
      "EUes": "{{resetReaction}}¿Te has percatado?{{pause frames=\"20\"}} Este\nmundo de vagos está lleno\nde gandules.\nPero yo no soy de esos,\n¿verdad? {{reaction type=\"Curiosity\"}}¿O sí?{{fun_05 arg=\"0x050C030D030D050C\"}}\nEn absoluto\n¡GANDUL!",
      "EUfr": "{{resetReaction}}Tu vois,{{pause frames=\"20\"}} il y a pas mal de\nfainéants dans ce monde\nd'apathiques.\nMais, ce n'est pas mon\ngenre! {{reaction type=\"Curiosity\"}}Enfin, je crois pas?{{fun_05 arg=\"0x050C030D030D050C\"}}\nPas du tout.\nFAINEANT!",
      "EUit": "{{resetReaction}}Sai,{{pause frames=\"20\"}} ci sono un sacco di\nfannulloni al mondo.\n\nMa io non sono uno di loro,\ngiusto? {{reaction type=\"Curiosity\"}}O sì?{{fun_05 arg=\"0x050C030D030D050C\"}}\nCerto che no.\nFANNULLONE!",
      "JPja": "{{resetReaction}}なぁなぁ、{{pause frames=\"20\"}}\nヨユーのねぇヤツって\nどこにでも　いるもんだけど、\nオレって　いつも\nスイッチ{{kanjiReplace charNum=\"1\" value=\"はい\"}}入ってる{{kanjiReplace charNum=\"1\" value=\"ほう\"}}方かな？\n{{reaction type=\"Curiosity\"}}それとも　{{kanjiReplace charNum=\"1\" value=\"き\"}}切ってる{{kanjiReplace charNum=\"1\" value=\"ほう\"}}方か？{{fun_05 arg=\"0x050C030D030D050C\"}}\nスイッチオン\nスイッチオフ",
      "KRko": "{{resetReaction}}이봐， {{pause frames=\"20\"}}\n늘 주변에 보면 생활에\n여유가 없는 녀석이 있잖냐，\n근데 니가 보기에\n{{reaction type=\"Curiosity\"}}난 어떠냐？\n{{fun_05 arg=\"0x050C030D030D050C\"}}\n여유 있어\n여유 없어",
      "USen": "{{resetReaction}}You see,{{pause frames=\"20\"}} there are a lot of\nslackers in this\nslack-adaisical world.\nBut I'm not one of those\npeople, right? {{reaction type=\"Curiosity\"}}Or am I?{{fun_05 arg=\"0x050C030D030D050C\"}}\nNot at all.\nSLACKER!"
    }
  },
  {
    "label": "02",
    "attribute": "0x00000000FF000000",
    "locale": {
      "EUde": "{{resetReaction}}{{capitalizeLetter}}{{fun_01}}Hey{{fun_01}}!\n\n\n{{capitalizeLetter}}{{string value=\"PlayerNickname\"}}!\n{{reaction type=\"Curiosity\"}}Interessiert an {{gender m=\"meinem\" f=\"meiner\" n=\"meinem\"}}\n{{ignoreArticle}}{{itemName index=\"1\"}}?{{fun_05 arg=\"0x051103100410040F\"}}\nAber unbedingt!\nNicht wirklich.",
      "EUen": "{{resetReaction}}{{capitalizeLetter}}{{fun_01}}Hey{{fun_01}}!{{pause frames=\"15\"}}\n{{capitalizeLetter}}{{string value=\"PlayerNickname\"}}! {{reaction type=\"Curiosity\"}}Ya want my\n{{ignoreArticle}}{{itemName index=\"1\"}}?{{fun_05 arg=\"0x051103100410040F\"}}\nTotally!\nNot really.",
      "EUes": "{{resetReaction}}¡{{capitalizeLetter}}{{fun_01}}Rayos{{fun_01}}!{{pause frames=\"15\"}}\n¡{{capitalizeLetter}}{{string value=\"PlayerNickname\"}}! {{reaction type=\"Curiosity\"}}¿Quieres mi\n{{ignoreArticle}}{{itemName index=\"1\"}}?{{fun_05 arg=\"0x051103100410040F\"}}\n¡Trae para acá!\nNo mola",
      "EUfr": "{{resetReaction}}{{capitalizeLetter}}{{fun_01}}Hé{{fun_01}}!{{pause frames=\"15\"}}\n{{capitalizeLetter}}{{string value=\"PlayerNickname\"}}! {{reaction type=\"Curiosity\"}}Tu veux\n{{itemName index=\"1\"}}?{{fun_05 arg=\"0x051103100410040F\"}}\nOuais!\nPas vraiment.",
      "EUit": "{{resetReaction}}{{capitalizeLetter}}{{fun_01}}Ehi{{fun_01}}!{{pause frames=\"15\"}}\n{{capitalizeLetter}}{{string value=\"PlayerNickname\"}}! {{reaction type=\"Curiosity\"}}Vorresti\n{{itemName index=\"1\"}}?{{fun_05 arg=\"0x051103100410040F\"}}\nCerto!\nNon mi serve.",
      "JPja": "{{resetReaction}}{{fun_01}}なぁ{{fun_01}}！{{pause frames=\"15\"}}\n{{string value=\"PlayerNickname\"}}\n\nこの　{{itemName index=\"1\"}}が{{pause frames=\"5\"}}\n{{reaction type=\"Curiosity\"}}{{kanjiReplace charNum=\"1\" value=\"ほ\"}}欲しくねぇか？　{{pause frames=\"5\"}}{{string value=\"Catchphrase\"}}？{{fun_05 arg=\"0x051103100410040F\"}}\n{{kanjiReplace charNum=\"2\" value=\"ぜったい\"}}絶対{{kanjiReplace charNum=\"1\" value=\"ほ\"}}欲しい！\nいらなーい",
      "KRko": "{{resetReaction}}{{fun_01}}야{{fun_01}}！{{pause frames=\"15\"}}\n{{string value=\"PlayerNickname\"}}\n\n이 {{itemName index=\"1\"}}{{pause frames=\"5\"}}\n{{reaction type=\"Curiosity\"}}갖고 싶냐？ {{pause frames=\"5\"}}{{string value=\"Catchphrase\"}}？{{fun_05 arg=\"0x051103100410040F\"}}\n꼭 갖고 싶어！\n필요 없어",
      "USen": "{{resetReaction}}{{capitalizeLetter}}{{fun_01}}Hey{{fun_01}}!{{pause frames=\"15\"}}\n{{capitalizeLetter}}{{string value=\"PlayerNickname\"}}! {{reaction type=\"Curiosity\"}}Ya want my\n{{ignoreArticle}}{{itemName index=\"1\"}}?{{fun_05 arg=\"0x051103100410040F\"}}\nTotally!\nNot really."
    }
  },
  {
    "label": "03",
    "attribute": "0x00000100FE000000",
    "locale": {
      "EUde": "{{resetReaction}}Bitte sehr!\n{{capitalizeLetter}}{{itemName index=\"1\"}},\n{{pause frames=\"5\"}}{{string value=\"Catchphrase\"}}.{{pause frames=\"20\"}}\nAber pass gut darauf auf,\nverstanden?",
      "EUen": "{{resetReaction}}Well, here ya go!\n{{capitalizeLetter}}{{itemName index=\"1\"}},\n{{pause frames=\"5\"}}{{string value=\"Catchphrase\"}}.{{pause frames=\"20\"}}\nYou take good care of\nthat, y'hear?",
      "EUes": "{{resetReaction}}¡Muy bien, aquí tienes!\n{{gender m=\"Un\" f=\"Una\" n=\"\"}} {{ignoreArticle}}{{itemName index=\"1\"}},\n{{pause frames=\"5\"}}{{string value=\"Catchphrase\"}}.{{pause frames=\"20\"}}\nYa puedes cuidarl{{gender m=\"o\" f=\"a\" n=\"\"}} bien,\n¿me oyes?",
      "EUfr": "{{resetReaction}}Et {{itemName index=\"1\"}},\nc'est parti,\n{{pause frames=\"5\"}}{{string value=\"Catchphrase\"}}.{{pause frames=\"20\"}}\nTu en prendras soin, ok?",
      "EUit": "{{resetReaction}}Beh, ecco qua!\n{{capitalizeLetter}}{{itemName index=\"1\"}},\n{{pause frames=\"5\"}}{{string value=\"Catchphrase\"}}.{{pause frames=\"20\"}}\nTrattal{{gender m=\"o\" f=\"a\" n=\"\"}} bene, OK?",
      "JPja": "{{resetReaction}}{{itemName index=\"1\"}}だ{{pause frames=\"20\"}}\n{{kanjiReplace charNum=\"2\" value=\"だいじ\"}}大事に　{{kanjiReplace charNum=\"1\" value=\"つか\"}}使ってくれ！\n{{pause frames=\"5\"}}{{string value=\"Catchphrase\"}}！",
      "KRko": "{{resetReaction}}{{itemName index=\"1\"}}{{fun_0B arg=\"0x0500\"}}야{{pause frames=\"20\"}}\n소중히 쓰길 바래！\n{{pause frames=\"5\"}}{{string value=\"Catchphrase\"}}！",
      "USen": "{{resetReaction}}Well, here ya go!\n{{capitalizeLetter}}{{itemName index=\"1\"}},\n{{pause frames=\"5\"}}{{string value=\"Catchphrase\"}}.{{pause frames=\"20\"}}\nYou take good care of\nthat, y'hear?"
    }
  },
  {
    "label": "04",
    "attribute": "0x00000100FE000000",
    "locale": {
      "EUde": "{{reaction type=\"Happiness\"}}Hey,{{pause frames=\"15\"}} hier hast du\n{{gender m=\"meinen\" f=\"meine\" n=\"mein\"}} {{ignoreArticle}}{{itemName index=\"1\"}}.{{pause frames=\"20\"}}\n\nIch weiß, {{gender m=\"er\" f=\"sie\" n=\"es\"}} wird dir\nsehr nützlich sein!",
      "EUen": "{{reaction type=\"Happiness\"}}Heh,{{pause frames=\"15\"}} here's my\n{{ignoreArticle}}{{itemName index=\"1\"}}.{{pause frames=\"20\"}}\n\nYou better put it to good\nuse{{pause frames=\"5\"}}.{{pause frames=\"5\"}}.{{pause frames=\"5\"}}.{{pause frames=\"5\"}}or I'll know about it!",
      "EUes": "{{reaction type=\"Happiness\"}}Je, je.{{pause frames=\"15\"}} Toma mi\n{{ignoreArticle}}{{itemName index=\"1\"}}.{{pause frames=\"20\"}}\n\n¡Dale buen uso{{pause frames=\"5\"}}.{{pause frames=\"5\"}}.{{pause frames=\"5\"}}.{{pause frames=\"5\"}} o tendré\nque tomar medidas!",
      "EUfr": "{{reaction type=\"Happiness\"}}Tiens,{{pause frames=\"15\"}} prends donc\n{{ignoreArticle}}{{itemName index=\"1\"}}.{{pause frames=\"20\"}}\n\nTu as intérêt à en faire\nbon usage{{pause frames=\"5\"}}.{{pause frames=\"5\"}}.{{pause frames=\"5\"}}.{{pause frames=\"5\"}} ou tu\nentendras parler de moi!",
      "EUit": "{{reaction type=\"Happiness\"}}Eh,{{pause frames=\"15\"}} ecco a te {{gender m=\"il mio\" f=\"la mia\" n=\"\"}}\n{{ignoreArticle}}{{itemName index=\"1\"}}.{{pause frames=\"20\"}}\n\nFanne buon uso, altrimenti{{pause frames=\"5\"}}.{{pause frames=\"5\"}}.{{pause frames=\"5\"}}.{{pause frames=\"5\"}}",
      "JPja": "{{reaction type=\"Happiness\"}}ヘッヘッ、{{pause frames=\"15\"}}\n{{itemName index=\"1\"}}だぜ{{pause frames=\"20\"}}\nくらしの{{kanjiReplace charNum=\"1\" value=\"た\"}}足しに　してくれや！",
      "KRko": "{{reaction type=\"Happiness\"}}헷헷， {{pause frames=\"15\"}}\n{{itemName index=\"1\"}}{{fun_0B arg=\"0x0500\"}}야{{pause frames=\"20\"}}\n유용하게 잘 써라！",
      "USen": "{{reaction type=\"Happiness\"}}Heh,{{pause frames=\"15\"}} here's my\n{{ignoreArticle}}{{itemName index=\"1\"}}.{{pause frames=\"20\"}}\n\nYou better put it to good\nuse{{pause frames=\"5\"}}.{{pause frames=\"5\"}}.{{pause frames=\"5\"}}.{{pause frames=\"5\"}}or I'll know about it!"
    }
  },
  {
    "label": "05",
    "attribute": "0x00000100FE000000",
    "locale": {
      "EUde": "{{resetReaction}}Hier hast du\n{{gender m=\"meinen\" f=\"meine\" n=\"mein\"}} {{ignoreArticle}}{{itemName index=\"1\"}}.{{pause frames=\"15\"}}\n\n{{reaction type=\"Glee\"}}Stör dich nicht am Geruch,{{pause frames=\"5\"}}\nschließlich ist er das\nBesondere daran!",
      "EUen": "{{resetReaction}}Here, why don'tcha take my\n{{ignoreArticle}}{{itemName index=\"1\"}}.\n\n{{reaction type=\"Glee\"}}It may stink like me,{{pause frames=\"5\"}}\nbut that's what makes it\nso collectible!",
      "EUes": "{{resetReaction}}Mira, quédate con mi\n{{ignoreArticle}}{{itemName index=\"1\"}}.{{pause frames=\"15\"}}\n\n{{reaction type=\"Glee\"}}¡Ya sé que tiene un olor\nadquirido!{{pause frames=\"5\"}} ¡Pero eso es lo\nque l{{gender m=\"o\" f=\"a\" n=\"\"}} hace únic{{gender m=\"o\" f=\"a\" n=\"\"}}!",
      "EUfr": "{{resetReaction}}J'aimerais que tu prennes\n{{itemName index=\"1\"}}.{{pause frames=\"15\"}}\n\n{{reaction type=\"Glee\"}}Ça sent peut-être un peu\nfort,{{pause frames=\"5\"}} mais tu es sûr{{gender m=\"\" f=\"e\"}}\nque c'est vintage!",
      "EUit": "{{resetReaction}}Senti, perché non prendi\n{{gender m=\"il mio\" f=\"la mia\" n=\"\"}}\n{{ignoreArticle}}{{itemName index=\"1\"}}?{{pause frames=\"15\"}}\n{{reaction type=\"Glee\"}}Forse è impresentabile come\nme,{{pause frames=\"5\"}} ma proprio per questo\nè un oggetto ricercato!",
      "JPja": "{{resetReaction}}オレが　たっぷりと\n{{kanjiReplace charNum=\"1\" value=\"つか\"}}使い{{kanjiReplace charNum=\"1\" value=\"こ\"}}込んだ\n{{itemName index=\"1\"}}だ\n{{reaction type=\"Glee\"}}{{kanjiReplace charNum=\"1\" value=\"おとこ\"}}男のフェロモンとか\n{{kanjiReplace charNum=\"1\" value=\"かん\"}}感じてくれると　うれしいぜ！\n{{pause frames=\"5\"}}{{string value=\"Catchphrase\"}}！",
      "KRko": "{{resetReaction}}내가 오랫 동안\n써 온\n{{itemName index=\"1\"}}{{fun_0B arg=\"0x0500\"}}야\n{{reaction type=\"Glee\"}}남자의 향기를\n느껴 주면 고맙겠어！\n{{pause frames=\"5\"}}{{string value=\"Catchphrase\"}}！",
      "USen": "{{resetReaction}}Here, why don'tcha take my\n{{ignoreArticle}}{{itemName index=\"1\"}}.\n\n{{reaction type=\"Glee\"}}It may stink like me,{{pause frames=\"5\"}}\nbut that's what makes it\nso collectible!"
    }
  },
  {
    "label": "06",
    "attribute": "0x00000000FF000000",
    "locale": {
      "EUde": "{{fun_06 arg=\"0x080909\"}}",
      "EUen": "{{fun_06 arg=\"0x080909\"}}",
      "EUes": "{{fun_06 arg=\"0x080909\"}}",
      "EUfr": "{{fun_06 arg=\"0x080909\"}}",
      "EUit": "{{fun_06 arg=\"0x080909\"}}",
      "JPja": "{{fun_06 arg=\"0x080909\"}}",
      "KRko": "{{fun_06 arg=\"0x08090900\"}}",
      "USen": "{{fun_06 arg=\"0x080909\"}}"
    }
  },
  {
    "label": "07",
    "attribute": "0x00000000FF000000",
    "locale": {
      "EUde": "{{fun_06 arg=\"0x0A0B\"}}",
      "EUen": "{{fun_06 arg=\"0x0A0B\"}}",
      "EUes": "{{fun_06 arg=\"0x0A0B\"}}",
      "EUfr": "{{fun_06 arg=\"0x0A0B\"}}",
      "EUit": "{{fun_06 arg=\"0x0A0B\"}}",
      "JPja": "{{fun_06 arg=\"0x0A0B\"}}",
      "KRko": "{{fun_06 arg=\"0x0A0B\"}}",
      "USen": "{{fun_06 arg=\"0x0A0B\"}}"
    }
  },
  {
    "label": "08",
    "attribute": "0x00000000FE000000",
    "locale": {
      "EUde": "{{reaction type=\"Amazed\"}}Wirklich, {{pause frames=\"5\"}}{{string value=\"Catchphrase\"}}?{{pause frames=\"20\"}}\n\n\n{{resetReaction}}Dann schickt dir deine\nFamilie wahrscheinlich noch\nregelmäßig Geld, oder?\nUnd deshalb brauchst du\nwohl auch {{gender m=\"keinen\" f=\"keine\" n=\"kein\"}}\n{{ignoreArticle}}{{itemName index=\"1\"}}?",
      "EUen": "{{reaction type=\"Amazed\"}}Really, {{pause frames=\"5\"}}{{string value=\"Catchphrase\"}}?{{pause frames=\"20\"}}\n\n\n{{resetReaction}}Well, you're probably still\ngetting money from a farm\nor something.\nSo I guess you don't need\n{{itemName index=\"1\"}},\n{{pause frames=\"5\"}}{{string value=\"Catchphrase\"}}.",
      "EUes": "{{reaction type=\"Amazed\"}}¿En serio, {{pause frames=\"5\"}}{{string value=\"Catchphrase\"}}?{{pause frames=\"20\"}}\n\n\n{{resetReaction}}Pues entonces imagino que\ntendrás un buen negocio en\nalguna granja.\nSupongo que no necesitarás\nmi {{ignoreArticle}}{{itemName index=\"1\"}},\n{{pause frames=\"5\"}}{{string value=\"Catchphrase\"}}.",
      "EUfr": "{{reaction type=\"Amazed\"}}Vraiment, {{pause frames=\"5\"}}{{string value=\"Catchphrase\"}}?{{pause frames=\"20\"}}\n\n\n{{resetReaction}}J'imagine que tu obtiens\npas mal d'argent de\nl'agriculture ou quoi.\nTu n'auras pas besoin \nd'{{itemName index=\"1\"}},\n{{pause frames=\"5\"}}{{string value=\"Catchphrase\"}}.",
      "EUit": "{{reaction type=\"Amazed\"}}Sul serio, {{pause frames=\"5\"}}{{string value=\"Catchphrase\"}}?{{pause frames=\"20\"}}\n\n\n{{resetReaction}}Beh, probabilmente hai\nfatto molti soldi quando\nstavi in campagna.\nQuindi immagino che\n{{itemName index=\"1\"}} non\nti serva, {{pause frames=\"5\"}}{{string value=\"Catchphrase\"}}.",
      "JPja": "{{reaction type=\"Amazed\"}}そうなのか？　{{pause frames=\"5\"}}{{string value=\"Catchphrase\"}}？{{pause frames=\"20\"}}\n{{resetReaction}}だったら　まだ　{{kanjiReplace charNum=\"2\" value=\"しおく\"}}仕送りとか\nもらってるハズだから、\nあげようと　{{kanjiReplace charNum=\"1\" value=\"おも\"}}思ってた\n{{itemName index=\"1\"}}は\nいらねぇな、{{pause frames=\"5\"}}{{string value=\"Catchphrase\"}}",
      "KRko": "{{reaction type=\"Amazed\"}}그런 거야？ {{pause frames=\"5\"}}{{string value=\"Catchphrase\"}}？{{pause frames=\"20\"}}\n{{resetReaction}}그럼 아직 부모님한테\n용돈 받고 있을 테니，\n내가 주려고 했던\n{{itemName index=\"1\"}}{{fun_0B arg=\"0x0100\"}}\n필요 없겠군， {{pause frames=\"5\"}}{{string value=\"Catchphrase\"}}",
      "USen": "{{reaction type=\"Amazed\"}}Really, {{pause frames=\"5\"}}{{string value=\"Catchphrase\"}}?{{pause frames=\"20\"}}\n\n\n{{resetReaction}}Well, you're probably still\ngetting money from a farm\nor something.\nSo I guess you don't need\n{{itemName index=\"1\"}},\n{{pause frames=\"5\"}}{{string value=\"Catchphrase\"}}."
    }
  },
  {
    "label": "09",
    "attribute": "0x00000000FF000000",
    "locale": {
      "EUde": "{{reaction type=\"Sighing\"}}Oh{{pause frames=\"5\"}}.{{pause frames=\"5\"}}.{{pause frames=\"5\"}}.{{pause frames=\"5\"}}{{pause frames=\"20\"}} Das ist sicher\nhart für dich,\n{{pause frames=\"5\"}}{{string value=\"Catchphrase\"}}.\n{{reaction type=\"Worry\"}}Aber irgendwann scheint\nauch für dich\nwieder die Sonne.\n{{reaction type=\"Laughter\"}}{{pause frames=\"5\"}}Irgendwann,\n{{pause frames=\"5\"}}ganz bestimmt.\n\n{{fun_06 arg=\"0x030405\"}}",
      "EUen": "{{reaction type=\"Sighing\"}}Yeah{{pause frames=\"5\"}}.{{pause frames=\"5\"}}.{{pause frames=\"5\"}}.{{pause frames=\"5\"}}{{pause frames=\"20\"}} That must be\nreal rough for you,\n{{pause frames=\"5\"}}{{string value=\"Catchphrase\"}}.\n{{reaction type=\"Worry\"}}Maybe things will get better\nfor you.{{pause frames=\"5\"}} {{reaction type=\"Laughter\"}}{{pause frames=\"5\"}}You know.\n{{pause frames=\"5\"}}Someday.\n{{fun_06 arg=\"0x030405\"}}",
      "EUes": "{{reaction type=\"Sighing\"}}Sí{{pause frames=\"5\"}}.{{pause frames=\"5\"}}.{{pause frames=\"5\"}}.{{pause frames=\"5\"}}{{pause frames=\"20\"}} Te comprendo. Tiene\nque ser difícil para alguien\ncomo tú, {{pause frames=\"5\"}}{{string value=\"Catchphrase\"}}.\n{{reaction type=\"Worry\"}}Espero que lo superes.{{pause frames=\"5\"}}\n{{reaction type=\"Laughter\"}}{{pause frames=\"5\"}}Vamos, {{pause frames=\"5\"}}algún día.\n\n{{fun_06 arg=\"0x030405\"}}",
      "EUfr": "{{reaction type=\"Sighing\"}}Ouais{{pause frames=\"5\"}}.{{pause frames=\"5\"}}.{{pause frames=\"5\"}}.{{pause frames=\"5\"}}{{pause frames=\"20\"}} Ce doit être\nvraiment dur pour toi,\n{{pause frames=\"5\"}}{{string value=\"Catchphrase\"}}.\n{{reaction type=\"Worry\"}}La situation s'améliorera\npeut-être.{{pause frames=\"5\"}} {{reaction type=\"Laughter\"}}{{pause frames=\"5\"}}Bah oui.\n{{pause frames=\"5\"}}Un jour.\n{{fun_06 arg=\"0x030405\"}}",
      "EUit": "{{reaction type=\"Sighing\"}}Beh{{pause frames=\"5\"}}.{{pause frames=\"5\"}}.{{pause frames=\"5\"}}.{{pause frames=\"5\"}}{{pause frames=\"20\"}} La vita dev'essere\nmolto dura per te,\n{{pause frames=\"5\"}}{{string value=\"Catchphrase\"}}.\n{{reaction type=\"Worry\"}}Forse le cose ti andranno\nmeglio,{{pause frames=\"5\"}} {{reaction type=\"Laughter\"}}{{pause frames=\"5\"}}un giorno...\n{{pause frames=\"5\"}}Chissà...\n{{fun_06 arg=\"0x030405\"}}",
      "JPja": "{{reaction type=\"Agreement\"}}そっか{{pause frames=\"5\"}}・{{pause frames=\"5\"}}・{{pause frames=\"5\"}}・{{pause frames=\"5\"}}！{{pause frames=\"20\"}}\n{{pause frames=\"5\"}}{{string value=\"Catchphrase\"}}！\n\n{{reaction type=\"Happiness\"}}おすそ{{kanjiReplace charNum=\"1\" value=\"わ\"}}分けとか　やるから{{pause frames=\"5\"}}\nとりあえず　{{kanjiReplace charNum=\"2\" value=\"げんき\"}}元気{{kanjiReplace charNum=\"1\" value=\"だ\"}}出せよ、\n{{pause frames=\"5\"}}{{string value=\"Catchphrase\"}}\n{{fun_06 arg=\"0x030405\"}}",
      "KRko": "{{reaction type=\"Agreement\"}}글쿤{{pause frames=\"5\"}}・{{pause frames=\"5\"}}・{{pause frames=\"5\"}}・{{pause frames=\"5\"}}！{{pause frames=\"20\"}}\n{{pause frames=\"5\"}}{{string value=\"Catchphrase\"}}！\n\n{{reaction type=\"Happiness\"}}반찬 남는 거 있음 줄 테니까{{pause frames=\"5\"}}\n기운 내라，\n{{pause frames=\"5\"}}{{string value=\"Catchphrase\"}}\n{{fun_06 arg=\"0x03040500\"}}",
      "USen": "{{reaction type=\"Sighing\"}}Yeah{{pause frames=\"5\"}}.{{pause frames=\"5\"}}.{{pause frames=\"5\"}}.{{pause frames=\"5\"}}{{pause frames=\"20\"}} That must be\nreal rough for you,\n{{pause frames=\"5\"}}{{string value=\"Catchphrase\"}}.\n{{reaction type=\"Worry\"}}Maybe things will get better\nfor you.{{pause frames=\"5\"}} {{reaction type=\"Laughter\"}}{{pause frames=\"5\"}}You know.\n{{pause frames=\"5\"}}Someday.\n{{fun_06 arg=\"0x030405\"}}"
    }
  },
  {
    "label": "10",
    "attribute": "0x00000000FE000000",
    "locale": {
      "EUde": "{{reaction type=\"Amazed\"}}Du bist also einer\nvon diesen intelligenten\nStadtmenschen?\nIch hoffe nur, du hältst\ndich nicht für etwas\nBesonderes,\nnur weil du deine Zeit mit\nuns verbringst, {{pause frames=\"5\"}}{{string value=\"Catchphrase\"}}!",
      "EUen": "{{reaction type=\"Amazed\"}}So you're all urban\nand sophisticated and\nstuff?\nWell, I don't much like you\nthinking you're something\nspecial just 'cause...\n...you're living it up with\nus yokels, {{pause frames=\"5\"}}{{string value=\"Catchphrase\"}}!",
      "EUes": "{{reaction type=\"Amazed\"}}Así que esa sofisticación y\nesa pinta urbana las traes\nde la gran ciudad...\nPues no te vayas a creer\nespecial porque ahora vivas\nrodead{{gender m=\"o\" f=\"a\"}} de paletos, ¿eh?",
      "EUfr": "{{reaction type=\"Amazed\"}}Tu aimes la ville,\nla sophistication\net tout ça?\nJ'aime autant te dire que\nce n'est pas la peine de\nte la jouer parce que...\n... tu habites dans un\nvillage de paysans,\n{{pause frames=\"5\"}}{{string value=\"Catchphrase\"}}!",
      "EUit": "{{reaction type=\"Amazed\"}}Quindi sei {{gender m=\"un tipo\" f=\"una tipa\"}} di città,\nsofisticat{{gender m=\"o\" f=\"a\"}}, eccetera?\nBeh, non mi piace la gente\nche pensa di essere\nspeciale solo perché...\n\n... è venuta a vivere in\nmezzo a degli zoticoni,\n{{pause frames=\"5\"}}{{string value=\"Catchphrase\"}}!",
      "JPja": "{{reaction type=\"Amazed\"}}なんだ、おめぇ\n{{kanjiReplace charNum=\"1\" value=\"じつ\"}}実は　{{kanjiReplace charNum=\"2\" value=\"とかい\"}}都会モンか？\n\n{{reaction type=\"Intense\"}}・{{pause frames=\"3\"}}・{{pause frames=\"3\"}}・{{pause frames=\"3\"}}いけ{{kanjiReplace charNum=\"1\" value=\"す\"}}好かねぇな、\n{{pause frames=\"5\"}}{{string value=\"Catchphrase\"}}",
      "KRko": "{{reaction type=\"Amazed\"}}뭐야， 너\n사실은 도시 출신이었어？\n\n{{reaction type=\"Intense\"}}・{{pause frames=\"3\"}}・{{pause frames=\"3\"}}・{{pause frames=\"3\"}}맘에 안 드는군，\n{{pause frames=\"5\"}}{{string value=\"Catchphrase\"}}",
      "USen": "{{reaction type=\"Amazed\"}}So you're all urban\nand sophisticated and\nstuff?\nWell, I don't much like you\nthinking you're something\nspecial just 'cause...\n...you're living it up with\nus yokels, {{pause frames=\"5\"}}{{string value=\"Catchphrase\"}}!"
    }
  },
  {
    "label": "11",
    "attribute": "0x00000000FF000000",
    "locale": {
      "EUde": "{{resetReaction}}Und wie gefällt dir das\nLeben in {{string value=\"TownName\"}},\n{{pause frames=\"5\"}}{{string value=\"Catchphrase\"}}?\nJa, ja, ich weiß{{pause frames=\"5\"}}.{{pause frames=\"5\"}}.{{pause frames=\"5\"}}.{{pause frames=\"5\"}}\n{{reaction type=\"Worry\"}}Es gibt hier nur einen\nLaden, keine Spielhallen...\n...und Ninjas oder Piraten\nhaben wir auch nicht zu\nbieten!\n{{reaction type=\"Thought\"}}Hmmmm.{{resetReaction}} Ich sollte dir\ndas hier geben...\n\nDamit solltest du das Leben\nohne Ninjas und Piraten\nleichter ertragen können...\n{{fun_06 arg=\"0x030405\"}}",
      "EUen": "{{resetReaction}}But what about living in\n{{string value=\"TownName\"}}, {{pause frames=\"5\"}}{{string value=\"Catchphrase\"}}?\nYeah, I know{{pause frames=\"5\"}}.{{pause frames=\"5\"}}.{{pause frames=\"5\"}}.{{pause frames=\"5\"}}\n{{reaction type=\"Worry\"}}There's only one store,\nnowhere to hang out, and\nnot a pirate ninja in sight!\n{{reaction type=\"Thought\"}}Hmmmm.{{resetReaction}} Why don't\nI give you this?\n\nIt makes living in a\nninja-less world a little\neasier to bear.\n{{fun_06 arg=\"0x030405\"}}",
      "EUes": "{{resetReaction}}¿Qué tiene de malo vivir en\n{{string value=\"TownName\"}}, {{pause frames=\"5\"}}{{string value=\"Catchphrase\"}}?\nSí, ya lo sé{{pause frames=\"5\"}}.{{pause frames=\"5\"}}.{{pause frames=\"5\"}}.{{pause frames=\"5\"}}\n{{reaction type=\"Worry\"}}¡Solo hay una tienda, ningún\nlugar al que ir y ni un solo\nninja pirata a la vista!\n{{reaction type=\"Thought\"}}Mmmm.{{resetReaction}} ¿Por qué no te doy\nuno de estos?\n\nAsí se hará más soportable\nvivir en este mundo. Si por\nlo menos hubiera ninjas...\n{{fun_06 arg=\"0x030405\"}}",
      "EUfr": "{{resetReaction}}Et alors ta vie à\n{{string value=\"TownName\"}}, {{pause frames=\"5\"}}{{string value=\"Catchphrase\"}}?\nOui, je sais{{pause frames=\"5\"}}.{{pause frames=\"5\"}}.{{pause frames=\"5\"}}.{{pause frames=\"5\"}}\n{{reaction type=\"Worry\"}}Il n'y a qu'un magasin,\nnulle part où aller et\naucun ninja pirate en vue!\n{{reaction type=\"Thought\"}}Mmmmm.{{resetReaction}} Je pourrais te\ndonner ça?\n\nTu supporteras peut-être\nmieux ta vie dans un monde\nsans ninja.\n{{fun_06 arg=\"0x030405\"}}",
      "EUit": "{{resetReaction}}Cosa ne pensi della vita a\n{{string value=\"TownName\"}}, {{pause frames=\"5\"}}{{string value=\"Catchphrase\"}}?\nSì, lo so{{pause frames=\"5\"}}.{{pause frames=\"5\"}}.{{pause frames=\"5\"}}.{{pause frames=\"5\"}}\n{{reaction type=\"Worry\"}}C'è solo un negozio,\nnon ci sono locali notturni\ne neanche un ninja pirata!\n{{reaction type=\"Thought\"}}Mmm...{{resetReaction}} voglio darti\nquest'oggetto.\n\nTi renderà più facile\nsopportare la vita in un\nmondo senza ninja.\n{{fun_06 arg=\"0x030405\"}}",
      "JPja": "{{resetReaction}}だったら　この\n{{string value=\"TownName\"}}{{kanjiReplace charNum=\"1\" value=\"むら\"}}村の　くらしは\nこたえるだろ、{{pause frames=\"5\"}}{{string value=\"Catchphrase\"}}？\n{{reaction type=\"Agreement\"}}なんせ　バスも{{kanjiReplace charNum=\"1\" value=\"こ\"}}来ねぇし、{{pause frames=\"5\"}}\nさかり{{kanjiReplace charNum=\"1\" value=\"ば\"}}場も　ねぇんだからな\n\n{{reaction type=\"Worry\"}}うーん、{{pause frames=\"5\"}}しょーがねぇ{{pause frames=\"5\"}}・{{pause frames=\"5\"}}・{{pause frames=\"5\"}}・{{pause frames=\"20\"}}\n{{resetReaction}}これでも　やるから\nヒマつぶしにでも　{{kanjiReplace charNum=\"1\" value=\"つか\"}}使ってくれや\n{{fun_06 arg=\"0x030405\"}}",
      "KRko": "{{resetReaction}}그럼 이\n{{string value=\"TownName\"}} 마을의 생활은\n힘들겠구만， {{pause frames=\"5\"}}{{string value=\"Catchphrase\"}}？\n{{reaction type=\"Agreement\"}}버스도 잘 안 오고，{{pause frames=\"5\"}}\n번화가도 없구 말야\n\n{{reaction type=\"Worry\"}}으음， {{pause frames=\"5\"}}어쩔 수 없군{{pause frames=\"5\"}}・{{pause frames=\"5\"}}・{{pause frames=\"5\"}}・{{pause frames=\"20\"}}\n{{resetReaction}}이거라도 줄 테니\n한가할 때 써 봐\n{{fun_06 arg=\"0x03040500\"}}",
      "USen": "{{resetReaction}}But what about living in\n{{string value=\"TownName\"}}, {{pause frames=\"5\"}}{{string value=\"Catchphrase\"}}?\nYeah, I know{{pause frames=\"5\"}}.{{pause frames=\"5\"}}.{{pause frames=\"5\"}}.{{pause frames=\"5\"}}\n{{reaction type=\"Worry\"}}There's only one store,\nnowhere to hang out, and\nnot a pirate ninja in sight!\n{{reaction type=\"Thought\"}}Hmmmm.{{resetReaction}} Why don't\nI give you this?\n\nIt makes living in a\nninja-less world a little\neasier to bear.\n{{fun_06 arg=\"0x030405\"}}"
    }
  },
  {
    "label": "12",
    "attribute": "0x00000000FE000000",
    "locale": {
      "EUde": "{{reaction type=\"Amazed\"}}Wirklich? So wirke ich also\nauf dich{{pause frames=\"5\"}}.{{pause frames=\"5\"}}.{{pause frames=\"5\"}}.?\nNa gut, {{pause frames=\"5\"}}{{string value=\"Catchphrase\"}}.\n{{reaction type=\"Sighing\"}}Vielleicht sollte ich ja\ndoch langsam erwachsen\nwerden...",
      "EUen": "{{reaction type=\"Amazed\"}}Oh really, is that how I\nseem to you{{pause frames=\"5\"}}.{{pause frames=\"5\"}}.{{pause frames=\"5\"}}.?\nWell, {{pause frames=\"5\"}}{{string value=\"Catchphrase\"}}.\n{{reaction type=\"Sighing\"}}Maybe I should just start\nacting my age, huh?",
      "EUes": "{{reaction type=\"Amazed\"}}¿En serio? ¿Eso piensas de\nmí?{{pause frames=\"5\"}}.{{pause frames=\"5\"}}.{{pause frames=\"5\"}}. Bueno, {{pause frames=\"5\"}}{{string value=\"Catchphrase\"}}.\n\n{{reaction type=\"Sighing\"}}Quizás deba empezar a\nactuar como alguien de mi\nedad, ¿eh?",
      "EUfr": "{{reaction type=\"Amazed\"}}Oh vraiment, c'est comme ça\nque tu me vois{{pause frames=\"5\"}}.{{pause frames=\"5\"}}.{{pause frames=\"5\"}}.?\nBien, {{pause frames=\"5\"}}{{string value=\"Catchphrase\"}}.\n{{reaction type=\"Sighing\"}}Je devrais peut-être\narrêter de me la jouer\ntrop jeune?",
      "EUit": "{{reaction type=\"Amazed\"}}Ah, allora è così che mi\nvedi{{pause frames=\"5\"}}.{{pause frames=\"5\"}}.{{pause frames=\"5\"}}.?\nMmm, {{pause frames=\"5\"}}{{string value=\"Catchphrase\"}}.\n{{reaction type=\"Sighing\"}}Forse dovrei cominciare a\ncomportarmi come una\npersona della mia età, eh?",
      "JPja": "{{reaction type=\"Amazed\"}}あ、{{pause frames=\"5\"}}そうなのか{{pause frames=\"20\"}}\nおめぇには　オレが\nそう　{{kanjiReplace charNum=\"1\" value=\"み\"}}見えてやがるのか{{pause frames=\"5\"}}・{{pause frames=\"5\"}}・{{pause frames=\"5\"}}・\n{{reaction type=\"Sighing\"}}オレも　もうちょっと\nオトナに　ならねぇと\nいけねぇな、{{pause frames=\"5\"}}{{string value=\"Catchphrase\"}}！",
      "KRko": "{{reaction type=\"Amazed\"}}앗， {{pause frames=\"5\"}}그러냐{{pause frames=\"20\"}}\n너한테는 내가\n그렇게 보이냐{{pause frames=\"5\"}}・{{pause frames=\"5\"}}・{{pause frames=\"5\"}}・\n{{reaction type=\"Sighing\"}}나도 좀 더\n어른이 되야\n겠구만， {{pause frames=\"5\"}}{{string value=\"Catchphrase\"}}！",
      "USen": "{{reaction type=\"Amazed\"}}Oh really, is that how I\nseem to you{{pause frames=\"5\"}}.{{pause frames=\"5\"}}.{{pause frames=\"5\"}}.?\nWell, {{pause frames=\"5\"}}{{string value=\"Catchphrase\"}}.\n{{reaction type=\"Sighing\"}}Maybe I should just start\nacting my age, huh?"
    }
  },
  {
    "label": "13",
    "attribute": "0x000000010E000000",
    "locale": {
      "EUde": "{{reaction type=\"Intense\"}}Genau, {{pause frames=\"15\"}}das ist es!{{pause frames=\"20\"}} Das\nist, wovon ich hier rede,\n{{pause frames=\"5\"}}{{string value=\"Catchphrase\"}}!\n{{resetReaction}}Es ist so leicht, eine\nextreme Meinung zu haben,\nfindest du nicht?\nRichtige Erwachsene sind\nausgeglichen... und nicht so\nvollkommen psychotisch!\n{{reaction type=\"Happiness\"}}Ich bin froh, dass du das\nverstehst!{{pause frames=\"5\"}} Und das hier\nist für dich!",
      "EUen": "{{reaction type=\"Intense\"}}Oh, {{pause frames=\"15\"}}that's it!{{pause frames=\"20\"}} That's what\nI'm talkin' about,\n{{pause frames=\"5\"}}{{string value=\"Catchphrase\"}}!\n{{resetReaction}}It's pretty easy to get\nall extreme about\neverything, isn't it?\nReal adults try to be\n\"balanced\" and not act like\n\"complete psychos.\"\n{{reaction type=\"Happiness\"}}I'm glad you get it!{{pause frames=\"5\"}}\nNow take this present!",
      "EUes": "{{reaction type=\"Intense\"}}¡Eh, {{pause frames=\"15\"}}eso es!{{pause frames=\"20\"}} ¡A esto es\na lo que me refería,\n{{pause frames=\"5\"}}{{string value=\"Catchphrase\"}}!\n{{resetReaction}}Qué fácil es exagerar las\ncosas y sacarlas de\ncontexto, ¿no crees?\nLos verdaderos adultos\nbuscan el equilibrio, no se\ncomportan como psicópatas.\n{{reaction type=\"Happiness\"}}¡Me alegro de que lo hayas\nentendido!{{pause frames=\"5\"}} ¡Voy a regalarte\nalgo!",
      "EUfr": "{{reaction type=\"Intense\"}}Oh, {{pause frames=\"15\"}}c'est ça!{{pause frames=\"20\"}} C'est ce que\nje disais, {{pause frames=\"5\"}}{{string value=\"Catchphrase\"}}!\n\n{{resetReaction}}C'est facile de partir dans\nles extrêmes, n'est-ce pas?\nUn adulte essaie d'être\n\"équilibré\" sans se\ncomporter comme un\n\"malade\".\n{{reaction type=\"Happiness\"}}Je suis content que tu\ncomprennes!{{pause frames=\"5\"}}\nPrends ce cadeau!",
      "EUit": "{{reaction type=\"Intense\"}}Oh, {{pause frames=\"15\"}}esatto!{{pause frames=\"20\"}} Proprio quello\nche intendo,\n{{pause frames=\"5\"}}{{string value=\"Catchphrase\"}}!\n{{resetReaction}}È piuttosto facile assumere\nposizioni estreme su\nqualsiasi argomento, vero?\nUn adulto è una persona\n\"equilibrata\" e non si\ncomporta da \"psicopatico\".\n{{reaction type=\"Happiness\"}}Mi fa piacere che tu sia\nd'accordo!{{pause frames=\"5\"}}\nOra prendi questo regalo!",
      "JPja": "{{reaction type=\"Intense\"}}おぅ、{{pause frames=\"15\"}}そうだろ！{{pause frames=\"20\"}}\nその{{kanjiReplace charNum=\"1\" value=\"へん\"}}辺だろ、{{pause frames=\"5\"}}{{string value=\"Catchphrase\"}}！\n\n{{resetReaction}}なんでも　きょくたんに\n{{kanjiReplace charNum=\"1\" value=\"はし\"}}走るのは　カンタンなんだよ\n\nちょうどいい　ころあいを\n{{kanjiReplace charNum=\"1\" value=\"たも\"}}保ち{{kanjiReplace charNum=\"1\" value=\"つづ\"}}続けるのが{{pause frames=\"5\"}}\nオトナってもんなんだ、{{pause frames=\"5\"}}{{string value=\"Catchphrase\"}}\n{{reaction type=\"Happiness\"}}その{{kanjiReplace charNum=\"1\" value=\"へん\"}}辺が　よく{{kanjiReplace charNum=\"1\" value=\"わ\"}}分かってる\n{{kanjiReplace charNum=\"2\" value=\"かんしん\"}}感心な　おめぇに、{{pause frames=\"5\"}}\nこれをプレゼントするぜ！",
      "KRko": "{{reaction type=\"Intense\"}}오우， {{pause frames=\"15\"}}맞아！{{pause frames=\"20\"}}\n그 부분이야， {{pause frames=\"5\"}}{{string value=\"Catchphrase\"}}！\n\n{{resetReaction}}뭐든지 극단적으로\n치우치기는 쉬워\n\n적절한 정도를\n유지하는 게{{pause frames=\"5\"}}\n바로 어른이지， {{pause frames=\"5\"}}{{string value=\"Catchphrase\"}}\n{{reaction type=\"Happiness\"}}그 부분을 잘 알고 있는\n대단한 너에게{{pause frames=\"5\"}}\n이걸 선물하지！",
      "USen": "{{reaction type=\"Intense\"}}Oh, {{pause frames=\"15\"}}that's it!{{pause frames=\"20\"}} That's what\nI'm talkin' about,\n{{pause frames=\"5\"}}{{string value=\"Catchphrase\"}}!\n{{resetReaction}}It's pretty easy to get\nall extreme about\neverything, isn't it?\nReal adults try to be\n\"balanced\" and not act like\n\"complete psychos.\"\n{{reaction type=\"Happiness\"}}I'm glad you get it!{{pause frames=\"5\"}}\nNow take this present!"
    }
  },
  {
    "label": "14",
    "attribute": "0x00000000FE000000",
    "locale": {
      "EUde": "{{reaction type=\"Glee\"}}Hier, nimm einfach {{gender m=\"meinen\" f=\"meine\" n=\"mein\"}}{{pause frames=\"15\"}}\n{{ignoreArticle}}{{itemName index=\"1\"}},\n{{pause frames=\"5\"}}{{string value=\"Catchphrase\"}}!\n{{reaction type=\"Intense\"}}Und lass dich nicht zu sehr\nhetzten. {{pause frames=\"5\"}}Werd aber bitte\nauch nicht zu faul!",
      "EUen": "{{reaction type=\"Glee\"}}Here, just take my{{pause frames=\"15\"}}\n{{ignoreArticle}}{{itemName index=\"1\"}},\n{{pause frames=\"5\"}}{{string value=\"Catchphrase\"}}!\n{{reaction type=\"Intense\"}}And don't let yourself\nget too uptight. {{pause frames=\"5\"}}Or become\ntoo much of a slacker!",
      "EUes": "{{reaction type=\"Glee\"}}¡Mira, quédate con mi{{pause frames=\"15\"}}\n{{ignoreArticle}}{{itemName index=\"1\"}},\n{{pause frames=\"5\"}}{{string value=\"Catchphrase\"}}!\n{{reaction type=\"Intense\"}}Y no te vayas a agobiar\ndemasiado. {{pause frames=\"5\"}}¡Ni te conviertas\nen {{gender m=\"un vago redomado\" f=\"una vaga redomada\"}}!",
      "EUfr": "{{reaction type=\"Glee\"}}Tiens, prends{{pause frames=\"15\"}}\n{{itemName index=\"1\"}},\n{{pause frames=\"5\"}}{{string value=\"Catchphrase\"}}!\n{{reaction type=\"Intense\"}}Et ne te monte pas\nle bonnet. {{pause frames=\"5\"}}Ou ne deviens\npas un fainéant!",
      "EUit": "{{reaction type=\"Glee\"}}Ecco, prendi {{gender m=\"il mio\" f=\"la mia\" n=\"\"}}{{pause frames=\"15\"}}\n{{ignoreArticle}}{{itemName index=\"1\"}},\n{{pause frames=\"5\"}}{{string value=\"Catchphrase\"}}!\n{{reaction type=\"Intense\"}}E cerca di non diventare\ntroppo intransigente {{pause frames=\"5\"}}o {{gender m=\"un\" f=\"una\"}}\nfannullon{{gender m=\"e\" f=\"a\"}} totale!",
      "JPja": "{{itemName index=\"1\"}}だ！\n{{pause frames=\"5\"}}{{string value=\"Catchphrase\"}}！\n\n{{reaction type=\"Intense\"}}おめぇも　オンとオフしか\nないようなヤツには\nなるんじゃねぇぞ、{{pause frames=\"5\"}}{{string value=\"Catchphrase\"}}！",
      "KRko": "{{itemName index=\"1\"}}{{fun_0B arg=\"0x0500\"}}다\n{{pause frames=\"5\"}}{{string value=\"Catchphrase\"}}！\n\n{{reaction type=\"Intense\"}}너도 극단적인\n녀석만큼은 되지 않도록 \n해라， {{pause frames=\"5\"}}{{string value=\"Catchphrase\"}}！",
      "USen": "{{reaction type=\"Glee\"}}Here, just take my{{pause frames=\"15\"}}\n{{ignoreArticle}}{{itemName index=\"1\"}},\n{{pause frames=\"5\"}}{{string value=\"Catchphrase\"}}!\n{{reaction type=\"Intense\"}}And don't let yourself\nget too uptight. {{pause frames=\"5\"}}Or become\ntoo much of a slacker!"
    }
  },
  {
    "label": "15",
    "attribute": "0x00000000FF000000",
    "locale": {
      "EUde": "{{reaction type=\"Worry\"}}Igitt{{pause frames=\"5\"}}.{{pause frames=\"5\"}}.{{pause frames=\"5\"}}.{{pause frames=\"15\"}} Na gut, wenn du {{gender m=\"ihn\" f=\"sie\" n=\"es\"}}\nso liebst, nimm {{gender m=\"ihn\" f=\"sie\" n=\"es\"}} einfach\nmit, {{pause frames=\"5\"}}{{string value=\"Catchphrase\"}}!\n{{fun_06 arg=\"0x030405\"}}",
      "EUen": "{{reaction type=\"Worry\"}}Yikes{{pause frames=\"5\"}}.{{pause frames=\"5\"}}.{{pause frames=\"5\"}}.{{pause frames=\"15\"}} Well, if you like it\nthat much, just take it,\n{{pause frames=\"5\"}}{{string value=\"Catchphrase\"}}!\n{{fun_06 arg=\"0x030405\"}}",
      "EUes": "{{reaction type=\"Worry\"}}Repámpanos{{pause frames=\"5\"}}.{{pause frames=\"5\"}}.{{pause frames=\"5\"}}.{{pause frames=\"15\"}} ¡Si te gusta\ntanto, será mejor que te l{{gender m=\"o\" f=\"a\" n=\"\"}}\nquedes, {{pause frames=\"5\"}}{{string value=\"Catchphrase\"}}!\n{{fun_06 arg=\"0x030405\"}}",
      "EUfr": "{{reaction type=\"Worry\"}}Ouah{{pause frames=\"5\"}}.{{pause frames=\"5\"}}.{{pause frames=\"5\"}}.{{pause frames=\"15\"}} Si c'est ton truc,\nsers-toi,\n{{pause frames=\"5\"}}{{string value=\"Catchphrase\"}}!\n{{fun_06 arg=\"0x030405\"}}",
      "EUit": "{{reaction type=\"Worry\"}}Ufff{{pause frames=\"5\"}}.{{pause frames=\"5\"}}.{{pause frames=\"5\"}}.{{pause frames=\"15\"}} Beh, se ti piace\nproprio così tanto, ecco,\nprendi, {{pause frames=\"5\"}}{{string value=\"Catchphrase\"}}!\n{{fun_06 arg=\"0x030405\"}}",
      "JPja": "{{reaction type=\"Worry\"}}そっか{{pause frames=\"5\"}}・{{pause frames=\"5\"}}・{{pause frames=\"5\"}}・{{pause frames=\"15\"}}\nそんなに　{{kanjiReplace charNum=\"1\" value=\"ほ\"}}欲しいなら\nあげちゃうか、{{pause frames=\"5\"}}{{string value=\"Catchphrase\"}}\n{{fun_06 arg=\"0x030405\"}}",
      "KRko": "{{reaction type=\"Worry\"}}글쿤{{pause frames=\"5\"}}・{{pause frames=\"5\"}}・{{pause frames=\"5\"}}・{{pause frames=\"15\"}}\n그렇게 갖고 싶으면\n주지 뭐， {{pause frames=\"5\"}}{{string value=\"Catchphrase\"}}\n{{fun_06 arg=\"0x03040500\"}}",
      "USen": "{{reaction type=\"Worry\"}}Yikes{{pause frames=\"5\"}}.{{pause frames=\"5\"}}.{{pause frames=\"5\"}}.{{pause frames=\"15\"}} Well, if you like it\nthat much, just take it,\n{{pause frames=\"5\"}}{{string value=\"Catchphrase\"}}!\n{{fun_06 arg=\"0x030405\"}}"
    }
  },
  {
    "label": "16",
    "attribute": "0x00000000FE000000",
    "locale": {
      "EUde": "{{reaction type=\"Intense\"}}Argggh! {{pause frames=\"20\"}}{{reaction type=\"Worry\"}}Wo bleibt da dein\nSinn für fairen\nWettbewerb?!?\n{{resetReaction}}Na gut, {{pause frames=\"15\"}}aber ein neues\nAngebot bekommst du nicht\nso schnell, {{pause frames=\"5\"}}{{string value=\"Catchphrase\"}}!\n{{fun_06 arg=\"0x030405\"}}",
      "EUen": "{{reaction type=\"Intense\"}}Argggh! {{pause frames=\"20\"}}{{reaction type=\"Worry\"}}Where's your sense\nof competition?\n\n{{resetReaction}}Well, {{pause frames=\"15\"}}you won't see an offer\nlike this often, so just\ntake it, {{pause frames=\"5\"}}{{string value=\"Catchphrase\"}}!\n{{fun_06 arg=\"0x030405\"}}",
      "EUes": "{{reaction type=\"Intense\"}}¡Aaaarg! {{pause frames=\"20\"}}{{reaction type=\"Worry\"}}¿Dónde está tu\nespíritu competitivo?\n\n{{resetReaction}}¡No volverás {{pause frames=\"15\"}}a tener una\nocasión como esta! ¡Será\nmejor que te l{{gender m=\"o\" f=\"a\" n=\"\"}} quedes!\n{{fun_06 arg=\"0x030405\"}}",
      "EUfr": "{{reaction type=\"Intense\"}}Aaahhh! {{pause frames=\"20\"}}{{reaction type=\"Worry\"}}Tu as perdu ton\nsens des affaires?\n\n{{resetReaction}}Bien, {{pause frames=\"15\"}}tu ne verras pas de\nsitôt une offre de ce\ngenre, alors vas-y!\n{{fun_06 arg=\"0x030405\"}}",
      "EUit": "{{reaction type=\"Intense\"}}Argggh! {{pause frames=\"20\"}}{{reaction type=\"Worry\"}}Dov'è il tuo spirito\ndi competizione?\n\n{{resetReaction}}Un'offerta così {{pause frames=\"15\"}}non la trovi\ntutti i giorni: accettala al\nvolo, {{pause frames=\"5\"}}{{string value=\"Catchphrase\"}}!\n{{fun_06 arg=\"0x030405\"}}",
      "JPja": "{{reaction type=\"Intense\"}}かーっ！{{pause frames=\"20\"}}　なんだよ、{{pause frames=\"15\"}}\n{{reaction type=\"Worry\"}}はり{{kanjiReplace charNum=\"1\" value=\"あ\"}}合いのねぇヤツだなぁ{{pause frames=\"5\"}}・{{pause frames=\"5\"}}・{{pause frames=\"5\"}}・\n\n{{resetReaction}}せっかくだから\n{{kanjiReplace charNum=\"1\" value=\"し\"}}四の{{kanjiReplace charNum=\"1\" value=\"ご\"}}五の{{kanjiReplace charNum=\"1\" value=\"い\"}}言わずに\nもらってくれや、{{pause frames=\"5\"}}{{string value=\"Catchphrase\"}}！\n{{fun_06 arg=\"0x030405\"}}",
      "KRko": "{{reaction type=\"Intense\"}}커헉！{{pause frames=\"20\"}} 뭐야，{{pause frames=\"15\"}}\n{{reaction type=\"Worry\"}}재미 없는 녀석{{pause frames=\"5\"}}・{{pause frames=\"5\"}}・{{pause frames=\"5\"}}・\n\n{{resetReaction}}모처럼 주는 건데\n이것저것 따지지 말고\n그냥 받아， {{pause frames=\"5\"}}{{string value=\"Catchphrase\"}}！\n{{fun_06 arg=\"0x03040500\"}}",
      "USen": "{{reaction type=\"Intense\"}}Argggh! {{pause frames=\"20\"}}{{reaction type=\"Worry\"}}Where's your sense\nof competition?\n\n{{resetReaction}}Well, {{pause frames=\"15\"}}you won't see an offer\nlike this often, so just\ntake it, {{pause frames=\"5\"}}{{string value=\"Catchphrase\"}}!\n{{fun_06 arg=\"0x030405\"}}"
    }
  },
  {
    "label": "17",
    "attribute": "0x00000000FE000000",
    "locale": {
      "EUde": "{{reaction type=\"Intense\"}}Pah, {{pause frames=\"15\"}}dann kriegt {{gender m=\"ihn\" f=\"sie\" n=\"es\"}}\neben {{string value=\"GossipVillager4\"}},\n{{pause frames=\"5\"}}{{string value=\"Catchphrase\"}}!",
      "EUen": "{{reaction type=\"Intense\"}}Pfft, {{pause frames=\"15\"}}then maybe I'll just\ngive it to {{string value=\"GossipVillager4\"}},\n{{pause frames=\"5\"}}{{string value=\"Catchphrase\"}}!",
      "EUes": "{{reaction type=\"Intense\"}}¡Bah, {{pause frames=\"15\"}}pues entonces se\nl{{gender m=\"o\" f=\"a\" n=\"\"}} doy a {{string value=\"GossipVillager4\"}},\n{{pause frames=\"5\"}}{{string value=\"Catchphrase\"}}!",
      "EUfr": "{{reaction type=\"Intense\"}}Pff, {{pause frames=\"15\"}}ça fera sûrement\nle bonheur de {{string value=\"GossipVillager4\"}},\n{{pause frames=\"5\"}}{{string value=\"Catchphrase\"}}!",
      "EUit": "{{reaction type=\"Intense\"}}Vabbè, {{pause frames=\"15\"}}vorrà dire che darò\nquesto regalo a\n{{string value=\"GossipVillager4\"}}, {{pause frames=\"5\"}}{{string value=\"Catchphrase\"}}!",
      "JPja": "{{reaction type=\"Intense\"}}フン、{{pause frames=\"15\"}}だったら　ダチの\n{{string value=\"GossipVillager4\"}}にでも\nくれてやると　するさ、{{pause frames=\"5\"}}{{string value=\"Catchphrase\"}}！",
      "KRko": "{{reaction type=\"Intense\"}}흐음， {{pause frames=\"15\"}}그럼 내 친구\n{{string value=\"GossipVillager4\"}}한테라도\n주지 뭐， {{pause frames=\"5\"}}{{string value=\"Catchphrase\"}}！",
      "USen": "{{reaction type=\"Intense\"}}Pfft, {{pause frames=\"15\"}}then maybe I'll just\ngive it to {{string value=\"GossipVillager4\"}},\n{{pause frames=\"5\"}}{{string value=\"Catchphrase\"}}!"
    }
  }
]