[
  {
    "label": "00",
    "attribute": "",
    "locale": {
      "EUde": "{{string index=\"1\"}}, {{string index=\"8\"}}",
      "EUen": "{{string index=\"1\"}}, {{string index=\"8\"}}",
      "EUes": "{{string index=\"1\"}}, {{string index=\"8\"}}",
      "EUfr": "{{string index=\"1\"}}, {{string index=\"8\"}}",
      "EUit": "{{string index=\"1\"}}, {{string index=\"8\"}}",
      "JPja": "{{string index=\"8\"}}むら　{{string index=\"1\"}}",
      "KRko": "{{string index=\"8\"}} 마을 {{string index=\"1\"}}",
      "USen": "{{string index=\"1\"}}, {{string index=\"8\"}}"
    }
  },
  {
    "label": "01",
    "attribute": "",
    "locale": {
      "EUde": "{{string index=\"1\"}}, {{string index=\"8\"}}",
      "EUen": "{{string index=\"1\"}}, {{string index=\"8\"}}",
      "EUes": "{{string index=\"1\"}}, {{string index=\"8\"}}",
      "EUfr": "{{string index=\"1\"}}, {{string index=\"8\"}}",
      "EUit": "{{string index=\"1\"}}, {{string index=\"8\"}}",
      "JPja": "{{string index=\"8\"}}むら　{{string index=\"1\"}}",
      "KRko": "{{string index=\"8\"}} 마을 {{string index=\"1\"}}",
      "USen": "{{string index=\"1\"}}, {{string index=\"8\"}}"
    }
  },
  {
    "label": "02",
    "attribute": "",
    "locale": {
      "EUde": "{{string index=\"1\"}}, {{string index=\"8\"}}",
      "EUen": "{{string index=\"1\"}}, {{string index=\"8\"}}",
      "EUes": "{{string index=\"1\"}}, {{string index=\"8\"}}",
      "EUfr": "{{string index=\"1\"}}, {{string index=\"8\"}}",
      "EUit": "{{string index=\"1\"}}, {{string index=\"8\"}}",
      "JPja": "{{string index=\"8\"}}むら　{{string index=\"1\"}}",
      "KRko": "{{string index=\"8\"}} 마을 {{string index=\"1\"}}",
      "USen": "{{string index=\"1\"}}, {{string index=\"8\"}}"
    }
  },
  {
    "label": "03",
    "attribute": "",
    "locale": {
      "EUde": "{{string index=\"1\"}}, {{string index=\"8\"}}",
      "EUen": "{{string index=\"1\"}}, {{string index=\"8\"}}",
      "EUes": "{{string index=\"1\"}}, {{string index=\"8\"}}",
      "EUfr": "{{string index=\"1\"}}, {{string index=\"8\"}}",
      "EUit": "{{string index=\"1\"}}, {{string index=\"8\"}}",
      "JPja": "{{string index=\"8\"}}むら　{{string index=\"1\"}}",
      "KRko": "{{string index=\"8\"}} 마을 {{string index=\"1\"}}",
      "USen": "{{string index=\"1\"}}, {{string index=\"8\"}}"
    }
  },
  {
    "label": "04",
    "attribute": "",
    "locale": {
      "EUde": "{{string index=\"1\"}}, {{string index=\"8\"}}",
      "EUen": "{{string index=\"1\"}}, {{string index=\"8\"}}",
      "EUes": "{{string index=\"1\"}}, {{string index=\"8\"}}",
      "EUfr": "{{string index=\"1\"}}, {{string index=\"8\"}}",
      "EUit": "{{string index=\"1\"}}, {{string index=\"8\"}}",
      "JPja": "{{string index=\"8\"}}むら　{{string index=\"1\"}}",
      "KRko": "{{string index=\"8\"}} 마을 {{string index=\"1\"}}",
      "USen": "{{string index=\"1\"}}, {{string index=\"8\"}}"
    }
  },
  {
    "label": "05",
    "attribute": "",
    "locale": {
      "EUde": "{{string index=\"1\"}}, {{string index=\"8\"}}",
      "EUen": "{{string index=\"1\"}}, {{string index=\"8\"}}",
      "EUes": "{{string index=\"1\"}}, {{string index=\"8\"}}",
      "EUfr": "{{string index=\"1\"}}, {{string index=\"8\"}}",
      "EUit": "{{string index=\"1\"}}, {{string index=\"8\"}}",
      "JPja": "{{string index=\"8\"}}むら　{{string index=\"1\"}}",
      "KRko": "{{string index=\"8\"}} 마을 {{string index=\"1\"}}",
      "USen": "{{string index=\"1\"}}, {{string index=\"8\"}}"
    }
  },
  {
    "label": "06",
    "attribute": "",
    "locale": {
      "EUde": "{{string index=\"1\"}}, {{string index=\"8\"}}",
      "EUen": "{{string index=\"1\"}}, {{string index=\"8\"}}",
      "EUes": "{{string index=\"1\"}}, {{string index=\"8\"}}",
      "EUfr": "{{string index=\"1\"}}, {{string index=\"8\"}}",
      "EUit": "{{string index=\"1\"}}, {{string index=\"8\"}}",
      "JPja": "{{string index=\"8\"}}むら　{{string index=\"1\"}}",
      "KRko": "{{string index=\"8\"}} 마을 {{string index=\"1\"}}",
      "USen": "{{string index=\"1\"}}, {{string index=\"8\"}}"
    }
  },
  {
    "label": "07",
    "attribute": "",
    "locale": {
      "EUde": "{{string index=\"1\"}}, {{string index=\"8\"}}",
      "EUen": "{{string index=\"1\"}}, {{string index=\"8\"}}",
      "EUes": "{{string index=\"1\"}}, {{string index=\"8\"}}",
      "EUfr": "{{string index=\"1\"}}, {{string index=\"8\"}}",
      "EUit": "{{string index=\"1\"}}, {{string index=\"8\"}}",
      "JPja": "{{string index=\"8\"}}むら　{{string index=\"1\"}}",
      "KRko": "{{string index=\"8\"}} 마을 {{string index=\"1\"}}",
      "USen": "{{string index=\"1\"}}, {{string index=\"8\"}}"
    }
  },
  {
    "label": "08",
    "attribute": "",
    "locale": {
      "EUde": "{{string index=\"1\"}}, {{string index=\"8\"}}",
      "EUen": "{{string index=\"1\"}}, {{string index=\"8\"}}",
      "EUes": "{{string index=\"1\"}}, {{string index=\"8\"}}",
      "EUfr": "{{string index=\"1\"}}, {{string index=\"8\"}}",
      "EUit": "{{string index=\"1\"}}, {{string index=\"8\"}}",
      "JPja": "{{string index=\"8\"}}むら　{{string index=\"1\"}}",
      "KRko": "{{string index=\"8\"}} 마을 {{string index=\"1\"}}",
      "USen": "{{string index=\"1\"}}, {{string index=\"8\"}}"
    }
  },
  {
    "label": "09",
    "attribute": "",
    "locale": {
      "EUde": "{{string index=\"1\"}}, {{string index=\"8\"}}",
      "EUen": "{{string index=\"1\"}}, {{string index=\"8\"}}",
      "EUes": "{{string index=\"1\"}}, {{string index=\"8\"}}",
      "EUfr": "{{string index=\"1\"}}, {{string index=\"8\"}}",
      "EUit": "{{string index=\"1\"}}, {{string index=\"8\"}}",
      "JPja": "{{string index=\"8\"}}むら　{{string index=\"1\"}}",
      "KRko": "{{string index=\"8\"}} 마을 {{string index=\"1\"}}",
      "USen": "{{string index=\"1\"}}, {{string index=\"8\"}}"
    }
  },
  {
    "label": "10",
    "attribute": "",
    "locale": {
      "EUde": "{{string index=\"1\"}}, {{string index=\"8\"}}",
      "EUen": "{{string index=\"1\"}}, {{string index=\"8\"}}",
      "EUes": "{{string index=\"1\"}}, {{string index=\"8\"}}",
      "EUfr": "{{string index=\"1\"}}, {{string index=\"8\"}}",
      "EUit": "{{string index=\"1\"}}, {{string index=\"8\"}}",
      "JPja": "{{string index=\"8\"}}むら　{{string index=\"1\"}}",
      "KRko": "{{string index=\"8\"}} 마을 {{string index=\"1\"}}",
      "USen": "{{string index=\"1\"}}, {{string index=\"8\"}}"
    }
  },
  {
    "label": "11",
    "attribute": "",
    "locale": {
      "EUde": "{{string index=\"1\"}}, {{string index=\"8\"}}",
      "EUen": "{{string index=\"1\"}}, {{string index=\"8\"}}",
      "EUes": "{{string index=\"1\"}}, {{string index=\"8\"}}",
      "EUfr": "{{string index=\"1\"}}, {{string index=\"8\"}}",
      "EUit": "{{string index=\"1\"}}, {{string index=\"8\"}}",
      "JPja": "{{string index=\"8\"}}むら　{{string index=\"1\"}}",
      "KRko": "{{string index=\"8\"}} 마을 {{string index=\"1\"}}",
      "USen": "{{string index=\"1\"}}, {{string index=\"8\"}}"
    }
  },
  {
    "label": "12",
    "attribute": "",
    "locale": {
      "EUde": "{{string index=\"1\"}}, {{string index=\"8\"}}",
      "EUen": "{{string index=\"1\"}}, {{string index=\"8\"}}",
      "EUes": "{{string index=\"1\"}}, {{string index=\"8\"}}",
      "EUfr": "{{string index=\"1\"}}, {{string index=\"8\"}}",
      "EUit": "{{string index=\"1\"}}, {{string index=\"8\"}}",
      "JPja": "{{string index=\"8\"}}むら　{{string index=\"1\"}}",
      "KRko": "{{string index=\"8\"}} 마을 {{string index=\"1\"}}",
      "USen": "{{string index=\"1\"}}, {{string index=\"8\"}}"
    }
  },
  {
    "label": "13",
    "attribute": "",
    "locale": {
      "EUde": "{{string index=\"1\"}}, {{string index=\"8\"}}",
      "EUen": "{{string index=\"1\"}}, {{string index=\"8\"}}",
      "EUes": "{{string index=\"1\"}}, {{string index=\"8\"}}",
      "EUfr": "{{string index=\"1\"}}, {{string index=\"8\"}}",
      "EUit": "{{string index=\"1\"}}, {{string index=\"8\"}}",
      "JPja": "{{string index=\"8\"}}むら　{{string index=\"1\"}}",
      "KRko": "{{string index=\"8\"}} 마을 {{string index=\"1\"}}",
      "USen": "{{string index=\"1\"}}, {{string index=\"8\"}}"
    }
  },
  {
    "label": "14",
    "attribute": "",
    "locale": {
      "EUde": "{{string index=\"1\"}}, {{string index=\"8\"}}",
      "EUen": "{{string index=\"1\"}}, {{string index=\"8\"}}",
      "EUes": "{{string index=\"1\"}}, {{string index=\"8\"}}",
      "EUfr": "{{string index=\"1\"}}, {{string index=\"8\"}}",
      "EUit": "{{string index=\"1\"}}, {{string index=\"8\"}}",
      "JPja": "{{string index=\"8\"}}むら　{{string index=\"1\"}}",
      "KRko": "{{string index=\"8\"}} 마을 {{string index=\"1\"}}",
      "USen": "{{string index=\"1\"}}, {{string index=\"8\"}}"
    }
  },
  {
    "label": "15",
    "attribute": "",
    "locale": {
      "EUde": "{{string index=\"1\"}}, {{string index=\"8\"}}",
      "EUen": "{{string index=\"1\"}}, {{string index=\"8\"}}",
      "EUes": "{{string index=\"1\"}}, {{string index=\"8\"}}",
      "EUfr": "{{string index=\"1\"}}, {{string index=\"8\"}}",
      "EUit": "{{string index=\"1\"}}, {{string index=\"8\"}}",
      "JPja": "{{string index=\"8\"}}むら　{{string index=\"1\"}}",
      "KRko": "{{string index=\"8\"}} 마을 {{string index=\"1\"}}",
      "USen": "{{string index=\"1\"}}, {{string index=\"8\"}}"
    }
  }
]