[
  {
    "label": "0",
    "attribute": "0x000A0000FF000000",
    "locale": {
      "EUde": "{{reaction type=\"Shocked\"}}Was?{{pause frames=\"5\"}} Ist das {{gender m=\"ein\" f=\"eine\" n=\"ein\"}}{{pause frames=\"5\"}}.{{pause frames=\"5\"}}.{{pause frames=\"5\"}}.{{pause frames=\"5\"}}\n{{ignoreArticle}}{{itemName index=\"0\"}}?!?\nWow!\n{{reaction type=\"Happiness\"}}Sehr gut, {{pause frames=\"5\"}}{{string value=\"PlayerNickname\"}}!{{pause frames=\"20\"}} Ich\nkann kaum glauben, dass du\n{{gender m=\"ihn\" f=\"sie\" n=\"es\"}} für mich gefunden hast.\nWie kann ich dir jemals\ndanken, {{pause frames=\"10\"}}{{string value=\"Catchphrase\"}}?!?",
      "EUen": "{{reaction type=\"Shocked\"}}What?!{{pause frames=\"5\"}} Could this be{{pause frames=\"5\"}}.{{pause frames=\"5\"}}.{{pause frames=\"5\"}}.{{pause frames=\"5\"}}\n{{itemName index=\"0\"}}?!\nWow!\n{{reaction type=\"Happiness\"}}Good job, {{pause frames=\"5\"}}{{string value=\"PlayerNickname\"}}!{{pause frames=\"20\"}} I\ncan't believe you actually\nfound it for me{{pause frames=\"5\"}}.{{pause frames=\"5\"}}.{{pause frames=\"5\"}}.\nHow can I ever thank you,\n{{pause frames=\"10\"}}{{string value=\"Catchphrase\"}}?!",
      "EUes": "{{reaction type=\"Shocked\"}}¡Noo!{{pause frames=\"5\"}} ¿Esto no será{{pause frames=\"5\"}}.{{pause frames=\"5\"}}.{{pause frames=\"5\"}}.{{pause frames=\"5\"}}?\n¡¿{{capitalizeLetter}}{{itemName index=\"0\"}}?!\n¡Vaya!\n{{reaction type=\"Happiness\"}}¡Muy bien, {{pause frames=\"5\"}}{{string value=\"PlayerNickname\"}}!{{pause frames=\"20\"}} No\npuedo creer que hayas ido a\nbuscarl{{gender m=\"o\" f=\"a\" n=\"x\"}} para mí{{pause frames=\"5\"}}.{{pause frames=\"5\"}}.{{pause frames=\"5\"}}.\n¡¿Cómo podré agradecértelo,\n{{pause frames=\"10\"}}{{string value=\"Catchphrase\"}}?!",
      "EUfr": "{{reaction type=\"Shocked\"}}Quoi?!{{pause frames=\"5\"}} C'est bien\n{{itemName index=\"0\"}}{{pause frames=\"5\"}}.{{pause frames=\"5\"}}.{{pause frames=\"5\"}}.{{pause frames=\"5\"}}\nOu je me trompe?! Waouh!\n{{reaction type=\"Happiness\"}}Beau travail, {{pause frames=\"5\"}}{{string value=\"PlayerNickname\"}}!{{pause frames=\"20\"}}\nJ'arrive pas à croire que\ntu l'aies trouvé{{gender m=\"\" f=\"e\" n=\"\"}} pour moi{{pause frames=\"5\"}}.{{pause frames=\"5\"}}.{{pause frames=\"5\"}}.\nComment te remercier,\n{{pause frames=\"10\"}}{{string value=\"Catchphrase\"}}?!",
      "EUit": "{{reaction type=\"Shocked\"}}Come?!{{pause frames=\"5\"}} Non è{{pause frames=\"5\"}}.{{pause frames=\"5\"}}.{{pause frames=\"5\"}}.{{pause frames=\"5\"}}\n{{itemName index=\"0\"}}?!\nWow!\n{{reaction type=\"Happiness\"}}Ottimo lavoro, {{pause frames=\"5\"}}{{string value=\"PlayerNickname\"}}!{{pause frames=\"20\"}}\nNon riesco a credere che tu\nl'abbia trovato per me{{pause frames=\"5\"}}.{{pause frames=\"5\"}}.{{pause frames=\"5\"}}.\nPotrò mai ringraziarti\nabbastanza, {{pause frames=\"10\"}}{{string value=\"Catchphrase\"}}?!",
      "JPja": "{{reaction type=\"Shocked\"}}あら！？{{pause frames=\"5\"}}\nコレ　もしかして{{pause frames=\"5\"}}・{{pause frames=\"5\"}}・{{pause frames=\"5\"}}・{{pause frames=\"5\"}}\n{{itemName index=\"0\"}}！？\n{{reaction type=\"Happiness\"}}やるわね、{{pause frames=\"5\"}}{{string value=\"PlayerNickname\"}}ちゃん！{{pause frames=\"20\"}}\nあたしのために\nさがして　くれるなんて{{pause frames=\"5\"}}・{{pause frames=\"5\"}}・{{pause frames=\"5\"}}・\nだったら　お{{kanjiReplace charNum=\"1\" value=\"れい\"}}礼するわ！\n{{pause frames=\"10\"}}{{string value=\"Catchphrase\"}}！",
      "KRko": "{{reaction type=\"Shocked\"}}어머！？{{pause frames=\"5\"}}\n이거 혹시{{pause frames=\"5\"}}・{{pause frames=\"5\"}}・{{pause frames=\"5\"}}・{{pause frames=\"5\"}}\n{{itemName index=\"0\"}}！？\n{{reaction type=\"Happiness\"}}대단한걸， {{pause frames=\"5\"}}{{string value=\"PlayerNickname\"}}！{{pause frames=\"20\"}}\n나를 위해\n찾아 주다니{{pause frames=\"5\"}}・{{pause frames=\"5\"}}・{{pause frames=\"5\"}}・\n그럼 답례를 할게！\n{{pause frames=\"10\"}}{{string value=\"Catchphrase\"}}！",
      "USen": "{{reaction type=\"Shocked\"}}What?!{{pause frames=\"5\"}} Could this be{{pause frames=\"5\"}}.{{pause frames=\"5\"}}.{{pause frames=\"5\"}}.{{pause frames=\"5\"}}\n{{itemName index=\"0\"}}?!\nWow!\n{{reaction type=\"Happiness\"}}Good job, {{pause frames=\"5\"}}{{string value=\"PlayerNickname\"}}!{{pause frames=\"20\"}} I\ncan't believe you actually\nfound it for me{{pause frames=\"5\"}}.{{pause frames=\"5\"}}.{{pause frames=\"5\"}}.\nHow can I ever thank you,\n{{pause frames=\"10\"}}{{string value=\"Catchphrase\"}}?!"
    }
  },
  {
    "label": "1",
    "attribute": "0x000A0000FF000000",
    "locale": {
      "EUde": "{{reaction type=\"Shocked\"}}Oh, wow!{{pause frames=\"5\"}} Du hast {{gender m=\"einen\" f=\"eine\" n=\"ein\"}}\n{{ignoreArticle}}{{itemName index=\"0\"}} {{pause frames=\"5\"}}\ngefunden? Für mich?\n{{reaction type=\"Happiness\"}}Du bist {{gender m=\"der\" f=\"die\"}} BESTE,\n{{string value=\"PlayerNickname\"}}{{pause frames=\"5\"}}.{{pause frames=\"5\"}}.{{pause frames=\"5\"}}.\n\nLass mich dir danken.\nMit allem, was ich kann,\n{{pause frames=\"10\"}}{{string value=\"Catchphrase\"}}!",
      "EUen": "{{reaction type=\"Shocked\"}}Oh, wow!{{pause frames=\"5\"}} You actually found\n{{itemName index=\"0\"}} {{pause frames=\"5\"}}for\nme?!\n{{reaction type=\"Happiness\"}}You're just the BEST,\n{{string value=\"PlayerNickname\"}}{{pause frames=\"5\"}}.{{pause frames=\"5\"}}.{{pause frames=\"5\"}}.\n\nNow you gotta let me thank\nyou in the best way\npossible, {{pause frames=\"10\"}}{{string value=\"Catchphrase\"}}!",
      "EUes": "{{reaction type=\"Shocked\"}}¡Vaaya!{{pause frames=\"5\"}} ¡¿Me has traído{{pause frames=\"5\"}}\n{{itemName index=\"0\"}}?!\n\n{{reaction type=\"Happiness\"}}Eres {{gender m=\"el\" f=\"la\"}} MEJOR,\n{{string value=\"PlayerNickname\"}}{{pause frames=\"5\"}}.{{pause frames=\"5\"}}.{{pause frames=\"5\"}}.\n\n¡Tienes que dejar que te\nagradezca este bonito\ndetalle, {{pause frames=\"10\"}}{{string value=\"Catchphrase\"}}!",
      "EUfr": "{{reaction type=\"Shocked\"}}Waouh!{{pause frames=\"5\"}} Tu as vraiment\n{{itemName index=\"0\"}}{{pause frames=\"5\"}}\npour moi?!\n{{reaction type=\"Happiness\"}}Tu es l{{gender m=\"e\" f=\"a\"}} meilleur{{gender m=\"\" f=\"e\"}},\n{{string value=\"PlayerNickname\"}}{{pause frames=\"5\"}}.{{pause frames=\"5\"}}.{{pause frames=\"5\"}}.\n\nMaintenant, je tiens à te\nremercier le mieux\npossible, {{pause frames=\"10\"}}{{string value=\"Catchphrase\"}}!",
      "EUit": "{{reaction type=\"Shocked\"}}Oh, wow!{{pause frames=\"5\"}} Hai trovato\n{{itemName index=\"0\"}} {{pause frames=\"5\"}}\nper me?! Sul serio?\n{{reaction type=\"Happiness\"}}Sei GRANDE,\n{{string value=\"PlayerNickname\"}}{{pause frames=\"5\"}}.{{pause frames=\"5\"}}.{{pause frames=\"5\"}}.\n\nVorrei ringraziarti nel\nmiglior modo possibile,\n{{pause frames=\"10\"}}{{string value=\"Catchphrase\"}}!",
      "JPja": "{{reaction type=\"Shocked\"}}ヤダ！{{pause frames=\"5\"}}　ホントに\n{{itemName index=\"0\"}}、{{pause frames=\"5\"}}\nさがしてきて　くれたの！？\n{{reaction type=\"Happiness\"}}{{string value=\"PlayerNickname\"}}ちゃんも\nなかなか　キザね{{pause frames=\"5\"}}・{{pause frames=\"5\"}}・{{pause frames=\"5\"}}・\n\nだったら　あたしにも\nキザに　お{{kanjiReplace charNum=\"1\" value=\"れい\"}}礼をさせて！\n{{pause frames=\"10\"}}{{string value=\"Catchphrase\"}}！",
      "KRko": "{{reaction type=\"Shocked\"}}어멋！{{pause frames=\"5\"}} 정말로\n{{itemName index=\"0\"}}，{{pause frames=\"5\"}}\n찾아다 준거야！？\n{{reaction type=\"Happiness\"}}호오， {{string value=\"PlayerNickname\"}}，\n상당히 선수 같은데{{pause frames=\"5\"}}・{{pause frames=\"5\"}}・{{pause frames=\"5\"}}・\n\n그럼 나도\n선수에게 답례를 해야지！\n{{pause frames=\"10\"}}{{string value=\"Catchphrase\"}}！",
      "USen": "{{reaction type=\"Shocked\"}}Oh, wow!{{pause frames=\"5\"}} You actually found\n{{itemName index=\"0\"}} {{pause frames=\"5\"}}for\nme?!\n{{reaction type=\"Happiness\"}}You're just the BEST,\n{{string value=\"PlayerNickname\"}}{{pause frames=\"5\"}}.{{pause frames=\"5\"}}.{{pause frames=\"5\"}}.\n\nNow you gotta let me thank\nyou in the best way\npossible, {{pause frames=\"10\"}}{{string value=\"Catchphrase\"}}!"
    }
  },
  {
    "label": "2",
    "attribute": "0x000A0000FF000000",
    "locale": {
      "EUde": "{{reaction type=\"Amazed\"}}Wow{{pause frames=\"5\"}}.{{pause frames=\"5\"}}.{{pause frames=\"5\"}}.{{pause frames=\"5\"}} Das ist ja irre!{{pause frames=\"20\"}} {{gender m=\"Ein\" f=\"Eine\" n=\"Ein\"}}\n{{ignoreArticle}}{{itemName index=\"0\"}},\nstimmts? {{pause frames=\"10\"}}{{capitalizeLetter}}{{string value=\"Catchphrase\"}}?!?\n{{reaction type=\"Worry\"}}Ich kann kaum glauben, dass\ndu {{gender m=\"ihn\" f=\"sie\" n=\"es\"}} extra für mich\nhergebracht hast{{pause frames=\"5\"}}.{{pause frames=\"5\"}}.{{pause frames=\"5\"}}.{{pause frames=\"5\"}} {{reaction type=\"Happiness\"}}Danke!",
      "EUen": "{{reaction type=\"Amazed\"}}Wow{{pause frames=\"5\"}}.{{pause frames=\"5\"}}.{{pause frames=\"5\"}}.{{pause frames=\"5\"}} This is amazing!{{pause frames=\"20\"}} This\nIS {{itemName index=\"0\"}},\nisn't it?! {{pause frames=\"10\"}}{{capitalizeLetter}}{{string value=\"Catchphrase\"}}?!\n{{reaction type=\"Worry\"}}I can't believe you brought\nit all this way here just\nfor me{{pause frames=\"5\"}}.{{pause frames=\"5\"}}.{{pause frames=\"5\"}}.{{pause frames=\"5\"}} {{reaction type=\"Happiness\"}}I'm so happy!",
      "EUes": "{{reaction type=\"Amazed\"}}Vaya{{pause frames=\"5\"}}.{{pause frames=\"5\"}}.{{pause frames=\"5\"}}.{{pause frames=\"5\"}} ¡Es increíble!{{pause frames=\"20\"}} Esto\nes {{itemName index=\"0\"}},\n¡¿verdad?! {{pause frames=\"10\"}}¡{{capitalizeLetter}}{{string value=\"Catchphrase\"}}!\n{{reaction type=\"Worry\"}}No puedo creer que l{{gender m=\"o\" f=\"a\" n=\"x\"}} hayas\ntraído hasta aquí solo para\nmí{{pause frames=\"5\"}}.{{pause frames=\"5\"}}.{{pause frames=\"5\"}}.{{pause frames=\"5\"}} {{reaction type=\"Happiness\"}}¡Qué alegría!",
      "EUfr": "{{reaction type=\"Amazed\"}}Waouh{{pause frames=\"5\"}}.{{pause frames=\"5\"}}.{{pause frames=\"5\"}}.{{pause frames=\"5\"}} incroyable!{{pause frames=\"20\"}} C'EST\n{{itemName index=\"0\"}},\npas vrai?! {{pause frames=\"10\"}}{{capitalizeLetter}}{{string value=\"Catchphrase\"}}?!\n{{reaction type=\"Worry\"}}Je ne peux pas croire que\ntu aies fait tout ce chemin\npour me l'amener{{pause frames=\"5\"}}.{{pause frames=\"5\"}}.{{pause frames=\"5\"}}.{{pause frames=\"5\"}}\n{{reaction type=\"Happiness\"}}je suis si heureuse!",
      "EUit": "{{reaction type=\"Amazed\"}}Wow{{pause frames=\"5\"}}.{{pause frames=\"5\"}}.{{pause frames=\"5\"}}.{{pause frames=\"5\"}} Fantastico!{{pause frames=\"20\"}} È\n{{itemName index=\"0\"}},\nvero?! {{pause frames=\"10\"}}{{capitalizeLetter}}{{string value=\"Catchphrase\"}}?!\n{{reaction type=\"Worry\"}}Non posso credere che tu\nsia venut{{gender m=\"o\" f=\"a\"}} fin qui per\nme{{pause frames=\"5\"}}.{{pause frames=\"5\"}}.{{pause frames=\"5\"}}.{{pause frames=\"5\"}} {{reaction type=\"Happiness\"}}Come sono felice!",
      "JPja": "{{reaction type=\"Amazed\"}}{{pause frames=\"5\"}}・{{pause frames=\"5\"}}・{{pause frames=\"5\"}}・{{pause frames=\"5\"}}やるじゃない！{{pause frames=\"20\"}}\nこれって　{{itemName index=\"0\"}}\nでしょ！？　{{pause frames=\"10\"}}{{string value=\"Catchphrase\"}}！？\n{{reaction type=\"Worry\"}}あたしのために　わざわざ\n{{kanjiReplace charNum=\"1\" value=\"も\"}}持ってきてくれるなんて\n{{pause frames=\"5\"}}・{{pause frames=\"5\"}}・{{pause frames=\"5\"}}・{{pause frames=\"5\"}}{{reaction type=\"Happiness\"}}うれしいわ！",
      "KRko": "{{reaction type=\"Amazed\"}}{{pause frames=\"5\"}}・{{pause frames=\"5\"}}・{{pause frames=\"5\"}}・{{pause frames=\"5\"}}대단하네！{{pause frames=\"20\"}}\n이건 {{itemName index=\"0\"}}\n{{fun_0B arg=\"0x0500\"}}잖아！？ {{pause frames=\"10\"}}{{string value=\"Catchphrase\"}}！？\n{{reaction type=\"Worry\"}}날 위해 굳이\n갖고 와 주다니\n{{pause frames=\"5\"}}・{{pause frames=\"5\"}}・{{pause frames=\"5\"}}・{{pause frames=\"5\"}}{{reaction type=\"Happiness\"}}너무 기뻐！",
      "USen": "{{reaction type=\"Amazed\"}}Wow{{pause frames=\"5\"}}.{{pause frames=\"5\"}}.{{pause frames=\"5\"}}.{{pause frames=\"5\"}} This is amazing!{{pause frames=\"20\"}} This\nIS {{itemName index=\"0\"}},\nisn't it?! {{pause frames=\"10\"}}{{capitalizeLetter}}{{string value=\"Catchphrase\"}}?!\n{{reaction type=\"Worry\"}}I can't believe you brought\nit all this way here just\nfor me{{pause frames=\"5\"}}.{{pause frames=\"5\"}}.{{pause frames=\"5\"}}.{{pause frames=\"5\"}} {{reaction type=\"Happiness\"}}I'm so happy!"
    }
  }
]