[
  {
    "label": "00",
    "attribute": "0x00000000FF000000",
    "locale": {
      "EUde": "What?!{{pause frames=\"20\"}} What do you want,\n{{string value=\"PlayerNickname\"}}?!\n\n{{resetReaction}}Oh, you wanna learn how to\ndo this, {{pause frames=\"5\"}}{{string value=\"Catchphrase\"}}?\nYeah, sorry for yelling...",
      "EUen": "What?!{{pause frames=\"20\"}} What do you want,\n{{string value=\"PlayerNickname\"}}?!\n\n{{resetReaction}}Oh, you wanna learn how to\ndo this, {{pause frames=\"5\"}}{{string value=\"Catchphrase\"}}?\nYeah, sorry for yelling...",
      "EUes": "What?!{{pause frames=\"20\"}} What do you want,\n{{string value=\"PlayerNickname\"}}?!\n\n{{resetReaction}}Oh, you wanna learn how to\ndo this, {{pause frames=\"5\"}}{{string value=\"Catchphrase\"}}?\nYeah, sorry for yelling...",
      "EUfr": "What?!{{pause frames=\"20\"}} What do you want,\n{{string value=\"PlayerNickname\"}}?!\n\n{{resetReaction}}Oh, you wanna learn how to\ndo this, {{pause frames=\"5\"}}{{string value=\"Catchphrase\"}}?\nYeah, sorry for yelling...",
      "EUit": "What?!{{pause frames=\"20\"}} What do you want,\n{{string value=\"PlayerNickname\"}}?!\n\n{{resetReaction}}Oh, you wanna learn how to\ndo this, {{pause frames=\"5\"}}{{string value=\"Catchphrase\"}}?\nYeah, sorry for yelling...",
      "JPja": "んん？{{pause frames=\"20\"}}\n{{kanjiReplace charNum=\"1\" value=\"いま\"}}今のは　なんでぇ、\n{{string value=\"PlayerNickname\"}}よぉ\nもしかして\nおめぇの　やりてぇのは\nこれの{{kanjiReplace charNum=\"1\" value=\"こと\"}}事か、{{pause frames=\"5\"}}{{string value=\"Catchphrase\"}}？",
      "KRko": "んん？{{pause frames=\"20\"}}\n{{kanjiReplace charNum=\"1\" value=\"いま\"}}今のは　なんでぇ、\n{{string value=\"PlayerNickname\"}}よぉ\nもしかして\nおめぇの　やりてぇのは\nこれの{{kanjiReplace charNum=\"1\" value=\"こと\"}}事か、{{pause frames=\"5\"}}{{string value=\"Catchphrase\"}}？",
      "USen": "What?!{{pause frames=\"20\"}} What do you want,\n{{string value=\"PlayerNickname\"}}?!\n\n{{resetReaction}}Oh, you wanna learn how to\ndo this, {{pause frames=\"5\"}}{{string value=\"Catchphrase\"}}?\nYeah, sorry for yelling..."
    }
  },
  {
    "label": "01",
    "attribute": "0x00000000FF000000",
    "locale": {
      "EUde": "What in the{{pause frames=\"5\"}}.{{pause frames=\"5\"}}.{{pause frames=\"5\"}}.{{pause frames=\"10\"}} Ha ha! Look\nat you!{{pause frames=\"10\"}} You look like some\nkinda weirdo, {{string value=\"Catchphrase\"}}!",
      "EUen": "What in the{{pause frames=\"5\"}}.{{pause frames=\"5\"}}.{{pause frames=\"5\"}}.{{pause frames=\"10\"}} Ha ha! Look\nat you!{{pause frames=\"10\"}} You look like some\nkinda weirdo, {{string value=\"Catchphrase\"}}!",
      "EUes": "What in the{{pause frames=\"5\"}}.{{pause frames=\"5\"}}.{{pause frames=\"5\"}}.{{pause frames=\"10\"}} Ha ha! Look\nat you!{{pause frames=\"10\"}} You look like some\nkinda weirdo, {{string value=\"Catchphrase\"}}!",
      "EUfr": "What in the{{pause frames=\"5\"}}.{{pause frames=\"5\"}}.{{pause frames=\"5\"}}.{{pause frames=\"10\"}} Ha ha! Look\nat you!{{pause frames=\"10\"}} You look like some\nkinda weirdo, {{string value=\"Catchphrase\"}}!",
      "EUit": "What in the{{pause frames=\"5\"}}.{{pause frames=\"5\"}}.{{pause frames=\"5\"}}.{{pause frames=\"10\"}} Ha ha! Look\nat you!{{pause frames=\"10\"}} You look like some\nkinda weirdo, {{string value=\"Catchphrase\"}}!",
      "JPja": "おいおい{{pause frames=\"5\"}}・{{pause frames=\"5\"}}・{{pause frames=\"5\"}}・{{pause frames=\"20\"}}\nおめぇってば　{{kanjiReplace charNum=\"1\" value=\"いま\"}}今、{{pause frames=\"5\"}}\nこんなコト　しなかったか？",
      "KRko": "おいおい{{pause frames=\"5\"}}・{{pause frames=\"5\"}}・{{pause frames=\"5\"}}・{{pause frames=\"20\"}}\nおめぇってば　{{kanjiReplace charNum=\"1\" value=\"いま\"}}今、{{pause frames=\"5\"}}\nこんなコト　しなかったか？",
      "USen": "What in the{{pause frames=\"5\"}}.{{pause frames=\"5\"}}.{{pause frames=\"5\"}}.{{pause frames=\"10\"}} Ha ha! Look\nat you!{{pause frames=\"10\"}} You look like some\nkinda weirdo, {{string value=\"Catchphrase\"}}!"
    }
  },
  {
    "label": "02",
    "attribute": "0x00000000FF000000",
    "locale": {
      "EUde": "What is it, {{string value=\"PlayerNickname\"}}?\nYou were about to do\nsomething impertinent!\nI can tell, {{pause frames=\"5\"}}{{string value=\"Catchphrase\"}}!{{pressButton}}\nYou have that look about\nyou!",
      "EUen": "What is it, {{string value=\"PlayerNickname\"}}?\nYou were about to do\nsomething impertinent!\nI can tell, {{pause frames=\"5\"}}{{string value=\"Catchphrase\"}}!{{pressButton}}\nYou have that look about\nyou!",
      "EUes": "What is it, {{string value=\"PlayerNickname\"}}?\nYou were about to do\nsomething impertinent!\nI can tell, {{pause frames=\"5\"}}{{string value=\"Catchphrase\"}}!{{pressButton}}\nYou have that look about\nyou!",
      "EUfr": "What is it, {{string value=\"PlayerNickname\"}}?\nYou were about to do\nsomething impertinent!\nI can tell, {{pause frames=\"5\"}}{{string value=\"Catchphrase\"}}!{{pressButton}}\nYou have that look about\nyou!",
      "EUit": "What is it, {{string value=\"PlayerNickname\"}}?\nYou were about to do\nsomething impertinent!\nI can tell, {{pause frames=\"5\"}}{{string value=\"Catchphrase\"}}!{{pressButton}}\nYou have that look about\nyou!",
      "JPja": "あン？{{pause frames=\"20\"}}\nなんだよ、{{string value=\"PlayerNickname\"}}\n\n{{kanjiReplace charNum=\"1\" value=\"いま\"}}今　ちょこざいなコト\nしやがったろ、{{pause frames=\"5\"}}{{string value=\"Catchphrase\"}}？{{pressButton}}\nこんなカンジのよ！",
      "KRko": "あン？{{pause frames=\"20\"}}\nなんだよ、{{string value=\"PlayerNickname\"}}\n\n{{kanjiReplace charNum=\"1\" value=\"いま\"}}今　ちょこざいなコト\nしやがったろ、{{pause frames=\"5\"}}{{string value=\"Catchphrase\"}}？{{pressButton}}\nこんなカンジのよ！",
      "USen": "What is it, {{string value=\"PlayerNickname\"}}?\nYou were about to do\nsomething impertinent!\nI can tell, {{pause frames=\"5\"}}{{string value=\"Catchphrase\"}}!{{pressButton}}\nYou have that look about\nyou!"
    }
  },
  {
    "label": "03",
    "attribute": "0x00000000FF000000",
    "locale": {
      "EUde": "Um...you just aren't getting\nthe hang of this\n{{color id=\"2\"}}{{string index=\"0\"}}{{color id=\"0\"}} thing.",
      "EUen": "Um...you just aren't getting\nthe hang of this\n{{color id=\"2\"}}{{string index=\"0\"}}{{color id=\"0\"}} thing.",
      "EUes": "Um...you just aren't getting\nthe hang of this\n{{color id=\"2\"}}{{string index=\"0\"}}{{color id=\"0\"}} thing.",
      "EUfr": "Um...you just aren't getting\nthe hang of this\n{{color id=\"2\"}}{{string index=\"0\"}}{{color id=\"0\"}} thing.",
      "EUit": "Um...you just aren't getting\nthe hang of this\n{{color id=\"2\"}}{{string index=\"0\"}}{{color id=\"0\"}} thing.",
      "JPja": "おめぇ　{{color id=\"2\"}}{{string index=\"0\"}}{{color id=\"0\"}}の\nごくいってもんが\n{{kanjiReplace charNum=\"1\" value=\"わ\"}}分かってねぇよな、{{pause frames=\"5\"}}{{string value=\"Catchphrase\"}}",
      "KRko": "おめぇ　{{color id=\"2\"}}{{string index=\"0\"}}{{color id=\"0\"}}の\nごくいってもんが\n{{kanjiReplace charNum=\"1\" value=\"わ\"}}分かってねぇよな、{{pause frames=\"5\"}}{{string value=\"Catchphrase\"}}",
      "USen": "Um...you just aren't getting\nthe hang of this\n{{color id=\"2\"}}{{string index=\"0\"}}{{color id=\"0\"}} thing."
    }
  },
  {
    "label": "04",
    "attribute": "0x00000000FF000000",
    "locale": {
      "EUde": "Listen, forget whatever\nthat loser {{color id=\"6\"}}Shrunk {{color id=\"0\"}}told you,\nOK?{{pause frames=\"10\"}} {{color id=\"4\"}}...Guy chaps my hide!\nT{{color id=\"0\"}}here's a special trick to\n{{color id=\"2\"}}{{string index=\"0\"}}{{color id=\"0\"}}, see?\nHere, watch this...",
      "EUen": "Listen, forget whatever\nthat loser {{color id=\"6\"}}Shrunk {{color id=\"0\"}}told you,\nOK?{{pause frames=\"10\"}} {{color id=\"4\"}}...Guy chaps my hide!\nT{{color id=\"0\"}}here's a special trick to\n{{color id=\"2\"}}{{string index=\"0\"}}{{color id=\"0\"}}, see?\nHere, watch this...",
      "EUes": "Listen, forget whatever\nthat loser {{color id=\"6\"}}Shrunk {{color id=\"0\"}}told you,\nOK?{{pause frames=\"10\"}} {{color id=\"4\"}}...Guy chaps my hide!\nT{{color id=\"0\"}}here's a special trick to\n{{color id=\"2\"}}{{string index=\"0\"}}{{color id=\"0\"}}, see?\nHere, watch this...",
      "EUfr": "Listen, forget whatever\nthat loser {{color id=\"6\"}}Shrunk {{color id=\"0\"}}told you,\nOK?{{pause frames=\"10\"}} {{color id=\"4\"}}...Guy chaps my hide!\nT{{color id=\"0\"}}here's a special trick to\n{{color id=\"2\"}}{{string index=\"0\"}}{{color id=\"0\"}}, see?\nHere, watch this...",
      "EUit": "Listen, forget whatever\nthat loser {{color id=\"6\"}}Shrunk {{color id=\"0\"}}told you,\nOK?{{pause frames=\"10\"}} {{color id=\"4\"}}...Guy chaps my hide!\nT{{color id=\"0\"}}here's a special trick to\n{{color id=\"2\"}}{{string index=\"0\"}}{{color id=\"0\"}}, see?\nHere, watch this...",
      "JPja": "でもよぉ、{{pause frames=\"15\"}}\n{{color id=\"2\"}}{{string index=\"0\"}}{{color id=\"0\"}}には　いささか\nコツってもんが　あるんだ",
      "KRko": "でもよぉ、{{pause frames=\"15\"}}\n{{color id=\"2\"}}{{string index=\"0\"}}{{color id=\"0\"}}には　いささか\nコツってもんが　あるんだ",
      "USen": "Listen, forget whatever\nthat loser {{color id=\"6\"}}Shrunk {{color id=\"0\"}}told you,\nOK?{{pause frames=\"10\"}} {{color id=\"4\"}}...Guy chaps my hide!\nT{{color id=\"0\"}}here's a special trick to\n{{color id=\"2\"}}{{string index=\"0\"}}{{color id=\"0\"}}, see?\nHere, watch this..."
    }
  },
  {
    "label": "05",
    "attribute": "0x00000000FF000000",
    "locale": {
      "EUde": "You got it yet?{{pause frames=\"10\"}} OK, OK, I'll\nshow you one more time{{pause frames=\"5\"}}.{{pause frames=\"5\"}}.{{pause frames=\"5\"}}.\n\nBut don't go stealing any\nof my secret techniques!\nGOT IT?!",
      "EUen": "You got it yet?{{pause frames=\"10\"}} OK, OK, I'll\nshow you one more time{{pause frames=\"5\"}}.{{pause frames=\"5\"}}.{{pause frames=\"5\"}}.\n\nBut don't go stealing any\nof my secret techniques!\nGOT IT?!",
      "EUes": "You got it yet?{{pause frames=\"10\"}} OK, OK, I'll\nshow you one more time{{pause frames=\"5\"}}.{{pause frames=\"5\"}}.{{pause frames=\"5\"}}.\n\nBut don't go stealing any\nof my secret techniques!\nGOT IT?!",
      "EUfr": "You got it yet?{{pause frames=\"10\"}} OK, OK, I'll\nshow you one more time{{pause frames=\"5\"}}.{{pause frames=\"5\"}}.{{pause frames=\"5\"}}.\n\nBut don't go stealing any\nof my secret techniques!\nGOT IT?!",
      "EUit": "You got it yet?{{pause frames=\"10\"}} OK, OK, I'll\nshow you one more time{{pause frames=\"5\"}}.{{pause frames=\"5\"}}.{{pause frames=\"5\"}}.\n\nBut don't go stealing any\nof my secret techniques!\nGOT IT?!",
      "JPja": "いいか？{{pause frames=\"10\"}}\nもう{{kanjiReplace charNum=\"2\" value=\"いちど\"}}一度　やってみせるから\nオレの{{kanjiReplace charNum=\"1\" value=\"わざ\"}}技を　ぬすんでみな！",
      "KRko": "いいか？{{pause frames=\"10\"}}\nもう{{kanjiReplace charNum=\"2\" value=\"いちど\"}}一度　やってみせるから\nオレの{{kanjiReplace charNum=\"1\" value=\"わざ\"}}技を　ぬすんでみな！",
      "USen": "You got it yet?{{pause frames=\"10\"}} OK, OK, I'll\nshow you one more time{{pause frames=\"5\"}}.{{pause frames=\"5\"}}.{{pause frames=\"5\"}}.\n\nBut don't go stealing any\nof my secret techniques!\nGOT IT?!"
    }
  },
  {
    "label": "06",
    "attribute": "0x00000000FF000000",
    "locale": {
      "EUde": "Now, hold on a second!{{pause frames=\"15\"}}\nLet me show you how it's\ndone, {{pause frames=\"5\"}}{{string value=\"Catchphrase\"}}!",
      "EUen": "Now, hold on a second!{{pause frames=\"15\"}}\nLet me show you how it's\ndone, {{pause frames=\"5\"}}{{string value=\"Catchphrase\"}}!",
      "EUes": "Now, hold on a second!{{pause frames=\"15\"}}\nLet me show you how it's\ndone, {{pause frames=\"5\"}}{{string value=\"Catchphrase\"}}!",
      "EUfr": "Now, hold on a second!{{pause frames=\"15\"}}\nLet me show you how it's\ndone, {{pause frames=\"5\"}}{{string value=\"Catchphrase\"}}!",
      "EUit": "Now, hold on a second!{{pause frames=\"15\"}}\nLet me show you how it's\ndone, {{pause frames=\"5\"}}{{string value=\"Catchphrase\"}}!",
      "JPja": "どーれ、{{pause frames=\"15\"}}\nオレが　ちょっくら\n{{kanjiReplace charNum=\"2\" value=\"てほん\"}}手本を{{kanjiReplace charNum=\"1\" value=\"み\"}}見せてやらぁ、{{pause frames=\"5\"}}{{string value=\"Catchphrase\"}}！",
      "KRko": "どーれ、{{pause frames=\"15\"}}\nオレが　ちょっくら\n{{kanjiReplace charNum=\"2\" value=\"てほん\"}}手本を{{kanjiReplace charNum=\"1\" value=\"み\"}}見せてやらぁ、{{pause frames=\"5\"}}{{string value=\"Catchphrase\"}}！",
      "USen": "Now, hold on a second!{{pause frames=\"15\"}}\nLet me show you how it's\ndone, {{pause frames=\"5\"}}{{string value=\"Catchphrase\"}}!"
    }
  },
  {
    "label": "07",
    "attribute": "0x00000000FF000000",
    "locale": {
      "EUde": "Boy, you sure are a slow\nlearner, {{pause frames=\"5\"}}{{string value=\"Catchphrase\"}}! You\ngot the hang of this yet?",
      "EUen": "Boy, you sure are a slow\nlearner, {{pause frames=\"5\"}}{{string value=\"Catchphrase\"}}! You\ngot the hang of this yet?",
      "EUes": "Boy, you sure are a slow\nlearner, {{pause frames=\"5\"}}{{string value=\"Catchphrase\"}}! You\ngot the hang of this yet?",
      "EUfr": "Boy, you sure are a slow\nlearner, {{pause frames=\"5\"}}{{string value=\"Catchphrase\"}}! You\ngot the hang of this yet?",
      "EUit": "Boy, you sure are a slow\nlearner, {{pause frames=\"5\"}}{{string value=\"Catchphrase\"}}! You\ngot the hang of this yet?",
      "JPja": "どうでぇ！{{pause frames=\"20\"}}\nちったぁ　コツが\n{{kanjiReplace charNum=\"1\" value=\"わ\"}}分かったかよ、{{pause frames=\"5\"}}{{string value=\"Catchphrase\"}}？",
      "KRko": "どうでぇ！{{pause frames=\"20\"}}\nちったぁ　コツが\n{{kanjiReplace charNum=\"1\" value=\"わ\"}}分かったかよ、{{pause frames=\"5\"}}{{string value=\"Catchphrase\"}}？",
      "USen": "Boy, you sure are a slow\nlearner, {{pause frames=\"5\"}}{{string value=\"Catchphrase\"}}! You\ngot the hang of this yet?"
    }
  },
  {
    "label": "08",
    "attribute": "0x00000000FF000000",
    "locale": {
      "EUde": "Whew!{{pause frames=\"5\"}} Well, that's all it\ntakes!{{pause frames=\"5\"}} Easy, right?{{pause frames=\"10\"}} RIGHT?{{pause frames=\"20\"}}\nYeah, easy, {{pause frames=\"5\"}}{{string value=\"Catchphrase\"}}.",
      "EUen": "Whew!{{pause frames=\"5\"}} Well, that's all it\ntakes!{{pause frames=\"5\"}} Easy, right?{{pause frames=\"10\"}} RIGHT?{{pause frames=\"20\"}}\nYeah, easy, {{pause frames=\"5\"}}{{string value=\"Catchphrase\"}}.",
      "EUes": "Whew!{{pause frames=\"5\"}} Well, that's all it\ntakes!{{pause frames=\"5\"}} Easy, right?{{pause frames=\"10\"}} RIGHT?{{pause frames=\"20\"}}\nYeah, easy, {{pause frames=\"5\"}}{{string value=\"Catchphrase\"}}.",
      "EUfr": "Whew!{{pause frames=\"5\"}} Well, that's all it\ntakes!{{pause frames=\"5\"}} Easy, right?{{pause frames=\"10\"}} RIGHT?{{pause frames=\"20\"}}\nYeah, easy, {{pause frames=\"5\"}}{{string value=\"Catchphrase\"}}.",
      "EUit": "Whew!{{pause frames=\"5\"}} Well, that's all it\ntakes!{{pause frames=\"5\"}} Easy, right?{{pause frames=\"10\"}} RIGHT?{{pause frames=\"20\"}}\nYeah, easy, {{pause frames=\"5\"}}{{string value=\"Catchphrase\"}}.",
      "JPja": "ふーっ{{pause frames=\"20\"}}　・{{pause frames=\"5\"}}・{{pause frames=\"5\"}}・{{pause frames=\"15\"}}っとまぁ、{{pause frames=\"5\"}}\nざっと　こんなもんだ！{{pause frames=\"20\"}}\n{{kanjiReplace charNum=\"1\" value=\"わ\"}}分かったろ？　{{pause frames=\"5\"}}{{string value=\"Catchphrase\"}}？",
      "KRko": "ふーっ{{pause frames=\"20\"}}　・{{pause frames=\"5\"}}・{{pause frames=\"5\"}}・{{pause frames=\"15\"}}っとまぁ、{{pause frames=\"5\"}}\nざっと　こんなもんだ！{{pause frames=\"20\"}}\n{{kanjiReplace charNum=\"1\" value=\"わ\"}}分かったろ？　{{pause frames=\"5\"}}{{string value=\"Catchphrase\"}}？",
      "USen": "Whew!{{pause frames=\"5\"}} Well, that's all it\ntakes!{{pause frames=\"5\"}} Easy, right?{{pause frames=\"10\"}} RIGHT?{{pause frames=\"20\"}}\nYeah, easy, {{pause frames=\"5\"}}{{string value=\"Catchphrase\"}}."
    }
  },
  {
    "label": "09",
    "attribute": "0x00000000FF000000",
    "locale": {
      "EUde": "What the-?{{pause frames=\"10\"}} What was THAT?!{{pressButton}}\nYou must be holding your\nface wrong or something!\nUGH{{pause frames=\"5\"}}.{{pause frames=\"5\"}}.{{pause frames=\"5\"}}.{{pause frames=\"10\"}} Listen, I'm gettin'\nkinda angry here! I'll do it\none...{{pause frames=\"5\"}}more...{{pause frames=\"10\"}}time!",
      "EUen": "What the-?{{pause frames=\"10\"}} What was THAT?!{{pressButton}}\nYou must be holding your\nface wrong or something!\nUGH{{pause frames=\"5\"}}.{{pause frames=\"5\"}}.{{pause frames=\"5\"}}.{{pause frames=\"10\"}} Listen, I'm gettin'\nkinda angry here! I'll do it\none...{{pause frames=\"5\"}}more...{{pause frames=\"10\"}}time!",
      "EUes": "What the-?{{pause frames=\"10\"}} What was THAT?!{{pressButton}}\nYou must be holding your\nface wrong or something!\nUGH{{pause frames=\"5\"}}.{{pause frames=\"5\"}}.{{pause frames=\"5\"}}.{{pause frames=\"10\"}} Listen, I'm gettin'\nkinda angry here! I'll do it\none...{{pause frames=\"5\"}}more...{{pause frames=\"10\"}}time!",
      "EUfr": "What the-?{{pause frames=\"10\"}} What was THAT?!{{pressButton}}\nYou must be holding your\nface wrong or something!\nUGH{{pause frames=\"5\"}}.{{pause frames=\"5\"}}.{{pause frames=\"5\"}}.{{pause frames=\"10\"}} Listen, I'm gettin'\nkinda angry here! I'll do it\none...{{pause frames=\"5\"}}more...{{pause frames=\"10\"}}time!",
      "EUit": "What the-?{{pause frames=\"10\"}} What was THAT?!{{pressButton}}\nYou must be holding your\nface wrong or something!\nUGH{{pause frames=\"5\"}}.{{pause frames=\"5\"}}.{{pause frames=\"5\"}}.{{pause frames=\"10\"}} Listen, I'm gettin'\nkinda angry here! I'll do it\none...{{pause frames=\"5\"}}more...{{pause frames=\"10\"}}time!",
      "JPja": "なんでぇ！{{pause frames=\"20\"}}\n{{kanjiReplace charNum=\"1\" value=\"ち\"}}血の　めぐりの\nわりぃヤツだな、{{pause frames=\"5\"}}{{string value=\"Catchphrase\"}}\nしょーがねぇ{{pause frames=\"5\"}}・{{pause frames=\"5\"}}・{{pause frames=\"5\"}}・{{pause frames=\"20\"}}\nもう１{{kanjiReplace charNum=\"1\" value=\"かい\"}}回　{{kanjiReplace charNum=\"1\" value=\"み\"}}見せてやらぁ！",
      "KRko": "なんでぇ！{{pause frames=\"20\"}}\n{{kanjiReplace charNum=\"1\" value=\"ち\"}}血の　めぐりの\nわりぃヤツだな、{{pause frames=\"5\"}}{{string value=\"Catchphrase\"}}\nしょーがねぇ{{pause frames=\"5\"}}・{{pause frames=\"5\"}}・{{pause frames=\"5\"}}・{{pause frames=\"20\"}}\nもう１{{kanjiReplace charNum=\"1\" value=\"かい\"}}回　{{kanjiReplace charNum=\"1\" value=\"み\"}}見せてやらぁ！",
      "USen": "What the-?{{pause frames=\"10\"}} What was THAT?!{{pressButton}}\nYou must be holding your\nface wrong or something!\nUGH{{pause frames=\"5\"}}.{{pause frames=\"5\"}}.{{pause frames=\"5\"}}.{{pause frames=\"10\"}} Listen, I'm gettin'\nkinda angry here! I'll do it\none...{{pause frames=\"5\"}}more...{{pause frames=\"10\"}}time!"
    }
  },
  {
    "label": "10",
    "attribute": "0x00000000FE000000",
    "locale": {
      "EUde": "GWWWAAAA!!!{{pause frames=\"15\"}} No, no, you're\ntechnique's all wrong! You\nlook like a chump!\nI'll do it one more time, so\nopen your ears AND eyes,\n{{pause frames=\"5\"}}{{string value=\"Catchphrase\"}}!",
      "EUen": "GWWWAAAA!!!{{pause frames=\"15\"}} No, no, you're\ntechnique's all wrong! You\nlook like a chump!\nI'll do it one more time, so\nopen your ears AND eyes,\n{{pause frames=\"5\"}}{{string value=\"Catchphrase\"}}!",
      "EUes": "GWWWAAAA!!!{{pause frames=\"15\"}} No, no, you're\ntechnique's all wrong! You\nlook like a chump!\nI'll do it one more time, so\nopen your ears AND eyes,\n{{pause frames=\"5\"}}{{string value=\"Catchphrase\"}}!",
      "EUfr": "GWWWAAAA!!!{{pause frames=\"15\"}} No, no, you're\ntechnique's all wrong! You\nlook like a chump!\nI'll do it one more time, so\nopen your ears AND eyes,\n{{pause frames=\"5\"}}{{string value=\"Catchphrase\"}}!",
      "EUit": "GWWWAAAA!!!{{pause frames=\"15\"}} No, no, you're\ntechnique's all wrong! You\nlook like a chump!\nI'll do it one more time, so\nopen your ears AND eyes,\n{{pause frames=\"5\"}}{{string value=\"Catchphrase\"}}!",
      "JPja": "かーっ！{{pause frames=\"20\"}}\nようりょう　わりぃぞ！\n\nもっかい　やるから\n{{kanjiReplace charNum=\"1\" value=\"め\"}}目ん{{kanjiReplace charNum=\"1\" value=\"たま\"}}玉　{{kanjiReplace charNum=\"2\" value=\"みひら\"}}見開いて\nよーく{{kanjiReplace charNum=\"1\" value=\"み\"}}見とけ、{{pause frames=\"5\"}}{{string value=\"Catchphrase\"}}！",
      "KRko": "かーっ！{{pause frames=\"20\"}}\nようりょう　わりぃぞ！\n\nもっかい　やるから\n{{kanjiReplace charNum=\"1\" value=\"め\"}}目ん{{kanjiReplace charNum=\"1\" value=\"たま\"}}玉　{{kanjiReplace charNum=\"2\" value=\"みひら\"}}見開いて\nよーく{{kanjiReplace charNum=\"1\" value=\"み\"}}見とけ、{{pause frames=\"5\"}}{{string value=\"Catchphrase\"}}！",
      "USen": "GWWWAAAA!!!{{pause frames=\"15\"}} No, no, you're\ntechnique's all wrong! You\nlook like a chump!\nI'll do it one more time, so\nopen your ears AND eyes,\n{{pause frames=\"5\"}}{{string value=\"Catchphrase\"}}!"
    }
  },
  {
    "label": "11",
    "attribute": "0x00000000FE000000",
    "locale": {
      "EUde": "Now you're talking!{{pause frames=\"5\"}} It warms\nmy cold heart to see\nyou doing so well!\nYou're really gonna love\nthat {{color id=\"2\"}}{{string index=\"0\"}}{{pause frames=\"10\"}}{{color id=\"0\"}}!\nCongrats, {{pause frames=\"5\"}}{{string value=\"Catchphrase\"}}!",
      "EUen": "Now you're talking!{{pause frames=\"5\"}} It warms\nmy cold heart to see\nyou doing so well!\nYou're really gonna love\nthat {{color id=\"2\"}}{{string index=\"0\"}}{{pause frames=\"10\"}}{{color id=\"0\"}}!\nCongrats, {{pause frames=\"5\"}}{{string value=\"Catchphrase\"}}!",
      "EUes": "Now you're talking!{{pause frames=\"5\"}} It warms\nmy cold heart to see\nyou doing so well!\nYou're really gonna love\nthat {{color id=\"2\"}}{{string index=\"0\"}}{{pause frames=\"10\"}}{{color id=\"0\"}}!\nCongrats, {{pause frames=\"5\"}}{{string value=\"Catchphrase\"}}!",
      "EUfr": "Now you're talking!{{pause frames=\"5\"}} It warms\nmy cold heart to see\nyou doing so well!\nYou're really gonna love\nthat {{color id=\"2\"}}{{string index=\"0\"}}{{pause frames=\"10\"}}{{color id=\"0\"}}!\nCongrats, {{pause frames=\"5\"}}{{string value=\"Catchphrase\"}}!",
      "EUit": "Now you're talking!{{pause frames=\"5\"}} It warms\nmy cold heart to see\nyou doing so well!\nYou're really gonna love\nthat {{color id=\"2\"}}{{string index=\"0\"}}{{pause frames=\"10\"}}{{color id=\"0\"}}!\nCongrats, {{pause frames=\"5\"}}{{string value=\"Catchphrase\"}}!",
      "JPja": "おう！　これでおめぇも\n{{color id=\"2\"}}{{string index=\"0\"}}{{color id=\"0\"}}を　まっとうに\n{{kanjiReplace charNum=\"1\" value=\"つか\"}}使いこなせるってワケだ\nおめでとさん！　{{pause frames=\"5\"}}{{string value=\"Catchphrase\"}}！",
      "KRko": "おう！　これでおめぇも\n{{color id=\"2\"}}{{string index=\"0\"}}{{color id=\"0\"}}を　まっとうに\n{{kanjiReplace charNum=\"1\" value=\"つか\"}}使いこなせるってワケだ\nおめでとさん！　{{pause frames=\"5\"}}{{string value=\"Catchphrase\"}}！",
      "USen": "Now you're talking!{{pause frames=\"5\"}} It warms\nmy cold heart to see\nyou doing so well!\nYou're really gonna love\nthat {{color id=\"2\"}}{{string index=\"0\"}}{{pause frames=\"10\"}}{{color id=\"0\"}}!\nCongrats, {{pause frames=\"5\"}}{{string value=\"Catchphrase\"}}!"
    }
  },
  {
    "label": "12",
    "attribute": "0x00000000FF000000",
    "locale": {
      "EUde": "All right!{{pause frames=\"5\"}} Now you're TRULY\nworthy of the amazing\n{{color id=\"2\"}}{{string index=\"0\"}}{{color id=\"0\"}} skill!\nWay to go, {{pause frames=\"5\"}}{{string value=\"Catchphrase\"}}!",
      "EUen": "All right!{{pause frames=\"5\"}} Now you're TRULY\nworthy of the amazing\n{{color id=\"2\"}}{{string index=\"0\"}}{{color id=\"0\"}} skill!\nWay to go, {{pause frames=\"5\"}}{{string value=\"Catchphrase\"}}!",
      "EUes": "All right!{{pause frames=\"5\"}} Now you're TRULY\nworthy of the amazing\n{{color id=\"2\"}}{{string index=\"0\"}}{{color id=\"0\"}} skill!\nWay to go, {{pause frames=\"5\"}}{{string value=\"Catchphrase\"}}!",
      "EUfr": "All right!{{pause frames=\"5\"}} Now you're TRULY\nworthy of the amazing\n{{color id=\"2\"}}{{string index=\"0\"}}{{color id=\"0\"}} skill!\nWay to go, {{pause frames=\"5\"}}{{string value=\"Catchphrase\"}}!",
      "EUit": "All right!{{pause frames=\"5\"}} Now you're TRULY\nworthy of the amazing\n{{color id=\"2\"}}{{string index=\"0\"}}{{color id=\"0\"}} skill!\nWay to go, {{pause frames=\"5\"}}{{string value=\"Catchphrase\"}}!",
      "JPja": "よっしゃ！\nこれで　おめぇも\nいっちょまえに、\n{{color id=\"2\"}}{{string index=\"0\"}}{{color id=\"0\"}}を\n{{kanjiReplace charNum=\"1\" value=\"つか\"}}使えるようになったぜ！{{pause frames=\"20\"}}\nよかったな、{{pause frames=\"5\"}}{{string value=\"Catchphrase\"}}！！",
      "KRko": "よっしゃ！\nこれで　おめぇも\nいっちょまえに、\n{{color id=\"2\"}}{{string index=\"0\"}}{{color id=\"0\"}}を\n{{kanjiReplace charNum=\"1\" value=\"つか\"}}使えるようになったぜ！{{pause frames=\"20\"}}\nよかったな、{{pause frames=\"5\"}}{{string value=\"Catchphrase\"}}！！",
      "USen": "All right!{{pause frames=\"5\"}} Now you're TRULY\nworthy of the amazing\n{{color id=\"2\"}}{{string index=\"0\"}}{{color id=\"0\"}} skill!\nWay to go, {{pause frames=\"5\"}}{{string value=\"Catchphrase\"}}!"
    }
  },
  {
    "label": "13",
    "attribute": "0x00000000FF000000",
    "locale": {
      "EUde": "Uhh{{pause frames=\"5\"}}.{{pause frames=\"5\"}}.{{pause frames=\"5\"}}.{{pause frames=\"5\"}} Yeah, look. I dunno if\nyou heard wrong from that\n{{color id=\"6\"}}Shrunk {{color id=\"0\"}}loser or what...\nBut you're full up!{{pause frames=\"5\"}} You\ncan't learn any more\n{{color id=\"2\"}}expressions{{color id=\"0\"}}!\nIf you wanna do this thing,\nyou're gonna have to forget\none of your old ones!",
      "EUen": "Uhh{{pause frames=\"5\"}}.{{pause frames=\"5\"}}.{{pause frames=\"5\"}}.{{pause frames=\"5\"}} Yeah, look. I dunno if\nyou heard wrong from that\n{{color id=\"6\"}}Shrunk {{color id=\"0\"}}loser or what...\nBut you're full up!{{pause frames=\"5\"}} You\ncan't learn any more\n{{color id=\"2\"}}expressions{{color id=\"0\"}}!\nIf you wanna do this thing,\nyou're gonna have to forget\none of your old ones!",
      "EUes": "Uhh{{pause frames=\"5\"}}.{{pause frames=\"5\"}}.{{pause frames=\"5\"}}.{{pause frames=\"5\"}} Yeah, look. I dunno if\nyou heard wrong from that\n{{color id=\"6\"}}Shrunk {{color id=\"0\"}}loser or what...\nBut you're full up!{{pause frames=\"5\"}} You\ncan't learn any more\n{{color id=\"2\"}}expressions{{color id=\"0\"}}!\nIf you wanna do this thing,\nyou're gonna have to forget\none of your old ones!",
      "EUfr": "Uhh{{pause frames=\"5\"}}.{{pause frames=\"5\"}}.{{pause frames=\"5\"}}.{{pause frames=\"5\"}} Yeah, look. I dunno if\nyou heard wrong from that\n{{color id=\"6\"}}Shrunk {{color id=\"0\"}}loser or what...\nBut you're full up!{{pause frames=\"5\"}} You\ncan't learn any more\n{{color id=\"2\"}}expressions{{color id=\"0\"}}!\nIf you wanna do this thing,\nyou're gonna have to forget\none of your old ones!",
      "EUit": "Uhh{{pause frames=\"5\"}}.{{pause frames=\"5\"}}.{{pause frames=\"5\"}}.{{pause frames=\"5\"}} Yeah, look. I dunno if\nyou heard wrong from that\n{{color id=\"6\"}}Shrunk {{color id=\"0\"}}loser or what...\nBut you're full up!{{pause frames=\"5\"}} You\ncan't learn any more\n{{color id=\"2\"}}expressions{{color id=\"0\"}}!\nIf you wanna do this thing,\nyou're gonna have to forget\none of your old ones!",
      "JPja": "あン・{{pause frames=\"5\"}}・{{pause frames=\"5\"}}・？\n\n\nなんでぇ！\nこれ{{kanjiReplace charNum=\"2\" value=\"いじょう\"}}以上{{pause frames=\"5\"}}　{{color id=\"2\"}}リアクション{{color id=\"0\"}}を\n{{kanjiReplace charNum=\"1\" value=\"おぼ\"}}覚えられねぇじゃねぇか！\n・{{pause frames=\"5\"}}・{{pause frames=\"5\"}}・{{pause frames=\"5\"}}しょーがねぇなぁ{{pause frames=\"20\"}}\nどれか　{{kanjiReplace charNum=\"1\" value=\"ふる\"}}古いのを\n{{kanjiReplace charNum=\"1\" value=\"わす\"}}忘れちまってくれよ、{{pause frames=\"5\"}}{{string value=\"Catchphrase\"}}",
      "KRko": "あン・{{pause frames=\"5\"}}・{{pause frames=\"5\"}}・？\n\n\nなんでぇ！\nこれ{{kanjiReplace charNum=\"2\" value=\"いじょう\"}}以上{{pause frames=\"5\"}}　{{color id=\"2\"}}リアクション{{color id=\"0\"}}を\n{{kanjiReplace charNum=\"1\" value=\"おぼ\"}}覚えられねぇじゃねぇか！\n・{{pause frames=\"5\"}}・{{pause frames=\"5\"}}・{{pause frames=\"5\"}}しょーがねぇなぁ{{pause frames=\"20\"}}\nどれか　{{kanjiReplace charNum=\"1\" value=\"ふる\"}}古いのを\n{{kanjiReplace charNum=\"1\" value=\"わす\"}}忘れちまってくれよ、{{pause frames=\"5\"}}{{string value=\"Catchphrase\"}}",
      "USen": "Uhh{{pause frames=\"5\"}}.{{pause frames=\"5\"}}.{{pause frames=\"5\"}}.{{pause frames=\"5\"}} Yeah, look. I dunno if\nyou heard wrong from that\n{{color id=\"6\"}}Shrunk {{color id=\"0\"}}loser or what...\nBut you're full up!{{pause frames=\"5\"}} You\ncan't learn any more\n{{color id=\"2\"}}expressions{{color id=\"0\"}}!\nIf you wanna do this thing,\nyou're gonna have to forget\none of your old ones!"
    }
  },
  {
    "label": "14",
    "attribute": "0x00000000FF000000",
    "locale": {
      "EUde": "Hey! HEY! You already know\ntoo many {{color id=\"2\"}}expressions{{color id=\"0\"}}.\nAre you crazy or somethin'?\nIf you try to learn more,\nyour head's gonna melt like\na grilled dirt sandwich!\nYou'll have to forget one\nof your old {{color id=\"2\"}}expressions{{color id=\"0\"}},\n{{pause frames=\"5\"}}{{string value=\"Catchphrase\"}}!",
      "EUen": "Hey! HEY! You already know\ntoo many {{color id=\"2\"}}expressions{{color id=\"0\"}}.\nAre you crazy or somethin'?\nIf you try to learn more,\nyour head's gonna melt like\na grilled dirt sandwich!\nYou'll have to forget one\nof your old {{color id=\"2\"}}expressions{{color id=\"0\"}},\n{{pause frames=\"5\"}}{{string value=\"Catchphrase\"}}!",
      "EUes": "Hey! HEY! You already know\ntoo many {{color id=\"2\"}}expressions{{color id=\"0\"}}.\nAre you crazy or somethin'?\nIf you try to learn more,\nyour head's gonna melt like\na grilled dirt sandwich!\nYou'll have to forget one\nof your old {{color id=\"2\"}}expressions{{color id=\"0\"}},\n{{pause frames=\"5\"}}{{string value=\"Catchphrase\"}}!",
      "EUfr": "Hey! HEY! You already know\ntoo many {{color id=\"2\"}}expressions{{color id=\"0\"}}.\nAre you crazy or somethin'?\nIf you try to learn more,\nyour head's gonna melt like\na grilled dirt sandwich!\nYou'll have to forget one\nof your old {{color id=\"2\"}}expressions{{color id=\"0\"}},\n{{pause frames=\"5\"}}{{string value=\"Catchphrase\"}}!",
      "EUit": "Hey! HEY! You already know\ntoo many {{color id=\"2\"}}expressions{{color id=\"0\"}}.\nAre you crazy or somethin'?\nIf you try to learn more,\nyour head's gonna melt like\na grilled dirt sandwich!\nYou'll have to forget one\nof your old {{color id=\"2\"}}expressions{{color id=\"0\"}},\n{{pause frames=\"5\"}}{{string value=\"Catchphrase\"}}!",
      "JPja": "おいおい{{pause frames=\"3\"}}・{{pause frames=\"3\"}}・{{pause frames=\"3\"}}・{{pause frames=\"3\"}}\nおめぇ　{{color id=\"2\"}}リアクション{{color id=\"0\"}}を\n{{kanjiReplace charNum=\"1\" value=\"おぼ\"}}覚えすぎてるぜぇ\nこれ{{kanjiReplace charNum=\"2\" value=\"いじょう\"}}以上　つめこむと\nおめぇの　{{kanjiReplace charNum=\"1\" value=\"あたま\"}}頭が\nパンクしちまうよ\nなんか１つ　{{color id=\"2\"}}リアクション{{color id=\"0\"}}を\n{{kanjiReplace charNum=\"1\" value=\"わす\"}}忘れちまってくれ、{{pause frames=\"5\"}}{{string value=\"Catchphrase\"}}",
      "KRko": "おいおい{{pause frames=\"3\"}}・{{pause frames=\"3\"}}・{{pause frames=\"3\"}}・{{pause frames=\"3\"}}\nおめぇ　{{color id=\"2\"}}リアクション{{color id=\"0\"}}を\n{{kanjiReplace charNum=\"1\" value=\"おぼ\"}}覚えすぎてるぜぇ\nこれ{{kanjiReplace charNum=\"2\" value=\"いじょう\"}}以上　つめこむと\nおめぇの　{{kanjiReplace charNum=\"1\" value=\"あたま\"}}頭が\nパンクしちまうよ\nなんか１つ　{{color id=\"2\"}}リアクション{{color id=\"0\"}}を\n{{kanjiReplace charNum=\"1\" value=\"わす\"}}忘れちまってくれ、{{pause frames=\"5\"}}{{string value=\"Catchphrase\"}}",
      "USen": "Hey! HEY! You already know\ntoo many {{color id=\"2\"}}expressions{{color id=\"0\"}}.\nAre you crazy or somethin'?\nIf you try to learn more,\nyour head's gonna melt like\na grilled dirt sandwich!\nYou'll have to forget one\nof your old {{color id=\"2\"}}expressions{{color id=\"0\"}},\n{{pause frames=\"5\"}}{{string value=\"Catchphrase\"}}!"
    }
  },
  {
    "label": "15",
    "attribute": "0x00000000FE000000",
    "locale": {
      "EUde": "OK, watch this action...{{pressButton}}\nBOOGA BOOGA BOOGA!{{vibrateWeak}}\n\nYou have forgotten\n{{color id=\"2\"}}{{string index=\"1\"}}{{color id=\"0\"}}...\n\nBut you can now use\n{{color id=\"2\"}}{{string index=\"0\"}}{{color id=\"0\"}}!{{pause frames=\"20\"}}\nSee? Not so tough, right?",
      "EUen": "OK, watch this action...{{pressButton}}\nBOOGA BOOGA BOOGA!{{vibrateWeak}}\n\nYou have forgotten\n{{color id=\"2\"}}{{string index=\"1\"}}{{color id=\"0\"}}...\n\nBut you can now use\n{{color id=\"2\"}}{{string index=\"0\"}}{{color id=\"0\"}}!{{pause frames=\"20\"}}\nSee? Not so tough, right?",
      "EUes": "OK, watch this action...{{pressButton}}\nBOOGA BOOGA BOOGA!{{vibrateWeak}}\n\nYou have forgotten\n{{color id=\"2\"}}{{string index=\"1\"}}{{color id=\"0\"}}...\n\nBut you can now use\n{{color id=\"2\"}}{{string index=\"0\"}}{{color id=\"0\"}}!{{pause frames=\"20\"}}\nSee? Not so tough, right?",
      "EUfr": "OK, watch this action...{{pressButton}}\nBOOGA BOOGA BOOGA!{{vibrateWeak}}\n\nYou have forgotten\n{{color id=\"2\"}}{{string index=\"1\"}}{{color id=\"0\"}}...\n\nBut you can now use\n{{color id=\"2\"}}{{string index=\"0\"}}{{color id=\"0\"}}!{{pause frames=\"20\"}}\nSee? Not so tough, right?",
      "EUit": "OK, watch this action...{{pressButton}}\nBOOGA BOOGA BOOGA!{{vibrateWeak}}\n\nYou have forgotten\n{{color id=\"2\"}}{{string index=\"1\"}}{{color id=\"0\"}}...\n\nBut you can now use\n{{color id=\"2\"}}{{string index=\"0\"}}{{color id=\"0\"}}!{{pause frames=\"20\"}}\nSee? Not so tough, right?",
      "JPja": "それじゃあ・{{pause frames=\"5\"}}・{{pause frames=\"5\"}}・{{pressButton}}\nおらよっと！{{vibrateWeak}}\n\nこれで　{{color id=\"2\"}}{{string index=\"1\"}}{{color id=\"0\"}}は\n{{kanjiReplace charNum=\"1\" value=\"わす\"}}忘れちまったが、\n\n{{color id=\"2\"}}{{string index=\"0\"}}{{color id=\"0\"}}を\n{{kanjiReplace charNum=\"1\" value=\"つか\"}}使いこなせるようになったぜ{{pause frames=\"20\"}}\nめでたし、{{pause frames=\"15\"}}めでたしっと！",
      "KRko": "それじゃあ・{{pause frames=\"5\"}}・{{pause frames=\"5\"}}・{{pressButton}}\nおらよっと！{{vibrateWeak}}\n\nこれで　{{color id=\"2\"}}{{string index=\"1\"}}{{color id=\"0\"}}は\n{{kanjiReplace charNum=\"1\" value=\"わす\"}}忘れちまったが、\n\n{{color id=\"2\"}}{{string index=\"0\"}}{{color id=\"0\"}}を\n{{kanjiReplace charNum=\"1\" value=\"つか\"}}使いこなせるようになったぜ{{pause frames=\"20\"}}\nめでたし、{{pause frames=\"15\"}}めでたしっと！",
      "USen": "OK, watch this action...{{pressButton}}\nBOOGA BOOGA BOOGA!{{vibrateWeak}}\n\nYou have forgotten\n{{color id=\"2\"}}{{string index=\"1\"}}{{color id=\"0\"}}...\n\nBut you can now use\n{{color id=\"2\"}}{{string index=\"0\"}}{{color id=\"0\"}}!{{pause frames=\"20\"}}\nSee? Not so tough, right?"
    }
  },
  {
    "label": "16",
    "attribute": "0x00000000FE000000",
    "locale": {
      "EUde": "Now, close your eyes for a\nsecond, {{pause frames=\"5\"}}{{string value=\"Catchphrase\"}}.{{pause frames=\"10\"}}\nJust trust me here...\nA-one and a-two and a{{pause frames=\"5\"}}.{{pause frames=\"5\"}}.{{pause frames=\"5\"}}.{{pressButton}}\nHOOOOOOOOO HAAAAAAA!{{vibrateWeak}}\n\nThere we go!{{pause frames=\"15\"}} You forgot\n{{color id=\"2\"}}{{string index=\"1\"}}{{color id=\"0\"}}, but you\nnow know {{color id=\"2\"}}{{string index=\"0\"}}{{color id=\"0\"}}!\nI suppose you think you're\npretty slick stuff now,\nhuh, {{pause frames=\"5\"}}{{string value=\"Catchphrase\"}}?",
      "EUen": "Now, close your eyes for a\nsecond, {{pause frames=\"5\"}}{{string value=\"Catchphrase\"}}.{{pause frames=\"10\"}}\nJust trust me here...\nA-one and a-two and a{{pause frames=\"5\"}}.{{pause frames=\"5\"}}.{{pause frames=\"5\"}}.{{pressButton}}\nHOOOOOOOOO HAAAAAAA!{{vibrateWeak}}\n\nThere we go!{{pause frames=\"15\"}} You forgot\n{{color id=\"2\"}}{{string index=\"1\"}}{{color id=\"0\"}}, but you\nnow know {{color id=\"2\"}}{{string index=\"0\"}}{{color id=\"0\"}}!\nI suppose you think you're\npretty slick stuff now,\nhuh, {{pause frames=\"5\"}}{{string value=\"Catchphrase\"}}?",
      "EUes": "Now, close your eyes for a\nsecond, {{pause frames=\"5\"}}{{string value=\"Catchphrase\"}}.{{pause frames=\"10\"}}\nJust trust me here...\nA-one and a-two and a{{pause frames=\"5\"}}.{{pause frames=\"5\"}}.{{pause frames=\"5\"}}.{{pressButton}}\nHOOOOOOOOO HAAAAAAA!{{vibrateWeak}}\n\nThere we go!{{pause frames=\"15\"}} You forgot\n{{color id=\"2\"}}{{string index=\"1\"}}{{color id=\"0\"}}, but you\nnow know {{color id=\"2\"}}{{string index=\"0\"}}{{color id=\"0\"}}!\nI suppose you think you're\npretty slick stuff now,\nhuh, {{pause frames=\"5\"}}{{string value=\"Catchphrase\"}}?",
      "EUfr": "Now, close your eyes for a\nsecond, {{pause frames=\"5\"}}{{string value=\"Catchphrase\"}}.{{pause frames=\"10\"}}\nJust trust me here...\nA-one and a-two and a{{pause frames=\"5\"}}.{{pause frames=\"5\"}}.{{pause frames=\"5\"}}.{{pressButton}}\nHOOOOOOOOO HAAAAAAA!{{vibrateWeak}}\n\nThere we go!{{pause frames=\"15\"}} You forgot\n{{color id=\"2\"}}{{string index=\"1\"}}{{color id=\"0\"}}, but you\nnow know {{color id=\"2\"}}{{string index=\"0\"}}{{color id=\"0\"}}!\nI suppose you think you're\npretty slick stuff now,\nhuh, {{pause frames=\"5\"}}{{string value=\"Catchphrase\"}}?",
      "EUit": "Now, close your eyes for a\nsecond, {{pause frames=\"5\"}}{{string value=\"Catchphrase\"}}.{{pause frames=\"10\"}}\nJust trust me here...\nA-one and a-two and a{{pause frames=\"5\"}}.{{pause frames=\"5\"}}.{{pause frames=\"5\"}}.{{pressButton}}\nHOOOOOOOOO HAAAAAAA!{{vibrateWeak}}\n\nThere we go!{{pause frames=\"15\"}} You forgot\n{{color id=\"2\"}}{{string index=\"1\"}}{{color id=\"0\"}}, but you\nnow know {{color id=\"2\"}}{{string index=\"0\"}}{{color id=\"0\"}}!\nI suppose you think you're\npretty slick stuff now,\nhuh, {{pause frames=\"5\"}}{{string value=\"Catchphrase\"}}?",
      "JPja": "じゃ、ちょっくら\n{{kanjiReplace charNum=\"1\" value=\"め\"}}目をつぶってな、{{pause frames=\"5\"}}{{string value=\"Catchphrase\"}}\n\nせーの・{{pause frames=\"5\"}}・{{pause frames=\"5\"}}・{{pressButton}}　おりゃっ！{{vibrateWeak}}\n\n\nよーし！{{pause frames=\"15\"}}　これで\n{{color id=\"2\"}}{{string index=\"1\"}}{{color id=\"0\"}}は\n{{kanjiReplace charNum=\"1\" value=\"わす\"}}忘れちまったが、\n{{kanjiReplace charNum=\"1\" value=\"か\"}}代わりに　{{color id=\"2\"}}{{string index=\"0\"}}{{color id=\"0\"}}の\n{{kanjiReplace charNum=\"1\" value=\"つか\"}}使い{{kanjiReplace charNum=\"1\" value=\"て\"}}手に　なれたぜぇ！{{pause frames=\"20\"}}\nよかったな、{{pause frames=\"5\"}}{{string value=\"Catchphrase\"}}！",
      "KRko": "じゃ、ちょっくら\n{{kanjiReplace charNum=\"1\" value=\"め\"}}目をつぶってな、{{pause frames=\"5\"}}{{string value=\"Catchphrase\"}}\n\nせーの・{{pause frames=\"5\"}}・{{pause frames=\"5\"}}・{{pressButton}}　おりゃっ！{{vibrateWeak}}\n\n\nよーし！{{pause frames=\"15\"}}　これで\n{{color id=\"2\"}}{{string index=\"1\"}}{{color id=\"0\"}}は\n{{kanjiReplace charNum=\"1\" value=\"わす\"}}忘れちまったが、\n{{kanjiReplace charNum=\"1\" value=\"か\"}}代わりに　{{color id=\"2\"}}{{string index=\"0\"}}{{color id=\"0\"}}の\n{{kanjiReplace charNum=\"1\" value=\"つか\"}}使い{{kanjiReplace charNum=\"1\" value=\"て\"}}手に　なれたぜぇ！{{pause frames=\"20\"}}\nよかったな、{{pause frames=\"5\"}}{{string value=\"Catchphrase\"}}！",
      "USen": "Now, close your eyes for a\nsecond, {{pause frames=\"5\"}}{{string value=\"Catchphrase\"}}.{{pause frames=\"10\"}}\nJust trust me here...\nA-one and a-two and a{{pause frames=\"5\"}}.{{pause frames=\"5\"}}.{{pause frames=\"5\"}}.{{pressButton}}\nHOOOOOOOOO HAAAAAAA!{{vibrateWeak}}\n\nThere we go!{{pause frames=\"15\"}} You forgot\n{{color id=\"2\"}}{{string index=\"1\"}}{{color id=\"0\"}}, but you\nnow know {{color id=\"2\"}}{{string index=\"0\"}}{{color id=\"0\"}}!\nI suppose you think you're\npretty slick stuff now,\nhuh, {{pause frames=\"5\"}}{{string value=\"Catchphrase\"}}?"
    }
  },
  {
    "label": "17",
    "attribute": "0x00000000FE000000",
    "locale": {
      "EUde": "Aw, nuts!{{pause frames=\"5\"}} Givin' up already,\n{{pause frames=\"5\"}}{{string value=\"Catchphrase\"}}? {{pause frames=\"10\"}}Yeah, that's\njust like you.",
      "EUen": "Aw, nuts!{{pause frames=\"5\"}} Givin' up already,\n{{pause frames=\"5\"}}{{string value=\"Catchphrase\"}}? {{pause frames=\"10\"}}Yeah, that's\njust like you.",
      "EUes": "Aw, nuts!{{pause frames=\"5\"}} Givin' up already,\n{{pause frames=\"5\"}}{{string value=\"Catchphrase\"}}? {{pause frames=\"10\"}}Yeah, that's\njust like you.",
      "EUfr": "Aw, nuts!{{pause frames=\"5\"}} Givin' up already,\n{{pause frames=\"5\"}}{{string value=\"Catchphrase\"}}? {{pause frames=\"10\"}}Yeah, that's\njust like you.",
      "EUit": "Aw, nuts!{{pause frames=\"5\"}} Givin' up already,\n{{pause frames=\"5\"}}{{string value=\"Catchphrase\"}}? {{pause frames=\"10\"}}Yeah, that's\njust like you.",
      "JPja": "なんでぇ、{{pause frames=\"15\"}}\nやめんのかよ、{{pause frames=\"5\"}}{{string value=\"Catchphrase\"}}",
      "KRko": "なんでぇ、{{pause frames=\"15\"}}\nやめんのかよ、{{pause frames=\"5\"}}{{string value=\"Catchphrase\"}}",
      "USen": "Aw, nuts!{{pause frames=\"5\"}} Givin' up already,\n{{pause frames=\"5\"}}{{string value=\"Catchphrase\"}}? {{pause frames=\"10\"}}Yeah, that's\njust like you."
    }
  },
  {
    "label": "18",
    "attribute": "0x00000000FE000000",
    "locale": {
      "EUde": "Really?{{pause frames=\"10\"}} {{capitalizeLetter}}{{string value=\"Catchphrase\"}}, I dunno\nif that's such a hot idea...\n\nWell, it's your {{color id=\"2\"}}expression{{color id=\"0\"}},{{pause frames=\"10\"}}\nso I guess you can do\nwhatever you want.",
      "EUen": "Really?{{pause frames=\"10\"}} {{capitalizeLetter}}{{string value=\"Catchphrase\"}}, I dunno\nif that's such a hot idea...\n\nWell, it's your {{color id=\"2\"}}expression{{color id=\"0\"}},{{pause frames=\"10\"}}\nso I guess you can do\nwhatever you want.",
      "EUes": "Really?{{pause frames=\"10\"}} {{capitalizeLetter}}{{string value=\"Catchphrase\"}}, I dunno\nif that's such a hot idea...\n\nWell, it's your {{color id=\"2\"}}expression{{color id=\"0\"}},{{pause frames=\"10\"}}\nso I guess you can do\nwhatever you want.",
      "EUfr": "Really?{{pause frames=\"10\"}} {{capitalizeLetter}}{{string value=\"Catchphrase\"}}, I dunno\nif that's such a hot idea...\n\nWell, it's your {{color id=\"2\"}}expression{{color id=\"0\"}},{{pause frames=\"10\"}}\nso I guess you can do\nwhatever you want.",
      "EUit": "Really?{{pause frames=\"10\"}} {{capitalizeLetter}}{{string value=\"Catchphrase\"}}, I dunno\nif that's such a hot idea...\n\nWell, it's your {{color id=\"2\"}}expression{{color id=\"0\"}},{{pause frames=\"10\"}}\nso I guess you can do\nwhatever you want.",
      "JPja": "そうかい？　{{pause frames=\"5\"}}{{string value=\"Catchphrase\"}}\n\n\nま、{{pause frames=\"15\"}}おめぇの\n{{color id=\"2\"}}リアクション{{color id=\"0\"}}だからな{{pause frames=\"20\"}}\n{{kanjiReplace charNum=\"1\" value=\"す\"}}好きにすりゃあ　いいさ、{{pause frames=\"5\"}}{{string value=\"Catchphrase\"}}",
      "KRko": "そうかい？　{{pause frames=\"5\"}}{{string value=\"Catchphrase\"}}\n\n\nま、{{pause frames=\"15\"}}おめぇの\n{{color id=\"2\"}}リアクション{{color id=\"0\"}}だからな{{pause frames=\"20\"}}\n{{kanjiReplace charNum=\"1\" value=\"す\"}}好きにすりゃあ　いいさ、{{pause frames=\"5\"}}{{string value=\"Catchphrase\"}}",
      "USen": "Really?{{pause frames=\"10\"}} {{capitalizeLetter}}{{string value=\"Catchphrase\"}}, I dunno\nif that's such a hot idea...\n\nWell, it's your {{color id=\"2\"}}expression{{color id=\"0\"}},{{pause frames=\"10\"}}\nso I guess you can do\nwhatever you want."
    }
  }
]