[
  {
    "label": "0",
    "attribute": "0x000B0000FF000000",
    "locale": {
      "EUde": "Das ist ja...{{pause frames=\"5\"}} Das ist ja {{gender m=\"ein\" f=\"eine\" n=\"ein\"}}\n{{ignoreArticle}}{{itemName index=\"2\"}}!{{pause frames=\"10\"}}\n{{gender m=\"DER\" f=\"DIE\" n=\"DAS\"}} ist aber hübsch!\n.{{pause frames=\"5\"}}.{{pause frames=\"5\"}}.{{pause frames=\"5\"}}Echt?{{pause frames=\"10\"}} Für mich?!?{{pause frames=\"10\"}} Danke!{{pause frames=\"10\"}}\nTut mir Leid, dass ich dich\nvorhin so bedrängt habe.",
      "EUen": "YOU DID IT! {{pause frames=\"5\"}}You got me\n{{itemName index=\"2\"}}!{{pause frames=\"10\"}}\nOh, it's sooooo nice!\n.{{pause frames=\"5\"}}.{{pause frames=\"5\"}}.{{pause frames=\"5\"}}Really?{{pause frames=\"10\"}} I can have it?{{pause frames=\"10\"}}\nThanks! {{pause frames=\"10\"}}Sorry if I sounded\nall mad about it before.",
      "EUes": "¡VIVA Y BRAVO! {{pause frames=\"5\"}}¡Has traído\n{{itemName index=\"2\"}}!{{pause frames=\"10\"}}\nAy, ¡me encannnnta!\nMm.{{pause frames=\"5\"}}.{{pause frames=\"5\"}}.{{pause frames=\"5\"}} ¿Para mí?{{pause frames=\"10\"}} ¿De verdad?{{pause frames=\"10\"}}\n¡Gracias! {{pause frames=\"10\"}}Perdona si a veces\nsueno un poco rara.",
      "EUfr": "J'Y CROIS PAS! {{pause frames=\"5\"}}\nTu m'as trouvé \n{{itemName index=\"2\"}}!{{pause frames=\"10\"}}\nOh, c'est trop gentil!\n.{{pause frames=\"5\"}}.{{pause frames=\"5\"}}.{{pause frames=\"5\"}} Sûr{{gender m=\"\" f=\"e\"}}?{{pause frames=\"10\"}} Je peux l'avoir?{{pause frames=\"10\"}}\nMerci! {{pause frames=\"10\"}}Désolée si j'ai pu te\nparaître bizarre.",
      "EUit": "NON CI CREDO! {{pause frames=\"5\"}}Mi hai portato\n{{itemName index=\"2\"}}!{{pause frames=\"10\"}}\nOh, ma sei un tesoro!\n.{{pause frames=\"5\"}}.{{pause frames=\"5\"}}.{{pause frames=\"5\"}} Sul serio?{{pause frames=\"10\"}} È tutt{{gender m=\"o\" f=\"a\" n=\"\"}} per\nme?{{pause frames=\"10\"}} Grazie! {{pause frames=\"10\"}}Scusa se sono\nstata opprimente prima.",
      "JPja": "あっ、{{pause frames=\"5\"}}これって\n{{itemName index=\"2\"}}じゃん！{{pause frames=\"10\"}}\nいいなー　いいなー！\n・{{pause frames=\"5\"}}・{{pause frames=\"5\"}}・{{pause frames=\"5\"}}え、{{pause frames=\"10\"}}アタイ{{kanjiReplace charNum=\"1\" value=\"よう\"}}用？{{pause frames=\"10\"}}\nサイソクしちゃったみたいで\n{{kanjiReplace charNum=\"1\" value=\"わる\"}}悪いねー、{{pause frames=\"5\"}}{{string value=\"Catchphrase\"}}",
      "KRko": "앗， {{pause frames=\"5\"}}이건\n{{itemName index=\"2\"}}？{{pause frames=\"10\"}}\n좋겠다， 좋겠다！！\n・{{pause frames=\"5\"}}・{{pause frames=\"5\"}}・{{pause frames=\"5\"}}뭐， {{pause frames=\"10\"}}나 준다구？{{pause frames=\"10\"}}\n왠지 내가 조른 거 같아서\n미안해지네， {{pause frames=\"5\"}}{{string value=\"Catchphrase\"}}",
      "USen": "YOU DID IT! {{pause frames=\"5\"}}You got me\n{{itemName index=\"2\"}}!{{pause frames=\"10\"}}\nOh, it's sooooo nice!\n.{{pause frames=\"5\"}}.{{pause frames=\"5\"}}.{{pause frames=\"5\"}}Really?{{pause frames=\"10\"}} I can have it?{{pause frames=\"10\"}}\nThanks! {{pause frames=\"10\"}}Sorry if I sounded\nall mad about it before."
    }
  },
  {
    "label": "1",
    "attribute": "0x000B0000FF000000",
    "locale": {
      "EUde": "{{resetReaction}}{{reaction type=\"Curiosity\"}}Eeecht?{{pause frames=\"5\"}} {{gender m=\"Ein\" f=\"Eine\" n=\"Ein\"}}\n{{ignoreArticle}}{{itemName index=\"2\"}}?{{pause frames=\"5\"}}\nFür mich? {{pause frames=\"5\"}}{{capitalizeLetter}}{{string value=\"Catchphrase\"}}!\n{{resetReaction}}{{reaction type=\"Happiness\"}}{{capitalizeLetter}}{{string value=\"PlayerNickname\"}}! {{pause frames=\"5\"}}DU bist ja\ngroßzügig!{{pressButton}} Ich kann es kaum\nerwarten, {{gender m=\"ihn\" f=\"sie\" n=\"es\"}} anzuprobieren!",
      "EUen": "{{resetReaction}}{{reaction type=\"Curiosity\"}}Huh?{{pause frames=\"5\"}} You're giving me\n{{itemName index=\"2\"}}?{{pause frames=\"5\"}}\nTruly, {{pause frames=\"5\"}}{{string value=\"Catchphrase\"}}?\n{{resetReaction}}{{reaction type=\"Happiness\"}}Wow, {{string value=\"PlayerNickname\"}}! {{pause frames=\"5\"}}You're so\nsuper generous!{{pressButton}} I can't\nwait to try it on!",
      "EUes": "{{resetReaction}}{{reaction type=\"Curiosity\"}}¿Sí?{{pause frames=\"5\"}} ¿Que me das\n{{itemName index=\"2\"}}?{{pause frames=\"5\"}}\n¿De verdad, {{pause frames=\"5\"}}{{string value=\"Catchphrase\"}}?\n{{resetReaction}}{{reaction type=\"Happiness\"}}¡Gracias, {{string value=\"PlayerNickname\"}}! {{pause frames=\"5\"}}¡Qué\ngenial eres!{{pressButton}} ¡Qué ganas\ntengo de probármel{{gender m=\"o\" f=\"a\" n=\"\"}}!",
      "EUfr": "{{resetReaction}}{{reaction type=\"Curiosity\"}}Quoi?{{pause frames=\"5\"}} Tu me donnes\n{{itemName index=\"2\"}}?{{pause frames=\"5\"}}\nC'est vrai, {{pause frames=\"5\"}}{{string value=\"Catchphrase\"}}?\n{{resetReaction}}{{reaction type=\"Happiness\"}}Ouah, {{string value=\"PlayerNickname\"}}! {{pause frames=\"5\"}}Tu es\nvraiment généreu{{gender m=\"x\" f=\"se\"}}!{{pressButton}} J'ai\nhâte de l'essayer!",
      "EUit": "{{resetReaction}}{{reaction type=\"Curiosity\"}}Uh?{{pause frames=\"5\"}} {{capitalizeLetter}}{{itemName index=\"2\"}}\nper me?{{pause frames=\"5\"}}\nSul serio, {{pause frames=\"5\"}}{{string value=\"Catchphrase\"}}? \n{{resetReaction}}{{reaction type=\"Happiness\"}}Wow, {{string value=\"PlayerNickname\"}}! {{pause frames=\"5\"}}Sei così\ngeneros{{gender m=\"o\" f=\"a\"}}!{{pressButton}}\nNon vedo l'ora di provarl{{gender m=\"o\" f=\"a\" n=\"\"}}!",
      "JPja": "えっ？{{pause frames=\"5\"}}\nこの　{{itemName index=\"2\"}}\nくれるのー？　{{pause frames=\"5\"}}{{string value=\"Catchphrase\"}}？\nさすが　{{string value=\"PlayerNickname\"}}ちゃん、{{pause frames=\"5\"}}\n{{kanjiReplace charNum=\"1\" value=\"ふと\"}}太っぱら！{{pressButton}}\nじゃ、{{pause frames=\"5\"}}{{kanjiReplace charNum=\"2\" value=\"さっそく\"}}早速{{pause frames=\"5\"}}・{{pause frames=\"5\"}}・{{pause frames=\"5\"}}・",
      "KRko": "뭐？{{pause frames=\"5\"}}\n이 {{itemName index=\"2\"}}\n주는 거야？ {{pause frames=\"5\"}}{{string value=\"Catchphrase\"}}？\n역시 {{string value=\"PlayerNickname\"}}{{fun_0B arg=\"0x0100\"}} {{pause frames=\"5\"}}\n인심이 좋네！ {{pressButton}}\n그럼， {{pause frames=\"5\"}}어디{{pause frames=\"5\"}}・{{pause frames=\"5\"}}・{{pause frames=\"5\"}}・",
      "USen": "{{resetReaction}}{{reaction type=\"Curiosity\"}}Huh?{{pause frames=\"5\"}} You're giving me\n{{itemName index=\"2\"}}?{{pause frames=\"5\"}}\nTruly, {{pause frames=\"5\"}}{{string value=\"Catchphrase\"}}?\n{{resetReaction}}{{reaction type=\"Happiness\"}}Wow, {{string value=\"PlayerNickname\"}}! {{pause frames=\"5\"}}You're so\nsuper generous!{{pressButton}} I can't\nwait to try it on!"
    }
  },
  {
    "label": "2",
    "attribute": "0x000B0000FF000000",
    "locale": {
      "EUde": "{{gender m=\"Ein\" f=\"Eine\" n=\"Ein\"}} {{ignoreArticle}}{{itemName index=\"2\"}}?!?{{pause frames=\"15\"}}\nSchenkst du mir {{gender m=\"den\" f=\"die\" n=\"das\"}}?\n{{pause frames=\"5\"}}{{capitalizeLetter}}{{string value=\"Catchphrase\"}}?\nJIPPIE! Danke, {{string value=\"PlayerNickname\"}}!{{pause frames=\"10\"}}\nMuss ich gleich mal überall\nrumzeigen.",
      "EUen": "{{capitalizeLetter}}{{itemName index=\"2\"}}?!{{pause frames=\"15\"}}\nAre you giving it to me,\n{{pause frames=\"5\"}}{{string value=\"Catchphrase\"}}?\nYAY! Thanks, {{string value=\"PlayerNickname\"}}!{{pause frames=\"10\"}}\nI'll try it on now!",
      "EUes": "¡¿{{capitalizeLetter}}{{itemName index=\"2\"}}?!{{pause frames=\"15\"}}\n¿Es para mí, {{pause frames=\"5\"}}{{string value=\"Catchphrase\"}}?\n¡Yupi! ¡Gracias, {{string value=\"PlayerNickname\"}}!{{pause frames=\"10\"}}",
      "EUfr": "{{capitalizeLetter}}{{itemName index=\"2\"}}?!{{pause frames=\"15\"}}\nTu me l{{gender m=\"e\" f=\"a\" n=\"\"}} donnes,\n{{pause frames=\"5\"}}{{string value=\"Catchphrase\"}}?\nOUAH! Merci, {{string value=\"PlayerNickname\"}}!{{pause frames=\"10\"}}\nJe m'en vais l'essayer\nde suite!",
      "EUit": "{{capitalizeLetter}}{{itemName index=\"2\"}}?!{{pause frames=\"15\"}}\nÈ per me,\n{{pause frames=\"5\"}}{{string value=\"Catchphrase\"}}?\nSÌ! Grazie, {{string value=\"PlayerNickname\"}}!{{pause frames=\"10\"}}\nMe l{{gender m=\"o\" f=\"a\" n=\"\"}} provo subito!",
      "JPja": "わぁ！{{pause frames=\"10\"}}　{{itemName index=\"2\"}}！{{pause frames=\"20\"}}\nアタイに　くれるってゆーの？\n{{pause frames=\"5\"}}{{string value=\"Catchphrase\"}}？\nありがとね、{{string value=\"PlayerNickname\"}}ちゃん！{{pressButton}}\nじゃ、{{pause frames=\"5\"}}{{kanjiReplace charNum=\"2\" value=\"さっそく\"}}早速\n{{kanjiReplace charNum=\"2\" value=\"シツレイ\"}}失礼して{{pause frames=\"5\"}}・{{pause frames=\"5\"}}・{{pause frames=\"5\"}}・",
      "KRko": "{{pause frames=\"10\"}}{{itemName index=\"2\"}}！{{pause frames=\"20\"}}\n와아， 나한테 준다구？\n{{pause frames=\"5\"}}{{string value=\"Catchphrase\"}}？\n고마워， {{string value=\"PlayerNickname\"}}！\n그럼， {{pause frames=\"5\"}}\n실례할게{{pause frames=\"5\"}}・{{pause frames=\"5\"}}・{{pause frames=\"5\"}}・",
      "USen": "{{capitalizeLetter}}{{itemName index=\"2\"}}?!{{pause frames=\"15\"}}\nAre you giving it to me,\n{{pause frames=\"5\"}}{{string value=\"Catchphrase\"}}?\nYAY! Thanks, {{string value=\"PlayerNickname\"}}!{{pause frames=\"10\"}}\nI'll try it on now!"
    }
  }
]