[
  {
    "label": "0",
    "attribute": "",
    "locale": {
      "EUde": "   **Endergebnis**\n{{string index=\"4\"}} gewann das\nAngelturnier vom\n{{string index=\"1\"}}. {{string index=\"0\"}}. Der\nSiegfisch war {{gender m=\"ein\" f=\"eine\" n=\"ein\"}} {{string index=\"3\"}} cm\n{{gender m=\"langer\" f=\"lange\" n=\"langes\"}} {{ignoreArticle}}{{string index=\"2\"}}!",
      "EUen": "    **Final Results**\nThe winner of the\n{{string index=\"0\"}} {{string index=\"1\"}} Fishing\nTourney is {{string index=\"4\"}},\nwith a cool {{string index=\"3\"}}-inch\n{{ignoreArticle}}{{string index=\"2\"}}!!",
      "EUes": " **Torneo de pesca**\nEl ganador del {{string index=\"1\"}} de\n{{string index=\"0\"}} es\n{{string index=\"4\"}}, con\n{{string index=\"2\"}}\nde {{string index=\"3\"}} cm.",
      "EUfr": "    **Résultats**\nVainqueur du tournoi de\npêche du {{string index=\"1\"}} {{string index=\"0\"}}:\n{{string index=\"4\"}},\navec {{string index=\"2\"}}\nde {{string index=\"3\"}} cm!",
      "EUit": "    **Risultati finali**\n{{string index=\"4\"}} ha vinto il\nTorneo di pesca del giorno\n{{string index=\"1\"}} {{string index=\"0\"}},\ncon {{string index=\"2\"}} \ndi ben {{string index=\"3\"}} cm!",
      "JPja": "　　　～けっかはっぴょう～\n\n{{string index=\"0\"}}・{{string index=\"1\"}}　つりたいかい\nトップは　{{string index=\"4\"}}どの！\n{{string index=\"2\"}}で\n{{string index=\"3\"}}センチなのじゃ！",
      "KRko": "       ～결과 발표～\n\n{{string index=\"0\"}}・{{string index=\"1\"}} 낚시대회\n１등은 {{string index=\"4\"}}！\n{{string index=\"3\"}}ｃｍ의\n{{string index=\"2\"}}{{fun_0B arg=\"0x0500\"}}라네！",
      "USen": "    **Final Results**\nThe winner of the\n{{string index=\"0\"}} {{string index=\"1\"}} Fishing\nTourney is {{string index=\"4\"}},\nwith a cool {{string index=\"3\"}}-inch\n{{string index=\"2\"}}!!"
    }
  },
  {
    "label": "1",
    "attribute": "",
    "locale": {
      "EUde": "    **Endergebnis**\nSiegreich im Angelturnier\nvom {{string index=\"1\"}}. {{string index=\"0\"}}\nwar {{string index=\"4\"}}, mit\n{{gender m=\"einem\" f=\"einer\" n=\"einem\"}} {{string index=\"3\"}} cm\nlangen {{ignoreArticle}}{{string index=\"2\"}}!",
      "EUen": "    **Final Results**\nThe {{string index=\"0\"}} {{string index=\"1\"}}\nFishing Tourney MVP is\n{{string index=\"4\"}}, who reeled\nin a {{string index=\"3\"}}-inch-long\n{{ignoreArticle}}{{string index=\"2\"}}!!",
      "EUes": " **Torneo de pesca**\nEl ganador del {{string index=\"1\"}} de\n{{string index=\"0\"}} es\n{{string index=\"4\"}}, con\n{{string index=\"2\"}}\nde {{string index=\"3\"}} cm.",
      "EUfr": "    **Résultats**\n{{capitalizeLetter}}{{string index=\"4\"}} a gagné\nle tournoi de pêche du\n{{string index=\"1\"}} {{string index=\"0\"}} avec\n{{string index=\"2\"}}\nde {{string index=\"3\"}} cm de long!",
      "EUit": "    **Risultati finali**\n{{string index=\"4\"}} ha dominato\nil Torneo di pesca del\ngiorno {{string index=\"1\"}} {{string index=\"0\"}}\ncon {{string index=\"2\"}} \ndi ben {{string index=\"3\"}} cm!",
      "JPja": "　　　～けっかはっぴょう～\n\n{{string index=\"0\"}}・{{string index=\"1\"}}　つりたいかい\n{{string index=\"3\"}}センチの\n{{string index=\"2\"}}をつった\n{{string index=\"4\"}}が　ＭＶＰじゃ！",
      "KRko": "       ～결과 발표～\n\n{{string index=\"0\"}}・{{string index=\"1\"}} 낚시대회\n{{string index=\"3\"}}ｃｍ의\n{{string index=\"2\"}}{{fun_0B arg=\"0x0200\"}} 낚은\n{{string index=\"4\"}}{{fun_0B arg=\"0x0300\"}} ＭＶＰ라네！",
      "USen": "    **Final Results**\nThe {{string index=\"0\"}} {{string index=\"1\"}}\nFishing Tourney MVP is\n{{string index=\"4\"}}, who reeled\nin a {{string index=\"3\"}}-inch-long\n{{string index=\"2\"}}!!"
    }
  },
  {
    "label": "2",
    "attribute": "",
    "locale": {
      "EUde": "    **Endergebnis**\n{{gender m=\"Sieger\" f=\"Siegerin\" n=\"\"}} im Angelturnier\nvom {{string index=\"1\"}}. {{string index=\"0\"}}\nist {{string index=\"4\"}}.\n{{gender m=\"Er\" f=\"Sie\" n=\"\"}} fing {{gender m=\"einen\" f=\"eine\" n=\"ein\"}} {{string index=\"3\"}} cm\n{{gender m=\"langen\" f=\"lange\" n=\"langes\"}} {{ignoreArticle}}{{string index=\"2\"}}!",
      "EUen": "    **Final Results**\nThe winner of the\n{{string index=\"0\"}} {{string index=\"1\"}} Fishing\nTourney is {{string index=\"4\"}},\nwho landed a {{string index=\"3\"}}-inch\n{{ignoreArticle}}{{string index=\"2\"}}!!",
      "EUes": " **Torneo de pesca**\nEl ganador del {{string index=\"1\"}} de\n{{string index=\"0\"}} es\n{{string index=\"4\"}}, con\n{{string index=\"2\"}}\nde {{string index=\"3\"}} cm.",
      "EUfr": "    **Résultats**\n{{capitalizeLetter}}{{string index=\"4\"}} a remporté\nle tournoi de pêche du\n{{string index=\"1\"}} {{string index=\"0\"}} avec\n{{string index=\"2\"}}\nde {{string index=\"3\"}} cm!!",
      "EUit": "    **Risultati finali**\nTorneo di pesca del giorno\n{{string index=\"1\"}} {{string index=\"0\"}}:\nvinto da {{string index=\"4\"}} \ncon {{string index=\"2\"}} \ndi ben {{string index=\"3\"}} cm!",
      "JPja": "　　　～けっかはっぴょう～\n\n{{string index=\"0\"}}・{{string index=\"1\"}}　つりたいかい\nズバリ　{{string index=\"3\"}}センチの\n{{string index=\"2\"}}をつった\n{{string index=\"4\"}}が　ゆうしょうじゃ！",
      "KRko": "       ～결과 발표～\n\n{{string index=\"0\"}}・{{string index=\"1\"}} 낚시대회\n짜잔！ {{string index=\"3\"}}ｃｍ의\n{{string index=\"2\"}}{{fun_0B arg=\"0x0200\"}} 낚은\n{{string index=\"4\"}}{{fun_0B arg=\"0x0300\"}} 우승이네！",
      "USen": "    **Final Results**\nThe winner of the\n{{string index=\"0\"}} {{string index=\"1\"}} Fishing\nTourney is {{string index=\"4\"}},\nwho landed a {{string index=\"3\"}}-inch\n{{string index=\"2\"}}!!"
    }
  }
]