[
  {
    "label": "00",
    "attribute": "0x00000000FF000000",
    "locale": {
      "EUde": "{{fun_06 arg=\"0x0F10\"}}",
      "EUen": "{{fun_06 arg=\"0x0F10\"}}",
      "EUes": "{{fun_06 arg=\"0x0F10\"}}",
      "EUfr": "{{fun_06 arg=\"0x0F10\"}}",
      "EUit": "{{fun_06 arg=\"0x0F10\"}}",
      "JPja": "{{fun_06 arg=\"0x0F10\"}}",
      "KRko": "{{fun_06 arg=\"0x0F10\"}}",
      "USen": "{{fun_06 arg=\"0x0F10\"}}"
    }
  },
  {
    "label": "01",
    "attribute": "0x00000000FE000000",
    "locale": {
      "EUde": "{{resetReaction}}Oh!{{pause frames=\"15\"}} Ich hatte das Gefühl,\ndass ich hier jemanden\ntreffen würde{{pause frames=\"5\"}}.{{pause frames=\"5\"}}.{{pause frames=\"5\"}}.\nUnd{{pause frames=\"15\"}} ich glaube, dieser\nJemand{{pressButton}}{{reaction type=\"52\"}} bist du! Hallo!",
      "EUen": "{{resetReaction}}Oh!{{pause frames=\"15\"}} I had a feeling I was\ngoing to meet someone\nhere{{pause frames=\"5\"}}.{{pause frames=\"5\"}}.{{pause frames=\"5\"}}.\nAnd{{pause frames=\"15\"}} I guess that person{{pressButton}}\n{{reaction type=\"52\"}}is you! Hello!",
      "EUes": "{{resetReaction}}¡Oh!{{pause frames=\"15\"}} Tenía el presentimiento\nde que me iba a encontrar\na alguien aquí{{pause frames=\"5\"}}.{{pause frames=\"5\"}}.{{pause frames=\"5\"}}.\n¡Supongo{{pause frames=\"15\"}} que esa persona{{pressButton}}\n{{reaction type=\"52\"}}eres tú! ¿Qué tal, guap{{gender m=\"o\" f=\"a\"}}?",
      "EUfr": "{{resetReaction}}Oh!{{pause frames=\"15\"}} Je sentais que j'allais\nrencontrer quelqu'un ici{{pause frames=\"5\"}}.{{pause frames=\"5\"}}.{{pause frames=\"5\"}}.\n\nEt{{pause frames=\"15\"}} je suppose que ce\nquelqu'un,{{pressButton}}\n{{reaction type=\"52\"}}c'est toi! Bonjour!",
      "EUit": "{{resetReaction}}Oh!{{pause frames=\"15\"}} Sentivo che avrei\nincontrato qualcuno\nqui{{pause frames=\"5\"}}.{{pause frames=\"5\"}}.{{pause frames=\"5\"}}.\nE{{pause frames=\"15\"}} quel qualcuno{{pressButton}} sei\n{{reaction type=\"52\"}}tu! Ciao!",
      "JPja": "{{resetReaction}}あら？{{pause frames=\"15\"}}\nなんか　{{kanjiReplace charNum=\"2\" value=\"であ\"}}出会いの{{kanjiReplace charNum=\"2\" value=\"よかん\"}}予感{{pause frames=\"5\"}}・{{pause frames=\"5\"}}・{{pause frames=\"5\"}}・\n\nって、{{pause frames=\"15\"}}あなただったのね{{pressButton}}\n{{reaction type=\"52\"}}こんばんは！",
      "KRko": "{{resetReaction}}흐음～{{pause frames=\"15\"}}\n만남의 예감{{pause frames=\"5\"}}.{{pause frames=\"5\"}}.{{pause frames=\"5\"}}.\n\n이건 {{pause frames=\"15\"}}당신이었군{{pressButton}}\n{{reaction type=\"52\"}}안녕하세요！",
      "USen": "{{resetReaction}}Oh!{{pause frames=\"15\"}} I had a feeling I was\ngoing to meet someone\nhere{{pause frames=\"5\"}}.{{pause frames=\"5\"}}.{{pause frames=\"5\"}}.\nAnd{{pause frames=\"15\"}} I guess that person{{pressButton}}\n{{reaction type=\"52\"}}is you! Hello!"
    }
  },
  {
    "label": "02",
    "attribute": "0x00000000FE000000",
    "locale": {
      "EUde": "{{reaction type=\"53\"}}Den ganzen Tag höre ich mir\ndie Probleme der Leute an{{pause frames=\"5\"}}.{{pause frames=\"5\"}}.{{pause frames=\"5\"}}.\n\n{{resetReaction}}Ich muss sagen, {{gender m=\"Süßer\" f=\"Süße\"}},{{pressButton}}{{reaction type=\"54\"}}\ndas kann ein Mädel ganz\nschön fertig machen.\n{{reaction type=\"52\"}}Deswegen komme ich gerne\nher, {{pause frames=\"5\"}}um mich davon zu\nerholen.",
      "EUen": "{{reaction type=\"53\"}}I spend all day listening to\npeople talk about their\nproblems{{pause frames=\"5\"}}.{{pause frames=\"5\"}}.{{pause frames=\"5\"}}.\n{{resetReaction}}I have to tell you, sugar,{{pressButton}}{{reaction type=\"54\"}}\nit can really bring a gal\ndown.\n{{reaction type=\"52\"}}That's why I like to come\nhere {{pause frames=\"5\"}}and just get away\nfrom it all.",
      "EUes": "{{reaction type=\"53\"}}Me paso el día escuchando\na gente que me cuenta sus\nproblemas{{pause frames=\"5\"}}.{{pause frames=\"5\"}}.{{pause frames=\"5\"}}.\n{{resetReaction}}Mira que te diga, guap{{gender m=\"o\" f=\"a\"}},{{pressButton}}{{reaction type=\"54\"}}\ncualquier estilista acabaría\nmuy, pero que muy depre.\n{{reaction type=\"52\"}}Por eso me gusta venir aquí\n{{pause frames=\"5\"}}a olvidarme un rato de todo\ny relajarme con un café.",
      "EUfr": "{{reaction type=\"53\"}}Je passe mes journées à\nécouter les gens raconter\nleurs problèmes{{pause frames=\"5\"}}.{{pause frames=\"5\"}}.{{pause frames=\"5\"}}.\n{{resetReaction}}Je dois te dire, mon chou,{{pressButton}}{{reaction type=\"54\"}}\nça peut vraiment mettre\nquelqu'un sur le flanc.\n{{reaction type=\"52\"}}C'est pour ça que je viens\nici de temps en temps.{{pause frames=\"5\"}} Je\nm'aère un peu l'esprit.",
      "EUit": "{{reaction type=\"53\"}}Passo tutto il giorno ad\nascoltare la gente parlare\ndei suoi problemi{{pause frames=\"5\"}}.{{pause frames=\"5\"}}.{{pause frames=\"5\"}}.\n{{resetReaction}}Sai una cosa, zolletta?{{pressButton}}{{reaction type=\"54\"}}\nNe ho sentite di\ntutti i colori.\n{{reaction type=\"52\"}}Per questo mi piace\nvenire qui...{{pause frames=\"5\"}}\nper evadere.",
      "JPja": "{{reaction type=\"53\"}}もう、{{pause frames=\"5\"}}{{kanjiReplace charNum=\"1\" value=\"あい\"}}愛に\n{{kanjiReplace charNum=\"1\" value=\"つか\"}}捕まったりなんかしない{{pause frames=\"5\"}}・{{pause frames=\"5\"}}・{{pause frames=\"5\"}}・\n\n{{resetReaction}}って、{{pressButton}}{{reaction type=\"54\"}}あっ？！{{pause frames=\"15\"}}\nビックリしたー！！\n\nまさか　こんな{{kanjiReplace charNum=\"1\" value=\"ところ\"}}所で\n{{kanjiReplace charNum=\"1\" value=\"こえ\"}}声　かけられるとは\n{{kanjiReplace charNum=\"1\" value=\"おも\"}}思わなかったんだもの！\n{{resetReaction}}{{kanjiReplace charNum=\"1\" value=\"さき\"}}先に　{{kanjiReplace charNum=\"2\" value=\"ひとこえ\"}}一声、{{pause frames=\"5\"}}\nかけてくれればいいのに\n\n{{reaction type=\"53\"}}ンもう{{pause frames=\"5\"}}・{{pause frames=\"5\"}}・{{pause frames=\"5\"}}・{{pressButton}}\n{{reaction type=\"52\"}}にくいひと！！",
      "KRko": "{{reaction type=\"53\"}}앞으론{{pause frames=\"5\"}}\n사랑에 목매달지 않을 거야{{pause frames=\"5\"}}.{{pause frames=\"5\"}}.{{pause frames=\"5\"}}.\n\n{{resetReaction}}흑， {{pressButton}}{{reaction type=\"54\"}}앗？！{{pause frames=\"15\"}}\n깜짝이야ー！！\n\n설마 이런 곳에서\n누가 말을 걸 거라고는\n생각도 못했어！\n{{resetReaction}}미리 인기척이라도{{pause frames=\"5\"}}\n해 주지\n\n{{reaction type=\"53\"}}웅{{pause frames=\"5\"}}.{{pause frames=\"5\"}}.{{pause frames=\"5\"}}.{{pressButton}}\n{{reaction type=\"52\"}}미워！！",
      "USen": "{{reaction type=\"53\"}}I spend all day listening to\npeople talk about their\nproblems{{pause frames=\"5\"}}.{{pause frames=\"5\"}}.{{pause frames=\"5\"}}.\n{{resetReaction}}I have to tell you, sugar,{{pressButton}}{{reaction type=\"54\"}}\nit can really bring a gal\ndown.\n{{reaction type=\"52\"}}That's why I like to come\nhere {{pause frames=\"5\"}}and just get away\nfrom it all."
    }
  },
  {
    "label": "03",
    "attribute": "0x00000000FF000000",
    "locale": {
      "EUde": "{{fun_06 arg=\"0x08090A0B0C0D0E\"}}",
      "EUen": "{{fun_06 arg=\"0x08090A0B0C0D0E\"}}",
      "EUes": "{{fun_06 arg=\"0x08090A0B0C0D0E\"}}",
      "EUfr": "{{fun_06 arg=\"0x08090A0B0C0D0E\"}}",
      "EUit": "{{fun_06 arg=\"0x08090A0B0C0D0E\"}}",
      "JPja": "{{fun_06 arg=\"0x08090A0B0C0D0E\"}}",
      "KRko": "{{fun_06 arg=\"0x08090A0B0C0D0E00\"}}",
      "USen": "{{fun_06 arg=\"0x08090A0B0C0D0E\"}}"
    }
  },
  {
    "label": "04",
    "attribute": "0x00000000FF000000",
    "locale": {
      "EUde": "Ach, wieder ein junger\nWelpe zu sein{{pause frames=\"5\"}}.{{pause frames=\"5\"}}.{{pause frames=\"5\"}}.{{pressButton}}\n{{fun_06 arg=\"0x1112\"}}",
      "EUen": "Oh, to be a young pup\nagain{{pause frames=\"5\"}}.{{pause frames=\"5\"}}.{{pause frames=\"5\"}}.{{pressButton}}\n{{fun_06 arg=\"0x1112\"}}",
      "EUes": "Ay, quién fuera jovencita\notra vez{{pause frames=\"5\"}}.{{pause frames=\"5\"}}.{{pause frames=\"5\"}}.\n\n{{fun_06 arg=\"0x1112\"}}",
      "EUfr": "Redevenir un jeune chiot{{pause frames=\"5\"}}.{{pause frames=\"5\"}}.{{pause frames=\"5\"}}.{{pressButton}}\n{{fun_06 arg=\"0x1112\"}}",
      "EUit": "Oh, vorrei tornare\ngiovane{{pause frames=\"5\"}}.{{pause frames=\"5\"}}.{{pause frames=\"5\"}}.{{pressButton}}\n{{fun_06 arg=\"0x1112\"}}",
      "JPja": "うらやましいわ\nあなたの　わかさ{{pause frames=\"5\"}}・{{pause frames=\"5\"}}・{{pause frames=\"5\"}}・\n\n{{fun_06 arg=\"0x1112\"}}",
      "KRko": "부러워\n당신의 젊음이{{pause frames=\"5\"}}.{{pause frames=\"5\"}}.{{pause frames=\"5\"}}.\n\n{{fun_06 arg=\"0x1112\"}}",
      "USen": "Oh, to be a young pup\nagain{{pause frames=\"5\"}}.{{pause frames=\"5\"}}.{{pause frames=\"5\"}}.{{pressButton}}\n{{fun_06 arg=\"0x1112\"}}"
    }
  },
  {
    "label": "05",
    "attribute": "0x00000000FF000000",
    "locale": {
      "EUde": "{{fun_06 arg=\"0x131415\"}}",
      "EUen": "{{fun_06 arg=\"0x131415\"}}",
      "EUes": "{{fun_06 arg=\"0x131415\"}}",
      "EUfr": "{{fun_06 arg=\"0x131415\"}}",
      "EUit": "{{fun_06 arg=\"0x131415\"}}",
      "JPja": "{{fun_06 arg=\"0x131415\"}}",
      "KRko": "{{fun_06 arg=\"0x13141500\"}}",
      "USen": "{{fun_06 arg=\"0x131415\"}}"
    }
  },
  {
    "label": "06",
    "attribute": "0x00000000FF000000",
    "locale": {
      "EUde": "{{fun_06 arg=\"0x161718\"}}",
      "EUen": "{{fun_06 arg=\"0x161718\"}}",
      "EUes": "{{fun_06 arg=\"0x161718\"}}",
      "EUfr": "{{fun_06 arg=\"0x161718\"}}",
      "EUit": "{{fun_06 arg=\"0x161718\"}}",
      "JPja": "{{fun_06 arg=\"0x161718\"}}",
      "KRko": "{{fun_06 arg=\"0x16171800\"}}",
      "USen": "{{fun_06 arg=\"0x161718\"}}"
    }
  },
  {
    "label": "07",
    "attribute": "0x00000000FF000000",
    "locale": {
      "EUde": "{{fun_06 arg=\"0x191A1B\"}}",
      "EUen": "{{fun_06 arg=\"0x191A1B\"}}",
      "EUes": "{{fun_06 arg=\"0x191A1B\"}}",
      "EUfr": "{{fun_06 arg=\"0x191A1B\"}}",
      "EUit": "{{fun_06 arg=\"0x191A1B\"}}",
      "JPja": "{{fun_06 arg=\"0x191A1B\"}}",
      "KRko": "{{fun_06 arg=\"0x191A1B00\"}}",
      "USen": "{{fun_06 arg=\"0x191A1B\"}}"
    }
  },
  {
    "label": "08",
    "attribute": "0x00000000FE000000",
    "locale": {
      "EUde": "{{reaction type=\"52\"}}Also,{{pause frames=\"5\"}} hat dich unsere\nUnterhaltung aufgeheitert,\n{{gender m=\"Süßer\" f=\"Süße\"}}?",
      "EUen": "{{reaction type=\"52\"}}So,{{pause frames=\"5\"}} did your little chat\nboost your spirits, sugar?",
      "EUes": "{{reaction type=\"52\"}}Dime,{{pause frames=\"5\"}} ¿te sientes un poco\nmejor ahora, guap{{gender m=\"o\" f=\"a\"}}?",
      "EUfr": "{{reaction type=\"52\"}}Alors,{{pause frames=\"5\"}} notre petite\ndiscussion t'a remonté le\nmoral, mon chou?",
      "EUit": "{{reaction type=\"52\"}}Dimmi, zolletta{{pause frames=\"5\"}}. Ti ha fatto\nbene la chiacchierata?",
      "JPja": "{{reaction type=\"52\"}}フフフ、{{pause frames=\"5\"}}\nわたしと　{{kanjiReplace charNum=\"1\" value=\"はな\"}}話して\n{{kanjiReplace charNum=\"2\" value=\"げんき\"}}元気　{{kanjiReplace charNum=\"1\" value=\"で\"}}出たかしら？",
      "KRko": "{{reaction type=\"52\"}}오호호{{pause frames=\"5\"}}\n나랑 얘기해서\n기분 좀 좋아졌어？",
      "USen": "{{reaction type=\"52\"}}So,{{pause frames=\"5\"}} did your little chat\nboost your spirits, sugar?"
    }
  },
  {
    "label": "09",
    "attribute": "0x00000000FE000000",
    "locale": {
      "EUde": "{{reaction type=\"51\"}}Wusstest du, dass Kaffee-\nsatz sehr gesund für die\nHaare ist?\n{{reaction type=\"52\"}}Oh, ja. {{pause frames=\"5\"}}{{resetReaction}}Aber das\nSaubermachen hinterher\nist total fürchterlich.",
      "EUen": "{{reaction type=\"51\"}}Did you know that coffee\ngrounds are a wonderful\nexfoliant for the scalp?\n{{reaction type=\"52\"}}Oh, yes. {{pause frames=\"5\"}}{{resetReaction}}But the cleanup\nis utter torture.",
      "EUes": "{{reaction type=\"51\"}}¿Sabías que los posos del\ncafé son ideales para\nexfoliar el cuero cabelludo?\n{{reaction type=\"52\"}}Pues sí. {{pause frames=\"5\"}}{{resetReaction}}Pero quitarlos del\npelo es una tortura.",
      "EUfr": "{{reaction type=\"51\"}}Tu sais que le marc de café\nest un très bon exfoliant\npour le cuir chevelu?\n{{reaction type=\"52\"}}Eh oui. {{pause frames=\"5\"}}{{resetReaction}}En revanche,\nc'est un enfer pour\nnettoyer après.",
      "EUit": "{{reaction type=\"51\"}}Sapevi che i fondi di caffè\nsono un ottimo esfoliante\nper il cuoio capelluto?\n{{reaction type=\"52\"}}Davvero! {{pause frames=\"5\"}}{{resetReaction}}Ma dopo lavarsi i\ncapelli diventa una vera\ntortura.",
      "JPja": "{{reaction type=\"51\"}}{{kanjiReplace charNum=\"2\" value=\"てんし\"}}天使みたいに\n{{kanjiReplace charNum=\"1\" value=\"あい\"}}愛らしくって、\n\nじごくのように\nアツアツな、\n\n{{reaction type=\"52\"}}そんな　{{kanjiReplace charNum=\"1\" value=\"あじ\"}}味わいね{{pause frames=\"20\"}}\n{{kanjiReplace charNum=\"2\" value=\"こんや\"}}今夜のコーヒー",
      "KRko": "{{reaction type=\"51\"}}천사처럼\n사랑스럽고\n\n지옥처럼\n뜨거운\n\n{{reaction type=\"52\"}}그런 맛이야{{pause frames=\"20\"}}\n오늘 밤 커피는",
      "USen": "{{reaction type=\"51\"}}Did you know that coffee\ngrounds are a wonderful\nexfoliant for the scalp?\n{{reaction type=\"52\"}}Oh, yes. {{pause frames=\"5\"}}{{resetReaction}}But the cleanup\nis utter torture."
    }
  },
  {
    "label": "10",
    "attribute": "0x00000000FE000000",
    "locale": {
      "EUde": "{{reaction type=\"52\"}}Wie oft habe ich schon\nversucht, diese reiche,\ndunkle Farbe des Kaffees\n{{resetReaction}}bei einer Frisur\nhinzubekommen!{{pressButton}} {{reaction type=\"54\"}}Es wird nie\nso schön wie in der Tasse.",
      "EUen": "{{reaction type=\"52\"}}I can't tell you how often\nI've tried to re-create the\nrich, dark hue of coffee{{pause frames=\"5\"}}.{{pause frames=\"5\"}}.{{pause frames=\"5\"}}.\n{{resetReaction}}on someone's head!{{pressButton}} {{reaction type=\"54\"}}It's just\nnever the same as it is in\nthe mug, though.",
      "EUes": "{{reaction type=\"52\"}}¡Ay, si pudiera reproducir\nlos ricos matices del color\ndel café en mi cabello{{pause frames=\"5\"}}.{{pause frames=\"5\"}}.{{pause frames=\"5\"}}.!\n{{resetReaction}}{{reaction type=\"54\"}}¡Pero no lo consigo! Nunca\nqueda la misma tonalidad\nque admiro en la taza...",
      "EUfr": "{{reaction type=\"52\"}}Si tu savais combien de\nfois j'ai essayé de recréer\nla chaude couleur du café{{pause frames=\"5\"}}.{{pause frames=\"5\"}}.{{pause frames=\"5\"}}.\n{{resetReaction}}sur la tête de mes clients!{{pressButton}}\n{{reaction type=\"54\"}}Je n'arrive jamais à obtenir\nla couleur du marc.",
      "EUit": "{{reaction type=\"52\"}}Quante volte ho cercato\ndi ricreare il colore nero\nintenso del caffè{{pause frames=\"5\"}}.{{pause frames=\"5\"}}.{{pause frames=\"5\"}}.\n{{resetReaction}}sulla testa di qualcuno!{{pressButton}} {{reaction type=\"54\"}}\nMa non viene mai come\nquello nella tazza.",
      "JPja": "{{reaction type=\"52\"}}ここちいい　{{kanjiReplace charNum=\"1\" value=\"よる\"}}夜ね{{pause frames=\"20\"}}\n{{kanjiReplace charNum=\"1\" value=\"しず\"}}静かで　まるで{{pause frames=\"5\"}}・{{pause frames=\"5\"}}・{{pause frames=\"5\"}}・\n\n{{resetReaction}}あ！{{pressButton}}　{{reaction type=\"54\"}}ここで　あなたに\nこのセリフを{{kanjiReplace charNum=\"1\" value=\"い\"}}言うのは\nちょっと　{{kanjiReplace charNum=\"1\" value=\"はや\"}}早すぎるワ！",
      "KRko": "{{reaction type=\"52\"}}편안한 밤이야{{pause frames=\"20\"}}\n조용해서 마치{{pause frames=\"5\"}}.{{pause frames=\"5\"}}.{{pause frames=\"5\"}}.\n\n{{resetReaction}}아！{{pressButton}} {{reaction type=\"54\"}}여기서 당신한테\n이런 말을 하기엔\n너무 일러！",
      "USen": "{{reaction type=\"52\"}}I can't tell you how often\nI've tried to re-create the\nrich, dark hue of coffee{{pause frames=\"5\"}}.{{pause frames=\"5\"}}.{{pause frames=\"5\"}}.\n{{resetReaction}}on someone's head!{{pressButton}} {{reaction type=\"54\"}}It's just\nnever the same as it is in\nthe mug, though."
    }
  },
  {
    "label": "11",
    "attribute": "0x00000000FE000000",
    "locale": {
      "EUde": "{{resetReaction}}Es ist nicht einfach, den\nganzen Tag auf den Beinen\nzu sein.\n{{pause frames=\"5\"}}{{reaction type=\"55\"}}Aber starker Kaffee und\nnoch stärkeres Parfüm\nhelfen,{{pause frames=\"5\"}} verstehst du?",
      "EUen": "{{resetReaction}}It's not easy spending all\nday on your feet, {{pause frames=\"5\"}}{{reaction type=\"55\"}}but\nstrong coffee...\nand even stronger perm\nfumes certainly help,{{pause frames=\"5\"}}\ndoncha know!",
      "EUes": "{{resetReaction}}Es muy cansado pasar todo\nel día de pie, {{pause frames=\"5\"}}{{reaction type=\"55\"}}pero un\ncafé bien cargado ayuda...\n¡Y los olores del líquido\npara permanente también,{{pause frames=\"5\"}}\nno vayas a creer!",
      "EUfr": "{{resetReaction}}Ce n'est pas facile de\nrester debout toute la\njournée, {{pause frames=\"5\"}}{{reaction type=\"55\"}}mais un bon café\net les vapeurs des\ncolorations m'aident bien!",
      "EUit": "{{resetReaction}}Non è facile stare in piedi\ntutto il giorno, {{pause frames=\"5\"}}{{reaction type=\"55\"}}ma il caffè\nforte e un'ottima\npermanente sono un aiuto\neccezionale,{{pause frames=\"5\"}}\npuoi contarci!",
      "JPja": "{{resetReaction}}{{kanjiReplace charNum=\"1\" value=\"おも\"}}思い{{kanjiReplace charNum=\"1\" value=\"で\"}}出も\nなつかしさも　みんな、\n\nこの　コハク{{kanjiReplace charNum=\"1\" value=\"いろ\"}}色の\n{{kanjiReplace charNum=\"1\" value=\"の\"}}飲み{{kanjiReplace charNum=\"1\" value=\"もの\"}}物に　とけていくの{{pressButton}}\n{{reaction type=\"55\"}}コーヒーって　ステキね",
      "KRko": "{{resetReaction}}추억도 그리움도\n모두\n\n이 초콜릿색 음료와 함께\n녹을 거야{{pressButton}}\n{{reaction type=\"55\"}}커피는 너무 신비로워",
      "USen": "{{resetReaction}}It's not easy spending all\nday on your feet, {{pause frames=\"5\"}}{{reaction type=\"55\"}}but\nstrong coffee...\nand even stronger perm\nfumes certainly help,{{pause frames=\"5\"}}\ndoncha know!"
    }
  },
  {
    "label": "12",
    "attribute": "0x00000000FE000000",
    "locale": {
      "EUde": "{{reaction type=\"51\"}}Wie ein guter Haarschnitt{{pause frames=\"5\"}}\nbetont auch guter Kaffee{{pause frames=\"5\"}}\ndas innere Selbst{{pause frames=\"5\"}}.{{pause frames=\"5\"}}.{{pause frames=\"5\"}}.{{pause frames=\"5\"}}",
      "EUen": "{{reaction type=\"51\"}}Good coffee,{{pause frames=\"5\"}} like the right\nhairstyle,{{pause frames=\"5\"}} coaxes your true\nself to the surface{{pause frames=\"5\"}}.{{pause frames=\"5\"}}.{{pause frames=\"5\"}}.{{pause frames=\"5\"}}",
      "EUes": "{{reaction type=\"51\"}}El buen café,{{pause frames=\"5\"}} como un buen\ncorte de pelo,{{pause frames=\"5\"}} hace surgir\ntu yo más verdadero{{pause frames=\"5\"}}.{{pause frames=\"5\"}}.{{pause frames=\"5\"}}.{{pause frames=\"5\"}}",
      "EUfr": "{{reaction type=\"51\"}}Un bon café,{{pause frames=\"5\"}} c'est comme\nune belle coupe.{{pause frames=\"5\"}} Il exprime\nta véritable personnalité{{pause frames=\"5\"}}.{{pause frames=\"5\"}}.{{pause frames=\"5\"}}.{{pause frames=\"5\"}}",
      "EUit": "{{reaction type=\"51\"}}Un buon caffè{{pause frames=\"5\"}} e una\nperfetta acconciatura{{pause frames=\"5\"}} sono\nlo specchio dell'anima{{pause frames=\"5\"}}.{{pause frames=\"5\"}}.{{pause frames=\"5\"}}.{{pause frames=\"5\"}}",
      "JPja": "{{reaction type=\"51\"}}{{kanjiReplace charNum=\"1\" value=\"あい\"}}愛は　コーヒーのかおり{{pause frames=\"5\"}}・{{pause frames=\"5\"}}・{{pause frames=\"5\"}}・{{pause frames=\"5\"}}\nいいセリフよね\n\n{{resetReaction}}{{kanjiReplace charNum=\"1\" value=\"くち\"}}口をつけた\nしゅんかんから　{{kanjiReplace charNum=\"1\" value=\"はじ\"}}始まる、\n\n{{reaction type=\"55\"}}トキメキと　{{kanjiReplace charNum=\"2\" value=\"にがみ\"}}苦味を\nよく　{{kanjiReplace charNum=\"1\" value=\"あらわ\"}}表してるワ！",
      "KRko": "{{reaction type=\"51\"}}사랑은 커피향{{pause frames=\"5\"}}.{{pause frames=\"5\"}}.{{pause frames=\"5\"}}.{{pause frames=\"5\"}}\n좋은 말 아니니？\n\n{{resetReaction}}입을 댄 순간\n시작되는\n\n{{reaction type=\"55\"}}두근거림과 씁쓸함을\n잘 표현하고 있어！",
      "USen": "{{reaction type=\"51\"}}Good coffee,{{pause frames=\"5\"}} like the right\nhairstyle,{{pause frames=\"5\"}} coaxes your true\nself to the surface{{pause frames=\"5\"}}.{{pause frames=\"5\"}}.{{pause frames=\"5\"}}.{{pause frames=\"5\"}}"
    }
  },
  {
    "label": "13",
    "attribute": "0x00000000FE000000",
    "locale": {
      "EUde": "{{reaction type=\"53\"}}Ich finde, {{color id=\"6\"}}Tom Nook\n{{color id=\"0\"}}bräuchte mal{{pause frames=\"5\"}} einen\nanständigen Haarschnitt{{pause frames=\"5\"}}.{{pause frames=\"5\"}}.{{pause frames=\"5\"}}.\n{{resetReaction}}Dieses Vogelnest auf dem\nKopf kann man ja nicht als\nFrisur bezeichnen.",
      "EUen": "{{reaction type=\"53\"}}I think {{color id=\"6\"}}Tom Nook {{color id=\"0\"}}could\nreally {{pause frames=\"5\"}}use a good thermal\nreconditioning{{pause frames=\"5\"}}.{{pause frames=\"5\"}}.{{pause frames=\"5\"}}.\n{{resetReaction}}It just pains me to look\nat that rat's nest he's got\ngoing on!",
      "EUes": "{{reaction type=\"53\"}}Creo que {{color id=\"6\"}}Tom Nook {{color id=\"0\"}}necesita\n{{pause frames=\"5\"}}un buen tratamiento con\nacondicionador y mascarilla.\n{{resetReaction}}¡Ese estropajo que tiene\npor pelo me hace daño a la\nvista, si te digo la verdad!",
      "EUfr": "{{reaction type=\"53\"}}Je crois que {{color id=\"6\"}}Tom Nook{{color id=\"0\"}}\naurait besoin{{pause frames=\"5\"}} d'un bon soin\ncapillaire{{pause frames=\"5\"}}.{{pause frames=\"5\"}}.{{pause frames=\"5\"}}.\n{{resetReaction}}Je ne comprends pas\ncomment il fait pour avoir\nle poil aussi terne!",
      "EUit": "{{reaction type=\"53\"}}Secondo me a {{color id=\"6\"}}Tom Nook{{color id=\"0\"}}\ngioverebbe un beauty day{{pause frames=\"5\"}}\nalle terme{{pause frames=\"5\"}}.{{pause frames=\"5\"}}.{{pause frames=\"5\"}}.\n{{resetReaction}}Non vedi come si è\nridotto? È incartapecorito!",
      "JPja": "{{reaction type=\"53\"}}{{color id=\"6\"}}たぬきち{{color id=\"0\"}}さんったら、{{pause frames=\"5\"}}\nお{{kanjiReplace charNum=\"1\" value=\"かね\"}}金のコトに　ばっかり\nやたら　うるさくって{{pause frames=\"5\"}}・{{pause frames=\"5\"}}・{{pause frames=\"5\"}}・\n{{resetReaction}}たまには　コーヒーにでも\nさそってくれたらいいのに\n\nつれないひと！",
      "KRko": "{{reaction type=\"53\"}}{{color id=\"6\"}}너굴{{color id=\"0\"}}씨는{{pause frames=\"5\"}}\n돈에 대해서만큼은\n너무 구두쇠야{{pause frames=\"5\"}}.{{pause frames=\"5\"}}.{{pause frames=\"5\"}}.\n{{resetReaction}}가끔은\n커피를 사 줘도 되잖아？\n\n갑갑해！",
      "USen": "{{reaction type=\"53\"}}I think {{color id=\"6\"}}Tom Nook {{color id=\"0\"}}could\nreally {{pause frames=\"5\"}}use a good thermal\nreconditioning{{pause frames=\"5\"}}.{{pause frames=\"5\"}}.{{pause frames=\"5\"}}.\n{{resetReaction}}It just pains me to look\nat that rat's nest he's got\ngoing on!"
    }
  },
  {
    "label": "14",
    "attribute": "0x00000000FE000000",
    "locale": {
      "EUde": "Hast du schon die Grind-\ngoliamischung versucht?{{pause frames=\"15\"}}{{reaction type=\"55\"}}\nUff!\n{{pause frames=\"10\"}}Die ist so stark, da\nwachsen dir Brusthaare.{{pause frames=\"10\"}}\n\nUnd die stylen sich sogar\nganz von selbst, {{gender m=\"Süßer\" f=\"Süße\"}}!",
      "EUen": "Have you tried the Mount\nGrindgolia blend tonight?{{pause frames=\"15\"}}\n{{reaction type=\"55\"}}Whoo! {{pause frames=\"10\"}}It's so strong...\nit'll put hair on your chest{{pause frames=\"10\"}}\nand then style it into a\nfetching bouffant, sugar!",
      "EUes": "Hoy sirven una mezcla de\ncafé de varias familias.{{pause frames=\"15\"}}\n{{reaction type=\"55\"}}Es excelente {{pause frames=\"10\"}}y MUY fuerte...\n¡Tanto que podría hacer{{pause frames=\"10\"}}\ncriar pelo a una rana con\nalopecia galopante!",
      "EUfr": "Tu as essayé le mélange\nPassagolia?{{pause frames=\"15\"}} {{reaction type=\"55\"}}Ouah! {{pause frames=\"10\"}}Il est si\nfort que tes cheveux se\ndresseront sur la tête.{{pause frames=\"10\"}}\nAprès, je pourrai les\ncoiffer tranquillement!",
      "EUit": "Hai già provato la miscela\nMontazzina?{{pause frames=\"10\"}}\n{{reaction type=\"55\"}}Caspita se è {{pause frames=\"10\"}}forte!\nTi fa venire i peli sul\npetto,{{pause frames=\"10\"}} poi li puoi cotonare\ncome vuoi, zolletta!",
      "JPja": "{{kanjiReplace charNum=\"2\" value=\"こんや\"}}今夜のマメは\nキリマンジャロ？\n\n{{reaction type=\"55\"}}{{kanjiReplace charNum=\"2\" value=\"みなみかぜ\"}}南風を　{{kanjiReplace charNum=\"1\" value=\"かん\"}}感じるわ",
      "KRko": "오늘의 콩은\n킬리만자로？\n\n{{reaction type=\"55\"}}남국의 정취가 느껴져",
      "USen": "Have you tried the Mount\nGrindgolia blend tonight?{{pause frames=\"15\"}}\n{{reaction type=\"55\"}}Whoo! {{pause frames=\"10\"}}It's so strong...\nit'll put hair on your chest{{pause frames=\"10\"}}\nand then style it into a\nfetching bouffant, sugar!"
    }
  },
  {
    "label": "15",
    "attribute": "0x00000000FE000000",
    "locale": {
      "EUde": "Oh je!{{pause frames=\"15\"}} {{reaction type=\"54\"}}Ich dachte, hier\nsieht mich niemand!{{pause frames=\"5\"}} Hier ist\nmein Geheimversteck!\n{{reaction type=\"51\"}}Ich will ganz inkognito sein,\n{{gender m=\"Süßer\" f=\"Süße\"}}{{pause frames=\"5\"}}.{{pause frames=\"5\"}}.{{pause frames=\"5\"}}.",
      "EUen": "Oh, my!{{pause frames=\"15\"}} {{reaction type=\"54\"}}I didn't think I'd\nrun into anyone here!{{pause frames=\"5\"}} This\nplace is my secret hideout!\n{{reaction type=\"51\"}}I was trying to be all\nincognito, sugar{{pause frames=\"5\"}}.{{pause frames=\"5\"}}.{{pause frames=\"5\"}}.",
      "EUes": "¡Oh, vaya!{{pause frames=\"15\"}} {{reaction type=\"54\"}}¡Pensé que aquí\nno encontraría a nadie!{{pause frames=\"5\"}} Este\nes mi refugio secreto...\n{{reaction type=\"51\"}}Intentaba ir de\nincógnito, guap{{gender m=\"o\" f=\"a\"}}{{pause frames=\"5\"}}.{{pause frames=\"5\"}}.{{pause frames=\"5\"}}.",
      "EUfr": "Oh non!{{pause frames=\"15\"}} {{reaction type=\"54\"}}Je ne pensais pas\nrencontrer quelqu'un ici!{{pause frames=\"5\"}}\nC'est mon jardin secret!\n{{reaction type=\"51\"}}J'essayais d'être ici\nincognito, mon chou{{pause frames=\"5\"}}.{{pause frames=\"5\"}}.{{pause frames=\"5\"}}.",
      "EUit": "Perchicco!{{pause frames=\"15\"}} {{reaction type=\"54\"}}Non ho mai\ntrovato nessuno qua.{{pause frames=\"5\"}} È il\nmio rifugio segreto!\n{{reaction type=\"51\"}}Vengo qua di nascosto,\nzolletta{{pause frames=\"5\"}}.{{pause frames=\"5\"}}.{{pause frames=\"5\"}}.",
      "JPja": "あらあらあら！{{pause frames=\"15\"}}\n{{reaction type=\"54\"}}こんなトコロで\n{{kanjiReplace charNum=\"1\" value=\"こえ\"}}声、{{pause frames=\"5\"}}かけられちゃうなんて、\nまるで　なんかの\n{{kanjiReplace charNum=\"2\" value=\"えいが\"}}映画みたいじゃない！{{pressButton}}\n{{reaction type=\"51\"}}ロマンティックだわー{{pause frames=\"5\"}}・{{pause frames=\"5\"}}・{{pause frames=\"5\"}}・",
      "KRko": "어머 어머 어머！{{pause frames=\"15\"}}\n{{reaction type=\"54\"}}이런 곳에서\n말을 {{pause frames=\"5\"}}걸다니\n마치\n영화의 한 장면 같잖아！{{pressButton}}\n{{reaction type=\"51\"}}로맨틱해ー{{pause frames=\"5\"}}.{{pause frames=\"5\"}}.{{pause frames=\"5\"}}.",
      "USen": "Oh, my!{{pause frames=\"15\"}} {{reaction type=\"54\"}}I didn't think I'd\nrun into anyone here!{{pause frames=\"5\"}} This\nplace is my secret hideout!\n{{reaction type=\"51\"}}I was trying to be all\nincognito, sugar{{pause frames=\"5\"}}.{{pause frames=\"5\"}}.{{pause frames=\"5\"}}."
    }
  },
  {
    "label": "16",
    "attribute": "0x00000000FE000000",
    "locale": {
      "EUde": "Oh, hallihallo.{{pause frames=\"15\"}} {{resetReaction}}Sah ich\neinsam aus? {{pause frames=\"15\"}}{{reaction type=\"52\"}}Wie lieb von\ndir, vorbeizukommen!\nOh!{{pressButton}} {{reaction type=\"54\"}}Sicher!{{pause frames=\"5\"}} Sicher!{{pause frames=\"15\"}}\nDu brauchst nichts zu\nsagen.\n{{reaction type=\"55\"}}Ich weiß schon, was du\nsagen willst.{{pause frames=\"5\"}} Intuition der\nStylisten.",
      "EUen": "Oh, hi there.{{pause frames=\"15\"}}{{resetReaction}} Did I look\nlonely? {{pause frames=\"15\"}}{{reaction type=\"52\"}}How thoughtful of\nyou to come say hi!\nOh!{{pressButton}} {{reaction type=\"54\"}}It's fine!{{pause frames=\"5\"}} It's fine!{{pause frames=\"15\"}}\nYou don't have to say a \nthing.\n{{reaction type=\"55\"}}I already know whatever you\nwere going to say.{{pause frames=\"5\"}} Call it a\nstylist's intuition.",
      "EUes": "Oh, hola.{{pause frames=\"15\"}}{{resetReaction}} ¿Creías que estaba\nsolita? {{pause frames=\"15\"}}{{reaction type=\"52\"}}Has sido muy amable\npor venir a decirme hola.\n¡Oh!{{pressButton}} {{reaction type=\"54\"}}¡Está bien,{{pause frames=\"5\"}} no sufras!{{pause frames=\"15\"}}\nNo hace falta que digas\nnada, de verdad.\n{{reaction type=\"55\"}}Sé lo que ibas a decir.{{pause frames=\"5\"}} Es\ncomo un sexto sentido que\ntenemos las estilistas.",
      "EUfr": "Oh, bonjour.{{pause frames=\"15\"}} {{resetReaction}}J'ai l'air seule?\n{{pause frames=\"15\"}}{{reaction type=\"52\"}}C'est gentil de ta part de\nvenir me dire bonjour!\nOh!{{pressButton}} {{reaction type=\"54\"}}Ne t'inquiète pas!{{pause frames=\"15\"}}\nTu n'as pas besoin de me\nrépondre.\n{{reaction type=\"55\"}}Je sais déjà ce que tu\nallais dire.{{pause frames=\"5\"}} Appelle ça\nl'intuition de la coiffeuse.",
      "EUit": "Oh, ciao.{{pause frames=\"15\"}} {{resetReaction}}Ti sembravo\nsola? {{pause frames=\"15\"}}{{reaction type=\"52\"}}Che gentile da parte\ntua venirmi a salutare!\nOh!{{pressButton}} {{reaction type=\"54\"}}Va bene,{{pause frames=\"5\"}} davvero!{{pause frames=\"15\"}}\nHo capito.\nNon dire niente.\n{{reaction type=\"55\"}}So già quello che volevi\ndire.{{pause frames=\"5\"}} È un'intuizione\ndi stile!",
      "JPja": "あら？{{pause frames=\"15\"}}　{{resetReaction}}わたし、\nサビシそうな　{{kanjiReplace charNum=\"1\" value=\"かお\"}}顔してたかしら？\n\n{{reaction type=\"52\"}}ウフフ、{{pause frames=\"5\"}}こんなトコロでも\n{{kanjiReplace charNum=\"1\" value=\"こえ\"}}声をかけてくれるなんて\n{{kanjiReplace charNum=\"1\" value=\"やさ\"}}優しいのね\nあ！{{pressButton}}　{{reaction type=\"54\"}}いいのよ、{{pause frames=\"5\"}}いいの{{pause frames=\"15\"}}\n{{kanjiReplace charNum=\"1\" value=\"なに\"}}何も　{{kanjiReplace charNum=\"1\" value=\"い\"}}言わないで！\n\n{{reaction type=\"55\"}}あなたの　{{kanjiReplace charNum=\"1\" value=\"い\"}}言いたいコト、{{pause frames=\"15\"}}\nあたし、{{pause frames=\"5\"}}みんな\n{{kanjiReplace charNum=\"1\" value=\"わ\"}}分かってるわよっ",
      "KRko": "어머！{{pause frames=\"15\"}}\n{{resetReaction}}내가 외로워 보였어？\n\n{{reaction type=\"52\"}}오호호， {{pause frames=\"5\"}}이런 곳에서까지\n말을 걸어 주다니\n친절도 하지\n아！{{pressButton}} {{reaction type=\"54\"}}괜찮아， {{pause frames=\"5\"}}괜찮아{{pause frames=\"15\"}}\n아무 말도 하지 마！\n\n{{reaction type=\"55\"}}당신이 무슨 말을 하려는지{{pause frames=\"15\"}}\n나는{{pause frames=\"5\"}}\n다 알아",
      "USen": "Oh, hi there.{{pause frames=\"15\"}}{{resetReaction}} Did I look\nlonely? {{pause frames=\"15\"}}{{reaction type=\"52\"}}How thoughtful of\nyou to come say hi!\nOh!{{pressButton}} {{reaction type=\"54\"}}It's fine!{{pause frames=\"5\"}} It's fine!{{pause frames=\"15\"}}\nYou don't have to say a \nthing.\n{{reaction type=\"55\"}}I already know whatever you\nwere going to say.{{pause frames=\"5\"}} Call it a\nstylist's intuition."
    }
  },
  {
    "label": "17",
    "attribute": "0x00000000FE000000",
    "locale": {
      "EUde": "{{reaction type=\"55\"}}Du bist noch in dem Alter,\nin dem dir sogar ein Wisch-\nmopp stehen würde, {{gender m=\"Süßer\" f=\"Süße\"}}.",
      "EUen": "{{reaction type=\"55\"}}You're still at the age when\neven a mullet would look\nbecoming, sweetie!",
      "EUes": "{{reaction type=\"55\"}}¡A tu edad y con esa carita\nincluso las cejas depiladas\nte quedarían bien!",
      "EUfr": "{{reaction type=\"55\"}}Tu es encore à l'âge où\nmême une coupe nunuche\nfait dans le vent.",
      "EUit": "{{reaction type=\"55\"}}Alla tua età puoi\npermetterti anche un taglio\nalla coda di triglia!",
      "JPja": "{{reaction type=\"55\"}}まだ　{{kanjiReplace charNum=\"1\" value=\"おとこ\"}}男の{{kanjiReplace charNum=\"1\" value=\"こ\"}}子を\nぶきにできる　ねんれいよね",
      "KRko": "{{reaction type=\"55\"}}아직은 남자라는\n사실만으로 먹고 들어가잖아？",
      "USen": "{{reaction type=\"55\"}}You're still at the age when\neven a mullet would look\nbecoming, sweetie!"
    }
  },
  {
    "label": "18",
    "attribute": "0x00000000FE000000",
    "locale": {
      "EUde": "{{reaction type=\"55\"}}In deinem Alter würden dir\nsogar Korkenzieherlöckchen\nstehen.\n{{reaction type=\"52\"}}Weißt du, {{gender m=\"Süßer\" f=\"Süße\"}},{{pause frames=\"5\"}} es gab\neinmal eine Zeit, da konnte\nich das auch von mir sagen.",
      "EUen": "{{reaction type=\"55\"}}You're still at the age\nwhere even a corkscrew\nperm is flattering.\n{{reaction type=\"52\"}}You know, sugar,{{pause frames=\"5\"}} there was\na time when I could say the\nsame.",
      "EUes": "{{reaction type=\"55\"}}Todavía estás en una edad\nen la que podrías ponerte\nun tupé o trencitas rasta.\n{{reaction type=\"52\"}}Sabes,{{pause frames=\"5\"}} hubo un tiempo\nen que yo también me lo\npodría haber permitido...",
      "EUfr": "{{reaction type=\"55\"}}Tu es encore à l'âge où\nmême une indéfrisable te\nmet en valeur.\n{{reaction type=\"52\"}}Tu sais, mon chou,{{pause frames=\"5\"}}\nà une époque, c'était pareil\npour moi.",
      "EUit": "{{reaction type=\"55\"}}Alla tua età ti donerebbe\nanche la permanente a\nforma di cavatappi.\n{{reaction type=\"52\"}}Sai, zolletta,{{pause frames=\"5\"}} un tempo\nanch'io potevo sbizzarrirmi\ncon gli stili più pazzi.",
      "JPja": "{{reaction type=\"55\"}}まだ　{{kanjiReplace charNum=\"1\" value=\"おんな\"}}女の{{kanjiReplace charNum=\"1\" value=\"こ\"}}子を\nぶきにできる　ねんれいよね\n\n{{reaction type=\"52\"}}フフフ、{{pause frames=\"5\"}}\nわたしにも\nあなたみたいなころが　あったのよ",
      "KRko": "{{reaction type=\"55\"}}아직은 여자라는\n사실만으로 먹고 들어가잖아？\n\n{{reaction type=\"52\"}}오호호{{pause frames=\"5\"}}\n나도\n당신같은 시절이 있었어",
      "USen": "{{reaction type=\"55\"}}You're still at the age\nwhere even a corkscrew\nperm is flattering.\n{{reaction type=\"52\"}}You know, sugar,{{pause frames=\"5\"}} there was\na time when I could say the\nsame."
    }
  },
  {
    "label": "19",
    "attribute": "0x00000000FE000000",
    "locale": {
      "EUde": "{{reaction type=\"55\"}}Das Aroma dieses Kaffees\nversorgt die Leute mit\nfrischer Energie!\n{{reaction type=\"51\"}}Wie der süße Duft\nvon Peroxid, {{gender m=\"Süßer\" f=\"Süße\"}}!",
      "EUen": "{{reaction type=\"55\"}}The aroma of coffee has \nthe power to get people \nall fired up!\n{{reaction type=\"51\"}}It's just like the sweet,\nsweet fragrance of\nperoxide, sugar!",
      "EUes": "{{reaction type=\"55\"}}¡El aroma del café tiene la\ncapacidad de estimular al\nanimal más alicaído!\n{{reaction type=\"51\"}}¡Igual que el intenso aroma\ndel líquido para permanente!",
      "EUfr": "{{reaction type=\"55\"}}L'odeur que dégage\nle café a le pouvoir de\nréveiller les gens!\n{{reaction type=\"51\"}}C'est un peu comme\nles douces effluves du \nperoxyde, mon chou!",
      "EUit": "{{reaction type=\"55\"}}L'aroma del caffè ha il\npotere di esaltare lo\nspirito della gente!\n{{reaction type=\"51\"}}Proprio come i profumi\ndolci fanno impazzire\nle api, zolletta!",
      "JPja": "{{reaction type=\"55\"}}コーヒーの　かおりには\n{{kanjiReplace charNum=\"1\" value=\"ひと\"}}人をときめかせる\n{{kanjiReplace charNum=\"2\" value=\"こうか\"}}効果が　あるの\n{{reaction type=\"51\"}}{{kanjiReplace charNum=\"1\" value=\"あい\"}}愛のコロンね！",
      "KRko": "{{reaction type=\"55\"}}커피향은\n사람의 마음을 두근거리게 만드는\n효과가 있어\n{{reaction type=\"51\"}}사랑의 향기！",
      "USen": "{{reaction type=\"55\"}}The aroma of coffee has \nthe power to get people \nall fired up!\n{{reaction type=\"51\"}}It's just like the sweet,\nsweet fragrance of\nperoxide, sugar!"
    }
  },
  {
    "label": "20",
    "attribute": "0x00000000FE000000",
    "locale": {
      "EUde": "{{reaction type=\"51\"}}Ah, Kaffee.{{pressButton}} {{reaction type=\"52\"}}So angenehm,\nals ob man mit\nden Pfoten\nüber einen frischen\nKurzhaarschnitt\nstreichen würde.",
      "EUen": "{{reaction type=\"51\"}}Ah, coffee.{{pressButton}} {{reaction type=\"52\"}}It's as\ncomforting as running your\npaws over a fresh buzz cut.",
      "EUes": "{{reaction type=\"51\"}}Aah, café.{{pressButton}} {{reaction type=\"52\"}}Es tan agradable\ncomo pasar las patas por\nuna cabeza rapada al uno.",
      "EUfr": "{{reaction type=\"51\"}}Ah, le café.{{pressButton}} {{reaction type=\"52\"}}C'est aussi\napaisant que de passer la\npatte sur une belle coupe.",
      "EUit": "{{reaction type=\"51\"}}Aaah, il piacere del caffè!{{pressButton}} {{reaction type=\"52\"}}\nCome passare la zampa sui\ncapelli a spazzola!",
      "JPja": "{{reaction type=\"51\"}}あまくって　{{kanjiReplace charNum=\"1\" value=\"にが\"}}苦いミラクル、{{pressButton}}\n{{reaction type=\"52\"}}コーヒーって\nそんな　{{kanjiReplace charNum=\"1\" value=\"の\"}}飲み{{kanjiReplace charNum=\"1\" value=\"もの\"}}物よ",
      "KRko": "{{reaction type=\"51\"}}달콤 쌉싸름한 기적{{pressButton}}\n{{reaction type=\"52\"}}커피는\n그런 차야",
      "USen": "{{reaction type=\"51\"}}Ah, coffee.{{pressButton}} {{reaction type=\"52\"}}It's as\ncomforting as running your\npaws over a fresh buzz cut."
    }
  },
  {
    "label": "21",
    "attribute": "0x00000000FE000000",
    "locale": {
      "EUde": "{{reaction type=\"52\"}}Wenn meine Hände vom\nKaffee anfangen zu zittern,\n\nkann ich gut chaotische\nTexturen formen,{{pause frames=\"5\"}}\nweißt du?",
      "EUen": "{{reaction type=\"52\"}}Coffee jitters are great\nfor texturizing messy\nshags,{{pause frames=\"5\"}} doncha know!",
      "EUes": "{{reaction type=\"52\"}}Un café bien cargado es\nideal para dar textura a un\nrizo rebelde,{{pause frames=\"5\"}} ¿lo sabías?",
      "EUfr": "{{reaction type=\"52\"}}Les accros au café sont\ntrès doués pour décolorer\nles longues mèches!",
      "EUit": "{{reaction type=\"52\"}}Il caffè aiuta a\ndomare i capelli più\nispidi,{{pause frames=\"5\"}} non lo sapevi?",
      "JPja": "{{reaction type=\"52\"}}ウフフ{{pressButton}}\nわたしだって　たまには\n{{kanjiReplace charNum=\"2\" value=\"いきぬ\"}}息抜きしなくっちゃネ",
      "KRko": "{{reaction type=\"52\"}}오호호{{pressButton}}\n나도 가끔은\n긴장을 풀어야 해",
      "USen": "{{reaction type=\"52\"}}Coffee jitters are great\nfor texturizing messy\nshags,{{pause frames=\"5\"}} doncha know!"
    }
  },
  {
    "label": "22",
    "attribute": "0x00000000FE000000",
    "locale": {
      "EUde": "{{resetReaction}}Das Geheimnis des inneren\nLeuchtens {{pause frames=\"5\"}}ist eine hübsche\nGesichtsumrandung{{pause frames=\"5\"}}.{{pause frames=\"5\"}}.{{pause frames=\"5\"}}.\n{{reaction type=\"55\"}}Und ein paar Tassen\nstarken Kaffees!",
      "EUen": "{{resetReaction}}The secret to that inner\nglow {{pause frames=\"5\"}}is some nice face-\nframing layers{{pause frames=\"5\"}}.{{pause frames=\"5\"}}.{{pause frames=\"5\"}}.\n{{reaction type=\"55\"}}And a few cups of strong\ncoffee!",
      "EUes": "{{resetReaction}}Unos mechones teñidos de\nun tono más claro{{pause frames=\"5\"}} iluminan\ncualquier rostro{{pause frames=\"5\"}}.{{pause frames=\"5\"}}.{{pause frames=\"5\"}}.\n{{reaction type=\"55\"}}¡Igual que unas cuantas\ntazas de café bien cargado!",
      "EUfr": "{{resetReaction}}Le secret pour rayonner de\ncette façon,{{pause frames=\"5\"}} c'est de faire\nde jolies mèches{{pause frames=\"5\"}}.{{pause frames=\"5\"}}.{{pause frames=\"5\"}}.\n{{reaction type=\"55\"}}et de boire quelques tasses\nde bon café!",
      "EUit": "{{resetReaction}}Il segreto per un fascino\nirresistibile? {{pause frames=\"5\"}}Ciocche che\nincorniciano il volto!\n{{reaction type=\"55\"}}E qualche tazza di\ncaffè nero fortissimo!",
      "JPja": "{{resetReaction}}あなたも　この{{kanjiReplace charNum=\"1\" value=\"よる\"}}夜から\nのがれられないのね\n\n{{reaction type=\"55\"}}{{kanjiReplace charNum=\"1\" value=\"わ\"}}分かるワ{{pause frames=\"5\"}}・{{pause frames=\"5\"}}・{{pause frames=\"5\"}}・",
      "KRko": "{{resetReaction}}당신도 이 밤을\n피하진 못할 거야\n\n{{reaction type=\"55\"}}나는 알아{{pause frames=\"5\"}}.{{pause frames=\"5\"}}.{{pause frames=\"5\"}}.",
      "USen": "{{resetReaction}}The secret to that inner\nglow {{pause frames=\"5\"}}is some nice face-\nframing layers{{pause frames=\"5\"}}.{{pause frames=\"5\"}}.{{pause frames=\"5\"}}.\n{{reaction type=\"55\"}}And a few cups of strong\ncoffee!"
    }
  },
  {
    "label": "23",
    "attribute": "0x00000000FE000000",
    "locale": {
      "EUde": "{{reaction type=\"54\"}}Ich will dich nicht\nbeleidigen, {{gender m=\"Süßer\" f=\"Süße\"}}, {{pause frames=\"5\"}}aber dein\nHaar sieht schlapp aus.\n{{reaction type=\"55\"}}Ein bisschen Beton-Haargel\nwürde da wahre Wunder\nwirken.",
      "EUen": "{{reaction type=\"54\"}}I hate to embarrass you,\nsugar, {{pause frames=\"5\"}}but your hair's\nlooking a tad flat.\n{{reaction type=\"55\"}}A misting of Industrihold\nwould perk that sad 'do\nright up.",
      "EUes": "{{reaction type=\"54\"}}No quiero incomodarte, pero\ntu pelo parece {{pause frames=\"5\"}}un tanto\nlacio y como falto de vida.\n{{reaction type=\"55\"}}Tengo una solución de\ncola industrial y amoniaco\nque te iría de perlas.",
      "EUfr": "{{reaction type=\"54\"}}Ça me gêne de dire ça,\nmon chou, {{pause frames=\"5\"}}mais tes cheveux\nn'ont aucun volume.\n{{reaction type=\"55\"}}Un léger nuage\nd'IndustriLaque devrait\nfaire l'affaire.",
      "EUit": "{{reaction type=\"54\"}}Non voglio offenderti,\nzolletta, {{pause frames=\"5\"}}ma che taglio hai?\nTi ha leccato una mucca?\n{{reaction type=\"55\"}}Una moca di Ravvivachicchi\nè quello che ci vuole per\ndare volume alla chioma.",
      "JPja": "あなたの　{{kanjiReplace charNum=\"1\" value=\"き\"}}着てる\nその{{kanjiReplace charNum=\"1\" value=\"ふく\"}}服{{pause frames=\"5\"}}・{{pause frames=\"5\"}}・{{pause frames=\"5\"}}・{{pressButton}}\nちょっと　{{kanjiReplace charNum=\"1\" value=\"みじか\"}}短すぎない？\n{{reaction type=\"54\"}}こういう{{kanjiReplace charNum=\"1\" value=\"ところ\"}}所　{{kanjiReplace charNum=\"1\" value=\"く\"}}来る{{kanjiReplace charNum=\"1\" value=\"とき\"}}時、{{pause frames=\"5\"}}\nゆだんしてちゃ　ダメ～！",
      "KRko": "당신이 입고 있는\n그 옷{{pause frames=\"5\"}}.{{pause frames=\"5\"}}.{{pause frames=\"5\"}}.{{pressButton}}\n너무 짧지 않아？\n{{reaction type=\"54\"}}이런 곳에 올 때도{{pause frames=\"5\"}}\n긴장을 늦춰선 안 돼～！",
      "USen": "{{reaction type=\"54\"}}I hate to embarrass you,\nsugar, {{pause frames=\"5\"}}but your hair's\nlooking a tad flat.\n{{reaction type=\"55\"}}A misting of Industrihold\nwould perk that sad 'do\nright up."
    }
  },
  {
    "label": "24",
    "attribute": "0x00000000FE000000",
    "locale": {
      "EUde": "{{reaction type=\"55\"}}Ich finde, etwas mehr\nVolumen ums Haupt würde\n{{color id=\"6\"}}Kofi {{color id=\"0\"}}richtig gut stehen.\nAber er ist so sensibel.{{pause frames=\"5\"}}{{reaction type=\"56\"}}\nWenn ich ihm das so sagen\nwürde,\ndann würden sich ihm\nsämtliche Federn sträuben,\nnicht wahr?",
      "EUen": "{{reaction type=\"55\"}}I think {{color id=\"6\"}}Brewster{{color id=\"0\"}} would look\nmighty fine with a tad more\nvolume around the crown.\nBut he's so sensitive, {{pause frames=\"5\"}}{{reaction type=\"56\"}}it'd\nprobably really ruffle his\nfeathers if I told him so.",
      "EUes": "{{reaction type=\"55\"}}Creo que {{color id=\"6\"}}Fígaro{{color id=\"0\"}} estaría muy\nbien si consiguiera más\nvolumen en la coronilla.\nPero es tan sensible {{pause frames=\"5\"}}{{reaction type=\"56\"}}que se\nle erizarían las plumas si\nse lo aconsejara, seguro.",
      "EUfr": "{{reaction type=\"55\"}}Je crois que {{color id=\"6\"}}Robusto{{color id=\"0\"}} serait\nbeaucoup mieux avec une\nlégère coloration blonde.\nMais il est si sensible {{pause frames=\"5\"}}{{reaction type=\"56\"}}que\nses plumes se hérisseraient\nsi je lui disais.",
      "EUit": "{{reaction type=\"55\"}}Credo che {{color id=\"6\"}}Bartolo{{color id=\"0\"}} starebbe\ndivinamente con una\nchioma più folta.\nMa è permaloso!{{pause frames=\"5\"}}{{reaction type=\"56\"}} Se glielo\ndicessi gli cascherebbero\nanche quei quattro peli.",
      "JPja": "あなたも　{{kanjiReplace charNum=\"2\" value=\"ひとり\"}}一人がイヤで、{{pause frames=\"5\"}}\nここに　{{kanjiReplace charNum=\"1\" value=\"き\"}}来ちゃったのね\n\nフフフ、{{pause frames=\"5\"}}\n{{reaction type=\"52\"}}カワイイひと{{musicNoteSymbol}}",
      "KRko": "당신도 혼자 있기가 싫어서{{pause frames=\"5\"}}\n여기에 왔구나\n\n오호호{{pause frames=\"5\"}}\n{{reaction type=\"52\"}}귀여운 사람{{musicNoteSymbol}}",
      "USen": "{{reaction type=\"55\"}}I think {{color id=\"6\"}}Brewster{{color id=\"0\"}} would look\nmighty fine with a tad more\nvolume around the crown.\nBut he's so sensitive, {{pause frames=\"5\"}}{{reaction type=\"56\"}}it'd\nprobably really ruffle his\nfeathers if I told him so."
    }
  },
  {
    "label": "25",
    "attribute": "0x00000000FE000000",
    "locale": {
      "EUde": "Kannst du auch nicht\nschlafen?\n\n{{reaction type=\"55\"}}Ich weiß, was du meinst.{{pressButton}} Ich\nmache mir die ganze Nacht\nGedanken über Haarspliss.",
      "EUen": "You can't sleep either?\n\n\n{{reaction type=\"55\"}}I know what you mean.{{pressButton}} I've\nbeen up all night worrying\nabout my split ends.",
      "EUes": "¿Tú tampoco puedes dormir?\n\n\n{{reaction type=\"55\"}}Sé cómo te sientes.{{pressButton}} Llevo\ntoda la noche preocupada\npor estas puntas abiertas.",
      "EUfr": "Tu n'arrives pas à dormir\nnon plus?\n\n{{reaction type=\"55\"}}Je comprends.{{pressButton}} J'ai passé la\nnuit entière à m'inquiéter\npour mes fourches.",
      "EUit": "Neppure tu\nriesci a dormire?\n\n{{reaction type=\"55\"}}So cosa intendi.{{pressButton}} Io sono\nturbata per le mie\ndoppie punte.",
      "JPja": "あなたも　ねむれないのね？\n\n\n{{reaction type=\"55\"}}{{kanjiReplace charNum=\"1\" value=\"わ\"}}分かるわ{{pressButton}}\nそんな　{{kanjiReplace charNum=\"1\" value=\"よる\"}}夜は\n{{reaction type=\"52\"}}{{kanjiReplace charNum=\"1\" value=\"だれ\"}}誰にでも　あるのよ",
      "KRko": "당신도 잠이 안 오나 봐？\n\n\n{{reaction type=\"55\"}}다 알아{{pressButton}}\n누구나\n{{reaction type=\"52\"}}그런 날이 있지",
      "USen": "You can't sleep either?\n\n\n{{reaction type=\"55\"}}I know what you mean.{{pressButton}} I've\nbeen up all night worrying\nabout my split ends."
    }
  },
  {
    "label": "26",
    "attribute": "0x00000000FF000000",
    "locale": {
      "EUde": "{{fun_06 arg=\"0x1C1D1E\"}}",
      "EUen": "{{fun_06 arg=\"0x1C1D1E\"}}",
      "EUes": "{{fun_06 arg=\"0x1C1D1E\"}}",
      "EUfr": "{{fun_06 arg=\"0x1C1D1E\"}}",
      "EUit": "{{fun_06 arg=\"0x1C1D1E\"}}",
      "JPja": "{{fun_06 arg=\"0x1C1D1E\"}}",
      "KRko": "{{fun_06 arg=\"0x1C1D1E00\"}}",
      "USen": "{{fun_06 arg=\"0x1C1D1E\"}}"
    }
  },
  {
    "label": "27",
    "attribute": "0x00000000FF000000",
    "locale": {
      "EUde": "{{fun_06 arg=\"0x1F2021\"}}",
      "EUen": "{{fun_06 arg=\"0x1F2021\"}}",
      "EUes": "{{fun_06 arg=\"0x1F2021\"}}",
      "EUfr": "{{fun_06 arg=\"0x1F2021\"}}",
      "EUit": "{{fun_06 arg=\"0x1F2021\"}}",
      "JPja": "{{fun_06 arg=\"0x1F2021\"}}",
      "KRko": "{{fun_06 arg=\"0x1F202100\"}}",
      "USen": "{{fun_06 arg=\"0x1F2021\"}}"
    }
  },
  {
    "label": "28",
    "attribute": "0x00000000FE000000",
    "locale": {
      "EUde": "{{reaction type=\"55\"}}Kaffee trinke ich besonders\ngerne, wenn ich Haarfarben\nvorbereite.\n{{reaction type=\"52\"}}Es gibt nichts Besseres,\num die Kreativität in Gang\nzu setzen, {{gender m=\"Süßer\" f=\"Süße\"}}{{pause frames=\"5\"}}.{{pause frames=\"5\"}}.{{pause frames=\"5\"}}.\n{{reaction type=\"53\"}}Aber manche mögen keine\nKreativität{{pause frames=\"5\"}}.{{pause frames=\"5\"}}.{{pause frames=\"5\"}}. Sie nennen es\nClownsfrisur.{{pause frames=\"5\"}}.{{pause frames=\"5\"}}.",
      "EUen": "{{reaction type=\"55\"}}I especially like drinking\ncoffee when I'm mixing up\nhair colors.\n{{reaction type=\"52\"}}You just can't beat that\nfor kick-starting\ncreativity, sweetie{{pause frames=\"5\"}}.{{pause frames=\"5\"}}.{{pause frames=\"5\"}}.\n{{reaction type=\"53\"}}But some people don't like\ncreativity{{pause frames=\"5\"}}.{{pause frames=\"5\"}}.{{pause frames=\"5\"}}. They call it\nclown hair{{pause frames=\"5\"}}.{{pause frames=\"5\"}}.{{pause frames=\"5\"}}.",
      "EUes": "{{reaction type=\"55\"}}Me gusta beber café cuando\npreparo las mezclas de\ntinte para el pelo.\n{{reaction type=\"52\"}}No hay nada que inspire más\nmi creatividad para obtener\ntonos sensacionales{{pause frames=\"5\"}}.{{pause frames=\"5\"}}.{{pause frames=\"5\"}}.\n{{reaction type=\"53\"}}Pero hay gente que rechaza\nla creatividad{{pause frames=\"5\"}}.{{pause frames=\"5\"}}.{{pause frames=\"5\"}}. Y llaman a\nmis tonos \"pelo de payaso\".",
      "EUfr": "{{reaction type=\"55\"}}J'aime vraiment boire\ndu café quand je fais\ndes colorations.\n{{reaction type=\"52\"}}Il n'y a rien de tel pour\ndonner libre cours à ta\ncréativité, mon chou{{pause frames=\"5\"}}.{{pause frames=\"5\"}}.{{pause frames=\"5\"}}.\n{{reaction type=\"53\"}}Mais certains n'apprécient\npas la créativité{{pause frames=\"5\"}}.{{pause frames=\"5\"}}.{{pause frames=\"5\"}}. Pour\neux, ce sont des coupes\nde clown{{pause frames=\"5\"}}.{{pause frames=\"5\"}}.{{pause frames=\"5\"}}.",
      "EUit": "{{reaction type=\"55\"}}Mi piace bere caffè quando\nmescolo i colori per tingere\ni capelli.\n{{reaction type=\"52\"}}Mi aiuta a dare sfogo\nalla mia creatività,\nzolletta{{pause frames=\"5\"}}.{{pause frames=\"5\"}}.{{pause frames=\"5\"}}.\n{{reaction type=\"53\"}}Ma non a tutti piace la\ncreatività{{pause frames=\"5\"}}.{{pause frames=\"5\"}}.{{pause frames=\"5\"}}. la chiamano\n\"capelli da clown\"{{pause frames=\"5\"}}.{{pause frames=\"5\"}}.{{pause frames=\"5\"}}.",
      "JPja": "{{reaction type=\"55\"}}きっさ{{kanjiReplace charNum=\"1\" value=\"てん\"}}店には\nいろんな　{{kanjiReplace charNum=\"1\" value=\"おも\"}}思い{{kanjiReplace charNum=\"1\" value=\"で\"}}出があるワ\n\n{{reaction type=\"52\"}}{{kanjiReplace charNum=\"2\" value=\"はつこい\"}}初恋の　カレと\n{{kanjiReplace charNum=\"1\" value=\"はじ\"}}初めての　お{{kanjiReplace charNum=\"1\" value=\"ちゃ\"}}茶{{pause frames=\"5\"}}・{{pause frames=\"5\"}}・{{pause frames=\"5\"}}・\n\n{{reaction type=\"53\"}}つきあって　３{{kanjiReplace charNum=\"1\" value=\"ねん\"}}年、{{pause frames=\"15\"}}\nとつぜん　{{kanjiReplace charNum=\"1\" value=\"き\"}}切り{{kanjiReplace charNum=\"1\" value=\"だ\"}}出された\n{{kanjiReplace charNum=\"1\" value=\"わか\"}}別れ{{kanjiReplace charNum=\"1\" value=\"ばなし\"}}話{{pause frames=\"5\"}}・{{pause frames=\"5\"}}・{{pause frames=\"5\"}}・",
      "KRko": "{{reaction type=\"55\"}}커피숍에는\n다양한 추억이 있어\n\n{{reaction type=\"52\"}}첫사랑이었던 그와\n처음으로 마셨던 차{{pause frames=\"5\"}}.{{pause frames=\"5\"}}.{{pause frames=\"5\"}}.\n\n{{reaction type=\"53\"}}사귄지 ３년{{pause frames=\"15\"}}\n갑자기 듣게 된\n헤어지자는 말{{pause frames=\"5\"}}.{{pause frames=\"5\"}}.{{pause frames=\"5\"}}.",
      "USen": "{{reaction type=\"55\"}}I especially like drinking\ncoffee when I'm mixing up\nhair colors.\n{{reaction type=\"52\"}}You just can't beat that\nfor kick-starting\ncreativity, sweetie{{pause frames=\"5\"}}.{{pause frames=\"5\"}}.{{pause frames=\"5\"}}.\n{{reaction type=\"53\"}}But some people don't like\ncreativity{{pause frames=\"5\"}}.{{pause frames=\"5\"}}.{{pause frames=\"5\"}}. They call it\nclown hair{{pause frames=\"5\"}}.{{pause frames=\"5\"}}.{{pause frames=\"5\"}}."
    }
  },
  {
    "label": "29",
    "attribute": "0x00000000FE000000",
    "locale": {
      "EUde": "{{reaction type=\"52\"}}In {{color id=\"2\"}}Ms. Nintendique {{color id=\"0\"}}stand,\ndass Kaffee das aktuellste\nStylingprodukt ist.",
      "EUen": "{{reaction type=\"52\"}}I read in {{color id=\"2\"}}Ms. Nintendique{{color id=\"0\"}}\nthat coffee's the hot new\nstyling product.",
      "EUes": "{{reaction type=\"52\"}}Leí en {{color id=\"2\"}}Miss Nintendique {{color id=\"0\"}}que\nel café es el producto de\nmoda en estilismo.",
      "EUfr": "{{reaction type=\"52\"}}J'ai lu dans {{color id=\"2\"}}Madame Nintendo{{color id=\"0\"}}\nque le café est le nec plus\nultra des après-shampoings.",
      "EUit": "{{reaction type=\"52\"}}Su {{color id=\"2\"}}Donna Nintendique {{color id=\"0\"}}ho\nletto che il caffè è meglio\ndel gel e della lacca.",
      "JPja": "{{reaction type=\"53\"}}このイス、{{pause frames=\"5\"}}\nちょっと　{{kanjiReplace charNum=\"1\" value=\"たか\"}}高くないかしら？",
      "KRko": "{{reaction type=\"53\"}}여기 의자{{pause frames=\"5\"}}\n너무 높지 않아？",
      "USen": "{{reaction type=\"52\"}}I read in {{color id=\"2\"}}Ms. Nintendique{{color id=\"0\"}}\nthat coffee's the hot new\nstyling product."
    }
  },
  {
    "label": "30",
    "attribute": "0x00000000FE000000",
    "locale": {
      "EUde": "{{reaction type=\"52\"}}Man kann sein Haar nicht\n\"zu sehr\" stylen, {{gender m=\"Süßer\" f=\"Süße\"}}.\n\n{{reaction type=\"56\"}}Das sind nur üble Gerüchte,\ngestreut von der Anti-\nFrisör-Lobby.",
      "EUen": "{{reaction type=\"52\"}}There's no such thing as\nhair that's \"too big,\" shug.\n\n{{reaction type=\"56\"}}That's just a bunch of\nhooey started by those\nanti-product lobbyists.",
      "EUes": "{{reaction type=\"52\"}}Hay quien dice que gastarse\nmuchas bayas en un salón\nes un lujo innecesario...\n{{reaction type=\"56\"}}Pero esa gente suele tener\nalopecia incipiente o pocas\nbayas que gastar...",
      "EUfr": "{{reaction type=\"52\"}}Ça n'existe pas les cheveux\n\"trop épais,\" mon chou.\n\n{{reaction type=\"56\"}}C'est juste une de ces\nrumeurs lancées par des\nlobbys anti-coiffeurs.",
      "EUit": "{{reaction type=\"52\"}}Non esistono i capelli\ntroppo folti, zolletta.\n\n{{reaction type=\"56\"}}Sono tutte stupidaggini\ndi chi è contro i prodotti\nper la cura dei capelli.",
      "JPja": "{{reaction type=\"52\"}}{{kanjiReplace charNum=\"2\" value=\"こいびと\"}}恋人と　{{kanjiReplace charNum=\"2\" value=\"ゆびさき\"}}指先が\nふれあう{{kanjiReplace charNum=\"1\" value=\"とき\"}}時みたいに、\n\nコーヒーカップを\nつまむ{{kanjiReplace charNum=\"1\" value=\"とき\"}}時は、{{pause frames=\"5\"}}\n{{kanjiReplace charNum=\"1\" value=\"やさ\"}}優しく　{{kanjiReplace charNum=\"1\" value=\"ちから\"}}力を{{kanjiReplace charNum=\"1\" value=\"くわ\"}}加えるの",
      "KRko": "{{reaction type=\"52\"}}사랑하는 사람과\n손을 잡을 때처럼\n\n커피 잔을\n잡을 때는{{pause frames=\"5\"}}\n부드럽게 힘을 줘야 해",
      "USen": "{{reaction type=\"52\"}}There's no such thing as\nhair that's \"too big,\" shug.\n\n{{reaction type=\"56\"}}That's just a bunch of\nhooey started by those\nanti-product lobbyists."
    }
  },
  {
    "label": "31",
    "attribute": "0x00000000FE000000",
    "locale": {
      "EUde": "{{reaction type=\"52\"}}{{color id=\"6\"}}Kofi{{color id=\"0\"}} macht einen irren\nKaffee, {{pause frames=\"5\"}}findest du\nnicht auch?",
      "EUen": "{{reaction type=\"52\"}}{{color id=\"6\"}}Brewster{{color id=\"0\"}} sure makes a mean\ncup of joe, {{pause frames=\"5\"}}doncha think?",
      "EUes": "{{reaction type=\"52\"}}El café de {{color id=\"6\"}}Fígaro{{color id=\"0\"}} resucita a\nlos muertos, {{pause frames=\"5\"}}¿no crees?",
      "EUfr": "{{reaction type=\"52\"}}{{color id=\"6\"}}Robusto{{color id=\"0\"}} prépare un café du\ntonnerre. {{pause frames=\"5\"}}Pas vrai?",
      "EUit": "{{reaction type=\"52\"}}{{color id=\"6\"}}Bartolo{{color id=\"0\"}} fa un caffè\ndivino, {{pause frames=\"5\"}}non trovi?",
      "JPja": "{{reaction type=\"52\"}}ここの{{color id=\"6\"}}マスター{{color id=\"0\"}}\nいいウデよね",
      "KRko": "{{reaction type=\"52\"}}여기 {{color id=\"6\"}}마스터{{color id=\"0\"}}\n실력이 좋아",
      "USen": "{{reaction type=\"52\"}}{{color id=\"6\"}}Brewster{{color id=\"0\"}} sure makes a mean\ncup of joe, {{pause frames=\"5\"}}doncha think?"
    }
  },
  {
    "label": "32",
    "attribute": "0x00000000FE000000",
    "locale": {
      "EUde": "Ich muss hier warten, bis\nder Regen aufhört.{{pause frames=\"5\"}}\n\nAndernfalls sehe ich noch\naus wie ein begossener\nPudel. {{pause frames=\"15\"}}{{reaction type=\"54\"}}C'est impossible.",
      "EUen": "I have to stay here 'til the\nrain stops,{{pause frames=\"5\"}} or my hair will\ndeflate. {{pause frames=\"15\"}}{{reaction type=\"54\"}}Quelle horror!",
      "EUes": "Si salgo mientras llueve, {{pause frames=\"5\"}}se\nme estropeará este peinado\ntan elaborado. {{pause frames=\"15\"}}{{reaction type=\"54\"}}¡Qué horror!",
      "EUfr": "Je dois rester ici jusqu'à\nce qu'il s'arrête de pleuvoir{{pause frames=\"5\"}}\nou ma permanente risque\nde retomber comme un\nsoufflé. {{pause frames=\"15\"}}{{reaction type=\"54\"}}Quelle horreur!",
      "EUit": "Devo stare qua finché non\nspiove,{{pause frames=\"5\"}} o mi si ammosciano\ni capelli. {{pause frames=\"15\"}}{{reaction type=\"54\"}}Che orrore!",
      "JPja": "この{{kanjiReplace charNum=\"1\" value=\"あめ\"}}雨が　{{kanjiReplace charNum=\"1\" value=\"お\"}}終わるまで、{{pause frames=\"5\"}}\n{{reaction type=\"52\"}}こうしていたいの",
      "KRko": "이 비가 그칠 때까지{{pause frames=\"5\"}}\n{{reaction type=\"52\"}}여기에 있을래",
      "USen": "I have to stay here 'til the\nrain stops,{{pause frames=\"5\"}} or my hair will\ndeflate. {{pause frames=\"15\"}}{{reaction type=\"54\"}}Quelle horror!"
    }
  },
  {
    "label": "33",
    "attribute": "0x00000000FE000000",
    "locale": {
      "EUde": "{{reaction type=\"51\"}}Gefrorenes Haar ist jetzt\nim Winter total in!{{pause frames=\"10\"}} Sag das\ndeinen Freunden, {{gender m=\"Süßer\" f=\"Süße\"}}!",
      "EUen": "{{reaction type=\"51\"}}Frozen hair is the hot new\nlook for winter! {{pause frames=\"10\"}}Tell all\nyour friends, shug!",
      "EUes": "{{reaction type=\"51\"}}¡Este invierno se llevan los\ncortes frescos! {{pause frames=\"10\"}}¡Díselo a\ntus amiguit{{gender m=\"os\" f=\"as\"}}, guap{{gender m=\"o\" f=\"a\"}}!",
      "EUfr": "{{reaction type=\"51\"}}Une coupe glacée, c'est la\nmode pour cet hiver! {{pause frames=\"10\"}}Dis-le\nà tous tes amis, mon chou!",
      "EUit": "{{reaction type=\"51\"}}L'effetto congelato è il\nnuovo look invernale dei\ncapelli! {{pause frames=\"10\"}}Dillo a tutti!",
      "JPja": "この{{kanjiReplace charNum=\"1\" value=\"ゆき\"}}雪が　ふりやむまで、{{pause frames=\"5\"}}\n{{reaction type=\"52\"}}こうしていたいの",
      "KRko": "이 눈이 그칠 때까지{{pause frames=\"5\"}}\n{{reaction type=\"52\"}}여기에 있을래",
      "USen": "{{reaction type=\"51\"}}Frozen hair is the hot new\nlook for winter! {{pause frames=\"10\"}}Tell all\nyour friends, shug!"
    }
  }
]