[
  {
    "label": "00",
    "attribute": "0x00000000FF000000",
    "locale": {
      "EUde": "{{reaction type=\"Worry\"}}Ss-{{pause frames=\"5\"}}so hungrig.{{pause frames=\"5\"}}.{{pause frames=\"5\"}}.{{pause frames=\"10\"}}\nMuss essen.{{pause frames=\"5\"}}.{{pause frames=\"5\"}}.{{pause frames=\"5\"}}\n\n{{reaction type=\"Sighing\"}}Bauch.{{pause frames=\"5\"}}.{{pause frames=\"5\"}}.{{pause frames=\"5\"}} So leer.{{pause frames=\"5\"}}.{{pause frames=\"5\"}}.{{pause frames=\"5\"}}\nWie ein schwarzes Loch{{pause frames=\"5\"}}.{{pause frames=\"5\"}}.{{pause frames=\"5\"}}.\n\nEr {{color id=\"2\"}}schreit{{color id=\"0\"}} nach Essen{{pause frames=\"5\"}}.{{pause frames=\"5\"}}.{{pause frames=\"5\"}}.{{pause frames=\"5\"}}\nWerde gleich bewusstlos.{{pause frames=\"5\"}}.{{pause frames=\"5\"}}.{{pause frames=\"5\"}}\n\n{{resetReaction}}Üüür-{{pause frames=\"5\"}}irgendetwas!{{pause frames=\"5\"}} ALLES!{{pause frames=\"5\"}}\nBi-{{pause frames=\"5\"}}bitte, ich brauche ESSEN!{{fun_02 arg=\"0x0001\"}}\nOkay!\nWerd erwachsen!",
      "EUen": "{{reaction type=\"Worry\"}}Suh-{{pause frames=\"5\"}}so hungry.{{pause frames=\"5\"}}.{{pause frames=\"5\"}}.{{pause frames=\"10\"}}\nMust eat something.{{pause frames=\"5\"}}.{{pause frames=\"5\"}}.{{pause frames=\"5\"}}\n\n{{reaction type=\"Sighing\"}}Belly.{{pause frames=\"5\"}}.{{pause frames=\"5\"}}.{{pause frames=\"5\"}} So empty.{{pause frames=\"5\"}}.{{pause frames=\"5\"}}.{{pause frames=\"5\"}}\nFeels like a black hole{{pause frames=\"5\"}}.{{pause frames=\"5\"}}.{{pause frames=\"5\"}}.\n\nIt {{color id=\"2\"}}screams{{color id=\"0\"}} for food{{pause frames=\"5\"}}.{{pause frames=\"5\"}}.{{pause frames=\"5\"}}.{{pause frames=\"5\"}}\nFainting spell imminent.{{pause frames=\"5\"}}.{{pause frames=\"5\"}}.{{pause frames=\"5\"}}\n\n{{resetReaction}}Suh-{{pause frames=\"5\"}}something!{{pause frames=\"5\"}} ANYTHING!{{pause frames=\"5\"}}\nPuh-{{pause frames=\"5\"}}please, I need FOOD!{{fun_02 arg=\"0x0001\"}}\nOkeydokey!\nGrow up.",
      "EUes": "{{reaction type=\"Worry\"}}Qué {{pause frames=\"5\"}}hambre tengo.{{pause frames=\"5\"}}.{{pause frames=\"5\"}}.{{pause frames=\"10\"}}\nTengo que comer algo.{{pause frames=\"5\"}}.{{pause frames=\"5\"}}.{{pause frames=\"5\"}}\n\n{{reaction type=\"Sighing\"}}Tengo un agujero en el\nestómago.{{pause frames=\"5\"}}.{{pause frames=\"5\"}}.{{pause frames=\"5\"}} Lo noto vacío.{{pause frames=\"5\"}}.{{pause frames=\"5\"}}.{{pause frames=\"5\"}}\n\nEstá {{color id=\"2\"}}pidiendo{{color id=\"0\"}} comida a\ngritos{{pause frames=\"5\"}}.{{pause frames=\"5\"}}.{{pause frames=\"5\"}}.{{pause frames=\"5\"}}\nDesmayo inminente.{{pause frames=\"5\"}}.{{pause frames=\"5\"}}.{{pause frames=\"5\"}}\n{{resetReaction}}¡Algo!{{pause frames=\"5\"}} ¡CUALQUIER COSA!{{pause frames=\"5\"}}\n¡Por favor, necesito COMIDA!{{fun_02 arg=\"0x0001\"}}\n¡Marchando!\n¡Anda ya...!",
      "EUfr": "{{reaction type=\"Worry\"}}Toh-{{pause frames=\"5\"}}Tellement faim.{{pause frames=\"5\"}}.{{pause frames=\"5\"}}.{{pause frames=\"10\"}}\nMangerais n'importe quoi.{{pause frames=\"5\"}}.{{pause frames=\"5\"}}.{{pause frames=\"5\"}}\n\n{{reaction type=\"Sighing\"}}Estomac.{{pause frames=\"5\"}}.{{pause frames=\"5\"}}.{{pause frames=\"5\"}} Si vide.{{pause frames=\"5\"}}.{{pause frames=\"5\"}}.{{pause frames=\"5\"}}\nComme un trou noir{{pause frames=\"5\"}}.{{pause frames=\"5\"}}.{{pause frames=\"5\"}}.\n\nIl {{color id=\"2\"}}hurle{{color id=\"0\"}} famine{{pause frames=\"5\"}}.{{pause frames=\"5\"}}.{{pause frames=\"5\"}}.{{pause frames=\"5\"}}\nEvanouissement imminent.{{pause frames=\"5\"}}.{{pause frames=\"5\"}}.{{pause frames=\"5\"}}\n\n{{resetReaction}}Moh-{{pause frames=\"5\"}} Manger!{{pause frames=\"5\"}} N'IMPORTE QUOI!{{pause frames=\"5\"}}\nSoh-{{pause frames=\"5\"}}s'il te plaît, j'ai FAIM!{{fun_02 arg=\"0x0001\"}}\nCompris l'ami!\nGrandis un peu.",
      "EUit": "{{reaction type=\"Worry\"}}Ch-{{pause frames=\"5\"}}che fame.{{pause frames=\"5\"}}.{{pause frames=\"5\"}}.{{pause frames=\"10\"}}\nDevo mangiare.{{pause frames=\"5\"}}.{{pause frames=\"5\"}}.{{pause frames=\"5\"}}\n\n{{reaction type=\"Sighing\"}}Stomaco.{{pause frames=\"5\"}}.{{pause frames=\"5\"}}.{{pause frames=\"5\"}} tanto vuoto.{{pause frames=\"5\"}}.{{pause frames=\"5\"}}.{{pause frames=\"5\"}}\nSembra un buco nero{{pause frames=\"5\"}}.{{pause frames=\"5\"}}.{{pause frames=\"5\"}}.\n\n{{color id=\"2\"}}Urla{{color id=\"0\"}} perché vuol mangiare{{pause frames=\"5\"}}.{{pause frames=\"5\"}}.{{pause frames=\"5\"}}.{{pause frames=\"5\"}}\nSvenimento imminente.{{pause frames=\"5\"}}.{{pause frames=\"5\"}}.{{pause frames=\"5\"}}\n\n{{resetReaction}}Qua-{{pause frames=\"5\"}}qualcosa!{{pause frames=\"5\"}} TUTTO!{{pause frames=\"5\"}}\nP-{{pause frames=\"5\"}}per favore, ho bisogno\ndi CIBO!{{fun_02 arg=\"0x0001\"}}\nVa bene!\nCresci.",
      "JPja": "{{reaction type=\"Worry\"}}ハ、{{pause frames=\"5\"}}ハラが　へったでゴワス{{pause frames=\"10\"}}\nな、{{pause frames=\"5\"}}なんか　{{kanjiReplace charNum=\"1\" value=\"く\"}}食いたいでゴワス！\n\n{{reaction type=\"Sighing\"}}ハ、{{pause frames=\"5\"}}ハラが　へりすぎて\n{{kanjiReplace charNum=\"1\" value=\"せつ\"}}切なくて、\n\n{{color id=\"2\"}}きゅぅぅん{{color id=\"0\"}}となって{{pause frames=\"5\"}}・{{pause frames=\"5\"}}・{{pause frames=\"5\"}}・{{pause frames=\"5\"}}\nもう　げ、{{pause frames=\"5\"}}げんかいでゴワス！\n\n{{resetReaction}}な、{{pause frames=\"5\"}}なんでもいいから\nた、{{pause frames=\"5\"}}{{kanjiReplace charNum=\"1\" value=\"た\"}}食べる{{kanjiReplace charNum=\"1\" value=\"もの\"}}物が　ほしいでゴワス{{fun_02 arg=\"0x0001\"}}\nあげちゃう\nガマンしなさい",
      "KRko": "{{reaction type=\"Worry\"}}배， {{pause frames=\"5\"}}배가 고파유{{pause frames=\"10\"}}\n뭐， {{pause frames=\"5\"}}뭐라도 먹고 싶어유！\n\n{{reaction type=\"Sighing\"}}배， {{pause frames=\"5\"}}배가 너무 고파서\n슬퍼서，\n\n가슴이 {{color id=\"2\"}}찌잉{{color id=\"0\"}}해유{{pause frames=\"5\"}}.{{pause frames=\"5\"}}.{{pause frames=\"5\"}}.{{pause frames=\"5\"}}\n더， 더 이상 {{pause frames=\"5\"}}못 참겠어유！\n\n{{resetReaction}}뭐， {{pause frames=\"5\"}}뭐든지 좋으니까\n먹， {{pause frames=\"5\"}}먹을 것 좀 주세유{{fun_02 arg=\"0x0001\"}}\n준다\n참아 봐",
      "USen": "{{reaction type=\"Worry\"}}Suh-{{pause frames=\"5\"}}so hungry.{{pause frames=\"5\"}}.{{pause frames=\"5\"}}.{{pause frames=\"10\"}}\nMust eat something.{{pause frames=\"5\"}}.{{pause frames=\"5\"}}.{{pause frames=\"5\"}}\n\n{{reaction type=\"Sighing\"}}Belly.{{pause frames=\"5\"}}.{{pause frames=\"5\"}}.{{pause frames=\"5\"}} So empty.{{pause frames=\"5\"}}.{{pause frames=\"5\"}}.{{pause frames=\"5\"}}\nFeels like a black hole{{pause frames=\"5\"}}.{{pause frames=\"5\"}}.{{pause frames=\"5\"}}.\n\nIt {{color id=\"2\"}}screams{{color id=\"0\"}} for food{{pause frames=\"5\"}}.{{pause frames=\"5\"}}.{{pause frames=\"5\"}}.{{pause frames=\"5\"}}\nFainting spell imminent.{{pause frames=\"5\"}}.{{pause frames=\"5\"}}.{{pause frames=\"5\"}}\n\n{{resetReaction}}Suh-{{pause frames=\"5\"}}something!{{pause frames=\"5\"}} ANYTHING!{{pause frames=\"5\"}}\nPuh-{{pause frames=\"5\"}}please, I need FOOD!{{fun_02 arg=\"0x0001\"}}\nOkeydokey!\nGrow up."
    }
  },
  {
    "label": "01",
    "attribute": "0x00000000FE000000",
    "locale": {
      "EUde": "{{reaction type=\"Sadness\"}}Uff{{pause frames=\"5\"}}.{{pause frames=\"5\"}}.{{pause frames=\"5\"}}.{{pause frames=\"5\"}} Augen werden trübe{{pause frames=\"5\"}}.{{pause frames=\"5\"}}.{{pause frames=\"5\"}}.{{pause frames=\"5\"}}\nKreislauf wird schwächer{{pause frames=\"5\"}}.{{pause frames=\"5\"}}.{{pause frames=\"5\"}}.{{pause frames=\"20\"}}\nHunger{{pause frames=\"5\"}}.{{pause frames=\"5\"}}.{{pause frames=\"5\"}}.{{pause frames=\"5\"}} so stark{{pause frames=\"5\"}}.{{pause frames=\"5\"}}.{{pause frames=\"5\"}}.\n{{resetReaction}}.{{pause frames=\"5\"}}.{{pause frames=\"5\"}}.{{pause frames=\"5\"}}{{reaction type=\"Amazed\"}}Was ist das?{{pressButton}}\nIch höre Essen.{{pause frames=\"5\"}}.{{pause frames=\"5\"}}.{{pause frames=\"5\"}}\nEs lacht mich aus.{{pause frames=\"5\"}}.{{pause frames=\"5\"}}.{{pause frames=\"5\"}}",
      "EUen": "{{reaction type=\"Sadness\"}}Ugh{{pause frames=\"5\"}}.{{pause frames=\"5\"}}.{{pause frames=\"5\"}}.{{pause frames=\"5\"}} Eyes dimming{{pause frames=\"5\"}}.{{pause frames=\"5\"}}.{{pause frames=\"5\"}}.{{pause frames=\"5\"}}\nVitality fading{{pause frames=\"5\"}}.{{pause frames=\"5\"}}.{{pause frames=\"5\"}}.{{pause frames=\"20\"}}\nHunger{{pause frames=\"5\"}}.{{pause frames=\"5\"}}.{{pause frames=\"5\"}}.{{pause frames=\"5\"}}so strong{{pause frames=\"5\"}}.{{pause frames=\"5\"}}.{{pause frames=\"5\"}}.\n{{resetReaction}}.{{pause frames=\"5\"}}.{{pause frames=\"5\"}}.{{pause frames=\"5\"}}{{reaction type=\"Amazed\"}}What was that?{{pressButton}}\nI swore I heard food.{{pause frames=\"5\"}}.{{pause frames=\"5\"}}.{{pause frames=\"5\"}}\nMocking me.{{pause frames=\"5\"}}.{{pause frames=\"5\"}}.{{pause frames=\"5\"}}",
      "EUes": "{{reaction type=\"Sadness\"}}Arg{{pause frames=\"5\"}}.{{pause frames=\"5\"}}.{{pause frames=\"5\"}}.{{pause frames=\"5\"}} Se me nubla\nla vista{{pause frames=\"5\"}}.{{pause frames=\"5\"}}.{{pause frames=\"5\"}}.{{pause frames=\"5\"}} Me fallan las\npiernas{{pause frames=\"5\"}}.{{pause frames=\"5\"}}.{{pause frames=\"5\"}}.{{pause frames=\"20\"}} Qué{{pause frames=\"5\"}}.{{pause frames=\"5\"}}.{{pause frames=\"5\"}}.{{pause frames=\"5\"}} hambre{{pause frames=\"5\"}}.{{pause frames=\"5\"}}.{{pause frames=\"5\"}}.\n{{resetReaction}}Mm.{{pause frames=\"5\"}}.{{pause frames=\"5\"}}.{{pause frames=\"5\"}}{{reaction type=\"Amazed\"}} ¿Has oído eso?{{pressButton}}\nEs mi estómago.{{pause frames=\"5\"}}.{{pause frames=\"5\"}}.{{pause frames=\"5\"}}\nque gime desesperado.{{pause frames=\"5\"}}.{{pause frames=\"5\"}}.{{pause frames=\"5\"}}",
      "EUfr": "{{reaction type=\"Sadness\"}}Argh{{pause frames=\"5\"}}.{{pause frames=\"5\"}}.{{pause frames=\"5\"}}.{{pause frames=\"5\"}} Pupille vide{{pause frames=\"5\"}}.{{pause frames=\"5\"}}.{{pause frames=\"5\"}}.{{pause frames=\"5\"}}\nA bout de forces{{pause frames=\"5\"}}.{{pause frames=\"5\"}}.{{pause frames=\"5\"}}.{{pause frames=\"20\"}}\nVraiment trop{{pause frames=\"5\"}}.{{pause frames=\"5\"}}.{{pause frames=\"5\"}}.{{pause frames=\"5\"}} faim{{pause frames=\"5\"}}.{{pause frames=\"5\"}}.{{pause frames=\"5\"}}.\n{{resetReaction}}{{reaction type=\"Amazed\"}}Qu'est-ce que...?{{pressButton}}\nJ'aurais juré entendre.{{pause frames=\"5\"}}.{{pause frames=\"5\"}}.{{pause frames=\"5\"}}\nl'appel de la nourriture.{{pause frames=\"5\"}}.{{pause frames=\"5\"}}.{{pause frames=\"5\"}}",
      "EUit": "{{reaction type=\"Sadness\"}}Uh{{pause frames=\"5\"}}.{{pause frames=\"5\"}}.{{pause frames=\"5\"}}.{{pause frames=\"5\"}} Gli occhi si chiudono{{pause frames=\"5\"}}.{{pause frames=\"5\"}}.{{pause frames=\"5\"}}.{{pause frames=\"5\"}}\nLa forza sparisce{{pause frames=\"5\"}}.{{pause frames=\"5\"}}.{{pause frames=\"5\"}}.{{pause frames=\"20\"}}\nLa fame{{pause frames=\"5\"}}.{{pause frames=\"5\"}}.{{pause frames=\"5\"}}.{{pause frames=\"5\"}} vince{{pause frames=\"5\"}}.{{pause frames=\"5\"}}.{{pause frames=\"5\"}}.\n{{resetReaction}}.{{pause frames=\"5\"}}.{{pause frames=\"5\"}}.{{pause frames=\"5\"}}{{reaction type=\"Amazed\"}} Cos'è stato?{{pressButton}}\nMi è parso che del cibo.{{pause frames=\"5\"}}.{{pause frames=\"5\"}}.{{pause frames=\"5\"}}\nmi deridesse.{{pause frames=\"5\"}}.{{pause frames=\"5\"}}.{{pause frames=\"5\"}}",
      "JPja": "{{reaction type=\"Sadness\"}}も、{{pause frames=\"5\"}}もう{{pause frames=\"5\"}}・{{pause frames=\"5\"}}・{{pause frames=\"5\"}}・{{pause frames=\"5\"}}\nダメでゴワス{{pause frames=\"5\"}}・{{pause frames=\"5\"}}・{{pause frames=\"5\"}}・{{pause frames=\"20\"}}\nめ、{{pause frames=\"5\"}}{{kanjiReplace charNum=\"1\" value=\"め\"}}目の{{kanjiReplace charNum=\"1\" value=\"まえ\"}}前が　かすむでゴワス\n{{resetReaction}}・{{pause frames=\"5\"}}・{{pause frames=\"5\"}}・{{pause frames=\"5\"}}{{reaction type=\"Amazed\"}}あ{{pressButton}}\nい、{{pause frames=\"5\"}}{{kanjiReplace charNum=\"1\" value=\"いま\"}}今　お{{kanjiReplace charNum=\"1\" value=\"はな\"}}花ばたけに\nいたでゴワス・{{pause frames=\"5\"}}・{{pause frames=\"5\"}}・{{pause frames=\"5\"}}",
      "KRko": "{{reaction type=\"Sadness\"}}더， {{pause frames=\"5\"}}더 이상{{pause frames=\"5\"}}.{{pause frames=\"5\"}}.{{pause frames=\"5\"}}.{{pause frames=\"5\"}}\n안 되겠어유{{pause frames=\"5\"}}.{{pause frames=\"5\"}}.{{pause frames=\"5\"}}.{{pause frames=\"20\"}}\n눈， {{pause frames=\"5\"}}눈 앞이 침침해유\n{{resetReaction}}.{{pause frames=\"5\"}}.{{pause frames=\"5\"}}.{{pause frames=\"5\"}}{{reaction type=\"Amazed\"}}아{{pressButton}}\n지， {{pause frames=\"5\"}}지금 꽃밭에\n있어유.{{pause frames=\"5\"}}.{{pause frames=\"5\"}}.{{pause frames=\"5\"}}",
      "USen": "{{reaction type=\"Sadness\"}}Ugh{{pause frames=\"5\"}}.{{pause frames=\"5\"}}.{{pause frames=\"5\"}}.{{pause frames=\"5\"}} Eyes dimming{{pause frames=\"5\"}}.{{pause frames=\"5\"}}.{{pause frames=\"5\"}}.{{pause frames=\"5\"}}\nVitality fading{{pause frames=\"5\"}}.{{pause frames=\"5\"}}.{{pause frames=\"5\"}}.{{pause frames=\"20\"}}\nHunger{{pause frames=\"5\"}}.{{pause frames=\"5\"}}.{{pause frames=\"5\"}}.{{pause frames=\"5\"}}so strong{{pause frames=\"5\"}}.{{pause frames=\"5\"}}.{{pause frames=\"5\"}}.\n{{resetReaction}}.{{pause frames=\"5\"}}.{{pause frames=\"5\"}}.{{pause frames=\"5\"}}{{reaction type=\"Amazed\"}}What was that?{{pressButton}}\nI swore I heard food.{{pause frames=\"5\"}}.{{pause frames=\"5\"}}.{{pause frames=\"5\"}}\nMocking me.{{pause frames=\"5\"}}.{{pause frames=\"5\"}}.{{pause frames=\"5\"}}"
    }
  },
  {
    "label": "02",
    "attribute": "0x000000000C000000",
    "locale": {
      "EUde": "{{reaction type=\"Amazed\"}}Wmw-{{pause frames=\"5\"}}was ist das?{{pause frames=\"5\"}} Hm?{{pause frames=\"20\"}}\n{{reaction type=\"Worry\"}}Ni-{{pause frames=\"5\"}}nicht essbar!\n\n.{{pause frames=\"5\"}}.{{pause frames=\"5\"}}.{{pause frames=\"5\"}}Aber ich nehme es!{{pause frames=\"5\"}}\nOh, ich nehme es!{{pause frames=\"10\"}}\nDanke!{{pause frames=\"5\"}} Oh, danke!",
      "EUen": "{{reaction type=\"Amazed\"}}Whuh-{{pause frames=\"5\"}}what's this?!{{pause frames=\"5\"}} Why?!{{pause frames=\"20\"}}\n{{reaction type=\"Worry\"}}Nuh-{{pause frames=\"5\"}}not edible!\n\n.{{pause frames=\"5\"}}.{{pause frames=\"5\"}}.{{pause frames=\"5\"}}But I'll take it!{{pause frames=\"5\"}}\nOh, I'll take it!{{pause frames=\"10\"}}\nThank you!{{pause frames=\"5\"}} Oh, thank you!",
      "EUes": "{{reaction type=\"Amazed\"}}¿Mm?{{pause frames=\"5\"}} ¡¿Qué es esto?!{{pause frames=\"5\"}} ¡¿Eh?!{{pause frames=\"20\"}}\n{{reaction type=\"Worry\"}}¡Pero{{pause frames=\"5\"}} si no es comestible!\n\nBueno.{{pause frames=\"5\"}}.{{pause frames=\"5\"}}.{{pause frames=\"5\"}} ¡me lo quedo!{{pause frames=\"5\"}}\n¡Que sí, que me lo quedo!{{pause frames=\"10\"}}\n¡Gracias!{{pause frames=\"5\"}} ¡Muchas gracias!",
      "EUfr": "{{reaction type=\"Amazed\"}}Coh-{{pause frames=\"5\"}}c'est quoi?!{{pause frames=\"5\"}} Pourquoi?!{{pause frames=\"20\"}}\n{{reaction type=\"Worry\"}}Coh-{{pause frames=\"5\"}}c'est pas comestible!\n\nMais ça fera l'affaire!{{pause frames=\"5\"}}\nÇa oui, ça ira!{{pause frames=\"10\"}}\nMerci!{{pause frames=\"5\"}} Oh, merci beaucoup!",
      "EUit": "{{reaction type=\"Amazed\"}}C-{{pause frames=\"5\"}}cos'è questa roba?!{{pause frames=\"5\"}} No...{{pause frames=\"20\"}}\n{{reaction type=\"Worry\"}}Non è{{pause frames=\"5\"}} commestibile!\n\n.{{pause frames=\"5\"}}.{{pause frames=\"5\"}}.{{pause frames=\"5\"}} Ma la prenderò comunque!{{pause frames=\"5\"}}\nOh, sì, la prenderò!{{pause frames=\"10\"}}\nGrazie!{{pause frames=\"5\"}} Oh, grazie!",
      "JPja": "{{reaction type=\"Amazed\"}}な、{{pause frames=\"5\"}}な、{{pause frames=\"5\"}}なんでゴワス？{{pause frames=\"20\"}}\n{{reaction type=\"Worry\"}}これは、{{pause frames=\"5\"}}く、{{pause frames=\"5\"}}{{kanjiReplace charNum=\"1\" value=\"く\"}}食えんでゴワス！！\n\n・{{pause frames=\"5\"}}・{{pause frames=\"5\"}}・{{pause frames=\"5\"}}でも　せ、{{pause frames=\"5\"}}せっかくだから\nもらっとくでゴワス！{{pause frames=\"10\"}}\nごっつぁんです！",
      "KRko": "{{reaction type=\"Amazed\"}}뭐， {{pause frames=\"5\"}}뭐， {{pause frames=\"5\"}}뭐라고유？{{pause frames=\"20\"}}\n{{reaction type=\"Worry\"}}이건， {{pause frames=\"5\"}}머， {{pause frames=\"5\"}}먹을 수 없어유！！\n\n.{{pause frames=\"5\"}}.{{pause frames=\"5\"}}.{{pause frames=\"5\"}}그래도 모， {{pause frames=\"5\"}}모처럼 주셨으니\n받아 두것어유！{{pause frames=\"10\"}}\n고맙슈！",
      "USen": "{{reaction type=\"Amazed\"}}Whuh-{{pause frames=\"5\"}}what's this?!{{pause frames=\"5\"}} Why?!{{pause frames=\"20\"}}\n{{reaction type=\"Worry\"}}Nuh-{{pause frames=\"5\"}}not edible!\n\n.{{pause frames=\"5\"}}.{{pause frames=\"5\"}}.{{pause frames=\"5\"}}But I'll take it!{{pause frames=\"5\"}}\nOh, I'll take it!{{pause frames=\"10\"}}\nThank you!{{pause frames=\"5\"}} Oh, thank you!"
    }
  },
  {
    "label": "03",
    "attribute": "0x000000000F000000",
    "locale": {
      "EUde": "{{reaction type=\"Joy\"}}Ich bin wieder am Leben!{{pause frames=\"10\"}}\nDda-{{pause frames=\"5\"}}danke vielmals!{{pause frames=\"5\"}}\nFeines, feines Essen.\n{{reaction type=\"Happiness\"}}Ich{{pause frames=\"5\"}}.{{pause frames=\"5\"}}.{{pause frames=\"5\"}}.MUSS ES ESSEN!{{pause frames=\"5\"}}\nL{{pause frames=\"5\"}}E{{pause frames=\"5\"}}C{{pause frames=\"5\"}}K{{pause frames=\"5\"}}E{{pause frames=\"5\"}}R!",
      "EUen": "{{reaction type=\"Joy\"}}I'm back from the brink!{{pause frames=\"10\"}}\nThuh-{{pause frames=\"5\"}}thank you so much!{{pause frames=\"5\"}}\nSweet, sweet food!\n{{reaction type=\"Happiness\"}}I.{{pause frames=\"5\"}}.{{pause frames=\"5\"}}.{{pause frames=\"5\"}}MUST EAT IT!{{pause frames=\"5\"}}\nY{{pause frames=\"5\"}}U{{pause frames=\"5\"}}M{{pause frames=\"5\"}}M{{pause frames=\"5\"}}Y!",
      "EUes": "{{reaction type=\"Joy\"}}¡Con esto sobreviviré un\ndía más!{{pause frames=\"10\"}} ¡Muchas gracias!{{pause frames=\"5\"}}\n¡Mmmm, comida! ¡Ven a mí!\n{{reaction type=\"Happiness\"}}Trae{{pause frames=\"5\"}}.{{pause frames=\"5\"}}.{{pause frames=\"5\"}}. ¡QUÉ HAMBRE!{{pause frames=\"5\"}}\n¡Ñ{{pause frames=\"5\"}}A{{pause frames=\"5\"}}M,{{pause frames=\"5\"}} Ñ{{pause frames=\"5\"}}A{{pause frames=\"5\"}}M!",
      "EUfr": "{{reaction type=\"Joy\"}}Tout me semblait perdu!{{pause frames=\"10\"}}\nMoh-{{pause frames=\"5\"}}merci beaucoup!{{pause frames=\"5\"}}\nBelle et douce nourriture...\n{{reaction type=\"Happiness\"}}JE{{pause frames=\"5\"}}.{{pause frames=\"5\"}}.{{pause frames=\"5\"}}. DOIS LA MANGER!{{pause frames=\"5\"}}\nM{{pause frames=\"5\"}}I{{pause frames=\"5\"}}A{{pause frames=\"5\"}}M{{pause frames=\"5\"}}!",
      "EUit": "{{reaction type=\"Joy\"}}Mi sono salvato!{{pause frames=\"10\"}}\nGr-{{pause frames=\"5\"}}grazie tante!{{pause frames=\"5\"}}\nCibo, dolce cibo!\n{{reaction type=\"Happiness\"}}Io.{{pause frames=\"5\"}}.{{pause frames=\"5\"}}.{{pause frames=\"5\"}}. DEVO MANGIARLO!{{pause frames=\"5\"}}\nB{{pause frames=\"5\"}}U{{pause frames=\"5\"}}O{{pause frames=\"5\"}}N{{pause frames=\"5\"}}O!",
      "JPja": "{{reaction type=\"Joy\"}}くぅぅぅ～～～っ！{{pause frames=\"10\"}}\nあ、{{pause frames=\"5\"}}ありがたいでゴワス！{{pause frames=\"10\"}}\nた、{{pause frames=\"5\"}}{{kanjiReplace charNum=\"1\" value=\"た\"}}食べ{{kanjiReplace charNum=\"1\" value=\"もの\"}}物でゴワス！\n{{reaction type=\"Happiness\"}}さっそく　い、{{pause frames=\"5\"}}いただくでゴワス！{{pause frames=\"5\"}}\nごっ{{pause frames=\"5\"}}つっ{{pause frames=\"5\"}}っ{{pause frames=\"5\"}}ぁ{{pause frames=\"5\"}}あんどぇーーーす！！",
      "KRko": "{{reaction type=\"Joy\"}}크흐흐흑～～～흑！{{pause frames=\"10\"}}\n고， {{pause frames=\"5\"}}고맙슈！{{pause frames=\"10\"}}\n머， {{pause frames=\"5\"}}먹을거예유！\n{{reaction type=\"Happiness\"}}바로 잘， {{pause frames=\"5\"}}잘 먹겠슈！{{pause frames=\"5\"}}\n고{{pause frames=\"5\"}}맙{{pause frames=\"5\"}}구{{pause frames=\"5\"}}먼{{pause frames=\"5\"}}유ーーー！！",
      "USen": "{{reaction type=\"Joy\"}}I'm back from the brink!{{pause frames=\"10\"}}\nThuh-{{pause frames=\"5\"}}thank you so much!{{pause frames=\"5\"}}\nSweet, sweet food!\n{{reaction type=\"Happiness\"}}I.{{pause frames=\"5\"}}.{{pause frames=\"5\"}}.{{pause frames=\"5\"}}MUST EAT IT!{{pause frames=\"5\"}}\nY{{pause frames=\"5\"}}U{{pause frames=\"5\"}}M{{pause frames=\"5\"}}M{{pause frames=\"5\"}}Y!"
    }
  },
  {
    "label": "04",
    "attribute": "0x0000000005000000",
    "locale": {
      "EUde": "{{reaction type=\"Happiness\"}}Ahhhhhhhhh!{{pause frames=\"5\"}} Mmm{{pause frames=\"5\"}}.{{pause frames=\"5\"}}.{{pause frames=\"5\"}}. Rülps!{{pause frames=\"10\"}}\n{{reaction type=\"Joy\"}}So lecker!{{pause frames=\"10\"}}\nSo satt und zufrieden!\nDda-{{pause frames=\"5\"}}danke für deine Hilfe!{{pause frames=\"5\"}}\nBitte, bitte nimm dies!{{pause frames=\"5\"}}\nEs ist mein Lieblingsstück!\n{{resetReaction}}Ah-{{pause frames=\"5\"}}aber{{pause frames=\"5\"}} du musst eines von\ndeinen wegwerfen.{{pause frames=\"5\"}}\n{{reaction type=\"Curiosity\"}}Www-{{pause frames=\"5\"}}willst du es trotzdem?{{fun_02 arg=\"0x0E0D\"}}\nOh ja!\nNein, danke.",
      "EUen": "{{reaction type=\"Happiness\"}}Ahhhhhhhh!{{pause frames=\"5\"}} Mmm{{pause frames=\"5\"}}.{{pause frames=\"5\"}}.{{pause frames=\"5\"}}.burp!{{pause frames=\"10\"}}\n{{reaction type=\"Joy\"}}So very delicious!{{pause frames=\"10\"}}\nSo very full and happy!\nThuh-{{pause frames=\"5\"}}thanks for your help!{{pause frames=\"5\"}}\nPlease, please take this!{{pause frames=\"5\"}}\nIt's my favorite piece!\n{{resetReaction}}Buh-{{pause frames=\"5\"}}but{{pause frames=\"5\"}} you'll have to toss\nout one that you have now.{{pause frames=\"5\"}}\n{{reaction type=\"Curiosity\"}}Duh-{{pause frames=\"5\"}}do you still want it?{{fun_02 arg=\"0x0E0D\"}}\nOh, yeah!\nNo, thanks.",
      "EUes": "{{reaction type=\"Happiness\"}}¡Aaaaaaaah!{{pause frames=\"5\"}} Mmm{{pause frames=\"5\"}}.{{pause frames=\"5\"}}.{{pause frames=\"5\"}}. {{color id=\"4\"}}(Eructo){{color id=\"0\"}}{{pause frames=\"10\"}}\n{{reaction type=\"Joy\"}}¡Deliciosísimo!{{pause frames=\"10\"}} ¡Ya tengo la\ntripa llena, qué alegría!\n¡Gracias por ayudarme!{{pause frames=\"5\"}}\n¡Acepta este diseño!\n¡Es mi favorito!\n{{resetReaction}}Pero{{pause frames=\"5\"}} tendrás que tirar\nalguno de los que ya tienes.{{pause frames=\"5\"}}\n{{reaction type=\"Curiosity\"}}¿Sigues {{pause frames=\"5\"}}interesad{{gender m=\"o\" f=\"a\"}}?{{fun_02 arg=\"0x0E0D\"}}\n¡Claro!\nNi en broma",
      "EUfr": "{{reaction type=\"Happiness\"}}Ahhhhhhhh!{{pause frames=\"5\"}} Miam{{pause frames=\"5\"}}.{{pause frames=\"5\"}}.{{pause frames=\"5\"}}. Burp!{{pause frames=\"10\"}}\n{{reaction type=\"Joy\"}}C'est si délicieux!{{pause frames=\"10\"}}\nMe voilà repu et heureux!\nMoh-{{pause frames=\"5\"}}merci pour ton aide!{{pause frames=\"5\"}}\nS'il te plaît, accepte ça!{{pause frames=\"5\"}}\nC'est mon chef-d'œuvre!\n{{resetReaction}}Moh-{{pause frames=\"5\"}}mais{{pause frames=\"5\"}} tu dois en jeter\nun pour pouvoir le prendre.{{pause frames=\"5\"}}{{reaction type=\"Curiosity\"}}\nToh-{{pause frames=\"5\"}}t'en veux quand même?{{fun_02 arg=\"0x0E0D\"}}\nPour sûr!\nNon merci.",
      "EUit": "{{reaction type=\"Happiness\"}}Ahhhhhhhh!{{pause frames=\"5\"}} Mmm{{pause frames=\"5\"}}.{{pause frames=\"5\"}}.{{pause frames=\"5\"}}. burp!{{pause frames=\"10\"}}\n{{reaction type=\"Joy\"}}Che delizia!{{pause frames=\"10\"}}\nSon così pieno e felice!\nGr-{{pause frames=\"5\"}}grazie per l'aiuto!{{pause frames=\"5\"}}\nPrendi questo!{{pause frames=\"5\"}}\nÈ fra i miei pezzi preferiti!\n{{resetReaction}}Ma{{pause frames=\"5\"}} dovrai{{pause frames=\"5\"}} disfarti\ndi uno di quelli che già hai.{{pause frames=\"5\"}}\n{{reaction type=\"Curiosity\"}}Lo{{pause frames=\"5\"}} vuoi ancora?{{fun_02 arg=\"0x0E0D\"}}\nOh, sì!\nNo, grazie.",
      "JPja": "{{reaction type=\"Happiness\"}}んぐぅ～～～っ！{{pause frames=\"10\"}}\n{{reaction type=\"Joy\"}}{{kanjiReplace charNum=\"1\" value=\"く\"}}食った　{{kanjiReplace charNum=\"1\" value=\"く\"}}食ったでゴワス！{{pause frames=\"10\"}}\nもう　{{kanjiReplace charNum=\"3\" value=\"だいまんぞく\"}}大満足でゴワス！！\nか、{{pause frames=\"5\"}}かんしゃのしるしに\nジマンの{{kanjiReplace charNum=\"1\" value=\"え\"}}絵を　１まい、{{pause frames=\"5\"}}\nさしあげたいで　ゴワスが、\n{{resetReaction}}い、{{pause frames=\"5\"}}{{kanjiReplace charNum=\"1\" value=\"いま\"}}今、{{pause frames=\"5\"}}{{kanjiReplace charNum=\"1\" value=\"も\"}}持っているのを\n１つ　{{kanjiReplace charNum=\"1\" value=\"け\"}}消さなきゃ\nならないでゴワス！\n{{reaction type=\"Curiosity\"}}そ、{{pause frames=\"5\"}}それでも　うけとって\nくれるで　ゴワスか？{{fun_02 arg=\"0x0E0D\"}}\n{{kanjiReplace charNum=\"1\" value=\"よろこ\"}}喜んで！\nじゃあ、いらない",
      "KRko": "{{reaction type=\"Happiness\"}}으흐흑～～～！{{pause frames=\"10\"}}\n{{reaction type=\"Joy\"}}잘 먹었어유！{{pause frames=\"10\"}}\n대만족 이예유！！\n가， {{pause frames=\"5\"}}감사의 표시로\n그림을 한 장{{pause frames=\"5\"}}\n드리고 싶은데유\n{{resetReaction}}지， {{pause frames=\"5\"}}지금 {{pause frames=\"5\"}}갖고 있는 것 중에서\n한 가지를\n지워야 해유！\n{{reaction type=\"Curiosity\"}}그， {{pause frames=\"5\"}}그래도 받아\n주시겠어유？{{fun_02 arg=\"0x0E0D\"}}\n기꺼이！\n그럼， 됐어",
      "USen": "{{reaction type=\"Happiness\"}}Ahhhhhhhh!{{pause frames=\"5\"}} Mmm{{pause frames=\"5\"}}.{{pause frames=\"5\"}}.{{pause frames=\"5\"}}.burp!{{pause frames=\"10\"}}\n{{reaction type=\"Joy\"}}So very delicious!{{pause frames=\"10\"}}\nSo very full and happy!\nThuh-{{pause frames=\"5\"}}thanks for your help!{{pause frames=\"5\"}}\nPlease, please take this!{{pause frames=\"5\"}}\nIt's my favorite piece!\n{{resetReaction}}Buh-{{pause frames=\"5\"}}but{{pause frames=\"5\"}} you'll have to toss\nout one that you have now.{{pause frames=\"5\"}}\n{{reaction type=\"Curiosity\"}}Duh-{{pause frames=\"5\"}}do you still want it?{{fun_02 arg=\"0x0E0D\"}}\nOh, yeah!\nNo, thanks."
    }
  },
  {
    "label": "05",
    "attribute": "0x00000000FE000000",
    "locale": {
      "EUde": "{{reaction type=\"Happiness\"}}Oh, so glücklich!\nSs-{{pause frames=\"5\"}}sooo zufrieden!\n{{capitalizeLetter}}{{itemName index=\"1\"}}!\n{{reaction type=\"Joy\"}}Ahhhhhhhhhhhhhhhhhh!{{pause frames=\"20\"}}\nSo voller Freude!{{pause frames=\"10\"}}\nSs-{{pause frames=\"5\"}}so voller Bauch!",
      "EUen": "{{reaction type=\"Happiness\"}}Oh, so very happy!\nSuh-{{pause frames=\"5\"}}soo very gratified!\n{{capitalizeLetter}}{{itemName index=\"1\"}}!\n{{reaction type=\"Joy\"}}Ahhhhhhhhhhhhhhhhh!{{pause frames=\"20\"}}\nSo full of happiness!{{pause frames=\"10\"}}\nSuh-{{pause frames=\"5\"}}so round in the belly!",
      "EUes": "{{reaction type=\"Happiness\"}}¡Qué contento estoy! ¡Y\nqué lleno! ¡Qué satisfecho!\n¡{{capitalizeLetter}}{{itemName index=\"1\"}}!\n{{reaction type=\"Joy\"}}¡Aaaaaaaaaaaaaaaaaah!{{pause frames=\"20\"}}\n¡Qué{{pause frames=\"5\"}} feliz me hace\ntener el estómago lleno!",
      "EUfr": "{{reaction type=\"Happiness\"}}Oh, je suis si heureux!\nSoh-{{pause frames=\"5\"}}si satisfait!\n{{capitalizeLetter}}{{itemName index=\"1\"}}!\n{{reaction type=\"Joy\"}}Ahhhhhhhhhhhhhhhhh!{{pause frames=\"20\"}}\nSi heureux de vivre!{{pause frames=\"10\"}}\nSoh-{{pause frames=\"5\"}}si rassasié!",
      "EUit": "{{reaction type=\"Happiness\"}}Oh, che felicità!\nTi sono{{pause frames=\"5\"}} davvero grato!\n{{capitalizeLetter}}{{itemName index=\"1\"}}!\n{{reaction type=\"Joy\"}}Ahhhhhhhhhhhhhhhhh!{{pause frames=\"20\"}}\nChe felicità!{{pause frames=\"10\"}}\nFa bene{{pause frames=\"5\"}} al pancino!",
      "JPja": "{{reaction type=\"Happiness\"}}「{{itemName index=\"1\"}}」を\nいい{{kanjiReplace charNum=\"1\" value=\"ひと\"}}人に　うけとってもらえて\nよかったでゴワス！\n{{reaction type=\"Joy\"}}はぁぁ～～～！{{pause frames=\"20\"}}\nしあわせいっぱい！{{pause frames=\"10\"}}\nハラいっぱい、{{pause frames=\"5\"}}でゴワス！！",
      "KRko": "{{reaction type=\"Happiness\"}}「{{itemName index=\"1\"}}」{{fun_0B arg=\"0x0200\"}}\n좋은 분이 받아 주셔서\n잘됐어유！\n{{reaction type=\"Joy\"}}하아아～～～！{{pause frames=\"20\"}}\n행복 가득！{{pause frames=\"10\"}}\n뱃속 가득， {{pause frames=\"5\"}}이어유！！",
      "USen": "{{reaction type=\"Happiness\"}}Oh, so very happy!\nSuh-{{pause frames=\"5\"}}soo very gratified!\n{{capitalizeLetter}}{{itemName index=\"1\"}}!\n{{reaction type=\"Joy\"}}Ahhhhhhhhhhhhhhhhh!{{pause frames=\"20\"}}\nSo full of happiness!{{pause frames=\"10\"}}\nSuh-{{pause frames=\"5\"}}so round in the belly!"
    }
  },
  {
    "label": "06",
    "attribute": "0x00000000FE000000",
    "locale": {
      "EUde": "{{resetReaction}}Dda-{{pause frames=\"5\"}}danke,{{pause frames=\"5\"}}\nmm-{{pause frames=\"5\"}}mein Bauch ist jetzt\no-{{pause frames=\"5\"}}offiziell {{pause frames=\"5\"}}voll!\nBbb-{{pause frames=\"5\"}}bringst du mir\nnächstes Mal{{pause frames=\"5\"}} etwas anderes\nmit? Bb-{{pause frames=\"5\"}}bitte?\nDann {{pause frames=\"5\"}}gebe ich dir auch ein\naah-{{pause frames=\"5\"}}anderes Autogramm!{{pause frames=\"5\"}}\n{{reaction type=\"Happiness\"}}Dda-{{pause frames=\"5\"}}danke nochmal!",
      "EUen": "{{resetReaction}}Thuh-{{pause frames=\"5\"}}thanks to you,{{pause frames=\"5\"}}\nmuh-{{pause frames=\"5\"}}my belly is now \no-{{pause frames=\"5\"}}officially {{pause frames=\"5\"}}full!\nNuh-{{pause frames=\"5\"}}next time, could you\nbring{{pause frames=\"5\"}} something different?\nMuh-{{pause frames=\"5\"}}maybe?\nIf you do, {{pause frames=\"5\"}}I'll give you a\nduh-{{pause frames=\"5\"}}different picture!{{pause frames=\"5\"}}\n{{reaction type=\"Happiness\"}}Thuh-{{pause frames=\"5\"}}thanks again!",
      "EUes": "{{resetReaction}}¡Gracias a ti,{{pause frames=\"5\"}} puedo\ndeclarar mi estómago\noficialmente lleno!\n¿La próxima vez podrías\nvariar el menú?{{pause frames=\"5\"}} No sé,\npregunto.\n¡Si lo haces, te daré un\ndiseño diferente!{{pause frames=\"5\"}}\n{{reaction type=\"Happiness\"}}¡Gracias de nuevo!",
      "EUfr": "{{resetReaction}}Moh-{{pause frames=\"5\"}}merci à toi,{{pause frames=\"5\"}}\nmoh-{{pause frames=\"5\"}}mon ventre est \no-{{pause frames=\"5\"}}officiellement {{pause frames=\"5\"}}plein!\nLoh-{{pause frames=\"5\"}}la prochaine fois, tu\n{{pause frames=\"5\"}}m'apporteras autre chose?\nToh-{{pause frames=\"5\"}}tu veux bien?\nSi tu fais ça,{{pause frames=\"5\"}} je t'offrirai\noh-{{pause frames=\"5\"}}une image différente!{{pause frames=\"5\"}}\n{{reaction type=\"Happiness\"}}Moh-{{pause frames=\"5\"}}merci encore!",
      "EUit": "{{resetReaction}}Gr-{{pause frames=\"5\"}}grazie a te,{{pause frames=\"5\"}}\nla mia pancia{{pause frames=\"5\"}} è\nu-{{pause frames=\"5\"}}ufficialmente {{pause frames=\"5\"}}piena!\nLa{{pause frames=\"5\"}} prossima volta, mi\nporteresti{{pause frames=\"5\"}} qualcos'altro?\nF-{{pause frames=\"5\"}}forse?\nSe lo fai, {{pause frames=\"5\"}}ti darò un\npezzo {{pause frames=\"5\"}}differente!{{pause frames=\"5\"}}\n{{reaction type=\"Happiness\"}}G-{{pause frames=\"5\"}}grazie ancora!",
      "JPja": "{{resetReaction}}お、{{pause frames=\"5\"}}おかげで　おなかは\nい、{{pause frames=\"5\"}}いっぱいなのでゴワスが、\n\nこ、{{pause frames=\"5\"}}この{{kanjiReplace charNum=\"1\" value=\"つぎ\"}}次は　また\nべ、{{pause frames=\"5\"}}{{kanjiReplace charNum=\"1\" value=\"べつ\"}}別の　{{kanjiReplace charNum=\"1\" value=\"た\"}}食べ{{kanjiReplace charNum=\"1\" value=\"もの\"}}物を\nおねがいするでゴワス！\nそ、{{pause frames=\"5\"}}そしたら　また{{kanjiReplace charNum=\"1\" value=\"べつ\"}}別なモノを\nあげるでゴワスから、{{pause frames=\"5\"}}\n{{reaction type=\"Happiness\"}}よ、{{pause frames=\"5\"}}よろしくたのむでゴワス！",
      "KRko": "{{resetReaction}}더， {{pause frames=\"5\"}}덕분에\n배는 {{pause frames=\"5\"}}찼지만유，\n\n다， {{pause frames=\"5\"}}다음번에는 좀\n다， {{pause frames=\"5\"}}다른 음식을\n부탁해유！\n그， {{pause frames=\"5\"}}그러면 또 다른 그림을\n드릴게유， {{pause frames=\"5\"}}\n{{reaction type=\"Happiness\"}}자， {{pause frames=\"5\"}}잘 부탁해유！",
      "USen": "{{resetReaction}}Thuh-{{pause frames=\"5\"}}thanks to you,{{pause frames=\"5\"}}\nmuh-{{pause frames=\"5\"}}my belly is now \no-{{pause frames=\"5\"}}officially {{pause frames=\"5\"}}full!\nNuh-{{pause frames=\"5\"}}next time, could you\nbring{{pause frames=\"5\"}} something different?\nMuh-{{pause frames=\"5\"}}maybe?\nIf you do, {{pause frames=\"5\"}}I'll give you a\nduh-{{pause frames=\"5\"}}different picture!{{pause frames=\"5\"}}\n{{reaction type=\"Happiness\"}}Thuh-{{pause frames=\"5\"}}thanks again!"
    }
  },
  {
    "label": "07",
    "attribute": "0x00000000FE000000",
    "locale": {
      "EUde": "{{resetReaction}}Hh-{{pause frames=\"5\"}}hey, {{pause frames=\"5\"}}danke für das\nEssen vorhin!\n\n{{reaction type=\"Joy\"}}Voller Zufriedenheit!{{pause frames=\"10\"}}\nVoller Bauch!",
      "EUen": "{{resetReaction}}Huh-{{pause frames=\"5\"}}hey, {{pause frames=\"5\"}}thanks for the\nfood earlier!\n\n{{reaction type=\"Joy\"}}So full of happiness!{{pause frames=\"10\"}}\nSo plump in the belly!",
      "EUes": "{{resetReaction}}¡Hola, {{pause frames=\"5\"}}gracias por la\ncomida de antes!\n\n{{reaction type=\"Joy\"}}¡No quepo en mí de alegría!{{pause frames=\"10\"}}\n¡No hay nada como un\nestómago lleno!",
      "EUfr": "{{resetReaction}}Hoh-{{pause frames=\"5\"}}hé, {{pause frames=\"5\"}}merci pour le\nfestin de tout à l'heure!\n\n{{reaction type=\"Joy\"}}Je suis si heureux!{{pause frames=\"10\"}}\nEt mon ventre est si dodu!",
      "EUit": "{{resetReaction}}Ehi,{{pause frames=\"5\"}} ehi, {{pause frames=\"5\"}}grazie per il\ncibo di prima!\n\n{{reaction type=\"Joy\"}}Che felicità!{{pause frames=\"10\"}}\nCosì buono nel pancino!",
      "JPja": "{{resetReaction}}さ、{{pause frames=\"5\"}}さっきは　{{kanjiReplace charNum=\"1\" value=\"た\"}}食べ{{kanjiReplace charNum=\"1\" value=\"もの\"}}物を\nどうも　ありがとうでゴワス！\n\n{{reaction type=\"Joy\"}}しあわせいっぱい！{{pause frames=\"10\"}}\nハラいっぱい、{{pause frames=\"5\"}}でゴワス！！",
      "KRko": "{{resetReaction}}아， {{pause frames=\"5\"}}아까 먹을 거 줘서\n고마웠어유！\n\n{{reaction type=\"Joy\"}}행복 가득！{{pause frames=\"10\"}}\n뱃속 가득， {{pause frames=\"5\"}}이어유！！",
      "USen": "{{resetReaction}}Huh-{{pause frames=\"5\"}}hey, {{pause frames=\"5\"}}thanks for the\nfood earlier!\n\n{{reaction type=\"Joy\"}}So full of happiness!{{pause frames=\"10\"}}\nSo plump in the belly!"
    }
  },
  {
    "label": "08",
    "attribute": "0x00000000FE000000",
    "locale": {
      "EUde": "Nnn-{{pause frames=\"5\"}}nur ein Mal{{pause frames=\"5\"}} würde ich\ngerne diese Delikatesse\nprobieren. {{pause frames=\"5\"}}{{color id=\"7\"}}Rote Rüben{{color id=\"0\"}}.\n{{reaction type=\"Sleepy\"}}Snrrrrrrf.{{pause frames=\"5\"}}.{{pause frames=\"5\"}}.\n\n\n{{reaction type=\"Worry\"}}Ahhh! {{pause frames=\"5\"}}Irgendwie eingenickt.{{pause frames=\"5\"}}.{{pause frames=\"5\"}}.{{pause frames=\"5\"}}\nÜüür-{{pause frames=\"5\"}}irgendwie macht mein\nHerz jetzt {{color id=\"2\"}}bumpum bumpum{{color id=\"0\"}}!",
      "EUen": "Juh-{{pause frames=\"5\"}}just once,{{pause frames=\"5\"}} I'd like to\neat a bellyful of the\ndelicacy {{pause frames=\"5\"}}called {{color id=\"7\"}}red turnips{{color id=\"0\"}}.\n{{reaction type=\"Sleepy\"}}Snrrrrrrf.{{pause frames=\"5\"}}.{{pause frames=\"5\"}}.\n\n\n{{reaction type=\"Worry\"}}Ahhh! {{pause frames=\"5\"}}Sorta nodded off.{{pause frames=\"5\"}}.{{pause frames=\"5\"}}.{{pause frames=\"5\"}}\nSuh-{{pause frames=\"5\"}}something's making my \nheart go {{color id=\"2\"}}pitter-patter {{color id=\"0\"}}now!",
      "EUes": "Solo por una vez me\ngustaría probar {{color id=\"7\"}}nabos\nrojos{{color id=\"0\"}}.\n{{reaction type=\"Sleepy\"}}Zzzzzzz.{{pause frames=\"5\"}}.{{pause frames=\"5\"}}.\n\n\n{{reaction type=\"Worry\"}}¡Aaah! {{pause frames=\"5\"}}Me he traspuesto.{{pause frames=\"5\"}}.{{pause frames=\"5\"}}.{{pause frames=\"5\"}}\n¡Empiezo a sentir un {{color id=\"2\"}}pumpúm\n{{color id=\"0\"}}en el corazón!",
      "EUfr": "Poh-{{pause frames=\"5\"}}pour une fois,{{pause frames=\"5\"}} je\nvoudrais me régaler avec de\ndélicieux{{pause frames=\"5\"}} {{color id=\"7\"}}navets rouges{{color id=\"0\"}}.\n{{reaction type=\"Sleepy\"}}Rrrrrrrrrrron.{{pause frames=\"5\"}}.{{pause frames=\"5\"}}.\n\n\n{{reaction type=\"Worry\"}}Ahhh! {{pause frames=\"5\"}}J'ai piqué du nez.{{pause frames=\"5\"}}.{{pause frames=\"5\"}}.{{pause frames=\"5\"}}\nÇoh-{{pause frames=\"5\"}}ça sent le petit plat.\nMon cœur {{color id=\"2\"}}bat la chamade{{color id=\"0\"}}!",
      "EUit": "Pe-{{pause frames=\"5\"}}per una volta,{{pause frames=\"5\"}} vorrei\nmangiare quelle delicatezze\nchiamate{{pause frames=\"5\"}} {{color id=\"7\"}}rape rosse{{color id=\"0\"}}.\n{{reaction type=\"Sleepy\"}}Snrrrrrrf.{{pause frames=\"5\"}}.{{pause frames=\"5\"}}.\n\n\n{{reaction type=\"Worry\"}}Ah! {{pause frames=\"5\"}}Quasi mi addormentavo.{{pause frames=\"5\"}}.{{pause frames=\"5\"}}.{{pause frames=\"5\"}}\nQua-{{pause frames=\"5\"}}qualcosa sta facendo \n{{color id=\"2\"}}sobbalzare {{color id=\"0\"}}il mio cuore!",
      "JPja": "ち、{{pause frames=\"5\"}}ちんみと　{{kanjiReplace charNum=\"1\" value=\"い\"}}言われる\n{{color id=\"7\"}}あかカブ{{color id=\"0\"}}を{{pause frames=\"5\"}}　ハラいっぱい\nた、{{pause frames=\"5\"}}{{kanjiReplace charNum=\"1\" value=\"た\"}}食べてみたいでゴワス\n{{reaction type=\"Sleepy\"}}じゅる・{{pause frames=\"5\"}}・{{pause frames=\"5\"}}・\n\n\n{{reaction type=\"Worry\"}}あぁぁ・{{pause frames=\"5\"}}・{{pause frames=\"5\"}}・{{pause frames=\"5\"}}\nな、{{pause frames=\"5\"}}なんだか　また、むねが\n{{color id=\"2\"}}きゅぅぅん{{color id=\"0\"}}と　してくるでゴワス",
      "KRko": "진， {{pause frames=\"5\"}}진미라고 불리는\n{{color id=\"7\"}}빨간 무{{color id=\"0\"}}를{{pause frames=\"5\"}} 배 부르게\n먹， {{pause frames=\"5\"}}먹어 보고 싶어유\n{{reaction type=\"Sleepy\"}}주룩.{{pause frames=\"5\"}}.{{pause frames=\"5\"}}.\n\n\n{{reaction type=\"Worry\"}}아아아.{{pause frames=\"5\"}}.{{pause frames=\"5\"}}.{{pause frames=\"5\"}}\n왜， {{pause frames=\"5\"}}왠지 또 가슴이\n{{color id=\"2\"}}찌잉{{color id=\"0\"}}하고 울리네유",
      "USen": "Juh-{{pause frames=\"5\"}}just once,{{pause frames=\"5\"}} I'd like to\neat a bellyful of the\ndelicacy {{pause frames=\"5\"}}called {{color id=\"7\"}}red turnips{{color id=\"0\"}}.\n{{reaction type=\"Sleepy\"}}Snrrrrrrf.{{pause frames=\"5\"}}.{{pause frames=\"5\"}}.\n\n\n{{reaction type=\"Worry\"}}Ahhh! {{pause frames=\"5\"}}Sorta nodded off.{{pause frames=\"5\"}}.{{pause frames=\"5\"}}.{{pause frames=\"5\"}}\nSuh-{{pause frames=\"5\"}}something's making my \nheart go {{color id=\"2\"}}pitter-patter {{color id=\"0\"}}now!"
    }
  },
  {
    "label": "09",
    "attribute": "0x0000000005000000",
    "locale": {
      "EUde": "{{reaction type=\"Shocked\"}}AHHHHHHHHH!{{pause frames=\"10\"}}\nEs{{pause frames=\"5\"}}.{{pause frames=\"5\"}}.{{pause frames=\"5\"}}.{{pause frames=\"5\"}} Es war WIRKLICH eine\nDelikatesse! {{pause frames=\"5\"}}So glücklich!\n{{reaction type=\"Happiness\"}}Habe gegessen und gegessen{{pause frames=\"5\"}}\nund jetzt bin ich satt\nbis ooo-obenhin!\nUuu-{{pause frames=\"5\"}}um dir zu zeigen, dass\nich das sehr schätze...\n\n...nimm bitte {{gender m=\"diesen\" f=\"diese\" n=\"dieses\"}}\n{{ignoreArticle}}{{itemName index=\"0\"}}!",
      "EUen": "{{reaction type=\"Shocked\"}}AHHHHHHHH!{{pause frames=\"10\"}}\nIt{{pause frames=\"5\"}}.{{pause frames=\"5\"}}.{{pause frames=\"5\"}}.{{pause frames=\"5\"}} It really WAS a\ndelicacy! {{pause frames=\"5\"}}So happy!\n{{reaction type=\"Happiness\"}}I ate and I ate,{{pause frames=\"5\"}} and now\nI'm filled to the buh-brim!\n\nTuh-{{pause frames=\"5\"}}to show you how much I\nappreciated that,{{pause frames=\"5\"}} have\n{{itemName index=\"0\"}}!",
      "EUes": "{{reaction type=\"Shocked\"}}¡AAAAAAAAH!{{pause frames=\"10\"}} Sí{{pause frames=\"5\"}}.{{pause frames=\"5\"}}.{{pause frames=\"5\"}}.{{pause frames=\"5\"}} ¡Pero\nqué delicia tan deliciosa!{{pause frames=\"5\"}}\n¡Qué contento estoy!\n{{reaction type=\"Happiness\"}}¡He comido tanto{{pause frames=\"5\"}} que\ncasi no me puedo mover!\n\n¡Acepta est{{gender m=\"e\" f=\"a\" n=\"\"}}\n{{ignoreArticle}}{{itemName index=\"0\"}}\ncomo muestra de gratitud!",
      "EUfr": "{{reaction type=\"Shocked\"}}AHHHHHHHH!{{pause frames=\"10\"}}\nCe{{pause frames=\"5\"}}.{{pause frames=\"5\"}}.{{pause frames=\"5\"}}.{{pause frames=\"5\"}} c'était VRAIMENT\ndélicieux! {{pause frames=\"5\"}}Quel bonheur!\n{{reaction type=\"Happiness\"}}J'ai mangé et mangé{{pause frames=\"5\"}} et\nmaintenant je suis plein \nà ras-bord!\nPoh-{{pause frames=\"5\"}}pour te prouver ma\ngratitude,{{pause frames=\"5\"}} je t'offre\n{{itemName index=\"0\"}}!",
      "EUit": "{{reaction type=\"Shocked\"}}AHHHHHHHH!{{pause frames=\"10\"}}\nChe{{pause frames=\"5\"}}.{{pause frames=\"5\"}}.{{pause frames=\"5\"}}.{{pause frames=\"5\"}} Che prelibatezza! {{pause frames=\"5\"}}\nSono felice!\n{{reaction type=\"Happiness\"}}Ho mangiato{{pause frames=\"5\"}} e mangiato fino\nquasi a scoppiare!\n\nI-{{pause frames=\"5\"}}in segno della mia\ngratitudine,{{pause frames=\"5\"}} prendi {{gender m=\"questo\" f=\"questa\" n=\"\"}}\n{{ignoreArticle}}{{itemName index=\"0\"}}!",
      "JPja": "{{reaction type=\"Shocked\"}}んぐぅおお～～～っ！！{{pause frames=\"10\"}}\nちんみだったでゴワス！\n\n{{reaction type=\"Happiness\"}}{{kanjiReplace charNum=\"1\" value=\"く\"}}食った　{{kanjiReplace charNum=\"1\" value=\"く\"}}食ったでゴワス！\n{{kanjiReplace charNum=\"1\" value=\"だい\"}}大{{kanjiReplace charNum=\"2\" value=\"まんぞく\"}}満足で　ゴワス！！\n\nか、{{pause frames=\"5\"}}かんしゃのしるしに\nこの　{{itemName index=\"0\"}}を\nさしあげるでゴワス！",
      "KRko": "{{reaction type=\"Shocked\"}}흐엉엉～～～！！{{pause frames=\"10\"}}\n진미였어유！\n\n{{reaction type=\"Happiness\"}}드뎌 먹었어유！\n대만족 이어유！！\n\n가， {{pause frames=\"5\"}}감사의 표시로\n이 {{itemName index=\"0\"}}{{fun_0B arg=\"0x0200\"}}\n드릴게유！",
      "USen": "{{reaction type=\"Shocked\"}}AHHHHHHHH!{{pause frames=\"10\"}}\nIt{{pause frames=\"5\"}}.{{pause frames=\"5\"}}.{{pause frames=\"5\"}}.{{pause frames=\"5\"}} It really WAS a\ndelicacy! {{pause frames=\"5\"}}So happy!\n{{reaction type=\"Happiness\"}}I ate and I ate,{{pause frames=\"5\"}} and now\nI'm filled to the buh-brim!\n\nTuh-{{pause frames=\"5\"}}to show you how much I\nappreciated that,{{pause frames=\"5\"}} have\n{{itemName index=\"0\"}}!"
    }
  },
  {
    "label": "10",
    "attribute": "0x00000000FE000000",
    "locale": {
      "EUde": "{{resetReaction}}Dd-{{pause frames=\"5\"}}das ist etwas, was ich\nunterwegs gefunden habe,\naa-aber{{pause frames=\"5\"}}.{{pause frames=\"5\"}}.{{pause frames=\"5\"}}.\n{{reaction type=\"Thought\"}}Dd-{{pause frames=\"5\"}}da steht ein Name oder\nso drauf!{{pause frames=\"5\"}}\n\nEs ist schon\naaa-ausgeblasst, ich k-kann\nes nicht erkennen.\n{{resetReaction}}Nun, {{pause frames=\"5\"}}du kannst es der\nPä-person zurückgeben,\noder aber{{pause frames=\"5\"}}.{{pause frames=\"5\"}}.{{pause frames=\"5\"}}.\n...du behältst es selbst{{pause frames=\"5\"}}.{{pause frames=\"5\"}}.{{pause frames=\"5\"}}.{{pressButton}}\n{{reaction type=\"Joy\"}}Mach, was du www-{{pause frames=\"5\"}}willst!",
      "EUen": "{{resetReaction}}Thuh-{{pause frames=\"5\"}}this is something that\nI picked up on my way to\nthis town, buh-but{{pause frames=\"5\"}}.{{pause frames=\"5\"}}.{{pause frames=\"5\"}}.\n{{reaction type=\"Thought\"}}I thuh-{{pause frames=\"5\"}}think there's a name\nor something written on it!{{pause frames=\"5\"}}\n\nIt's kind of fuh-faded so I\ncan't really tuh-tell.\n\n{{resetReaction}}Well, {{pause frames=\"5\"}}you can either take it\nto the puh-person who lost\nit or muh-maybe{{pause frames=\"5\"}}.{{pause frames=\"5\"}}.{{pause frames=\"5\"}}.\n...keep it for yourself{{pause frames=\"5\"}}.{{pause frames=\"5\"}}.{{pause frames=\"5\"}}.{{pressButton}}\n{{reaction type=\"Joy\"}}Do what you wuh-{{pause frames=\"5\"}}want!",
      "EUes": "{{resetReaction}}De camino al pueblo me\nhe encontrado esto{{pause frames=\"5\"}}.{{pause frames=\"5\"}}.{{pause frames=\"5\"}}.\n\n{{reaction type=\"Thought\"}}Tiene un nombre o algo\nescrito,{{pause frames=\"5\"}} pero está\ndescolorido y no se ve bien.\n{{resetReaction}}Bueno. {{pause frames=\"5\"}}Puedes llevárselo a\nla persona que lo perdió o\npuedes quedártelo{{pause frames=\"5\"}}.{{pause frames=\"5\"}}.{{pause frames=\"5\"}}.\n{{reaction type=\"Joy\"}}¡Tú eliges!",
      "EUfr": "{{resetReaction}}Voh-{{pause frames=\"5\"}}voici un truc que j'ai\nramassé en chemin, en\nvenant ici, moh-mais{{pause frames=\"5\"}}.{{pause frames=\"5\"}}.{{pause frames=\"5\"}}.\n{{reaction type=\"Thought\"}}Joh-{{pause frames=\"5\"}}je crois qu'il y a un\nnom marqué dessus!{{pause frames=\"5\"}}\n\nC'est un poh-peu effacé,\nj'ai doh-du mal à lire.\n\n{{resetReaction}}Eh bien, {{pause frames=\"5\"}}tu poh-peux soit\nl'amener à son \npoh-propriétaire ou bien{{pause frames=\"5\"}}.{{pause frames=\"5\"}}.{{pause frames=\"5\"}}.\ngarder ça pour toi{{pause frames=\"5\"}}.{{pause frames=\"5\"}}.{{pause frames=\"5\"}}.{{pressButton}}\n{{reaction type=\"Joy\"}}Fais coh-{{pause frames=\"5\"}}comme tu veux!",
      "EUit": "{{resetReaction}}Qu-{{pause frames=\"5\"}}questa è una cosa che\nho raccolto venendo in\ncittà, m-ma{{pause frames=\"5\"}}.{{pause frames=\"5\"}}.{{pause frames=\"5\"}}.\n{{reaction type=\"Thought\"}}Pe-{{pause frames=\"5\"}}penso che ci sia un\nnome o qualcosa scritto\nsopra!{{pause frames=\"5\"}}\nÈ sbiadita perciò non riesco\na le-leggere.\n\n{{resetReaction}}Beh, {{pause frames=\"5\"}}puoi riportarla a\nchi l'ha p-persa o\na-anche{{pause frames=\"5\"}}.{{pause frames=\"5\"}}.{{pause frames=\"5\"}}.\n... tenerla per te{{pause frames=\"5\"}}.{{pause frames=\"5\"}}.{{pause frames=\"5\"}}.{{pressButton}}\n{{reaction type=\"Joy\"}}Fai come{{pause frames=\"5\"}} vuoi!",
      "JPja": "{{resetReaction}}この{{kanjiReplace charNum=\"1\" value=\"むら\"}}村に　{{kanjiReplace charNum=\"1\" value=\"く\"}}来る\nとちゅうで　ひろったモノで\nゴワスが{{pause frames=\"5\"}}・{{pause frames=\"5\"}}・{{pause frames=\"5\"}}・\n{{reaction type=\"Thought\"}}なんか　{{kanjiReplace charNum=\"2\" value=\"なまえ\"}}名前が\n{{kanjiReplace charNum=\"1\" value=\"か\"}}書いてるような\n{{kanjiReplace charNum=\"1\" value=\"か\"}}書いてないような{{pause frames=\"5\"}}・{{pause frames=\"5\"}}・{{pause frames=\"5\"}}・{{pause frames=\"5\"}}\n{{reaction type=\"Intense\"}}うすくなっていて\nよく　{{kanjiReplace charNum=\"1\" value=\"み\"}}見えないでゴワス！\n\n{{resetReaction}}まあ、{{pause frames=\"5\"}}{{kanjiReplace charNum=\"1\" value=\"お\"}}落とした{{kanjiReplace charNum=\"1\" value=\"ひと\"}}人に\nとどけてやるもよし、\n\n{{kanjiReplace charNum=\"2\" value=\"じぶん\"}}自分のモノに\nしちゃうのも　よし{{pause frames=\"5\"}}・{{pause frames=\"5\"}}・{{pause frames=\"5\"}}・{{pressButton}}\n{{reaction type=\"Joy\"}}{{kanjiReplace charNum=\"1\" value=\"す\"}}好きにしてくれで　ゴワス！",
      "KRko": "{{resetReaction}}이 마을에 오는\n도중에 주운 것인데유\n{{pause frames=\"5\"}}.{{pause frames=\"5\"}}.{{pause frames=\"5\"}}.\n{{reaction type=\"Thought\"}}무슨 이름이\n쓰여져 있는 것 같기도 하고\n아닌 것 같기도 하고{{pause frames=\"5\"}}.{{pause frames=\"5\"}}.{{pause frames=\"5\"}}.{{pause frames=\"5\"}}\n{{reaction type=\"Intense\"}}많이 바래서\n잘 안 보여유！\n\n{{resetReaction}}암튼， {{pause frames=\"5\"}}잃어 버린 사람에게\n갖다 줘도 되구유，\n\n그냥 가지셔두\n되구유{{pause frames=\"5\"}}.{{pause frames=\"5\"}}.{{pause frames=\"5\"}}.{{pressButton}}\n{{reaction type=\"Joy\"}}마음대로 하세유！",
      "USen": "{{resetReaction}}Thuh-{{pause frames=\"5\"}}this is something that\nI  picked up on my way to\nthis town, buh-but{{pause frames=\"5\"}}.{{pause frames=\"5\"}}.{{pause frames=\"5\"}}.\n{{reaction type=\"Thought\"}}I thuh-{{pause frames=\"5\"}}think there's a name\nor something written on it!{{pause frames=\"5\"}}\n\nIt's kind of fuh-faded so I\ncan't really tuh-tell.\n\n{{resetReaction}}Well, {{pause frames=\"5\"}}you can either take it\nto the puh-person who lost\nit or muh-maybe{{pause frames=\"5\"}}.{{pause frames=\"5\"}}.{{pause frames=\"5\"}}.\n...keep it for yourself{{pause frames=\"5\"}}.{{pause frames=\"5\"}}.{{pause frames=\"5\"}}.{{pressButton}}\n{{reaction type=\"Joy\"}}Do what you wuh-{{pause frames=\"5\"}}want!"
    }
  },
  {
    "label": "11",
    "attribute": "0x00000000FE000000",
    "locale": {
      "EUde": "{{reaction type=\"Amazed\"}}Ww-{{pause frames=\"5\"}}was ist das?{{pause frames=\"20\"}}\n{{reaction type=\"Worry\"}}Nn-{{pause frames=\"5\"}}nicht essbar!\n\n.{{pause frames=\"5\"}}.{{pause frames=\"5\"}}.{{pause frames=\"5\"}}Außerdem kann ich das\nnicht annehmen.{{pause frames=\"5\"}} Dd-du\nbrauchst das doch noch!{{pause frames=\"5\"}}\nIch kann das einfach nicht\nannehmen, also bb-bitte,\n{{pause frames=\"5\"}}nimm es zurück.",
      "EUen": "{{reaction type=\"Amazed\"}}Whuh-{{pause frames=\"5\"}}what's this?!{{pause frames=\"20\"}}\n{{reaction type=\"Worry\"}}Nuh-{{pause frames=\"5\"}}not edible!\n\n.{{pause frames=\"5\"}}.{{pause frames=\"5\"}}.{{pause frames=\"5\"}}Besides, I can't take\nthis.{{pause frames=\"5\"}} Yuh-you'd be lost\nwithout it!{{pause frames=\"5\"}}\nI can't accept it, so\npuh-please,{{pause frames=\"5\"}} take it back.",
      "EUes": "{{reaction type=\"Amazed\"}}¡¿Qué es esto?!{{pause frames=\"20\"}}\n{{reaction type=\"Worry\"}}¡No es comestible!\n\nMm.{{pause frames=\"5\"}}.{{pause frames=\"5\"}}.{{pause frames=\"5\"}} Además, no puedo\naceptarlo.{{pause frames=\"5\"}} ¿Qué harías tú\nsin ello?{{pause frames=\"5\"}} Toma, guárdalo.",
      "EUfr": "{{reaction type=\"Amazed\"}}Qoh-{{pause frames=\"5\"}}qu'est-ce que c'est?!{{pause frames=\"20\"}}\n{{reaction type=\"Worry\"}}Coh-{{pause frames=\"5\"}}c'est pas comestible!\n\nNon vraiment.{{pause frames=\"5\"}}.{{pause frames=\"5\"}}.{{pause frames=\"5\"}} je\nne peux pas.{{pause frames=\"5\"}} C'est toh-trop\nimportant pour toi!{{pause frames=\"5\"}}\nJe ne peux pas l'accepter,\ns'il te plaît,{{pause frames=\"5\"}} reprends ça.",
      "EUit": "{{reaction type=\"Amazed\"}}Co-{{pause frames=\"5\"}}cos'è questa cosa?!{{pause frames=\"20\"}}\n{{reaction type=\"Worry\"}}Non è{{pause frames=\"5\"}} c-commestibile!\n\n.{{pause frames=\"5\"}}.{{pause frames=\"5\"}}.{{pause frames=\"5\"}} E poi, non posso\nprenderla.{{pause frames=\"5\"}} S-senza, saresti\npers{{gender m=\"o\" f=\"a\"}}!{{pause frames=\"5\"}}\nNon posso accettarla, per\ncui, per f-favore,{{pause frames=\"5\"}}\nriprendila.",
      "JPja": "{{reaction type=\"Amazed\"}}な、{{pause frames=\"5\"}}な、{{pause frames=\"5\"}}なんでゴワス？{{pause frames=\"20\"}}\n{{reaction type=\"Worry\"}}これは、{{pause frames=\"5\"}}く、{{pause frames=\"5\"}}{{kanjiReplace charNum=\"1\" value=\"く\"}}食えんでゴワス！！\n\n・{{pause frames=\"5\"}}・{{pause frames=\"5\"}}・{{pause frames=\"5\"}}そ、{{pause frames=\"5\"}}それに\nこ、{{pause frames=\"5\"}}これを　もらってしまうと\nたぶん　こまると　{{kanjiReplace charNum=\"1\" value=\"おも\"}}思うでゴワス\nざんねんでゴワスが　これは\nか、{{pause frames=\"5\"}}{{kanjiReplace charNum=\"1\" value=\"かえ\"}}返すでゴワス",
      "KRko": "{{reaction type=\"Amazed\"}}뭐， {{pause frames=\"5\"}}뭐， {{pause frames=\"5\"}}뭔데유？{{pause frames=\"20\"}}\n{{reaction type=\"Worry\"}}이건 {{pause frames=\"5\"}}먹， {{pause frames=\"5\"}}먹을 수 없어유！！\n\n.{{pause frames=\"5\"}}.{{pause frames=\"5\"}}.{{pause frames=\"5\"}}게， {{pause frames=\"5\"}}게다가\n이， {{pause frames=\"5\"}}이걸 제가 받아 버리면\n아마 곤란해질 거예유\n죄송하지만 이건\n도， {{pause frames=\"5\"}}돌려 드릴게유",
      "USen": "{{reaction type=\"Amazed\"}}Whuh-{{pause frames=\"5\"}}what's this?!{{pause frames=\"20\"}}\n{{reaction type=\"Worry\"}}Nuh-{{pause frames=\"5\"}}not edible!\n\n.{{pause frames=\"5\"}}.{{pause frames=\"5\"}}.{{pause frames=\"5\"}}Besides, I can't take\nthis.{{pause frames=\"5\"}} Yuh-you'd be lost\nwithout it!{{pause frames=\"5\"}}\nI can't accept it, so\npuh-please,{{pause frames=\"5\"}} take it back."
    }
  },
  {
    "label": "12",
    "attribute": "0x00000000FE000000",
    "locale": {
      "EUde": "{{reaction type=\"Sighing\"}}Immer noch.{{pause frames=\"5\"}}.{{pause frames=\"5\"}}.{{pause frames=\"5\"}} am{{pause frames=\"5\"}}.{{pause frames=\"5\"}}.{{pause frames=\"5\"}}.\nVerhungern!{{pause frames=\"5\"}} Welt{{pause frames=\"5\"}}.{{pause frames=\"5\"}}.{{pause frames=\"5\"}}. dreht\nsich.{{pause frames=\"5\"}}.{{pause frames=\"5\"}}.{{pause frames=\"5\"}}\nVerliere{{pause frames=\"5\"}}.{{pause frames=\"5\"}}.{{pause frames=\"5\"}}. Gewicht{{pause frames=\"5\"}}.{{pause frames=\"5\"}}.{{pause frames=\"5\"}}.\nB-{{pause frames=\"5\"}}bauch{{pause frames=\"5\"}} {{color id=\"2\"}}schreit{{color id=\"0\"}} lauter{{pause frames=\"5\"}}\nals je zuvor.{{pause frames=\"5\"}}.{{pause frames=\"5\"}}.",
      "EUen": "{{reaction type=\"Sighing\"}}Still.{{pause frames=\"5\"}}.{{pause frames=\"5\"}}.{{pause frames=\"5\"}}so.{{pause frames=\"5\"}}.{{pause frames=\"5\"}}.{{pause frames=\"5\"}}famished!{{pause frames=\"5\"}}\nWorld{{pause frames=\"5\"}}.{{pause frames=\"5\"}}.{{pause frames=\"5\"}}.spinning.{{pause frames=\"5\"}}.{{pause frames=\"5\"}}.{{pause frames=\"5\"}}\nLosing{{pause frames=\"5\"}}.{{pause frames=\"5\"}}.{{pause frames=\"5\"}}.pounds{{pause frames=\"5\"}}.{{pause frames=\"5\"}}.{{pause frames=\"5\"}}.\nBuh-{{pause frames=\"5\"}}belly{{pause frames=\"5\"}} {{color id=\"2\"}}screaming{{color id=\"0\"}} louder{{pause frames=\"5\"}}\nthan ever.{{pause frames=\"5\"}}.{{pause frames=\"5\"}}.",
      "EUes": "{{reaction type=\"Sighing\"}}¡Sigo{{pause frames=\"5\"}}.{{pause frames=\"5\"}}.{{pause frames=\"5\"}}. famélico!{{pause frames=\"5\"}}\nTodo me da{{pause frames=\"5\"}}.{{pause frames=\"5\"}}.{{pause frames=\"5\"}}. vueltas{{pause frames=\"5\"}}.{{pause frames=\"5\"}}.{{pause frames=\"5\"}}.\nMe siento{{pause frames=\"5\"}}.{{pause frames=\"5\"}}.{{pause frames=\"5\"}}. débil{{pause frames=\"5\"}}.{{pause frames=\"5\"}}.{{pause frames=\"5\"}}.\nMe {{color id=\"2\"}}rugen{{color id=\"0\"}} las tripas{{pause frames=\"5\"}} más\nque nunca{{pause frames=\"5\"}}.{{pause frames=\"5\"}}.{{pause frames=\"5\"}}.",
      "EUfr": "{{reaction type=\"Sighing\"}}Toujours.{{pause frames=\"5\"}}.{{pause frames=\"5\"}}.{{pause frames=\"5\"}} aussi.{{pause frames=\"5\"}}.{{pause frames=\"5\"}}.{{pause frames=\"5\"}} affamé!{{pause frames=\"5\"}}\nLa tête{{pause frames=\"5\"}}.{{pause frames=\"5\"}}.{{pause frames=\"5\"}}. qui tourne.{{pause frames=\"5\"}}.{{pause frames=\"5\"}}.{{pause frames=\"5\"}}\nJe perds{{pause frames=\"5\"}}.{{pause frames=\"5\"}}.{{pause frames=\"5\"}}. du poids{{pause frames=\"5\"}}.{{pause frames=\"5\"}}.{{pause frames=\"5\"}}.\nL'estomac{{pause frames=\"5\"}} qui{{pause frames=\"5\"}} {{color id=\"2\"}}rugit{{color id=\"0\"}},{{pause frames=\"5\"}}\nplus fort qu'une cascade.{{pause frames=\"5\"}}.{{pause frames=\"5\"}}.",
      "EUit": "{{reaction type=\"Sighing\"}}Ancora.{{pause frames=\"5\"}}.{{pause frames=\"5\"}}.{{pause frames=\"5\"}} così.{{pause frames=\"5\"}}.{{pause frames=\"5\"}}.{{pause frames=\"5\"}} affamato!{{pause frames=\"5\"}}\nIl mondo{{pause frames=\"5\"}}.{{pause frames=\"5\"}}.{{pause frames=\"5\"}}. gira.{{pause frames=\"5\"}}.{{pause frames=\"5\"}}.{{pause frames=\"5\"}}\nPerdo{{pause frames=\"5\"}}.{{pause frames=\"5\"}}.{{pause frames=\"5\"}}. peso{{pause frames=\"5\"}}.{{pause frames=\"5\"}}.{{pause frames=\"5\"}}.\nLo{{pause frames=\"5\"}} s-stomaco{{pause frames=\"5\"}} {{color id=\"2\"}}urla{{color id=\"0\"}}{{pause frames=\"5\"}}\npiù che mai.{{pause frames=\"5\"}}.{{pause frames=\"5\"}}.",
      "JPja": "{{reaction type=\"Sighing\"}}け、{{pause frames=\"5\"}}けど　やっぱり\nはらは　へったまんま・{{pause frames=\"5\"}}・{{pause frames=\"5\"}}・{{pause frames=\"5\"}}\n\nま、ますます　おなかが\n{{color id=\"2\"}}きゅぅぅん{{color id=\"0\"}}と　せ、{{pause frames=\"5\"}}{{kanjiReplace charNum=\"1\" value=\"せつ\"}}切なくなって\nきたでゴワ・{{pause frames=\"5\"}}・{{pause frames=\"5\"}}・ス",
      "KRko": "{{reaction type=\"Sighing\"}}그， {{pause frames=\"5\"}}그래도 역시\n배는 계속 고프네유.{{pause frames=\"5\"}}.{{pause frames=\"5\"}}.{{pause frames=\"5\"}}\n\n더， 더더욱 배가\n{{color id=\"2\"}}찌잉{{color id=\"0\"}}하고 슬， {{pause frames=\"5\"}}슬퍼\n슬퍼져.{{pause frames=\"5\"}}.{{pause frames=\"5\"}}.유",
      "USen": "{{reaction type=\"Sighing\"}}Still.{{pause frames=\"5\"}}.{{pause frames=\"5\"}}.{{pause frames=\"5\"}}so.{{pause frames=\"5\"}}.{{pause frames=\"5\"}}.{{pause frames=\"5\"}}famished!{{pause frames=\"5\"}}\nWorld{{pause frames=\"5\"}}.{{pause frames=\"5\"}}.{{pause frames=\"5\"}}.spinning.{{pause frames=\"5\"}}.{{pause frames=\"5\"}}.{{pause frames=\"5\"}}\nLosing{{pause frames=\"5\"}}.{{pause frames=\"5\"}}.{{pause frames=\"5\"}}.pounds{{pause frames=\"5\"}}.{{pause frames=\"5\"}}.{{pause frames=\"5\"}}.\nBuh-{{pause frames=\"5\"}}belly{{pause frames=\"5\"}} {{color id=\"2\"}}screaming{{color id=\"0\"}} louder{{pause frames=\"5\"}}\nthan ever.{{pause frames=\"5\"}}.{{pause frames=\"5\"}}."
    }
  },
  {
    "label": "13",
    "attribute": "0x00000000FE000000",
    "locale": {
      "EUde": "{{reaction type=\"Amazed\"}}T-{{pause frames=\"5\"}}tatsächlich?\n\n\n{{reaction type=\"Happiness\"}}Nn-nun gut, {{pause frames=\"5\"}}in Ordnung.",
      "EUen": "{{reaction type=\"Amazed\"}}I-{{pause frames=\"5\"}}is that so?\n\n\n{{reaction type=\"Happiness\"}}Wuh-well, {{pause frames=\"5\"}}that's fine too.",
      "EUes": "{{reaction type=\"Amazed\"}}¿Estás segur{{gender m=\"o\" f=\"a\"}}?\n\n\n{{reaction type=\"Happiness\"}}Bueno, {{pause frames=\"5\"}}como quieras.",
      "EUfr": "{{reaction type=\"Amazed\"}}Voh-{{pause frames=\"5\"}}vraiment?\n\n\n{{reaction type=\"Happiness\"}}Boh-bon, {{pause frames=\"5\"}}ça me va.",
      "EUit": "{{reaction type=\"Amazed\"}}È{{pause frames=\"5\"}} c-così?\n\n\n{{reaction type=\"Happiness\"}}B-beh, {{pause frames=\"5\"}}va bene anche così.",
      "JPja": "{{reaction type=\"Amazed\"}}そ、{{pause frames=\"5\"}}そうでゴワスか{{pause frames=\"5\"}}・{{pause frames=\"5\"}}・{{pause frames=\"5\"}}・\n\n\n{{reaction type=\"Happiness\"}}まあ、{{pause frames=\"5\"}}それなら　それで\nかまわないでゴワス",
      "KRko": "{{reaction type=\"Amazed\"}}그， {{pause frames=\"5\"}}그런가유{{pause frames=\"5\"}}.{{pause frames=\"5\"}}.{{pause frames=\"5\"}}.\n\n\n{{reaction type=\"Happiness\"}}뭐， {{pause frames=\"5\"}}그럼\n상관없어유",
      "USen": "{{reaction type=\"Amazed\"}}I-{{pause frames=\"5\"}}is that so?\n\n\n{{reaction type=\"Happiness\"}}Wuh-well, {{pause frames=\"5\"}}that's fine too."
    }
  },
  {
    "label": "14",
    "attribute": "0x00000000FF000000",
    "locale": {
      "EUde": "{{reaction type=\"Happiness\"}}Dd-{{pause frames=\"5\"}}dann{{pause frames=\"5\"}} entscheide dich,\nwohin es s-soll.",
      "EUen": "{{reaction type=\"Happiness\"}}Wuh-{{pause frames=\"5\"}}well,{{pause frames=\"5\"}} please decide\nwhere to put it, thuh-then.",
      "EUes": "{{reaction type=\"Happiness\"}}Bien,{{pause frames=\"5\"}} decide dónde\nquieres ponerlo.",
      "EUfr": "{{reaction type=\"Happiness\"}}Ah-{{pause frames=\"5\"}}alors,{{pause frames=\"5\"}} choisis son\nemplacement.",
      "EUit": "{{reaction type=\"Happiness\"}}B-{{pause frames=\"5\"}}bene,{{pause frames=\"5\"}} decidi dove vuoi\nmettere questo motivo,\na-allora.",
      "JPja": "{{reaction type=\"Happiness\"}}じ、{{pause frames=\"5\"}}じゃあ、{{pause frames=\"5\"}}\nどこに　しまうか\n{{kanjiReplace charNum=\"1\" value=\"き\"}}決めてくれでゴワス",
      "KRko": "{{reaction type=\"Happiness\"}}그， {{pause frames=\"5\"}}그럼，{{pause frames=\"5\"}}\n어디에 넣을 건지\n정하세유",
      "USen": "{{reaction type=\"Happiness\"}}Wuh-{{pause frames=\"5\"}}well,{{pause frames=\"5\"}} please decide\nwhere to put it, thuh-then."
    }
  },
  {
    "label": "15",
    "attribute": "0x0000000004000000",
    "locale": {
      "EUde": "{{resetReaction}}.{{pause frames=\"5\"}}.{{pause frames=\"5\"}}.{{pause frames=\"5\"}}.{{pause frames=\"5\"}}.{{pause frames=\"5\"}}.{{pause frames=\"5\"}}.{{pause frames=\"5\"}}.{{pause frames=\"5\"}}.{{pause frames=\"5\"}}.",
      "EUen": "{{resetReaction}}.{{pause frames=\"5\"}}.{{pause frames=\"5\"}}.{{pause frames=\"5\"}}.{{pause frames=\"5\"}}.{{pause frames=\"5\"}}.",
      "EUes": "{{resetReaction}}Mm.{{pause frames=\"5\"}}.{{pause frames=\"5\"}}.{{pause frames=\"5\"}} Mm.{{pause frames=\"5\"}}.{{pause frames=\"5\"}}.{{pause frames=\"5\"}} Mm.{{pause frames=\"5\"}}.{{pause frames=\"5\"}}.",
      "EUfr": "{{resetReaction}}.{{pause frames=\"5\"}}.{{pause frames=\"5\"}}.{{pause frames=\"5\"}}.{{pause frames=\"5\"}}.{{pause frames=\"5\"}}.{{pause frames=\"5\"}}.{{pause frames=\"5\"}}.{{pause frames=\"5\"}}.{{pause frames=\"5\"}}.",
      "EUit": "{{resetReaction}}.{{pause frames=\"5\"}}.{{pause frames=\"5\"}}.{{pause frames=\"5\"}} .{{pause frames=\"5\"}}.{{pause frames=\"5\"}}. {{pause frames=\"5\"}}.{{pause frames=\"5\"}}.{{pause frames=\"5\"}}.{{pause frames=\"5\"}}",
      "JPja": "{{resetReaction}}・{{pause frames=\"5\"}}・{{pause frames=\"5\"}}・{{pause frames=\"5\"}}・{{pause frames=\"5\"}}・{{pause frames=\"5\"}}・{{pause frames=\"5\"}}・{{pause frames=\"5\"}}・{{pause frames=\"5\"}}・{{pause frames=\"5\"}}・",
      "KRko": "{{resetReaction}}.{{pause frames=\"5\"}}.{{pause frames=\"5\"}}.{{pause frames=\"5\"}}.{{pause frames=\"5\"}}.{{pause frames=\"5\"}}.{{pause frames=\"5\"}}.{{pause frames=\"5\"}}.{{pause frames=\"5\"}}.{{pause frames=\"5\"}}.",
      "USen": "{{resetReaction}}.{{pause frames=\"5\"}}.{{pause frames=\"5\"}}.{{pause frames=\"5\"}}.{{pause frames=\"5\"}}.{{pause frames=\"5\"}}."
    }
  }
]